REVNUM:,NSMA WG16.99.050
REVDAT:,19990520
ANTMAN:,CHINA SUN COMMUNICATION
MODNUM:,620FK
FILNUM:,01/02
DESCR1:,6.2M KU-BAND LINEAR TX/RX ANTENNA
DESCR2:,RX DATA 10950-12750 MHZ
DTDATA:,20100719
LOWFRQ:,10950
HGHFRQ:,12750
GUNITS:,DBI/DBR
MDGAIN:,56
AZWIDT:,0.32
ELWIDT:,0.24
ELTILT:,0
ANTLEN:,6.2
ANTWID:,6.2
ANTWGT:,5760
PATTYP:,typical
NOFREQ:,1
PATFRE:,12749.5
NUMCUT:,2
PATCUT:,AZ
POLARI:,V/V
NUPOIN:,14
FSTLST:,-0.65,+0.93
-0.65,-26,
-0.57,-19.5,
-0.42,-15,
-0.28,-10,
-0.2,-7.8,
-0.16,-3,
0,0,
0.12,-3,
0.22,-7.6,
0.26,-10,
0.47,-14.1,
0.61,-18.3,
0.79,-26,
0.93,-34,
PATCUT:,EL
POLARI:,V/V
NUPOIN:,13
FSTLST:,-0.73,+0.77
-0.73,-28,
-0.6,-22.7,
-0.49,-19,
-0.37,-15,
-0.26,-10,
-0.18,-3,
0,0,
0.12,-3,
0.17,-10,
0.37,-14.4,
0.47,-19.5,
0.61,-22,
0.77,-30,
ENDFIL:,EOF
