HATC
A07D06HS	
none	
none	
none	
20101219	
none	
7125-8500 MHZ	
31.1 dB	
4.7 Deg	
HH 57	
-180	-57
-95	-57
-70	-41
-65	-38
-60	-38
-50	-33
-35	-33
-30	-30
-20	-27
-15	-23
-12	-23
-10	-20
-9	-17
-5.5	-17
-4.53	-10.67
-4.17	-8.94
-3.87	-7.67
-3.53	-6.17
-3.2	-4.86
-2.91	-3.96
-2.54	-2.92
-2.24	-2.13
-1.87	-1.34
-1.53	-0.84
-1.16	-0.45
-0.88	-0.22
-0.6	-0.07
-0.24	-0.01
0	0
0.24	-0.01
0.6	-0.07
0.88	-0.22
1.16	-0.45
1.53	-0.84
1.87	-1.34
2.24	-2.13
2.54	-2.92
2.91	-3.96
3.2	-4.86
3.53	-6.17
3.87	-7.67
4.17	-8.94
4.53	-10.67
5.5	-17
9	-17
10	-20
12	-23
15	-23
20	-27
30	-30
35	-33
50	-33
60	-38
65	-38
70	-41
95	-57
180	-57
HV 25	
-180	-58
-85	-58
-80	-56
-65	-56
-50	-52
-45	-47
-30	-47
-20	-41
-11.3	-41
-7.5	-31
-3.7	-31
-2.5	-30
0	-30
2.5	-30
3.7	-31
7.5	-31
11.3	-41
20	-41
30	-47
45	-47
50	-52
65	-56
80	-56
85	-58
180	-58
VV 59	
-180	-57
-95	-57
-70	-37.5
-65	-36
-55	-36
-53	-33
-38	-29
-25	-29
-24	-26
-20	-24.2
-17.5	-23
-12	-22
-10	-17
-8.8	-16
-5.3	-16
-4.53	-10.67
-4.17	-8.94
-3.87	-7.67
-3.53	-6.17
-3.2	-4.86
-2.91	-3.96
-2.54	-2.92
-2.24	-2.13
-1.87	-1.34
-1.53	-0.84
-1.16	-0.45
-0.88	-0.22
-0.6	-0.07
-0.24	-0.01
0	0
0.24	-0.01
0.6	-0.07
0.88	-0.22
1.16	-0.45
1.53	-0.84
1.87	-1.34
2.24	-2.13
2.54	-2.92
2.91	-3.96
3.2	-4.86
3.53	-6.17
3.87	-7.67
4.17	-8.94
4.53	-10.67
5.3	-16
8.8	-16
10	-17
12	-22
17.5	-23
20	-24.2
24	-26
25	-29
38	-29
53	-33
55	-36
65	-36
70	-37.5
100	-57
180	-57
VH 25	
-180	-58
-85	-58
-50	-50
-40	-50
-30	-45
-13.5	-45
-13	-42
-10	-39
-6.2	-39
-5.2	-36
-4	-36
-1	-30
0	-30
1	-30
4	-36
5.2	-36
6.2	-39
10	-39
13	-42
13.5	-45
30	-45
40	-50
50	-50
85	-58
180	-58
