REVNUM:,NSMA WG16.99.050
REVDAT:,
ANTMAN:,Huawei
MODNUM:,A15S06HAC
PATNUM:,
FEDORN:,NA
DESCR1:,
DESCR2:,
DESCR3:,
DESCR4:,
DESCR5:,
DTDATA:,
LOWFRQ:,14400
HGHFRQ:,15350
GUNITS:,DBI/DBR
LWGAIN:,36.5
MDGAIN:,36.8
HGGAIN:,37.2
AZWIDT:,2.5
ELWIDT:,
ATVSWR:,
FRTOBA:,65
ELTILT:,
PATTYP:,ENVELOPE
NOFREQ:,NA
PATFRE:,NA
NUMCUT:,4
PATCUT:,AZ
POLARI:,H/H
NUPOIN:,41
-180.00,-65.00
-90.00,-65.00
-80.00,-55.00
-60.00,-42.00
-55.00,-42.00
-45.00,-39.00
-20.00,-39.00
-15.00,-34.00
-11.20,-33.00
-7.50,-28.00
-5.00,-20.00
-3.80,-20.00
-3.42,-16.65
-2.96,-12.95
-2.52,-9.78
-2.03,-6.47
-1.82,-5.26
-1.44,-3.04
-1.03,-1.18
-0.67,-0.35
0.00,0.00
0.67,-0.35
1.03,-1.18
1.44,-3.04
1.82,-5.26
2.03,-6.47
2.52,-9.78
2.96,-12.95
3.42,-16.65
3.80,-20.00
5.00,-20.00
7.50,-28.00
11.20,-33.00
15.00,-34.00
20.00,-39.00
45.00,-39.00
55.00,-42.00
60.00,-42.00
80.00,-55.00
90.00,-65.00
180.00,-65.00
PATCUT:,AZ
POLARI:,H/V
NUPOIN:,19
-180.00,-69.00
-85.00,-69.00
-50.00,-62.00
-16.00,-62.00
-10.00,-56.00
-7.50,-56.00
-6.30,-46.00
-3.50,-46.00
-1.00,-30.00
0.00,-30.00
1.00,-30.00
3.50,-46.00
6.30,-46.00
7.50,-56.00
10.00,-56.00
16.00,-62.00
50.00,-62.00
85.00,-69.00
180.00,-69.00
PATCUT:,AZ
POLARI:,V/V
NUPOIN:,43
-180.00,-65.00
-90.00,-65.00
-65.00,-45.00
-60.00,-43.00
-50.00,-40.00
-40.00,-38.00
-20.00,-37.00
-15.00,-32.00
-10.00,-30.00
-7.50,-27.00
-6.20,-26.00
-5.20,-20.00
-3.80,-20.00
-3.42,-16.65
-2.96,-12.95
-2.52,-9.78
-2.03,-6.47
-1.82,-5.26
-1.44,-3.04
-1.03,-1.18
-0.67,-0.35
0.00,0.00
0.67,-0.35
1.03,-1.18
1.44,-3.04
1.82,-5.26
2.03,-6.47
2.52,-9.78
2.96,-12.95
3.42,-16.65
3.80,-20.00
5.20,-20.00
6.20,-26.00
7.50,-27.00
10.00,-30.00
15.00,-32.00
20.00,-37.00
40.00,-38.00
50.00,-40.00
60.00,-43.00
65.00,-45.00
90.00,-65.00
180.00,-65.00
PATCUT:,AZ
POLARI:,V/H
NUPOIN:,15
-180.00,-69.00
-85.00,-69.00
-30.00,-63.00
-15.00,-63.00
-7.50,-49.00
-3.80,-49.00
-1.00,-30.00
0.00,-30.00
1.00,-30.00
3.80,-49.00
7.50,-49.00
15.00,-63.00
30.00,-63.00
85.00,-69.00
180.00,-69.00
ENDFIL:,EOF