NAME	BSA-1850120-10CF-2
MAKE	Amphenol Antel Inc.
FREQUENCY	1900
H_WIDTH	120
V_WIDTH	6
FRONT_TO_BACK	-20.7
GAIN	13 dBd
TILT	ELECTRICAL
COMMENT	None
HORIZONTAL	360
0	0.0
1	0.0
2	0.0
3	0.0
4	0.0
5	0.1
6	0.1
7	0.1
8	0.1
9	0.1
10	0.1
11	0.1
12	0.2
13	0.2
14	0.2
15	0.3
16	0.3
17	0.3
18	0.3
19	0.4
20	0.4
21	0.5
22	0.5
23	0.6
24	0.6
25	0.6
26	0.7
27	0.7
28	0.7
29	0.8
30	0.8
31	0.9
32	0.9
33	1.0
34	1.0
35	1.1
36	1.1
37	1.2
38	1.3
39	1.3
40	1.4
41	1.5
42	1.6
43	1.7
44	1.8
45	1.9
46	2.0
47	2.1
48	2.2
49	2.3
50	2.4
51	2.5
52	2.5
53	2.6
54	2.7
55	2.8
56	2.9
57	3.0
58	3.2
59	3.3
60	3.5
61	3.6
62	3.7
63	3.8
64	4.0
65	4.1
66	4.2
67	4.3
68	4.5
69	4.6
70	4.7
71	4.8
72	4.9
73	5.0
74	5.1
75	5.1
76	5.2
77	5.3
78	5.4
79	5.6
80	5.7
81	5.8
82	5.8
83	5.9
84	6.1
85	6.2
86	6.4
87	6.6
88	6.8
89	6.9
90	7.1
91	7.2
92	7.4
93	7.6
94	7.7
95	7.9
96	8.1
97	8.3
98	8.6
99	8.9
100	9.1
101	9.4
102	9.6
103	9.9
104	10.1
105	10.4
106	10.5
107	10.7
108	10.8
109	11.0
110	11.2
111	11.5
112	11.7
113	12.0
114	12.2
115	12.4
116	12.6
117	12.8
118	13.0
119	13.1
120	13.3
121	13.5
122	13.7
123	13.9
124	14.1
125	14.3
126	14.6
127	15.0
128	15.3
129	15.6
130	16.0
131	16.3
132	16.5
133	16.8
134	17.0
135	17.3
136	17.6
137	17.8
138	18.1
139	18.2
140	18.4
141	18.5
142	18.6
143	18.7
144	18.9
145	19.0
146	19.2
147	19.2
148	19.2
149	19.1
150	19.1
151	19.1
152	19.3
153	19.4
154	19.4
155	19.3
156	19.2
157	19.2
158	19.3
159	19.6
160	19.8
161	19.9
162	20.0
163	20.2
164	20.6
165	20.9
166	21.2
167	21.2
168	21.1
169	20.9
170	20.8
171	20.8
172	20.8
173	20.9
174	21.0
175	20.9
176	20.7
177	20.7
178	20.6
179	20.7
180	20.7
181	20.7
182	20.5
183	20.4
184	20.3
185	20.3
186	20.2
187	20.3
188	20.4
189	20.6
190	20.6
191	20.5
192	20.4
193	20.4
194	20.6
195	20.7
196	20.7
197	20.6
198	20.5
199	20.6
200	20.9
201	21.1
202	21.3
203	21.3
204	21.2
205	21.2
206	21.3
207	21.5
208	21.7
209	21.9
210	22.0
211	21.9
212	21.7
213	21.4
214	21.0
215	20.7
216	20.3
217	19.9
218	19.5
219	19.1
220	18.7
221	18.3
222	18.0
223	17.6
224	17.1
225	16.7
226	16.3
227	15.9
228	15.6
229	15.3
230	15.1
231	14.8
232	14.6
233	14.4
234	14.1
235	13.9
236	13.6
237	13.4
238	13.1
239	12.9
240	12.7
241	12.5
242	12.2
243	12.0
244	11.8
245	11.6
246	11.4
247	11.2
248	11.1
249	10.9
250	10.7
251	10.4
252	10.2
253	10.1
254	10.0
255	9.9
256	9.7
257	9.6
258	9.3
259	9.1
260	8.8
261	8.6
262	8.5
263	8.3
264	8.1
265	7.9
266	7.8
267	7.6
268	7.4
269	7.1
270	6.9
271	6.7
272	6.5
273	6.4
274	6.2
275	6.1
276	6.0
277	6.0
278	5.9
279	5.8
280	5.8
281	5.7
282	5.6
283	5.5
284	5.5
285	5.4
286	5.3
287	5.3
288	5.2
289	5.1
290	5.0
291	4.9
292	4.7
293	4.6
294	4.5
295	4.4
296	4.3
297	4.1
298	3.9
299	3.8
300	3.6
301	3.5
302	3.4
303	3.3
304	3.2
305	3.1
306	3.1
307	3.0
308	2.9
309	2.8
310	2.7
311	2.6
312	2.5
313	2.4
314	2.4
315	2.3
316	2.2
317	2.2
318	2.1
319	2.0
320	1.9
321	1.9
322	1.8
323	1.7
324	1.7
325	1.6
326	1.5
327	1.4
328	1.3
329	1.2
330	1.2
331	1.1
332	1.0
333	1.0
334	0.9
335	0.8
336	0.7
337	0.7
338	0.6
339	0.6
340	0.5
341	0.5
342	0.4
343	0.4
344	0.4
345	0.3
346	0.3
347	0.3
348	0.2
349	0.2
350	0.2
351	0.2
352	0.1
353	0.1
354	0.1
355	0.1
356	0.0
357	0.0
358	0.0
359	0.0
VERTICAL	360
0	0.9
1	0.3
2	0.0
3	0.0
4	0.9
5	2.3
6	4.6
7	8.1
8	13.8
9	17.8
10	30.4
11	12.9
12	11.3
13	11.2
14	12.1
15	14.1
16	17.6
17	19.7
18	25.0
19	21.4
20	19.6
21	18.7
22	18.7
23	18.8
24	18.6
25	17.4
26	16.8
27	16.7
28	17.2
29	17.8
30	18.9
31	23.9
32	28.1
33	31.3
34	31.8
35	29.7
36	28.1
37	28.3
38	29.6
39	29.9
40	29.0
41	27.9
42	26.4
43	25.7
44	25.4
45	24.4
46	25.5
47	25.7
48	26.4
49	28.1
50	28.2
51	28.3
52	28.3
53	26.2
54	25.5
55	24.8
56	24.4
57	23.8
58	23.9
59	24.2
60	24.6
61	25.5
62	26.5
63	27.3
64	28.3
65	28.7
66	30.1
67	31.0
68	31.1
69	31.6
70	31.5
71	32.0
72	31.1
73	31.5
74	31.4
75	30.6
76	30.6
77	30.5
78	30.6
79	29.5
80	30.2
81	30.5
82	30.1
83	30.1
84	30.2
85	29.0
86	29.0
87	29.0
88	28.4
89	28.7
90	27.9
91	28.7
92	28.2
93	29.1
94	29.5
95	31.0
96	31.0
97	32.3
98	32.9
99	33.7
100	34.4
101	35.6
102	35.5
103	39.1
104	40.0
105	40.0
106	40.0
107	38.4
108	38.4
109	37.1
110	36.2
111	35.3
112	36.1
113	35.4
114	36.9
115	38.7
116	39.9
117	40.0
118	39.1
119	37.7
120	37.7
121	34.8
122	34.6
123	35.2
124	34.7
125	36.3
126	38.1
127	40.0
128	40.0
129	40.0
130	40.0
131	36.4
132	34.5
133	33.9
134	33.6
135	33.5
136	34.8
137	37.0
138	40.0
139	40.0
140	40.0
141	40.0
142	40.0
143	40.0
144	40.0
145	40.0
146	40.0
147	40.0
148	40.0
149	40.0
150	40.0
151	40.0
152	40.0
153	40.0
154	40.0
155	40.0
156	40.0
157	40.0
158	39.8
159	37.8
160	36.9
161	39.0
162	39.8
163	40.0
164	40.0
165	40.0
166	40.0
167	36.8
168	40.0
169	40.0
170	37.2
171	33.2
172	31.7
173	32.8
174	34.8
175	34.0
176	32.1
177	31.0
178	30.1
179	30.9
180	34.4
181	40.0
182	40.0
183	36.2
184	35.4
185	33.7
186	33.7
187	40.0
188	36.6
189	31.6
190	30.3
191	31.4
192	34.2
193	40.0
194	40.0
195	34.2
196	32.4
197	32.9
198	32.7
199	39.4
200	39.4
201	34.5
202	32.6
203	32.8
204	36.2
205	40.0
206	40.0
207	35.4
208	34.4
209	31.2
210	32.2
211	34.7
212	39.6
213	40.0
214	40.0
215	32.8
216	31.5
217	31.0
218	32.1
219	34.4
220	38.4
221	40.0
222	40.0
223	40.0
224	39.0
225	37.6
226	40.0
227	40.0
228	40.0
229	40.0
230	40.0
231	40.0
232	39.4
233	37.1
234	38.1
235	36.0
236	36.6
237	36.0
238	35.3
239	34.2
240	33.4
241	32.0
242	31.0
243	31.0
244	30.9
245	31.6
246	31.2
247	32.2
248	33.8
249	34.5
250	36.2
251	38.4
252	40.0
253	40.0
254	39.7
255	38.6
256	34.5
257	33.7
258	32.2
259	31.3
260	31.5
261	30.9
262	30.6
263	30.0
264	30.6
265	29.7
266	30.3
267	30.2
268	29.3
269	29.4
270	29.4
271	29.1
272	28.4
273	28.2
274	27.6
275	27.1
276	26.4
277	26.2
278	25.7
279	25.2
280	25.0
281	24.5
282	24.2
283	24.1
284	24.6
285	24.6
286	25.2
287	25.5
288	27.4
289	27.4
290	30.6
291	33.7
292	37.4
293	40.0
294	35.4
295	30.6
296	28.9
297	25.1
298	23.6
299	22.4
300	21.9
301	21.5
302	21.3
303	21.2
304	21.3
305	21.2
306	21.1
307	20.5
308	20.0
309	19.2
310	18.9
311	18.5
312	18.4
313	18.3
314	18.5
315	18.9
316	19.4
317	19.6
318	19.9
319	19.4
320	18.7
321	17.9
322	17.0
323	16.3
324	16.3
325	15.8
326	16.4
327	17.4
328	17.4
329	23.2
330	29.5
331	30.7
332	30.7
333	21.3
334	19.4
335	19.2
336	19.5
337	21.8
338	25.5
339	33.9
340	32.5
341	26.8
342	23.3
343	21.6
344	20.8
345	20.6
346	21.0
347	21.8
348	24.0
349	27.0
350	27.7
351	23.9
352	22.2
353	23.1
354	27.4
355	21.1
356	13.5
357	8.6
358	5.1
359	2.8
