NAME CNNPX310M
MAKE ARGUS TECHNOLOGIES
FREQUENCY 2110.
H_WIDTH  64.1
V_WIDTH   6.6
FRONT_TO_BACK 30.8  
GAIN 18.2 dBi
TILT  0.0
HORIZONTAL   360
       0.0       0.0
       1.0       0.0
       2.0       0.0
       3.0       0.0
       4.0       0.0
       5.0       0.0
       6.0       0.0
       7.0       0.1
       8.0       0.1
       9.0       0.1
      10.0       0.2
      11.0       0.3
      12.0       0.3
      13.0       0.4
      14.0       0.5
      15.0       0.6
      16.0       0.7
      17.0       0.8
      18.0       0.9
      19.0       1.0
      20.0       1.1
      21.0       1.3
      22.0       1.4
      23.0       1.5
      24.0       1.7
      25.0       1.8
      26.0       1.9
      27.0       2.1
      28.0       2.3
      29.0       2.4
      30.0       2.6
      31.0       2.8
      32.0       3.0
      33.0       3.2
      34.0       3.4
      35.0       3.6
      36.0       3.8
      37.0       4.0
      38.0       4.2
      39.0       4.4
      40.0       4.6
      41.0       4.9
      42.0       5.1
      43.0       5.4
      44.0       5.6
      45.0       5.9
      46.0       6.2
      47.0       6.5
      48.0       6.8
      49.0       7.0
      50.0       7.3
      51.0       7.6
      52.0       7.9
      53.0       8.2
      54.0       8.5
      55.0       8.8
      56.0       9.1
      57.0       9.4
      58.0       9.7
      59.0      10.0
      60.0      10.3
      61.0      10.6
      62.0      10.8
      63.0      11.1
      64.0      11.4
      65.0      11.7
      66.0      12.0
      67.0      12.3
      68.0      12.6
      69.0      12.8
      70.0      13.1
      71.0      13.4
      72.0      13.7
      73.0      14.0
      74.0      14.4
      75.0      14.7
      76.0      15.1
      77.0      15.5
      78.0      16.0
      79.0      16.4
      80.0      16.9
      81.0      17.4
      82.0      17.8
      83.0      18.3
      84.0      18.8
      85.0      19.2
      86.0      19.6
      87.0      20.0
      88.0      20.3
      89.0      20.7
      90.0      21.0
      91.0      21.4
      92.0      21.8
      93.0      22.2
      94.0      22.6
      95.0      23.1
      96.0      23.7
      97.0      24.4
      98.0      25.2
      99.0      26.0
     100.0      26.8
     101.0      27.7
     102.0      28.5
     103.0      29.3
     104.0      30.0
     105.0      30.6
     106.0      31.2
     107.0      31.8
     108.0      32.4
     109.0      33.1
     110.0      33.8
     111.0      34.4
     112.0      34.9
     113.0      35.2
     114.0      35.4
     115.0      35.5
     116.0      35.6
     117.0      35.7
     118.0      36.0
     119.0      36.3
     120.0      36.7
     121.0      37.3
     122.0      37.9
     123.0      38.6
     124.0      39.3
     125.0      40.0
     126.0      40.6
     127.0      40.8
     128.0      40.6
     129.0      40.1
     130.0      39.5
     131.0      38.9
     132.0      38.3
     133.0      38.0
     134.0      37.9
     135.0      38.0
     136.0      38.3
     137.0      38.8
     138.0      39.5
     139.0      40.5
     140.0      41.7
     141.0      42.9
     142.0      43.6
     143.0      43.3
     144.0      41.9
     145.0      40.0
     146.0      38.1
     147.0      36.4
     148.0      35.0
     149.0      33.8
     150.0      32.9
     151.0      32.2
     152.0      31.7
     153.0      31.4
     154.0      31.3
     155.0      31.3
     156.0      31.4
     157.0      31.6
     158.0      31.8
     159.0      32.0
     160.0      32.2
     161.0      32.3
     162.0      32.4
     163.0      32.4
     164.0      32.3
     165.0      32.2
     166.0      32.0
     167.0      31.8
     168.0      31.4
     169.0      31.0
     170.0      30.7
     171.0      30.3
     172.0      30.0
     173.0      29.7
     174.0      29.5
     175.0      29.4
     176.0      29.4
     177.0      29.6
     178.0      29.9
     179.0      30.3
     180.0      30.9
     181.0      31.6
     182.0      32.4
     183.0      33.5
     184.0      34.8
     185.0      36.3
     186.0      38.2
     187.0      40.2
     188.0      42.3
     189.0      43.8
     190.0      44.0
     191.0      43.1
     192.0      41.6
     193.0      40.2
     194.0      39.1
     195.0      38.5
     196.0      38.3
     197.0      38.4
     198.0      38.7
     199.0      39.1
     200.0      39.1
     201.0      38.7
     202.0      37.8
     203.0      36.8
     204.0      35.9
     205.0      35.3
     206.0      35.2
     207.0      35.5
     208.0      36.2
     209.0      37.2
     210.0      38.3
     211.0      38.9
     212.0      38.8
     213.0      37.9
     214.0      36.7
     215.0      35.4
     216.0      34.4
     217.0      33.6
     218.0      33.0
     219.0      32.7
     220.0      32.7
     221.0      32.7
     222.0      32.9
     223.0      33.3
     224.0      33.9
     225.0      34.7
     226.0      35.8
     227.0      37.0
     228.0      38.2
     229.0      39.3
     230.0      39.7
     231.0      39.5
     232.0      38.7
     233.0      37.8
     234.0      36.9
     235.0      36.3
     236.0      35.9
     237.0      35.8
     238.0      35.8
     239.0      35.9
     240.0      36.1
     241.0      36.2
     242.0      36.3
     243.0      36.4
     244.0      36.7
     245.0      37.1
     246.0      37.6
     247.0      37.9
     248.0      37.9
     249.0      37.5
     250.0      36.8
     251.0      35.9
     252.0      35.1
     253.0      34.4
     254.0      33.7
     255.0      33.1
     256.0      32.3
     257.0      31.6
     258.0      30.8
     259.0      30.1
     260.0      29.5
     261.0      29.0
     262.0      28.7
     263.0      28.3
     264.0      27.9
     265.0      27.4
     266.0      26.8
     267.0      26.3
     268.0      25.8
     269.0      25.3
     270.0      24.8
     271.0      24.2
     272.0      23.5
     273.0      22.8
     274.0      22.2
     275.0      21.6
     276.0      21.1
     277.0      20.6
     278.0      20.1
     279.0      19.6
     280.0      19.3
     281.0      18.9
     282.0      18.5
     283.0      18.2
     284.0      17.8
     285.0      17.4
     286.0      16.9
     287.0      16.4
     288.0      15.9
     289.0      15.4
     290.0      14.8
     291.0      14.2
     292.0      13.7
     293.0      13.1
     294.0      12.6
     295.0      12.2
     296.0      11.7
     297.0      11.3
     298.0      10.9
     299.0      10.6
     300.0      10.2
     301.0       9.9
     302.0       9.5
     303.0       9.2
     304.0       8.9
     305.0       8.6
     306.0       8.3
     307.0       8.0
     308.0       7.7
     309.0       7.4
     310.0       7.2
     311.0       6.9
     312.0       6.6
     313.0       6.3
     314.0       6.0
     315.0       5.7
     316.0       5.5
     317.0       5.2
     318.0       5.0
     319.0       4.7
     320.0       4.5
     321.0       4.3
     322.0       4.1
     323.0       3.9
     324.0       3.7
     325.0       3.5
     326.0       3.3
     327.0       3.1
     328.0       3.0
     329.0       2.8
     330.0       2.6
     331.0       2.5
     332.0       2.3
     333.0       2.2
     334.0       2.0
     335.0       1.9
     336.0       1.7
     337.0       1.6
     338.0       1.5
     339.0       1.4
     340.0       1.3
     341.0       1.2
     342.0       1.1
     343.0       1.0
     344.0       0.9
     345.0       0.8
     346.0       0.8
     347.0       0.7
     348.0       0.6
     349.0       0.6
     350.0       0.5
     351.0       0.5
     352.0       0.4
     353.0       0.3
     354.0       0.3
     355.0       0.2
     356.0       0.2
     357.0       0.1
     358.0       0.1
     359.0       0.1
VERTICAL   360
       0.0       0.0
       1.0       0.2
       2.0       0.9
       3.0       2.2
       4.0       4.1
       5.0       6.6
       6.0       9.9
       7.0      14.5
       8.0      20.5
       9.0      22.6
      10.0      20.8
      11.0      20.1
      12.0      20.5
      13.0      21.1
      14.0      21.3
      15.0      21.1
      16.0      21.4
      17.0      22.6
      18.0      24.9
      19.0      29.2
      20.0      35.3
      21.0      33.5
      22.0      30.0
      23.0      28.9
      24.0      29.7
      25.0      32.5
      26.0      37.0
      27.0      36.6
      28.0      32.7
      29.0      30.6
      30.0      30.2
      31.0      31.2
      32.0      34.0
      33.0      38.7
      34.0      40.9
      35.0      36.4
      36.0      33.5
      37.0      32.4
      38.0      32.6
      39.0      34.2
      40.0      37.3
      41.0      42.1
      42.0      44.1
      43.0      40.0
      44.0      37.1
      45.0      35.8
      46.0      35.6
      47.0      36.5
      48.0      38.5
      49.0      41.4
      50.0      44.4
      51.0      45.0
      52.0      43.9
      53.0      42.3
      54.0      41.2
      55.0      40.8
      56.0      41.4
      57.0      42.6
      58.0      44.1
      59.0      45.0
      60.0      45.0
      61.0      45.0
      62.0      45.0
      63.0      45.0
      64.0      45.0
      65.0      45.0
      66.0      45.0
      67.0      45.0
      68.0      45.0
      69.0      45.0
      70.0      45.0
      71.0      45.0
      72.0      45.0
      73.0      45.0
      74.0      45.0
      75.0      45.0
      76.0      45.0
      77.0      45.0
      78.0      45.0
      79.0      45.0
      80.0      45.0
      81.0      45.0
      82.0      45.0
      83.0      45.0
      84.0      45.0
      85.0      45.0
      86.0      45.0
      87.0      45.0
      88.0      45.0
      89.0      45.0
      90.0      45.0
      91.0      45.0
      92.0      45.0
      93.0      45.0
      94.0      45.0
      95.0      45.0
      96.0      45.0
      97.0      45.0
      98.0      45.0
      99.0      45.0
     100.0      45.0
     101.0      45.0
     102.0      45.0
     103.0      45.0
     104.0      45.0
     105.0      45.0
     106.0      45.0
     107.0      45.0
     108.0      45.0
     109.0      45.0
     110.0      45.0
     111.0      45.0
     112.0      45.0
     113.0      45.0
     114.0      45.0
     115.0      45.0
     116.0      45.0
     117.0      45.0
     118.0      45.0
     119.0      45.0
     120.0      45.0
     121.0      45.0
     122.0      45.0
     123.0      45.0
     124.0      45.0
     125.0      45.0
     126.0      45.0
     127.0      45.0
     128.0      45.0
     129.0      45.0
     130.0      45.0
     131.0      45.0
     132.0      45.0
     133.0      45.0
     134.0      45.0
     135.0      45.0
     136.0      45.0
     137.0      45.0
     138.0      45.0
     139.0      45.0
     140.0      45.0
     141.0      45.0
     142.0      45.0
     143.0      45.0
     144.0      45.0
     145.0      45.0
     146.0      45.0
     147.0      45.0
     148.0      45.0
     149.0      45.0
     150.0      45.0
     151.0      45.0
     152.0      45.0
     153.0      45.0
     154.0      45.0
     155.0      45.0
     156.0      45.0
     157.0      45.0
     158.0      45.0
     159.0      45.0
     160.0      45.0
     161.0      45.0
     162.0      45.0
     163.0      45.0
     164.0      45.0
     165.0      45.0
     166.0      45.0
     167.0      45.0
     168.0      45.0
     169.0      45.0
     170.0      45.0
     171.0      45.0
     172.0      45.0
     173.0      43.9
     174.0      40.8
     175.0      37.6
     176.0      35.1
     177.0      33.2
     178.0      31.9
     179.0      31.2
     180.0      31.0
     181.0      31.3
     182.0      32.2
     183.0      33.7
     184.0      35.8
     185.0      38.6
     186.0      42.0
     187.0      44.8
     188.0      45.0
     189.0      45.0
     190.0      45.0
     191.0      45.0
     192.0      45.0
     193.0      45.0
     194.0      45.0
     195.0      45.0
     196.0      45.0
     197.0      45.0
     198.0      45.0
     199.0      45.0
     200.0      45.0
     201.0      45.0
     202.0      45.0
     203.0      45.0
     204.0      45.0
     205.0      45.0
     206.0      45.0
     207.0      45.0
     208.0      45.0
     209.0      45.0
     210.0      45.0
     211.0      45.0
     212.0      45.0
     213.0      45.0
     214.0      45.0
     215.0      45.0
     216.0      45.0
     217.0      45.0
     218.0      45.0
     219.0      45.0
     220.0      45.0
     221.0      45.0
     222.0      45.0
     223.0      45.0
     224.0      45.0
     225.0      45.0
     226.0      45.0
     227.0      45.0
     228.0      45.0
     229.0      45.0
     230.0      45.0
     231.0      45.0
     232.0      45.0
     233.0      45.0
     234.0      45.0
     235.0      45.0
     236.0      45.0
     237.0      45.0
     238.0      45.0
     239.0      45.0
     240.0      45.0
     241.0      45.0
     242.0      45.0
     243.0      45.0
     244.0      45.0
     245.0      45.0
     246.0      45.0
     247.0      45.0
     248.0      45.0
     249.0      45.0
     250.0      45.0
     251.0      45.0
     252.0      45.0
     253.0      45.0
     254.0      45.0
     255.0      45.0
     256.0      45.0
     257.0      45.0
     258.0      45.0
     259.0      45.0
     260.0      45.0
     261.0      45.0
     262.0      45.0
     263.0      45.0
     264.0      45.0
     265.0      45.0
     266.0      45.0
     267.0      45.0
     268.0      45.0
     269.0      45.0
     270.0      45.0
     271.0      45.0
     272.0      45.0
     273.0      45.0
     274.0      45.0
     275.0      45.0
     276.0      45.0
     277.0      45.0
     278.0      45.0
     279.0      45.0
     280.0      45.0
     281.0      45.0
     282.0      45.0
     283.0      45.0
     284.0      45.0
     285.0      45.0
     286.0      45.0
     287.0      45.0
     288.0      45.0
     289.0      45.0
     290.0      45.0
     291.0      45.0
     292.0      44.5
     293.0      43.5
     294.0      42.4
     295.0      41.6
     296.0      40.9
     297.0      40.5
     298.0      40.1
     299.0      39.7
     300.0      39.0
     301.0      38.1
     302.0      37.1
     303.0      36.0
     304.0      35.1
     305.0      34.6
     306.0      34.4
     307.0      34.8
     308.0      36.0
     309.0      38.1
     310.0      41.3
     311.0      44.8
     312.0      43.2
     313.0      39.3
     314.0      36.6
     315.0      35.3
     316.0      35.2
     317.0      36.4
     318.0      39.3
     319.0      43.6
     320.0      41.5
     321.0      36.7
     322.0      33.7
     323.0      32.3
     324.0      32.2
     325.0      33.5
     326.0      36.6
     327.0      40.8
     328.0      37.6
     329.0      33.2
     330.0      30.8
     331.0      29.9
     332.0      30.6
     333.0      33.0
     334.0      37.1
     335.0      36.4
     336.0      31.9
     337.0      29.2
     338.0      28.4
     339.0      29.3
     340.0      32.0
     341.0      35.3
     342.0      33.0
     343.0      29.5
     344.0      28.0
     345.0      28.4
     346.0      30.4
     347.0      32.3
     348.0      30.7
     349.0      29.0
     350.0      29.3
     351.0      40.2
     352.0      42.5
     353.0      17.9
     354.0      11.6
     355.0       7.6
     356.0       4.8
     357.0       2.7
     358.0       1.2
     359.0       0.3
