RFS 
DA 4 - 59B (P) 
4 ; Parabolic Antenna Single Polarization 
NONE 
NONE 
20030401  
FRT 030401a 
5925 - 6425 MHZ 
35.3 dBi 
2.8 Deg 
HH 81
-180.0  -58.00 
-105.0  -58.00 
 -85.0  -44.00 
 -80.0  -38.00 
 -70.0  -36.00 
 -55.0  -36.00 
 -35.0  -33.00 
 -25.0  -27.00 
 -14.0  -22.00 
 -10.0  -21.00 
  -8.0  -19.00 
  -6.5  -16.00 
  -4.5  -16.00 
  -2.8  -16.00 
  -2.7  -15.50 
  -2.6  -14.40 
  -2.5  -13.30 
  -2.4  -12.30 
  -2.3  -11.30 
  -2.2  -10.40 
  -2.1   -9.50 
  -2.0   -8.60 
  -1.9   -7.80 
  -1.8   -7.00 
  -1.7   -6.20 
  -1.6   -5.50 
  -1.5   -4.90 
  -1.4   -4.30 
  -1.3   -3.70 
  -1.2   -3.20 
  -1.1   -2.70 
  -1.0   -2.20 
  -0.9   -1.80 
  -0.8   -1.40 
  -0.7   -1.10 
  -0.6   -0.80 
  -0.5   -0.60 
  -0.4   -0.40 
  -0.3   -0.20 
  -0.2   -0.10 
   0.0    0.00 
   0.2   -0.10 
   0.3   -0.20 
   0.4   -0.40 
   0.5   -0.60 
   0.6   -0.80 
   0.7   -1.10 
   0.8   -1.40 
   0.9   -1.80 
   1.0   -2.20 
   1.1   -2.70 
   1.2   -3.20 
   1.3   -3.70 
   1.4   -4.30 
   1.5   -4.90 
   1.6   -5.50 
   1.7   -6.20 
   1.8   -7.00 
   1.9   -7.80 
   2.0   -8.60 
   2.1   -9.50 
   2.2  -10.40 
   2.3  -11.30 
   2.4  -12.30 
   2.5  -13.30 
   2.6  -14.40 
   2.7  -15.50 
   2.8  -16.00 
   4.5  -16.00 
   6.5  -16.00 
   8.0  -19.00 
  10.0  -21.00 
  14.0  -22.00 
  25.0  -27.00 
  35.0  -33.00 
  55.0  -36.00 
  70.0  -36.00 
  80.0  -38.00 
  85.0  -44.00 
 105.0  -58.00 
 180.0  -58.00 
HV 27
-180.0  -58.00 
-100.0  -58.00 
 -70.0  -47.00 
 -60.0  -47.00 
 -50.0  -46.00 
 -45.0  -44.00 
 -25.0  -42.00 
 -12.5  -41.00 
 -10.0  -36.00 
  -8.5  -36.00 
  -6.0  -34.00 
  -5.0  -34.00 
  -3.0  -30.00 
   0.0  -30.00 
   3.0  -30.00 
   5.0  -34.00 
   6.0  -34.00 
   8.5  -36.00 
  10.0  -36.00 
  12.5  -41.00 
  25.0  -42.00 
  45.0  -44.00 
  50.0  -46.00 
  60.0  -47.00 
  70.0  -47.00 
 100.0  -58.00 
 180.0  -58.00 
VV 81
-180.0  -58.00 
-105.0  -58.00 
 -85.0  -44.00 
 -80.0  -38.00 
 -70.0  -36.00 
 -55.0  -36.00 
 -35.0  -33.00 
 -25.0  -27.00 
 -14.0  -22.00 
 -10.0  -21.00 
  -8.0  -19.00 
  -6.5  -16.00 
  -4.5  -16.00 
  -2.8  -16.00 
  -2.7  -15.50 
  -2.6  -14.40 
  -2.5  -13.30 
  -2.4  -12.30 
  -2.3  -11.30 
  -2.2  -10.40 
  -2.1   -9.50 
  -2.0   -8.60 
  -1.9   -7.80 
  -1.8   -7.00 
  -1.7   -6.20 
  -1.6   -5.50 
  -1.5   -4.90 
  -1.4   -4.30 
  -1.3   -3.70 
  -1.2   -3.20 
  -1.1   -2.70 
  -1.0   -2.20 
  -0.9   -1.80 
  -0.8   -1.40 
  -0.7   -1.10 
  -0.6   -0.80 
  -0.5   -0.60 
  -0.4   -0.40 
  -0.3   -0.20 
  -0.2   -0.10 
   0.0    0.00 
   0.2   -0.10 
   0.3   -0.20 
   0.4   -0.40 
   0.5   -0.60 
   0.6   -0.80 
   0.7   -1.10 
   0.8   -1.40 
   0.9   -1.80 
   1.0   -2.20 
   1.1   -2.70 
   1.2   -3.20 
   1.3   -3.70 
   1.4   -4.30 
   1.5   -4.90 
   1.6   -5.50 
   1.7   -6.20 
   1.8   -7.00 
   1.9   -7.80 
   2.0   -8.60 
   2.1   -9.50 
   2.2  -10.40 
   2.3  -11.30 
   2.4  -12.30 
   2.5  -13.30 
   2.6  -14.40 
   2.7  -15.50 
   2.8  -16.00 
   4.5  -16.00 
   6.5  -16.00 
   8.0  -19.00 
  10.0  -21.00 
  14.0  -22.00 
  25.0  -27.00 
  35.0  -33.00 
  55.0  -36.00 
  70.0  -36.00 
  80.0  -38.00 
  85.0  -44.00 
 105.0  -58.00 
 180.0  -58.00 
VH 27
-180.0  -58.00 
-100.0  -58.00 
 -70.0  -47.00 
 -60.0  -47.00 
 -50.0  -46.00 
 -45.0  -44.00 
 -25.0  -42.00 
 -12.5  -41.00 
 -10.0  -36.00 
  -8.5  -36.00 
  -6.0  -34.00 
  -5.0  -34.00 
  -3.0  -30.00 
   0.0  -30.00 
   3.0  -30.00 
   5.0  -34.00 
   6.0  -34.00 
   8.5  -36.00 
  10.0  -36.00 
  12.5  -41.00 
  25.0  -42.00 
  45.0  -44.00 
  50.0  -46.00 
  60.0  -47.00 
  70.0  -47.00 
 100.0  -58.00 
 180.0  -58.00 
