RFS 
DA 4 - 77 A 
4 ; Parabolic antenna single polarization 
NONE 
NONE 
19981118 
HTT 950768a 
7725 - 8275 MHZ 
37.5 dBi 
2.1 Deg 
HH 93
-180.0  -63.00 
-100.0  -63.00 
 -85.0  -52.00 
 -65.0  -41.00 
 -45.0  -41.00 
 -40.0  -36.00 
 -30.0  -36.00 
 -25.0  -32.00 
 -13.0  -32.00 
 -12.0  -30.00 
  -8.5  -30.00 
  -7.5  -25.00 
  -5.0  -25.00 
  -4.0  -18.00 
  -3.2  -18.00 
  -3.1  -17.20 
  -3.0  -16.10 
  -2.9  -15.10 
  -2.8  -14.00 
  -2.7  -13.10 
  -2.6  -12.10 
  -2.5  -11.20 
  -2.4  -10.30 
  -2.3   -9.50 
  -2.2   -8.70 
  -2.1   -7.90 
  -2.0   -7.20 
  -1.9   -6.50 
  -1.8   -5.80 
  -1.7   -5.20 
  -1.6   -4.60 
  -1.5   -4.00 
  -1.4   -3.50 
  -1.3   -3.00 
  -1.2   -2.60 
  -1.1   -2.20 
  -1.0   -1.80 
  -0.9   -1.50 
  -0.8   -1.10 
  -0.7   -0.90 
  -0.6   -0.60 
  -0.5   -0.40 
  -0.4   -0.30 
  -0.3   -0.20 
  -0.2   -0.10 
  -0.1    0.00 
   0.0    0.00 
   0.1    0.00 
   0.2   -0.10 
   0.3   -0.20 
   0.4   -0.30 
   0.5   -0.40 
   0.6   -0.60 
   0.7   -0.90 
   0.8   -1.10 
   0.9   -1.50 
   1.0   -1.80 
   1.1   -2.20 
   1.2   -2.60 
   1.3   -3.00 
   1.4   -3.50 
   1.5   -4.00 
   1.6   -4.60 
   1.7   -5.20 
   1.8   -5.80 
   1.9   -6.50 
   2.0   -7.20 
   2.1   -7.90 
   2.2   -8.70 
   2.3   -9.50 
   2.4  -10.30 
   2.5  -11.20 
   2.6  -12.10 
   2.7  -13.10 
   2.8  -14.00 
   2.9  -15.10 
   3.0  -16.10 
   3.1  -17.20 
   3.2  -18.00 
   4.0  -18.00 
   5.0  -25.00 
   7.5  -25.00 
   8.5  -30.00 
  12.0  -30.00 
  13.0  -32.00 
  25.0  -32.00 
  30.0  -36.00 
  40.0  -36.00 
  45.0  -41.00 
  65.0  -41.00 
  85.0  -52.00 
 100.0  -63.00 
 180.0  -63.00 
HV 27
-180.0  -63.00 
-100.0  -63.00 
 -75.0  -53.00 
 -70.0  -53.00 
 -60.0  -49.00 
 -45.0  -49.00 
 -40.0  -47.00 
 -25.0  -47.00 
 -20.0  -44.00 
 -11.5  -44.00 
  -8.5  -41.00 
  -3.5  -41.00 
  -2.5  -30.00 
   0.0  -30.00 
   2.5  -30.00 
   3.5  -41.00 
   8.5  -41.00 
  11.5  -44.00 
  20.0  -44.00 
  25.0  -47.00 
  40.0  -47.00 
  45.0  -49.00 
  60.0  -49.00 
  70.0  -53.00 
  75.0  -53.00 
 100.0  -63.00 
 180.0  -63.00 
VV 101
-180.0  -63.00 
-100.0  -63.00 
 -95.0  -57.00 
 -85.0  -57.00 
 -75.0  -51.00 
 -65.0  -51.00 
 -60.0  -46.00 
 -45.0  -46.00 
 -30.0  -32.00 
 -25.0  -32.00 
 -20.0  -28.00 
  -8.5  -28.00 
  -7.0  -25.00 
  -4.5  -25.00 
  -4.0  -22.00 
  -3.5  -22.00 
  -3.4  -20.70 
  -3.3  -19.50 
  -3.2  -18.30 
  -3.1  -17.20 
  -3.0  -16.10 
  -2.9  -15.10 
  -2.8  -14.00 
  -2.7  -13.10 
  -2.6  -12.10 
  -2.5  -11.20 
  -2.4  -10.30 
  -2.3   -9.50 
  -2.2   -8.70 
  -2.1   -7.90 
  -2.0   -7.20 
  -1.9   -6.50 
  -1.8   -5.80 
  -1.7   -5.20 
  -1.6   -4.60 
  -1.5   -4.00 
  -1.4   -3.50 
  -1.3   -3.00 
  -1.2   -2.60 
  -1.1   -2.20 
  -1.0   -1.80 
  -0.9   -1.50 
  -0.8   -1.10 
  -0.7   -0.90 
  -0.6   -0.60 
  -0.5   -0.40 
  -0.4   -0.30 
  -0.3   -0.20 
  -0.2   -0.10 
  -0.1    0.00 
   0.0    0.00 
   0.1    0.00 
   0.2   -0.10 
   0.3   -0.20 
   0.4   -0.30 
   0.5   -0.40 
   0.6   -0.60 
   0.7   -0.90 
   0.8   -1.10 
   0.9   -1.50 
   1.0   -1.80 
   1.1   -2.20 
   1.2   -2.60 
   1.3   -3.00 
   1.4   -3.50 
   1.5   -4.00 
   1.6   -4.60 
   1.7   -5.20 
   1.8   -5.80 
   1.9   -6.50 
   2.0   -7.20 
   2.1   -7.90 
   2.2   -8.70 
   2.3   -9.50 
   2.4  -10.30 
   2.5  -11.20 
   2.6  -12.10 
   2.7  -13.10 
   2.8  -14.00 
   2.9  -15.10 
   3.0  -16.10 
   3.1  -17.20 
   3.2  -18.30 
   3.3  -19.50 
   3.4  -20.70 
   3.5  -22.00 
   4.0  -22.00 
   4.5  -25.00 
   7.0  -25.00 
   8.5  -28.00 
  20.0  -28.00 
  25.0  -32.00 
  30.0  -32.00 
  45.0  -46.00 
  60.0  -46.00 
  65.0  -51.00 
  75.0  -51.00 
  85.0  -57.00 
  95.0  -57.00 
 100.0  -63.00 
 180.0  -63.00 
VH 23
-180.0  -63.00 
-100.0  -63.00 
 -90.0  -57.00 
 -80.0  -57.00 
 -70.0  -52.00 
 -45.0  -52.00 
 -35.0  -46.00 
 -25.0  -46.00 
 -20.0  -43.00 
  -3.5  -43.00 
  -2.5  -30.00 
   0.0  -30.00 
   2.5  -30.00 
   3.5  -43.00 
  20.0  -43.00 
  25.0  -46.00 
  35.0  -46.00 
  45.0  -52.00 
  70.0  -52.00 
  80.0  -57.00 
  90.0  -57.00 
 100.0  -63.00 
 180.0  -63.00 
