RFS 
DA 4 - W71 A  (P) 
4 ; Parabolic antenna single polarisation                               
NONE 
NONE 
20030601 
HQM 010701a 
7125 - 8500 MHZ 
37.3 dBi 
2.2 Deg 
HH 95
-180.0  -62.00 
-105.0  -62.00 
 -85.0  -43.00 
 -80.0  -42.00 
 -70.0  -38.00 
 -50.0  -38.00 
 -45.0  -36.00 
 -35.0  -36.00 
 -25.0  -29.00 
 -20.0  -27.00 
 -13.5  -27.00 
 -12.0  -23.00 
  -9.5  -23.00 
  -8.5  -20.00 
  -6.0  -19.00 
  -5.0  -15.00 
  -3.1  -14.60 
  -3.0  -13.70 
  -2.9  -12.80 
  -2.8  -11.90 
  -2.7  -11.10 
  -2.6  -10.30 
  -2.5   -9.50 
  -2.4   -8.80 
  -2.3   -8.10 
  -2.2   -7.40 
  -2.1   -6.70 
  -2.0   -6.10 
  -1.9   -5.50 
  -1.8   -4.90 
  -1.7   -4.40 
  -1.6   -3.90 
  -1.5   -3.40 
  -1.4   -3.00 
  -1.3   -2.60 
  -1.2   -2.20 
  -1.1   -1.80 
  -1.0   -1.50 
  -0.9   -1.20 
  -0.8   -1.00 
  -0.7   -0.70 
  -0.6   -0.50 
  -0.5   -0.40 
  -0.4   -0.20 
  -0.3   -0.10 
  -0.2   -0.10 
  -0.1    0.00 
   0.0    0.00 
   0.1    0.00 
   0.2   -0.10 
   0.3   -0.10 
   0.4   -0.20 
   0.5   -0.40 
   0.6   -0.50 
   0.7   -0.70 
   0.8   -1.00 
   0.9   -1.20 
   1.0   -1.50 
   1.1   -1.80 
   1.2   -2.20 
   1.3   -2.60 
   1.4   -3.00 
   1.5   -3.40 
   1.6   -3.90 
   1.7   -4.40 
   1.8   -4.90 
   1.9   -5.50 
   2.0   -6.10 
   2.1   -6.70 
   2.2   -7.40 
   2.3   -8.10 
   2.4   -8.80 
   2.5   -9.50 
   2.6  -10.30 
   2.7  -11.10 
   2.8  -11.90 
   2.9  -12.80 
   3.0  -13.70 
   3.1  -14.60 
   5.0  -15.00 
   6.0  -19.00 
   8.5  -20.00 
   9.5  -23.00 
  12.0  -23.00 
  13.5  -27.00 
  20.0  -27.00 
  25.0  -29.00 
  35.0  -36.00 
  45.0  -36.00 
  50.0  -38.00 
  70.0  -38.00 
  80.0  -42.00 
  85.0  -43.00 
 105.0  -62.00 
 180.0  -62.00 
HV 23
-180.0  -62.00 
-100.0  -62.00 
 -70.0  -49.00 
 -55.0  -49.00 
 -45.0  -44.00 
 -25.0  -44.00 
 -20.0  -41.00 
 -12.0  -41.00 
 -10.5  -35.00 
  -5.5  -35.00 
  -2.5  -30.00 
   0.0  -30.00 
   2.5  -30.00 
   5.5  -35.00 
  10.5  -35.00 
  12.0  -41.00 
  20.0  -41.00 
  25.0  -44.00 
  45.0  -44.00 
  55.0  -49.00 
  70.0  -49.00 
 100.0  -62.00 
 180.0  -62.00 
VV 95
-180.0  -62.00 
-105.0  -62.00 
 -85.0  -43.00 
 -80.0  -42.00 
 -70.0  -38.00 
 -50.0  -38.00 
 -45.0  -36.00 
 -35.0  -36.00 
 -25.0  -29.00 
 -20.0  -27.00 
 -13.5  -27.00 
 -12.0  -23.00 
  -9.5  -23.00 
  -8.5  -20.00 
  -6.0  -19.00 
  -5.0  -15.00 
  -3.1  -14.60 
  -3.0  -13.70 
  -2.9  -12.80 
  -2.8  -11.90 
  -2.7  -11.10 
  -2.6  -10.30 
  -2.5   -9.50 
  -2.4   -8.80 
  -2.3   -8.10 
  -2.2   -7.40 
  -2.1   -6.70 
  -2.0   -6.10 
  -1.9   -5.50 
  -1.8   -4.90 
  -1.7   -4.40 
  -1.6   -3.90 
  -1.5   -3.40 
  -1.4   -3.00 
  -1.3   -2.60 
  -1.2   -2.20 
  -1.1   -1.80 
  -1.0   -1.50 
  -0.9   -1.20 
  -0.8   -1.00 
  -0.7   -0.70 
  -0.6   -0.50 
  -0.5   -0.40 
  -0.4   -0.20 
  -0.3   -0.10 
  -0.2   -0.10 
  -0.1    0.00 
   0.0    0.00 
   0.1    0.00 
   0.2   -0.10 
   0.3   -0.10 
   0.4   -0.20 
   0.5   -0.40 
   0.6   -0.50 
   0.7   -0.70 
   0.8   -1.00 
   0.9   -1.20 
   1.0   -1.50 
   1.1   -1.80 
   1.2   -2.20 
   1.3   -2.60 
   1.4   -3.00 
   1.5   -3.40 
   1.6   -3.90 
   1.7   -4.40 
   1.8   -4.90 
   1.9   -5.50 
   2.0   -6.10 
   2.1   -6.70 
   2.2   -7.40 
   2.3   -8.10 
   2.4   -8.80 
   2.5   -9.50 
   2.6  -10.30 
   2.7  -11.10 
   2.8  -11.90 
   2.9  -12.80 
   3.0  -13.70 
   3.1  -14.60 
   5.0  -15.00 
   6.0  -19.00 
   8.5  -20.00 
   9.5  -23.00 
  12.0  -23.00 
  13.5  -27.00 
  20.0  -27.00 
  25.0  -29.00 
  35.0  -36.00 
  45.0  -36.00 
  50.0  -38.00 
  70.0  -38.00 
  80.0  -42.00 
  85.0  -43.00 
 105.0  -62.00 
 180.0  -62.00 
VH 23
-180.0  -62.00 
-100.0  -62.00 
 -70.0  -49.00 
 -55.0  -49.00 
 -45.0  -44.00 
 -25.0  -44.00 
 -20.0  -41.00 
 -12.0  -41.00 
 -10.5  -35.00 
  -5.5  -35.00 
  -2.5  -30.00 
   0.0  -30.00 
   2.5  -30.00 
   5.5  -35.00 
  10.5  -35.00 
  12.0  -41.00 
  20.0  -41.00 
  25.0  -44.00 
  45.0  -44.00 
  55.0  -49.00 
  70.0  -49.00 
 100.0  -62.00 
 180.0  -62.00 
