RFS 
DAX 4 - W71 A (P) 
4 ; Parabolic antenna dual polarisation                               
NONE 
NONE 
20010801 
HQM 010809a 
7125 - 8500 MHZ 
36.9 dBi 
2.2 Deg 
HH 91
-180.0  -61.00 
-110.0  -61.00 
 -85.0  -43.00 
 -80.0  -42.00 
 -70.0  -38.00 
 -50.0  -38.00 
 -45.0  -36.00 
 -35.0  -36.00 
 -25.0  -29.00 
 -20.0  -27.00 
 -13.5  -27.00 
 -12.0  -23.00 
  -9.5  -23.00 
  -8.5  -20.00 
  -6.0  -19.00 
  -2.6  -15.00 
  -2.6  -14.50 
  -2.5  -14.00 
  -2.5  -13.50 
  -2.4  -13.00 
  -2.4  -12.50 
  -2.3  -12.00 
  -2.3  -11.50 
  -2.2  -11.00 
  -2.2  -10.50 
  -2.1  -10.00 
  -2.1   -9.50 
  -2.0   -9.00 
  -2.0   -8.50 
  -1.9   -8.00 
  -1.9   -7.50 
  -1.8   -7.00 
  -1.7   -6.50 
  -1.7   -6.00 
  -1.6   -5.50 
  -1.5   -5.00 
  -1.4   -4.50 
  -1.4   -4.00 
  -1.3   -3.50 
  -1.2   -3.00 
  -1.1   -2.50 
  -1.0   -2.00 
  -0.8   -1.50 
  -0.7   -1.00 
  -0.5   -0.50 
   0.0    0.00 
   0.5   -0.50 
   0.7   -1.00 
   0.8   -1.50 
   1.0   -2.00 
   1.1   -2.50 
   1.2   -3.00 
   1.3   -3.50 
   1.4   -4.00 
   1.4   -4.50 
   1.5   -5.00 
   1.6   -5.50 
   1.7   -6.00 
   1.7   -6.50 
   1.8   -7.00 
   1.9   -7.50 
   1.9   -8.00 
   2.0   -8.50 
   2.0   -9.00 
   2.1   -9.50 
   2.1  -10.00 
   2.2  -10.50 
   2.2  -11.00 
   2.3  -11.50 
   2.3  -12.00 
   2.4  -12.50 
   2.4  -13.00 
   2.5  -13.50 
   2.5  -14.00 
   2.6  -14.50 
   2.6  -15.00 
   6.0  -19.00 
   8.5  -20.00 
   9.5  -23.00 
  12.0  -23.00 
  13.5  -27.00 
  20.0  -27.00 
  25.0  -29.00 
  35.0  -36.00 
  45.0  -36.00 
  50.0  -38.00 
  70.0  -38.00 
  80.0  -42.00 
  85.0  -43.00 
 110.0  -61.00 
 180.0  -61.00 
HV 23
-180.0  -61.00 
-100.0  -61.00 
 -70.0  -49.00 
 -55.0  -49.00 
 -45.0  -44.00 
 -25.0  -44.00 
 -20.0  -41.00 
 -12.0  -41.00 
 -10.5  -35.00 
  -5.5  -35.00 
  -2.5  -30.00 
   0.0  -30.00 
   2.5  -30.00 
   5.5  -35.00 
  10.5  -35.00 
  12.0  -41.00 
  20.0  -41.00 
  25.0  -44.00 
  45.0  -44.00 
  55.0  -49.00 
  70.0  -49.00 
 100.0  -61.00 
 180.0  -61.00 
VV 91
-180.0  -61.00 
-110.0  -61.00 
 -85.0  -43.00 
 -80.0  -42.00 
 -70.0  -38.00 
 -50.0  -38.00 
 -45.0  -36.00 
 -35.0  -36.00 
 -25.0  -29.00 
 -20.0  -27.00 
 -13.5  -27.00 
 -12.0  -23.00 
  -9.5  -23.00 
  -8.5  -20.00 
  -6.0  -19.00 
  -2.6  -15.00 
  -2.6  -14.50 
  -2.5  -14.00 
  -2.5  -13.50 
  -2.4  -13.00 
  -2.4  -12.50 
  -2.3  -12.00 
  -2.3  -11.50 
  -2.2  -11.00 
  -2.2  -10.50 
  -2.1  -10.00 
  -2.1   -9.50 
  -2.0   -9.00 
  -2.0   -8.50 
  -1.9   -8.00 
  -1.9   -7.50 
  -1.8   -7.00 
  -1.7   -6.50 
  -1.7   -6.00 
  -1.6   -5.50 
  -1.5   -5.00 
  -1.4   -4.50 
  -1.4   -4.00 
  -1.3   -3.50 
  -1.2   -3.00 
  -1.1   -2.50 
  -1.0   -2.00 
  -0.8   -1.50 
  -0.7   -1.00 
  -0.5   -0.50 
   0.0    0.00 
   0.5   -0.50 
   0.7   -1.00 
   0.8   -1.50 
   1.0   -2.00 
   1.1   -2.50 
   1.2   -3.00 
   1.3   -3.50 
   1.4   -4.00 
   1.4   -4.50 
   1.5   -5.00 
   1.6   -5.50 
   1.7   -6.00 
   1.7   -6.50 
   1.8   -7.00 
   1.9   -7.50 
   1.9   -8.00 
   2.0   -8.50 
   2.0   -9.00 
   2.1   -9.50 
   2.1  -10.00 
   2.2  -10.50 
   2.2  -11.00 
   2.3  -11.50 
   2.3  -12.00 
   2.4  -12.50 
   2.4  -13.00 
   2.5  -13.50 
   2.5  -14.00 
   2.6  -14.50 
   2.6  -15.00 
   6.0  -19.00 
   8.5  -20.00 
   9.5  -23.00 
  12.0  -23.00 
  13.5  -27.00 
  20.0  -27.00 
  25.0  -29.00 
  35.0  -36.00 
  45.0  -36.00 
  50.0  -38.00 
  70.0  -38.00 
  80.0  -42.00 
  85.0  -43.00 
 110.0  -61.00 
 180.0  -61.00 
VH 23
-180.0  -61.00 
-100.0  -61.00 
 -70.0  -49.00 
 -55.0  -49.00 
 -45.0  -44.00 
 -25.0  -44.00 
 -20.0  -41.00 
 -12.0  -41.00 
 -10.5  -35.00 
  -5.5  -35.00 
  -2.5  -30.00 
   0.0  -30.00 
   2.5  -30.00 
   5.5  -35.00 
  10.5  -35.00 
  12.0  -41.00 
  20.0  -41.00 
  25.0  -44.00 
  45.0  -44.00 
  55.0  -49.00 
  70.0  -49.00 
 100.0  -61.00 
 180.0  -61.00 
