Andrew Corp
FP6F-15E                      
                              
NONE            
NONE            
 3-16-81         
6322             
1427-1535    MHZ   
26.20 dBi       
8.0 DEGREES     
HH      45
-180.0  -43.0
-110.0  -43.0
 -90.0  -36.0
 -70.0  -30.0
 -45.0  -26.0
 -30.0  -21.0
 -20.0  -21.0
 -20.0  -18.0
 -15.0  -16.0
 -10.0  -15.0
  -9.0  -11.9
  -8.0   -9.1
  -7.0   -6.9
  -6.0   -4.8
  -5.0   -3.2
  -4.0   -2.3
  -3.0   -1.4
  -2.5   -1.1
  -2.0   -0.9
  -1.5   -0.5
  -1.0   -0.2
  -0.5   -0.1
   0.0    0.0
   0.5   -0.1
   1.0   -0.2
   1.5   -0.5
   2.0   -0.9
   2.5   -1.1
   3.0   -1.4
   4.0   -2.3
   5.0   -3.2
   6.0   -4.8
   7.0   -6.9
   8.0   -9.1
   9.0  -11.9
  10.0  -15.0
  15.0  -16.0
  20.0  -18.0
  20.0  -21.0
  30.0  -21.0
  45.0  -26.0
  70.0  -30.0
  90.0  -36.0
 110.0  -43.0
 180.0  -43.0
HV      13
-180.0  -43.0
 -80.0  -43.0
 -70.0  -41.0
 -20.0  -41.0
 -15.0  -36.0
  -8.0  -30.0
   0.0  -30.0
   8.0  -30.0
  15.0  -36.0
  20.0  -41.0
  70.0  -41.0
  80.0  -43.0
 180.0  -43.0
VV      45
-180.0  -43.0
-110.0  -43.0
 -90.0  -36.0
 -70.0  -30.0
 -45.0  -26.0
 -30.0  -21.0
 -20.0  -21.0
 -20.0  -18.0
 -15.0  -16.0
 -10.0  -15.0
  -9.0  -11.9
  -8.0   -9.1
  -7.0   -6.9
  -6.0   -4.8
  -5.0   -3.2
  -4.0   -2.3
  -3.0   -1.4
  -2.5   -1.1
  -2.0   -0.9
  -1.5   -0.5
  -1.0   -0.2
  -0.5   -0.1
   0.0    0.0
   0.5   -0.1
   1.0   -0.2
   1.5   -0.5
   2.0   -0.9
   2.5   -1.1
   3.0   -1.4
   4.0   -2.3
   5.0   -3.2
   6.0   -4.8
   7.0   -6.9
   8.0   -9.1
   9.0  -11.9
  10.0  -15.0
  15.0  -16.0
  20.0  -18.0
  20.0  -21.0
  30.0  -21.0
  45.0  -26.0
  70.0  -30.0
  90.0  -36.0
 110.0  -43.0
 180.0  -43.0
VH      13
-180.0  -43.0
 -80.0  -43.0
 -70.0  -41.0
 -20.0  -41.0
 -15.0  -36.0
  -8.0  -30.0
   0.0  -30.0
   8.0  -30.0
  15.0  -36.0
  20.0  -41.0
  70.0  -41.0
  80.0  -43.0
 180.0  -43.0
