Polar Electronic Industries Pty Ltd
GK18-21
1.8 metre grid parabolic antenna
NONE
NONE
11/05/09
2100-2300 MHz
GK18-21
29.98 dBi
5.2 degrees
VV       25
-180.0   -35.0
-150.0   -35.0
-120.0   -28.0
-100.0   -28.0
-90.0    -33.0
-35.0    -28.0
-20.0    -24.5
-5.0     -11.5
-4.0     -6.8
-3.0     -3.5
-2.0     -1.5
-1.0     -0.3
0.0      -0.0
1.0      -0.3
2.0      -1.5
3.0      -3.5
4.0      -6.8
5.0      -11.5
20.0     -24.5
35.0     -28.0
90.0     -33.0
100.0    -28.0
120.0    -28.0
150.0    -35.0
180.0    -35.0
HV       5
-180.0   -35.0
-10.0    -32.0
0.0      -32.0
10.0     -32.0
180.0    -35.0
HH       27
-180.0   -35.0
-130.0   -35.0
-110.0   -30.0
-70.0    -30.0
-65.0    -33.0
-30.0    -33.0
-10.0    -18.0
-8.0     -18.0
-6.0     -17.5
-4.0     -7.5
-3.0     -3.8
-2.0     -1.5
-1.0     -0.3
0.0      0.0
1.0      -0.3
2.0      -1.5
3.0      -3.8
4.0      -7.5
6.0      -17.5
8.0      -18.0
10.0     -18.0
30.0     -33.0
65.0     -33.0
70.0     -30.0
110.0    -27.0
130.0    -30.0
180.0    -30.0
VH      5
-180.0    -35.0
-10.0    -32.0
0.0    -32.0
10.0    -32.0
180.0    -35.0
