RFS AUSTRALIA
GKA24-1721                    
GRID ANTENNA
NONE
NONE
01-03-95        
30242R015       
1700 - 2100 MHz 
31.0 dBi        
4.5 Deg           
HH      41
-180.0  -39.0
-120.0  -39.0
-100.0  -30.0
 -90.0  -30.0
 -80.0  -31.0
 -35.0  -31.0
 -15.0  -25.0
 -10.0  -20.0
  -5.0  -20.0
  -4.8  -17.5
  -4.5  -15.0
  -4.3  -12.5
  -4.0  -10.0
  -3.6   -7.5
  -3.3   -6.0
  -2.9   -4.5
  -2.5   -3.0
  -2.0   -2.0
  -1.5   -1.0
  -1.0   -0.5
   0.0    0.0
   1.0   -0.5
   1.5   -1.0
   2.0   -2.0
   2.5   -3.0
   2.9   -4.5
   3.3   -6.0
   3.6   -7.5
   4.0  -10.0
   4.3  -12.5
   4.5  -15.0
   4.8  -17.5
   5.0  -20.0
  10.0  -20.0
  15.0  -25.0
  35.0  -31.0
  80.0  -31.0
  90.0  -30.0
 100.0  -30.0
 120.0  -39.0
 180.0  -39.0
HV      05
-180.0  -43.0
 -15.0  -37.0
   0.0  -37.0
  15.0  -37.0
 180.0  -43.0
VV      43
-180.0  -39.0
-120.0  -39.0
-100.0  -30.0
 -90.0  -30.0
 -80.0  -32.0
 -40.0  -32.0
 -20.0  -31.0
 -15.0  -27.0
 -10.0  -19.0
  -5.0  -19.0
  -4.8  -17.5
  -4.6  -15.0
  -4.3  -12.5
  -4.0  -10.0
  -3.5   -7.5
  -3.3   -6.0
  -2.9   -4.5
  -2.5   -3.0
  -2.1   -2.0
  -1.5   -1.0
  -1.1   -0.5
   0.0    0.0
   1.1   -0.5
   1.5   -1.0
   2.1   -2.0
   2.5   -3.0
   2.9   -4.5
   3.3   -6.0
   3.5   -7.5
   4.0  -10.0
   4.3  -12.5
   4.6  -15.0
   4.8  -17.5
   5.0  -19.0
  10.0  -19.0
  15.0  -27.0
  20.0  -31.0
  40.0  -32.0
  80.0  -32.0
  90.0  -30.0
 100.0  -30.0
 120.0  -39.0
 180.0  -39.0
VH      05
-180.0  -43.0
 -15.0  -37.0
   0.0  -37.0
  15.0  -37.0
 180.0  -43.0
