RFS 
GKA 6 - 082N 
6 ; GRID ANTENNA 
NONE 
NONE 
20011029 
AUS 30243R005_i2 
820 - 960 MHZ 
21.9 dBi 
14.6 Deg 
HH 37
-180.0  -22.00 
-170.0  -22.00 
-165.0  -25.00 
 -35.0  -25.00 
 -30.0  -19.00 
 -15.0  -19.00 
 -14.6  -17.50 
 -13.9  -15.00 
 -13.1  -12.50 
 -12.2  -10.00 
 -11.1   -8.00 
  -9.8   -6.00 
  -9.1   -5.00 
  -7.3   -3.00 
  -6.1   -2.00 
  -4.6   -1.00 
  -3.4   -0.50 
  -2.5   -0.25 
   0.0    0.00 
   2.5   -0.25 
   3.4   -0.50 
   4.6   -1.00 
   6.1   -2.00 
   7.3   -3.00 
   9.1   -5.00 
   9.8   -6.00 
  11.1   -8.00 
  12.2  -10.00 
  13.1  -12.50 
  13.9  -15.00 
  14.6  -17.50 
  15.0  -19.00 
  30.0  -19.00 
  35.0  -25.00 
 165.0  -25.00 
 170.0  -22.00 
 180.0  -22.00 
HV 5
-180.0  -30.00 
 -15.0  -30.00 
   0.0  -29.00 
  15.0  -30.00 
 180.0  -30.00 
VV 31
-180.0  -22.00 
-120.0  -22.00 
-105.0  -21.00 
 -40.0  -21.00 
 -23.0  -15.00 
 -11.6  -15.00 
 -10.8  -12.50 
 -10.0  -10.00 
  -8.9   -7.50 
  -8.2   -6.00 
  -7.2   -4.50 
  -6.0   -3.00 
  -4.8   -2.00 
  -3.4   -1.00 
  -2.3   -0.50 
   0.0    0.00 
   2.3   -0.50 
   3.4   -1.00 
   4.8   -2.00 
   6.0   -3.00 
   7.2   -4.50 
   8.2   -6.00 
   8.9   -7.50 
  10.0  -10.00 
  10.8  -12.50 
  11.6  -15.00 
  23.0  -15.00 
  40.0  -21.00 
 105.0  -21.00 
 120.0  -22.00 
 180.0  -22.00 
VH 5
-180.0  -30.00 
 -15.0  -30.00 
   0.0  -28.00 
  15.0  -30.00 
 180.0  -30.00 
