Andrew Corp
GP10-15B                      
                              
NONE            
NONE            
 8- 4-92         
1346             
1427-1535    MHZ   
31.00 dBi       
4.7 DEGREES     
HH      27
-180.0  -34.0
-100.0  -34.0
-100.0  -28.0
 -20.0  -23.0
 -20.0  -20.0
 -15.0  -20.0
 -10.0  -20.0
  -5.0  -14.8
  -4.0   -9.8
  -3.0   -5.2
  -2.0   -2.2
  -1.0   -0.5
  -0.5   -0.1
   0.0    0.0
   0.5   -0.1
   1.0   -0.5
   2.0   -2.2
   3.0   -5.2
   4.0   -9.8
   5.0  -14.8
  10.0  -20.0
  15.0  -20.0
  20.0  -20.0
  20.0  -23.0
 100.0  -28.0
 100.0  -34.0
 180.0  -34.0
HV       9
-180.0  -38.0
 -15.0  -38.0
 -10.0  -38.0
 -10.0  -33.0
   0.0  -33.0
  10.0  -33.0
  10.0  -38.0
  15.0  -38.0
 180.0  -38.0
VV      25
-180.0  -36.0
-100.0  -36.0
 -20.0  -25.0
 -20.0  -20.0
 -15.0  -20.0
 -10.0  -20.0
  -5.0  -14.4
  -4.0   -9.3
  -3.0   -5.2
  -2.0   -2.2
  -1.0   -0.5
  -0.5   -0.1
   0.0    0.0
   0.5   -0.1
   1.0   -0.5
   2.0   -2.2
   3.0   -5.2
   4.0   -9.3
   5.0  -14.4
  10.0  -20.0
  15.0  -20.0
  20.0  -20.0
  20.0  -25.0
 100.0  -36.0
 180.0  -36.0
VH       9
-180.0  -38.0
 -15.0  -38.0
 -10.0  -38.0
 -10.0  -33.0
   0.0  -33.0
  10.0  -33.0
  10.0  -38.0
  15.0  -38.0
 180.0  -38.0
