Andrew Corp
GP15-15A                      
                              
NONE            
NONE            
 8- 4-92         
1350             
1427-1535    MHZ   
34.00 dBi       
3.2 DEGREES     
HH      27
-180.0  -43.0
-120.0  -43.0
-100.0  -32.0
 -30.0  -32.0
 -20.0  -30.0
 -15.0  -25.5
 -10.0  -21.0
  -5.0  -21.0
  -4.0  -21.0
  -3.0  -15.0
  -2.0   -5.6
  -1.0   -1.4
  -0.5   -0.4
   0.0    0.0
   0.5   -0.4
   1.0   -1.4
   2.0   -5.6
   3.0  -15.0
   4.0  -21.0
   5.0  -21.0
  10.0  -21.0
  15.0  -25.5
  20.0  -30.0
  30.0  -32.0
 100.0  -32.0
 120.0  -43.0
 180.0  -43.0
HV       9
-180.0  -40.0
 -60.0  -40.0
 -60.0  -33.0
 -15.0  -33.0
   0.0  -33.0
  15.0  -33.0
  60.0  -33.0
  60.0  -40.0
 180.0  -40.0
VV      25
-180.0  -41.0
-110.0  -41.0
-100.0  -35.0
 -30.0  -32.0
 -15.0  -28.0
 -15.0  -21.0
  -5.0  -21.0
  -4.0  -20.5
  -3.0  -13.0
  -2.0   -5.6
  -1.0   -1.4
  -0.5   -0.4
   0.0    0.0
   0.5   -0.4
   1.0   -1.4
   2.0   -5.6
   3.0  -13.0
   4.0  -20.5
   5.0  -21.0
  15.0  -21.0
  15.0  -28.0
  30.0  -32.0
 100.0  -35.0
 110.0  -41.0
 180.0  -41.0
VH       9
-180.0  -40.0
 -60.0  -40.0
 -60.0  -33.0
 -15.0  -33.0
   0.0  -33.0
  15.0  -33.0
  60.0  -33.0
  60.0  -40.0
 180.0  -40.0
