Andrew Corp
GPL8-21A                      
                              
A22267          
NONE            
 7-11-90         
1422             
2100-2200    MHZ   
32.20 dBi       
4.0 DEGREES     
HH      43
-180.0  -40.0
-130.5  -40.0
-125.0  -36.0
 -99.5  -33.3
 -95.0  -30.0
 -27.0  -30.0
 -15.0  -23.2
 -12.2  -21.2
  -8.0  -20.0
  -5.3  -18.9
  -5.0  -15.1
  -4.5  -12.4
  -4.0  -10.0
  -3.5   -7.8
  -3.0   -5.8
  -2.5   -4.1
  -2.0   -2.7
  -1.5   -1.3
  -1.3   -0.9
  -1.0   -0.4
  -0.5   -0.1
   0.0    0.0
   0.5   -0.1
   1.0   -0.4
   1.3   -0.9
   1.5   -1.3
   2.0   -2.7
   2.5   -4.1
   3.0   -5.8
   3.5   -7.8
   4.0  -10.0
   4.5  -12.4
   5.0  -15.1
   5.3  -18.9
   8.0  -20.0
  12.2  -21.2
  15.0  -23.2
  27.0  -30.0
  95.0  -30.0
  99.5  -33.3
 125.0  -36.0
 130.5  -40.0
 180.0  -40.0
HV      13
-180.0  -42.0
-110.0  -42.0
 -99.5  -39.1
 -29.5  -38.0
 -15.0  -35.8
  -6.0  -35.0
   0.0  -35.0
   6.0  -35.0
  15.0  -35.8
  29.5  -38.0
  99.5  -39.1
 110.0  -42.0
 180.0  -42.0
VV      53
-180.0  -41.0
-175.0  -41.0
-160.0  -39.0
-140.5  -39.0
-135.5  -38.0
-115.0  -38.0
-100.0  -34.0
 -91.0  -33.0
 -60.0  -33.0
 -50.0  -31.0
 -36.0  -30.0
 -23.0  -27.8
 -15.0  -27.0
  -7.4  -18.0
  -5.2  -18.0
  -5.0  -15.1
  -4.5  -12.4
  -4.0  -10.0
  -3.5   -7.8
  -3.0   -5.8
  -2.5   -4.1
  -2.0   -2.7
  -1.5   -1.3
  -1.3   -0.9
  -1.0   -0.4
  -0.5   -0.1
   0.0    0.0
   0.5   -0.1
   1.0   -0.4
   1.3   -0.9
   1.5   -1.3
   2.0   -2.7
   2.5   -4.1
   3.0   -5.8
   3.5   -7.8
   4.0  -10.0
   4.5  -12.4
   5.0  -15.1
   5.2  -18.0
   7.4  -18.0
  15.0  -27.0
  23.0  -27.8
  36.0  -30.0
  50.0  -31.0
  60.0  -33.0
  91.0  -33.0
 100.0  -34.0
 115.0  -38.0
 135.5  -38.0
 140.5  -39.0
 160.0  -39.0
 175.0  -41.0
 180.0  -41.0
VH      13
-180.0  -42.0
-110.0  -42.0
 -99.5  -39.1
 -29.5  -38.0
 -15.0  -35.8
  -6.0  -35.0
   0.0  -35.0
   6.0  -35.0
  15.0  -35.8
  29.5  -38.0
  99.5  -39.1
 110.0  -42.0
 180.0  -42.0
