Comhat AB
HAA3803
NONE
NONE
NONE
02.07.2002
1C18001
37000 - 39500
39.3
2.1
HH           65 
 -180.0   -60.3 
  -65.0   -60.3 
  -62.0   -58.3 
  -50.0   -58.3 
  -46.0   -54.3 
  -21.0   -49.3 
  -18.0   -42.3 
  -16.0   -42.3 
  -15.0   -37.3 
   -7.0   -34.3 
   -5.5   -28.3 
   -3.0   -21.3 
   -2.0   -18.6 
   -1.9   -16.1 
   -1.8   -13.9 
   -1.7   -12.0 
   -1.6   -10.3 
   -1.5    -8.9 
   -1.4    -7.6 
   -1.3    -6.4 
   -1.2    -5.3 
   -1.1    -4.4 
   -1.0    -3.6 
   -0.9    -2.8 
   -0.8    -2.2 
   -0.7    -1.6 
   -0.6    -1.2 
   -0.5    -0.8 
   -0.4    -0.5 
   -0.3    -0.2 
   -0.2    -0.1 
   -0.1     0.0 
    0.0    -0.0 
    0.1     0.0 
    0.2    -0.1 
    0.3    -0.2 
    0.4    -0.5 
    0.5    -0.8 
    0.6    -1.2 
    0.7    -1.6 
    0.8    -2.2 
    0.9    -2.8 
    1.0    -3.6 
    1.1    -4.4 
    1.2    -5.3 
    1.3    -6.4 
    1.4    -7.6 
    1.5    -8.9 
    1.6   -10.3 
    1.7   -12.0 
    1.8   -13.9 
    1.9   -16.1 
    2.0   -18.6 
    3.0   -21.3 
    5.5   -28.3 
    7.0   -34.3 
   15.0   -37.3 
   16.0   -42.3 
   18.0   -42.3 
   21.0   -49.3 
   46.0   -54.3 
   50.0   -58.3 
   62.0   -58.3 
   65.0   -60.3 
  180.0   -60.3 
HV           19 
 -180.0   -67.3 
  -70.0   -67.3 
  -60.0   -66.3 
  -51.0   -66.3 
  -30.0   -64.3 
  -10.0   -56.3 
   -6.0   -50.3 
   -4.0   -45.3 
   -2.0   -34.3 
    0.0   -34.3 
    2.0   -34.3 
    4.0   -45.3 
    6.0   -50.3 
   10.0   -56.3 
   30.0   -64.3 
   51.0   -66.3 
   60.0   -66.3 
   70.0   -67.3 
  180.0   -67.3 
VV           71 
 -180.0   -60.9 
  -66.0   -60.9 
  -61.0   -55.9 
  -56.0   -53.9 
  -55.0   -49.9 
  -50.0   -47.9 
  -37.0   -46.9 
  -18.0   -43.9 
  -14.6   -34.6 
  -10.0   -30.9 
   -5.0   -23.9 
   -2.4   -23.2 
   -2.3   -21.3 
   -2.2   -19.6 
   -2.1   -17.8 
   -2.0   -16.0 
   -1.9   -14.4 
   -1.8   -12.8 
   -1.7   -11.3 
   -1.6   -10.0 
   -1.5    -8.7 
   -1.4    -7.6 
   -1.3    -6.5 
   -1.2    -5.5 
   -1.1    -4.7 
   -1.0    -3.9 
   -0.9    -3.1 
   -0.8    -2.5 
   -0.7    -1.9 
   -0.6    -1.4 
   -0.5    -1.0 
   -0.4    -0.7 
   -0.3    -0.4 
   -0.2    -0.2 
   -0.1    -0.1 
    0.0     0.0 
    0.1    -0.1 
    0.2    -0.2 
    0.3    -0.4 
    0.4    -0.7 
    0.5    -1.0 
    0.6    -1.4 
    0.7    -1.9 
    0.8    -2.5 
    0.9    -3.1 
    1.0    -3.9 
    1.1    -4.7 
    1.2    -5.5 
    1.3    -6.5 
    1.4    -7.6 
    1.5    -8.7 
    1.6   -10.0 
    1.7   -11.3 
    1.8   -12.8 
    1.9   -14.4 
    2.0   -16.0 
    2.1   -17.8 
    2.2   -19.6 
    2.3   -21.3 
    2.4   -23.2 
    5.0   -23.9 
   10.0   -30.9 
   14.6   -34.6 
   18.0   -43.9 
   37.0   -46.9 
   50.0   -47.9 
   55.0   -49.9 
   56.0   -53.9 
   61.0   -55.9 
   66.0   -60.9 
  180.0   -60.9 
VH           19 
 -180.0   -65.9 
  -33.0   -65.9 
  -32.0   -61.9 
  -25.0   -59.9 
  -16.0   -59.9 
   -8.0   -54.9 
   -6.0   -44.9 
   -2.0   -35.9 
   -1.0   -32.9 
    0.0   -32.9 
    1.0   -32.9 
    2.0   -35.9 
    6.0   -44.9 
    8.0   -54.9 
   16.0   -59.9 
   25.0   -59.9 
   32.0   -61.9 
   33.0   -65.9 
  180.0   -65.9 
