GABRIEL ELECTRONICS, INC.     
HE2-220C                      
HIGH PERFORMANCE ANTENNA      
84914G          
NONE            
06/30/95         
4914            
21200-23600     
40.2            
1.6             
HH           49 
 -180.0   -63.3 
  -89.4   -63.3 
  -85.5   -58.2 
  -78.4   -58.2 
  -71.0   -51.4 
  -63.7   -51.3 
  -61.2   -48.1 
  -56.1   -48.1 
  -51.4   -43.2 
  -43.4   -43.2 
  -42.5   -42.3 
  -29.3   -42.2 
  -25.2   -36.4 
  -19.8   -36.4 
  -19.2   -33.4 
  -14.6   -33.4 
  -13.9   -30.4 
   -9.3   -30.3 
   -8.7   -28.9 
   -6.5   -28.9 
   -5.7   -25.3 
   -3.5   -25.3 
    -.8    -3.2 
    -.5     -.7 
    0.0     0.0 
     .5     -.7 
     .8    -3.2 
    3.5   -25.3 
    5.7   -25.3 
    6.5   -28.9 
    8.7   -28.9 
    9.3   -30.3 
   13.9   -30.4 
   14.6   -33.4 
   19.2   -33.4 
   19.8   -36.4 
   25.2   -36.4 
   29.3   -42.2 
   42.5   -42.3 
   43.4   -43.2 
   51.4   -43.2 
   56.1   -48.1 
   61.2   -48.1 
   63.7   -51.3 
   71.0   -51.4 
   78.4   -58.2 
   85.5   -58.2 
   89.4   -63.3 
  180.0   -63.3 
HV           17 
 -180.0   -66.4 
  -79.0   -66.4 
  -77.7   -64.8 
  -70.0   -64.7 
  -68.5   -60.7 
  -20.1   -45.4 
   -5.0   -45.3 
   -3.6   -32.0 
    0.0   -32.0 
    3.6   -32.0 
    5.0   -45.3 
   20.1   -45.4 
   68.5   -60.7 
   70.0   -64.7 
   77.7   -64.8 
   79.0   -66.4 
  180.0   -66.4 
VV           45 
 -180.0   -63.1 
  -80.3   -63.1 
  -76.7   -61.1 
  -72.2   -61.0 
  -67.0   -53.7 
  -60.8   -53.7 
  -55.1   -48.6 
  -41.1   -48.5 
  -39.1   -42.5 
  -29.5   -42.4 
  -27.5   -36.9 
  -14.6   -36.9 
  -14.0   -34.0 
  -11.6   -34.0 
  -10.7   -30.4 
   -5.9   -30.3 
   -4.3   -23.0 
   -3.3   -23.0 
   -2.7   -17.1 
   -2.0   -17.1 
   -1.0    -5.3 
    -.5    -1.0 
    0.0     0.0 
     .5    -1.0 
    1.0    -5.3 
    2.0   -17.1 
    2.7   -17.1 
    3.3   -23.0 
    4.3   -23.0 
    5.9   -30.3 
   10.7   -30.4 
   11.6   -34.0 
   14.0   -34.0 
   14.6   -36.9 
   27.5   -36.9 
   29.5   -42.4 
   39.1   -42.5 
   41.1   -48.5 
   55.1   -48.6 
   60.8   -53.7 
   67.0   -53.7 
   72.2   -61.0 
   76.7   -61.1 
   80.3   -63.1 
  180.0   -63.1 
VH           23 
 -180.0   -66.8 
  -89.5   -66.8 
  -76.6   -63.2 
  -71.4   -63.1 
  -60.4   -58.1 
  -58.2   -58.0 
  -32.5   -49.5 
  -21.4   -49.5 
  -18.7   -45.3 
   -5.0   -45.3 
   -3.9   -32.0 
    0.0   -32.0 
    3.9   -32.0 
    5.0   -45.3 
   18.7   -45.3 
   21.4   -49.5 
   32.5   -49.5 
   58.2   -58.0 
   60.4   -58.1 
   71.4   -63.1 
   76.6   -63.2 
   89.5   -66.8 
  180.0   -66.8 
ELHH         13 
   -5.0   -16.0 
   -3.1   -16.0 
   -2.6   -12.1 
   -2.0   -12.1 
    -.6    -1.5 
    -.5     -.6 
    0.0     0.0 
     .5     -.6 
     .6    -1.5 
    2.0   -12.1 
    2.6   -12.1 
    3.1   -16.0 
    5.0   -16.0 
ELHV          7 
   -5.0   -39.3 
   -2.1   -39.3 
   -1.7   -32.0 
    0.0   -32.0 
    1.7   -32.0 
    2.1   -39.3 
    5.0   -39.3 
ELVV          9 
   -5.0   -18.5 
   -3.2   -12.7 
   -2.2   -12.7 
    -.5     -.3 
    0.0     0.0 
     .5     -.3 
    2.2   -12.7 
    3.2   -12.7 
    5.0   -18.5 
ELVH          5 
   -5.0   -37.9 
   -4.2   -32.0 
    0.0   -32.0 
    4.2   -32.0 
    5.0   -37.9 
