Andrew Corp
HP10-21B                      
                              
A24206          
NONE            
 7-11-90         
1419             
2100-2200    MHZ   
34.10 dBi       
3.4 DEGREES     
HH      53
-180.0  -55.0
-170.0  -55.0
-170.0  -57.0
-113.1  -57.0
-110.0  -55.4
-100.0  -50.3
 -90.0  -46.5
 -80.0  -41.4
 -75.0  -39.6
 -70.0  -37.8
 -65.0  -34.0
 -60.0  -32.7
 -24.8  -32.7
 -20.0  -27.0
 -15.0  -27.0
 -13.0  -26.3
 -12.0  -21.4
  -5.7  -21.4
  -5.1  -21.0
  -4.4  -19.6
  -3.8  -15.6
  -3.2  -10.0
  -2.5   -5.8
  -1.9   -2.9
  -1.3   -0.9
  -0.6   -0.1
   0.0    0.0
   0.6   -0.1
   1.3   -0.9
   1.9   -2.9
   2.5   -5.8
   3.2  -10.0
   3.8  -15.6
   4.4  -19.6
   5.1  -21.0
   5.7  -21.4
  12.0  -21.4
  13.0  -26.3
  15.0  -27.0
  20.0  -27.0
  24.8  -32.7
  60.0  -32.7
  65.0  -34.0
  70.0  -37.8
  75.0  -39.6
  80.0  -41.4
  90.0  -46.5
 100.0  -50.3
 110.0  -55.4
 113.1  -57.0
 170.0  -57.0
 170.0  -55.0
 180.0  -55.0
HV      37
-180.0  -57.0
-170.0  -57.0
-170.0  -60.0
-100.0  -60.0
 -70.0  -57.5
 -65.0  -56.1
 -60.0  -53.3
 -28.5  -53.3
 -25.0  -52.5
 -20.0  -51.4
 -15.0  -49.9
 -14.0  -48.7
  -7.6  -48.7
  -7.0  -48.2
  -6.0  -47.4
  -5.0  -46.5
  -4.0  -43.2
  -3.0  -30.0
   0.0  -30.0
   3.0  -30.0
   4.0  -43.2
   5.0  -46.5
   6.0  -47.4
   7.0  -48.2
   7.6  -48.7
  14.0  -48.7
  15.0  -49.9
  20.0  -51.4
  25.0  -52.5
  28.5  -53.3
  60.0  -53.3
  65.0  -56.1
  70.0  -57.5
 100.0  -60.0
 170.0  -60.0
 170.0  -57.0
 180.0  -57.0
VV      67
-180.0  -55.0
-170.0  -55.0
-170.0  -59.0
-100.0  -59.0
 -89.7  -56.5
 -80.0  -52.3
 -75.0  -48.4
 -70.0  -46.0
 -65.0  -43.5
 -60.0  -41.7
 -50.0  -41.0
 -45.0  -40.3
 -40.0  -37.1
 -35.0  -33.9
 -30.0  -33.7
 -25.0  -33.5
 -20.0  -28.4
 -15.0  -28.0
 -14.0  -27.6
 -13.0  -26.2
 -12.0  -21.8
  -7.2  -21.8
  -6.9  -21.2
  -6.3  -20.0
  -5.7  -19.3
  -5.1  -18.6
  -4.4  -17.3
  -3.8  -14.2
  -3.2   -8.1
  -2.5   -5.3
  -1.9   -2.6
  -1.2   -0.7
  -0.6   -0.2
   0.0    0.0
   0.6   -0.2
   1.2   -0.7
   1.9   -2.6
   2.5   -5.3
   3.2   -8.1
   3.8  -14.2
   4.4  -17.3
   5.1  -18.6
   5.7  -19.3
   6.3  -20.0
   6.9  -21.2
   7.2  -21.8
  12.0  -21.8
  13.0  -26.2
  14.0  -27.6
  15.0  -28.0
  20.0  -28.4
  25.0  -33.5
  30.0  -33.7
  35.0  -33.9
  40.0  -37.1
  45.0  -40.3
  50.0  -41.0
  60.0  -41.7
  65.0  -43.5
  70.0  -46.0
  75.0  -48.4
  80.0  -52.3
  89.7  -56.5
 100.0  -59.0
 170.0  -59.0
 170.0  -55.0
 180.0  -55.0
VH      35
-180.0  -60.0
-100.0  -60.0
 -73.0  -57.5
 -70.0  -54.5
 -65.0  -53.6
 -60.0  -52.8
 -55.0  -52.1
 -50.0  -51.5
 -38.6  -51.5
 -35.0  -49.6
 -15.0  -49.9
 -14.0  -48.3
  -7.8  -48.3
  -7.0  -43.9
  -6.0  -41.7
  -4.0  -40.7
  -3.0  -30.0
   0.0  -30.0
   3.0  -30.0
   4.0  -40.7
   6.0  -41.7
   7.0  -43.9
   7.8  -48.3
  14.0  -48.3
  15.0  -49.9
  35.0  -49.6
  38.6  -51.5
  50.0  -51.5
  55.0  -52.1
  60.0  -52.8
  65.0  -53.6
  70.0  -54.5
  73.0  -57.5
 100.0  -60.0
 180.0  -60.0
