Andrew Corp
HP12F-21A                     
                              
A27182          
NONE            
 3-22-89         
1872             
2100-2200    MHZ   
35.60 dBi       
2.9 DEGREES     
HH      49
-180.0  -56.0
-170.0  -56.0
-170.0  -61.3
-110.0  -61.3
-100.0  -56.0
 -70.0  -35.6
 -23.9  -35.6
 -15.0  -27.2
 -10.4  -27.2
 -10.0  -24.8
  -5.7  -24.8
  -4.8  -22.3
  -4.1  -19.5
  -3.5  -19.5
  -3.1  -16.4
  -2.6  -11.2
  -2.3   -8.4
  -1.9   -5.7
  -1.5   -3.4
  -1.2   -2.2
  -0.9   -1.2
  -0.6   -0.5
  -0.3   -0.2
  -0.1   -0.1
   0.0    0.0
   0.1   -0.1
   0.3   -0.2
   0.6   -0.5
   0.9   -1.2
   1.2   -2.2
   1.5   -3.4
   1.9   -5.7
   2.3   -8.4
   2.6  -11.2
   3.1  -16.4
   3.5  -19.5
   4.1  -19.5
   4.8  -22.3
   5.7  -24.8
  10.0  -24.8
  10.4  -27.2
  15.0  -27.2
  23.9  -35.6
  70.0  -35.6
 100.0  -56.0
 110.0  -61.3
 170.0  -61.3
 170.0  -56.0
 180.0  -56.0
HV      21
-180.0  -62.0
-170.0  -62.0
-170.0  -66.3
-127.2  -66.3
-100.0  -60.9
 -77.6  -60.9
 -68.0  -51.6
  -7.4  -51.6
  -4.1  -38.5
  -3.5  -30.0
   0.0  -30.0
   3.5  -30.0
   4.1  -38.5
   7.4  -51.6
  68.0  -51.6
  77.6  -60.9
 100.0  -60.9
 127.2  -66.3
 170.0  -66.3
 170.0  -62.0
 180.0  -62.0
VV      49
-180.0  -56.0
-170.0  -56.0
-170.0  -63.1
-115.0  -63.1
-100.0  -60.0
 -70.0  -42.7
 -52.6  -42.7
 -35.0  -38.6
 -15.0  -27.2
 -10.6  -27.2
 -10.0  -23.5
  -6.5  -23.5
  -5.0  -20.5
  -3.2  -20.5
  -2.9  -16.4
  -2.6  -11.2
  -2.3   -8.4
  -1.9   -5.7
  -1.5   -3.4
  -1.2   -2.2
  -0.9   -1.2
  -0.6   -0.5
  -0.3   -0.2
  -0.1   -0.1
   0.0    0.0
   0.1   -0.1
   0.3   -0.2
   0.6   -0.5
   0.9   -1.2
   1.2   -2.2
   1.5   -3.4
   1.9   -5.7
   2.3   -8.4
   2.6  -11.2
   2.9  -16.4
   3.2  -20.5
   5.0  -20.5
   6.5  -23.5
  10.0  -23.5
  10.6  -27.2
  15.0  -27.2
  35.0  -38.6
  52.6  -42.7
  70.0  -42.7
 100.0  -60.0
 115.0  -63.1
 170.0  -63.1
 170.0  -56.0
 180.0  -56.0
VH      29
-180.0  -58.0
-170.0  -58.0
-170.0  -65.0
-100.0  -65.0
 -77.5  -63.0
 -65.0  -55.7
 -28.8  -55.7
 -20.0  -51.0
 -15.0  -51.0
 -13.0  -47.0
 -11.0  -47.0
 -10.0  -44.0
  -7.2  -44.0
  -4.0  -30.0
   0.0  -30.0
   4.0  -30.0
   7.2  -44.0
  10.0  -44.0
  11.0  -47.0
  13.0  -47.0
  15.0  -51.0
  20.0  -51.0
  28.8  -55.7
  65.0  -55.7
  77.5  -63.0
 100.0  -65.0
 170.0  -65.0
 170.0  -58.0
 180.0  -58.0
