REVNUM:,NSMA WG16.99.050
REVDAT:,19990520
ANTMAN:,RADIO WAVES INC.
MODNUM:,HP2-13
DESCR1:,2 FT LOW SIDELOBE ANTENNA
PATNUM:,6991
DTDATA:,20030331
LOWFRQ:,12700
HGHFRQ:,13250
GUNITS:,DBI/DBR
LWGAIN:,35.8
MDGAIN:,35.9
HGGAIN:,36.1
AZWIDT:,2.8
ELWIDT:,2.8
ELTILT:,0
ANTLEN:,0.6,
PATTYP:,ENVELOPE,
NOFREQ:,NA,
PATFRE:,NA,
NUMCUT:,4,
PATCUT:,AZ,
POLARI:,H/H,
NUPOIN:,27,
FSTLST:,-180,180
-180,-62,
-51,-62,
-30.5,-41,
-25,-39.4,
-21,-38,
-18,-35,
-13.5,-33,
-8.2,-26
-2.5,-15.5
-2,-4
-1.5,-1.4
-0.7,-1.1
-0.4,-0.5
0,0
0.4,-0.5
0.7,-1.1
1.5,-1.4
2,-4
2.5,-15.5
8.2,-26
13.5,-33
18,-35
21,-38
25,-39.4,
30.5,-41,
51,-62,
180,-62,
PATCUT:,AZ,
POLARI:,H/V,
NUPOIN:,11,
FSTLST:,-180,180
-180,-62,
-22,-62,
-8,-55.5,
-5,-51,
-2.2,-48,
0,-30, 
2.2,-48,
5,-51, 
8,-55.5,
22,-62,
180,-62,
PATCUT:,AZ,
POLARI:,V/V,
NUPOIN:,25,
FSTLST:,-180,180
-180,-62, 
-62,-62, 
-48,-41, 
-39,-41, 
-21.5,-38, 
-13,-33.5, 
-8.5,-32, 
-6,-23, 
-3.8,-16.5, 
-2,-5, 
-0.7,-1, 
-0.5,-0.5, 
0,0,
0.5,-0.5,
0.7,-1,
2,-5,
3.8,-16.5,
6,-23,
8.5,-32,
13,-33.5,
21.5,-38,
39,-41,
48,-41,
62,-62,
180,-62,
PATCUT:,AZ,
POLARI:,V/H,
NUPOIN:,11,
FSTLST:,-180,180
-180,-62, 
-28,-62, 
-18,-54, 
-8,-49.5, 
-4,-45, 
0,-30, 
4,-45, 
8,-49.5,
18,-54,
28,-62,
180,-62,
ENDFIL:,EOF,
