Andrew Corp
HP2-130                       
                              
NONE            
NONE            
11-15-91         
1247             
12750-13250  MHZ   
35.00 dBi       
2.8 DEGREES     
HH      47
-180.0  -61.0
-100.0  -61.0
 -80.0  -58.0
 -70.0  -47.0
 -37.0  -33.0
 -15.0  -28.0
  -9.0  -20.0
  -3.0  -16.0
  -2.5  -10.0
  -2.3   -8.3
  -2.2   -6.7
  -2.0   -5.4
  -1.8   -4.3
  -1.7   -3.3
  -1.5   -2.5
  -1.3   -1.8
  -1.2   -1.3
  -1.0   -0.8
  -0.8   -0.5
  -0.7   -0.3
  -0.5   -0.2
  -0.3   -0.1
  -0.2    0.0
   0.0    0.0
   0.2    0.0
   0.3   -0.1
   0.5   -0.2
   0.7   -0.3
   0.8   -0.5
   1.0   -0.8
   1.2   -1.3
   1.3   -1.8
   1.5   -2.5
   1.7   -3.3
   1.8   -4.3
   2.0   -5.4
   2.2   -6.7
   2.3   -8.3
   2.5  -10.0
   3.0  -16.0
   9.0  -20.0
  15.0  -28.0
  37.0  -33.0
  70.0  -47.0
  80.0  -58.0
 100.0  -61.0
 180.0  -61.0
HV      13
-180.0  -62.0
 -70.0  -62.0
 -44.0  -48.0
 -15.0  -43.0
  -7.0  -40.0
  -3.0  -28.0
   0.0  -28.0
   3.0  -28.0
   7.0  -40.0
  15.0  -43.0
  44.0  -48.0
  70.0  -62.0
 180.0  -62.0
VV      47
-180.0  -61.0
-100.0  -61.0
 -80.0  -58.0
 -70.0  -47.0
 -37.0  -33.0
 -15.0  -28.0
  -9.0  -20.0
  -3.0  -16.0
  -2.5  -10.0
  -2.3   -8.3
  -2.2   -6.7
  -2.0   -5.4
  -1.8   -4.3
  -1.7   -3.3
  -1.5   -2.5
  -1.3   -1.8
  -1.2   -1.3
  -1.0   -0.8
  -0.8   -0.5
  -0.7   -0.3
  -0.5   -0.2
  -0.3   -0.1
  -0.2    0.0
   0.0    0.0
   0.2    0.0
   0.3   -0.1
   0.5   -0.2
   0.7   -0.3
   0.8   -0.5
   1.0   -0.8
   1.2   -1.3
   1.3   -1.8
   1.5   -2.5
   1.7   -3.3
   1.8   -4.3
   2.0   -5.4
   2.2   -6.7
   2.3   -8.3
   2.5  -10.0
   3.0  -16.0
   9.0  -20.0
  15.0  -28.0
  37.0  -33.0
  70.0  -47.0
  80.0  -58.0
 100.0  -61.0
 180.0  -61.0
VV      13
-180.0  -62.0
 -70.0  -62.0
 -44.0  -48.0
 -15.0  -43.0
  -7.0  -40.0
  -3.0  -28.0
   0.0  -28.0
   3.0  -28.0
   7.0  -40.0
  15.0  -43.0
  44.0  -48.0
  70.0  -62.0
 180.0  -62.0
