REVNUM:,NSMA WG16.99.050
REVDAT:,19990520
ANTMAN:,RADIO WAVES INC.
MODNUM:,HP2-10
DESCR1:,2 FT LOW SIDELOBE ANTENNA
PATNUM:,9108
DTDATA:,20030221
LOWFRQ:,10500
HGHFRQ:,10700
GUNITS:,DBI/DBR
LWGAIN:,33.8
MDGAIN:,33.9
HGGAIN:,34
AZWIDT:,3.6
ELWIDT:,3.6
ELTILT:,0
ANTLEN:,0.6,
PATTYP:,ENVELOPE,
NOFREQ:,NA,
PATFRE:,NA,
NUMCUT:,4,
PATCUT:,AZ,
POLARI:,H/H,
NUPOIN:,29,
FSTLST:,-180,180
-180,-54,
-87,-54,
-72,-36,
-50,-33,
-39,-29,
-17,-24,
-9,-21,
-4,-11.5
-3,-9.34
-2.5,-6.49
-2,-4.15
-1.5,-2.34
-1,-1.04
-0.5,-0.26
0,0
0.5,-0.26
1,-1.04
1.5,-2.34
2,-4.15
2.5,-6.49
3,-9.34
4,-11.5
9,-21
17,-24,
39,-29,
50,-33,
72,-36,
87,-54,
180,-54,
PATCUT:,AZ,
POLARI:,H/V,
NUPOIN:,10,
FSTLST:,-180,180
-180,-56,
-94,-56,
-63,-48,
-8,-44,
-1,-30,
1,-30, 
8,-44,
63,-48, 
94,-56,
180,-56,
PATCUT:,AZ,
POLARI:,V/V,
NUPOIN:,33,
FSTLST:,-180,180
-180,-54, 
-85,-54, 
-79,-41, 
-66,-36.5, 
-53,-33, 
-24,-30, 
-16,-27, 
-11,-22, 
-6,-13, 
-3.5,-12.72, 
-3,-9.34, 
-2.5,-6.49, 
-2,-4.15,
-1.5,-2.34,
-1,-1.04,
-0.5,-0.26,
0,0,
0.5,-0.26,
1,-1.04,
1.5,-2.34,
2,-4.15,
2.5,-6.49,
3,-9.34,
3.5,-12.72,
6,-13,
11,-22,
16,-27,
24,-30,
53,-35,
66,-36.5,
79,-41,
85,-54,
180,-54,
PATCUT:,AZ,
POLARI:,V/H,
NUPOIN:,10,
FSTLST:,-180,180
-180,-56, 
-67,-56, 
-55,-48, 
-6,-46, 
-1,-30, 
1,-30, 
6,-46, 
55,-48,
67,-56,
180,-56,
ENDFIL:,EOF,
