ANDREW CORPORATION            
HP2-370                        
                              
93799A          
NONE            
 2-10-94         
3799              
37000-40000  MHZ   
44.30 dBi       
1.0 DEGREES     
HH      67
-180.0  -63.0
 -65.0  -63.0
 -60.0  -56.0
 -50.0  -45.0
 -40.0  -43.0
 -30.0  -42.0
 -29.0  -40.0
 -22.0  -40.0
 -18.0  -36.0
 -15.0  -36.0
 -10.0  -36.0
  -8.0  -34.0
  -6.0  -30.0
  -4.0  -30.0
  -3.0  -27.0
  -2.0  -24.0
  -1.4  -22.0
  -1.3  -19.0
  -0.9   -9.0
  -0.8   -7.8
  -0.8   -6.9
  -0.7   -6.0
  -0.6   -5.1
  -0.6   -4.2
  -0.5   -3.0
  -0.4   -2.4
  -0.4   -1.8
  -0.3   -1.5
  -0.3   -1.2
  -0.3   -0.9
  -0.2   -0.6
  -0.2   -0.3
   0.0   -0.1
   0.0    0.0
   0.0   -0.1
   0.2   -0.3
   0.2   -0.6
   0.3   -0.9
   0.3   -1.2
   0.3   -1.5
   0.4   -1.8
   0.4   -2.4
   0.5   -3.0
   0.6   -4.2
   0.6   -5.1
   0.7   -6.0
   0.8   -6.9
   0.8   -7.8
   0.9   -9.0
   1.3  -19.0
   1.4  -22.0
   2.0  -24.0
   3.0  -27.0
   4.0  -30.0
   6.0  -30.0
   8.0  -34.0
  10.0  -36.0
  15.0  -36.0
  18.0  -36.0
  22.0  -40.0
  29.0  -40.0
  30.0  -42.0
  40.0  -43.0
  50.0  -45.0
  60.0  -56.0
  65.0  -63.0
 180.0  -63.0
HV      23
-180.0  -65.0
 -60.0  -65.0
 -42.0  -64.0
 -38.0  -56.0
 -20.0  -56.0
 -16.0  -50.0
 -15.0  -50.0
 -10.0  -48.0
  -6.0  -42.0
  -2.0  -42.0
  -1.0  -32.0
   0.0  -32.0
   1.0  -32.0
   2.0  -42.0
   6.0  -42.0
  10.0  -48.0
  15.0  -50.0
  16.0  -50.0
  20.0  -56.0
  38.0  -56.0
  42.0  -64.0
  60.0  -65.0
 180.0  -65.0
VV      53
-180.0  -63.0
 -70.0  -63.0
 -65.0  -54.0
 -40.0  -51.0
 -20.0  -44.0
 -15.0  -40.0
 -10.0  -35.2
  -5.0  -28.3
  -4.0  -26.0
  -3.5  -22.0
  -1.7  -22.0
  -0.9   -9.0
  -0.8   -7.8
  -0.8   -6.9
  -0.7   -6.0
  -0.6   -5.1
  -0.6   -4.2
  -0.5   -3.0
  -0.4   -2.4
  -0.4   -1.8
  -0.3   -1.5
  -0.3   -1.2
  -0.3   -0.9
  -0.2   -0.6
  -0.2   -0.3
   0.0   -0.1
   0.0    0.0
   0.0   -0.1
   0.2   -0.3
   0.2   -0.6
   0.3   -0.9
   0.3   -1.2
   0.3   -1.5
   0.4   -1.8
   0.4   -2.4
   0.5   -3.0
   0.6   -4.2
   0.6   -5.1
   0.7   -6.0
   0.8   -6.9
   0.8   -7.8
   0.9   -9.0
   1.7  -22.0
   3.5  -22.0
   4.0  -26.0
   5.0  -28.3
  10.0  -35.2
  15.0  -40.0
  20.0  -44.0
  40.0  -51.0
  65.0  -54.0
  70.0  -63.0
 180.0  -63.0
VH      15
-180.0  -65.0
 -40.0  -65.0
 -20.0  -56.0
 -15.0  -53.0
  -7.7  -50.0
  -3.0  -47.0
  -1.0  -32.0
   0.0  -32.0
   1.0  -32.0
   3.0  -47.0
   7.7  -50.0
  15.0  -53.0
  20.0  -56.0
  40.0  -65.0
 180.0  -65.0