REVNUM:,NSMA WG16.99.050
REVDAT:,19990520
ANTMAN:,RADIO WAVES INC.
MODNUM:,HP6-13
DESCR1:,6 FT LOW SIDELOBE ANTENNA
PATNUM:,9500
DTDATA:,20030221
LOWFRQ:,12700
HGHFRQ:,13250
GUNITS:,DBI/DBR
LWGAIN:,44.3
MDGAIN:,44.4
HGGAIN:,44.6
AZWIDT:,0.9
ELWIDT:,0.9
ELTILT:,0
ANTLEN:,1.8
PATTYP:,ENVELOPE
NOFREQ:,NA
PATFRE:,NA
NUMCUT:,4
PATCUT:,AZ
POLARI:,H/H
NUPOIN:,55
FSTLST:,-180,180
-180,-70,
-120,-70,
-90,-70,
-80,-60,
-70,-52,
-60,-50,
-50,-47,
-40,-45,
-30,-43,
-20,-40,
-10,-38,
-8,-35,
-5,-32,
-4,-28,
-3,-25,
-1.5,-20,
-1,-15,
-0.5,-8,
-0.45,-3,
-0.4,-2.37,
-0.35,-1.81,
-0.3,-1.33,
-0.25,-0.93,
-0.2,-0.59,
-0.15,-0.33,
-0.1,-0.15,
-0.05,-0.04,
0,0,
0.05,-0.04,
0.1,-0.15,
0.15,-0.33, 
0.2,-0.59, 
0.25,-0.93, 
0.3,-1.33, 
0.35,-1.81, 
0.4,-2.37, 
0.45,-3, 
0.5,-8, 
1,-15, 
1.5,-20, 
3,-25,
4,-28, 
5,-32, 
8,-35, 
10,-38, 
20,-40, 
30,-43, 
40,-45, 
50,-47, 
60,-50, 
70,-52, 
80,-60, 
90,-70, 
120,-70, 
180,-70,
PATCUT:,AZ
POLARI:,H/V
NUPOIN:,25
FSTLST:,-180,180
-180,-70,
-90,-70,
-50,-65,
-40,-59.5,
-30,-59,
-20,-57, 
-15,-53,
-10,-50, 
-5,-46,
-4,-40,
-3,-36,
-1,-30,
0,-30, 
1,-30, 
3,-36, 
4,-40,
5,-46,
10,-50, 
15,-53,
20,-57,
30,-59, 
40,-59.5, 
50,-65, 
90,-70, 
180,-70, 
PATCUT:,AZ
POLARI:,V/V
NUPOIN:,55
FSTLST:,-180,180
-180,-70, 
-120,-70, 
-90,-70, 
-80,-60, 
-70,-53, 
-60,-50, 
-50,-50, 
-40,-45, 
-30,-43, 
-20,-41, 
-10,-35, 
-8,-34, 
-5,-33,
-4,-27,
-3,-23,
-1.5,-20,
-1,-14.81,
-0.5,-8,
-0.45,-3,
-0.4,-2.37,
-0.35,-1.81,
-0.3,-1.33,
-0.25,-0.93,
-0.2,-0.59,
-0.15,-0.33,
-0.1,-0.15,
-0.05,-0.04,
0,0,
0.05,-0.04,
0.1,-0.15,
0.15,-0.33,
0.2,-0.59,
0.25,-0.93,
0.3,-1.33,
0.35,-1.81,
0.4,-2.37,
0.45,-3,
0.5,-3.70, 
1,-14.81,
1.5,-20,
3,-23, 
4,-27, 
5,-33,
8,-34, 
10,-35, 
20,-41, 
30,-43, 
40,-45, 
50,-50, 
60,-50, 
70,-53, 
80,-60, 
90,-70, 
120,-70,
180,-70,
PATCUT:,AZ
POLARI:,V/H
NUPOIN:,25
FSTLST:,-180,180
-180,-70, 
-90,-70, 
-50,-65, 
-40,-60, 
-30,-58, 
-20,-57, 
-15,-54, 
-10,-50,
-5,-45,
-4,-40,
-3,-35,
-1,-30, 
0,-30, 
1,-30,
3,-35,
4,-40,
5,-45,
10,-50,
15,-54,
20,-57,
30,-58,
40,-60,
50,-65,
90,-70,
180,-70,
ENDFIL:,EOF
