Andrew Corp
HP6-21B                        
                              
A20606          
NONE            
 1- 0- 2         
1451              
2100-2200    MHZ   
29.70 dBi       
5.5 DEGREES     
VH      45
-180.0  -46.0
-100.0  -46.0
 -69.2  -32.9
 -59.2  -33.0
 -49.8  -29.0
 -30.0  -29.0
 -23.5  -25.1
 -20.0  -25.1
 -19.0  -22.6
 -15.0  -22.0
 -14.8  -22.0
 -14.8  -20.6
 -11.1  -18.0
 -10.0  -18.0
  -9.7  -16.0
  -5.0  -13.0
  -4.9   -9.8
  -4.4   -7.3
  -3.6   -4.8
  -3.0   -2.8
  -1.9   -0.8
  -0.8   -0.2
   0.0    0.0
   0.8   -0.2
   1.9   -0.8
   3.0   -2.8
   3.6   -4.8
   4.4   -7.3
   4.9   -9.8
   5.0  -13.0
   9.7  -16.0
  10.0  -18.0
  11.1  -18.0
  14.8  -20.6
  14.8  -22.0
  15.0  -22.0
  19.0  -22.6
  20.0  -25.1
  23.5  -25.1
  30.0  -29.0
  49.8  -29.0
  59.2  -33.0
  69.2  -32.9
 100.0  -46.0
 180.0  -46.0
VH      17
-180.0  -47.0
 -54.8  -47.0
 -40.8  -43.0
 -15.0  -43.0
 -14.8  -43.0
 -10.1  -42.0
  -7.2  -39.7
  -6.6  -30.0
   0.0  -30.0
   6.6  -30.0
   7.2  -39.7
  10.1  -42.0
  14.8  -43.0
  15.0  -43.0
  40.8  -43.0
  54.8  -47.0
 180.0  -47.0
VH      45
-180.0  -46.0
 -99.5  -46.0
 -55.3  -36.7
 -40.3  -29.0
 -30.9  -29.0
 -30.9  -26.1
 -26.9  -25.0
 -20.0  -25.0
 -19.8  -22.6
 -15.0  -22.0
 -14.5  -19.8
 -11.0  -19.7
 -10.5  -18.0
 -10.0  -18.0
  -9.6  -13.6
  -5.0  -13.0
  -4.9   -9.9
  -4.3   -6.9
  -3.5   -4.8
  -2.9   -2.8
  -1.8   -1.0
  -0.8   -0.2
   0.0    0.0
   0.8   -0.2
   1.8   -1.0
   2.9   -2.8
   3.5   -4.8
   4.3   -6.9
   4.9   -9.9
   5.0  -13.0
   9.6  -13.6
  10.0  -18.0
  10.5  -18.0
  11.0  -19.7
  14.5  -19.8
  15.0  -22.0
  19.8  -22.6
  20.0  -25.0
  26.9  -25.0
  30.9  -26.1
  30.9  -29.0
  40.3  -29.0
  55.3  -36.7
  99.5  -46.0
 180.0  -46.0
VH      15
-180.0  -47.0
 -53.8  -47.0
 -46.3  -44.8
 -24.9  -44.8
 -15.0  -42.8
 -10.0  -41.5
  -6.6  -30.0
   0.0  -30.0
   6.6  -30.0
  10.0  -41.5
  15.0  -42.8
  24.9  -44.8
  46.3  -44.8
  53.8  -47.0
 180.0  -47.0
