Andrew Corp
HP8-19E                       
                              
A22201          
NONE            
 7-10-90         
1406             
1900-2300    MHZ   
32.00 dBi       
4.1 DEGREES     
HH      57
-180.0  -50.0
-154.0  -50.0
-100.0  -50.0
-100.0  -47.0
 -75.5  -34.0
 -22.0  -34.0
 -19.5  -27.0
 -15.0  -27.0
 -14.6  -27.0
 -12.7  -23.0
  -8.1  -22.0
  -7.7  -20.5
  -5.2  -20.5
  -3.7   -9.8
  -3.4   -8.1
  -3.2   -6.6
  -2.9   -5.3
  -2.7   -4.2
  -2.5   -3.3
  -2.2   -2.5
  -2.0   -1.8
  -1.7   -1.3
  -1.5   -0.9
  -1.2   -0.5
  -1.0   -0.3
  -0.7   -0.2
  -0.5   -0.1
  -0.2    0.0
   0.0    0.0
   0.2    0.0
   0.5   -0.1
   0.7   -0.2
   1.0   -0.3
   1.2   -0.5
   1.5   -0.9
   1.7   -1.3
   2.0   -1.8
   2.2   -2.5
   2.5   -3.3
   2.7   -4.2
   2.9   -5.3
   3.2   -6.6
   3.4   -8.1
   3.7   -9.8
   5.2  -20.5
   7.7  -20.5
   8.1  -22.0
  12.7  -23.0
  14.6  -27.0
  15.0  -27.0
  19.5  -27.0
  22.0  -34.0
  75.5  -34.0
 100.0  -47.0
 100.0  -50.0
 154.0  -50.0
 180.0  -50.0
HV      13
-180.0  -50.0
-100.0  -50.0
 -75.5  -44.0
 -15.0  -44.0
 -10.0  -44.0
  -4.5  -30.0
   0.0  -30.0
   4.5  -30.0
  10.0  -44.0
  15.0  -44.0
  75.5  -44.0
 100.0  -50.0
 180.0  -50.0
VV      57
-180.0  -50.0
-154.0  -50.0
-100.0  -50.0
-100.0  -47.0
 -75.5  -34.0
 -22.0  -34.0
 -19.5  -27.0
 -15.0  -27.0
 -14.6  -27.0
 -12.7  -23.0
  -8.1  -22.0
  -7.7  -20.5
  -5.2  -20.5
  -3.7   -9.8
  -3.4   -8.1
  -3.2   -6.6
  -2.9   -5.3
  -2.7   -4.2
  -2.5   -3.3
  -2.2   -2.5
  -2.0   -1.8
  -1.7   -1.3
  -1.5   -0.9
  -1.2   -0.5
  -1.0   -0.3
  -0.7   -0.2
  -0.5   -0.1
  -0.2    0.0
   0.0    0.0
   0.2    0.0
   0.5   -0.1
   0.7   -0.2
   1.0   -0.3
   1.2   -0.5
   1.5   -0.9
   1.7   -1.3
   2.0   -1.8
   2.2   -2.5
   2.5   -3.3
   2.7   -4.2
   2.9   -5.3
   3.2   -6.6
   3.4   -8.1
   3.7   -9.8
   5.2  -20.5
   7.7  -20.5
   8.1  -22.0
  12.7  -23.0
  14.6  -27.0
  15.0  -27.0
  19.5  -27.0
  22.0  -34.0
  75.5  -34.0
 100.0  -47.0
 100.0  -50.0
 154.0  -50.0
 180.0  -50.0
VH      13
-180.0  -50.0
-100.0  -50.0
 -75.5  -44.0
 -15.0  -44.0
 -10.0  -44.0
  -4.5  -30.0
   0.0  -30.0
   4.5  -30.0
  10.0  -44.0
  15.0  -44.0
  75.5  -44.0
 100.0  -50.0
 180.0  -50.0
