Andrew Corp
HP8-74G                       
                              
NONE            
NONE            
 4-22-87         
3694             
7425-7900    MHZ   
42.80 dBi       
1.2 DEGREES     
HH      39
-180.0  -71.0
-100.0  -71.0
 -90.0  -68.0
 -65.0  -49.0
 -55.0  -49.0
 -45.0  -46.0
 -35.0  -46.0
 -20.0  -40.0
 -14.0  -40.0
 -12.0  -38.0
 -10.0  -38.0
  -7.0  -32.0
  -6.0  -28.0
  -5.0  -28.0
  -4.0  -24.0
  -2.0  -24.0
  -1.5  -10.3
  -1.0   -5.0
  -0.5   -1.0
   0.0    0.0
   0.5   -1.0
   1.0   -5.0
   1.5  -10.3
   2.0  -24.0
   4.0  -24.0
   5.0  -28.0
   6.0  -28.0
   7.0  -32.0
  10.0  -38.0
  12.0  -38.0
  14.0  -40.0
  20.0  -40.0
  35.0  -46.0
  45.0  -46.0
  55.0  -49.0
  65.0  -49.0
  90.0  -68.0
 100.0  -71.0
 180.0  -71.0
HV      29
-180.0  -71.8
 -80.0  -71.9
 -70.0  -70.0
 -60.0  -65.0
 -45.0  -60.0
 -40.0  -57.0
 -35.0  -57.0
 -20.0  -54.0
 -14.0  -52.0
 -13.0  -51.0
 -11.0  -51.0
 -10.1  -49.8
  -4.0  -38.9
  -1.0  -32.0
   0.0  -32.0
   1.0  -32.0
   4.0  -38.9
  10.1  -49.8
  11.0  -51.0
  13.0  -51.0
  14.0  -52.0
  20.0  -54.0
  35.0  -57.0
  40.0  -57.0
  45.0  -60.0
  60.0  -65.0
  70.0  -70.0
  80.0  -71.9
 180.0  -71.8
VV      37
-180.0  -69.9
 -90.0  -69.9
 -85.0  -66.0
 -70.0  -64.0
 -65.0  -55.0
 -55.0  -51.9
 -50.0  -51.9
 -30.0  -46.0
 -15.0  -40.0
 -13.0  -40.0
 -10.0  -36.9
  -8.5  -36.9
  -4.0  -30.0
  -3.0  -24.0
  -2.0  -24.0
  -1.5  -10.3
  -1.0   -5.0
  -0.5   -1.0
   0.0    0.0
   0.5   -1.0
   1.0   -5.0
   1.5  -10.3
   2.0  -24.0
   3.0  -24.0
   4.0  -30.0
   8.5  -36.9
  10.0  -36.9
  13.0  -40.0
  15.0  -40.0
  30.0  -46.0
  50.0  -51.9
  55.0  -51.9
  65.0  -55.0
  70.0  -64.0
  85.0  -66.0
  90.0  -69.9
 180.0  -69.9
VH      27
-180.0  -71.9
 -75.0  -71.9
 -65.0  -61.0
 -55.0  -61.0
 -50.0  -58.0
 -30.0  -55.0
 -20.0  -55.0
 -15.0  -53.0
 -10.0  -53.0
  -8.0  -51.0
  -6.0  -42.0
  -4.0  -42.0
  -1.0  -32.0
   0.0  -32.0
   1.0  -32.0
   4.0  -42.0
   6.0  -42.0
   8.0  -51.0
  10.0  -53.0
  15.0  -53.0
  20.0  -55.0
  30.0  -55.0
  50.0  -58.0
  55.0  -61.0
  65.0  -61.0
  75.0  -71.9
 180.0  -71.9
