REVNUM:,NSMA WG16.99.050
REVDAT:,19990520
ANTMAN:,RADIO WAVES INC.
MODNUM:,HPCPE-80
DESCR1:,1 FT LOW SIDELOBE ANTENNA
PATNUM:,9580
DTDATA:,20081114
LOWFRQ:,71000
HGHFRQ:,86000
GUNITS:,DBI/DBR
LWGAIN:,43
MDGAIN:,43.8
HGGAIN:,44.6
AZWIDT:,0.9
ELWIDT:,0.9
ELTILT:,0
ANTLEN:,0.3,
PATTYP:,ENVELOPE,
NOFREQ:,NA,
PATFRE:,NA,
NUMCUT:,4,
PATCUT:,AZ,
POLARI:,H/H,
NUPOIN:,69,
FSTLST:,-180,180
-180,-62,
-90,-62,
-80,-56,
-30,-56,
-25,-51,
-20,-51,
-15,-46,
-13,-42
-10,-40
-5,-36
-3,-32
-2.5,-27
-2,-20
-1.2,-17
-1,-14.81481481
-0.95,-13.37037037
-0.9,-12
-0.85,-10.7037037
-0.8,-9.481481481
-0.75,-8.333333333
-0.7,-7.259259259
-0.65,-6.259259259
-0.6,-5.333333333
-0.55,-4.481481481,
-0.5,-3.703703704,
-0.45,-3, 
-0.4,-2.37037037, 
-0.35,-1.814814815, 
-0.3,-1.333333333,
-0.25,-0.925925926,
-0.2,-0.592592593,
-0.15,-0.333333333,
-0.1,-0.148148148,
-0.05,-0.037037037,
0,0,
0.05,-0.037037037,
0.1,-0.148148148,
0.15,-0.333333333,
0.2,-0.592592593,
0.25,-0.925925926
0.3,-1.333333333
0.35,-1.814814815
0.4,-2.37037037
0.45,-3
0.5,-3.703703704
0.55,-4.481481481
0.6,-5.333333333
0.65,-6.259259259
0.7,-7.259259259
0.75,-8.333333333
0.8,-9.481481481
0.85,-10.7037037
0.9,-12
0.95,-13.37037037
1,-14.81481481
1.2,-17
2,-20
2.5,-27
3,-32
5,-36
10,-40
13,-42
15,-46
20,-51
25,-51
30,-56
80,-56
90,-62
180,-62
PATCUT:,AZ
POLARI:,H/V
NUPOIN:,17,
FSTLST:,-180,180
-180,-62, 
-90,-62,
-65,-56,
-20,-56,
-18,-52, 
-9,-50, 
-5,-45, 
-2,-30, 
0,-30,
2,-30,
5,-45,
9,-50,
18,-52,
20,-56,
65,-56, 
90,-62, 
180,-62, 
PATCUT:,AZ,
POLARI:,V/V,
NUPOIN:,67,
FSTLST:,-180,180
-180,-62,
-90,-62,
-80,-56,
-30,-56,
-25,-52,
-18,-50,
-15,-45.5,
-13,-43,
-5,-35.5,
-3,-32
-2.5,-27
-2,-20
-1.2,-17
-1,-14.81481481
-0.95,-13.37037037
-0.9,-12
-0.85,-10.7037037
-0.8,-9.481481481
-0.75,-8.333333333
-0.7,-7.259259259
-0.65,-6.259259259
-0.6,-5.333333333
-0.55,-4.481481481
-0.5,-3.703703704
-0.45,-3
-0.4,-2.37037037
-0.35,-1.814814815
-0.3,-1.333333333
-0.25,-0.925925926
-0.2,-0.592592593
-0.15,-0.333333333
-0.1,-0.148148148
-0.05,-0.037037037
0,0
0.05,-0.037037037
0.1,-0.148148148
0.15,-0.333333333
0.2,-0.592592593
0.25,-0.925925926
0.3,-1.333333333
0.35,-1.814814815
0.4,-2.37037037,
0.45,-3,
0.5,-3.703703704,
0.55,-4.481481481,
0.6,-5.333333333,
0.65,-6.259259259,
0.7,-7.259259259,
0.75,-8.333333333,
0.8,-9.481481481,
0.85,-10.7037037,
0.9,-12,
0.95,-13.37037037,
1,-14.81481481,
1.2,-17,
2,-20,
2.5,-27, 
3,-32, 
5,-35.5, 
13,-43, 
15,-45.5, 
18,-50, 
25,-52, 
30,-56,
80,-56,
90,-62,
180,-62,
PATCUT:,AZ,
POLARI:,V/H,
NUPOIN:,17,
FSTLST:,-180,180
-180,-62,
-90,-62,
-65,-56
-20,-56
-16.6,-51
-9,-50
-5,-47
-2,-30
0,-30
2,-30
5,-47
9,-50
16.6,-51
20,-56
65,-56
90,-62
180,-62
ENDFIL:,EOF
