RADIO WAVES INC
HPLP2-38       

NONE
NONE
09-30-99
6966
37000-40000  MHz
44.40 dBi
0.9 DEGREES
HH      31 
-180.0  -65.0
 -70.0  -65.0
 -60.0  -58.0
 -40.0  -54.0
 -16.0  -51.0
 -14.0  -47.0
  -8.0  -38.0
  -4.5  -31.0
  -1.8  -15.0
  -0.6   -5.3
  -0.5   -3.7
  -0.4   -2.4
  -0.3   -1.3
  -0.2   -0.6
  -0.1   -0.2
   0.0    0.0
   0.1   -0.2
   0.2   -0.6
   0.3   -1.3
   0.4   -2.4
   0.5   -3.7
   0.6   -5.3
   1.8  -15.0
   4.5  -31.0
   8.0  -38.0
  14.0  -47.0
  16.0  -51.0
  40.0  -54.0
  60.0  -58.0
  70.0  -65.0
 180.0  -65.0
HV      13 
-180.0  -68.0
 -70.0  -68.0
 -20.0  -60.0
 -10.0  -52.0
  -5.0  -50.0
  -2.0  -30.0
   0.0  -30.0
   2.0  -30.0
   5.0  -50.0
  10.0  -52.0
  20.0  -60.0
  70.0  -68.0
 180.0  -68.0
VV      31 
-180.0  -65.0
 -70.0  -65.0
 -60.0  -58.0
 -40.0  -54.0
 -16.0  -50.0
 -14.0  -45.0
  -8.0  -40.0
  -4.5  -30.0
  -1.8  -15.0
  -0.6   -5.3
  -0.5   -3.7
  -0.4   -2.4
  -0.3   -1.3
  -0.2   -0.6
  -0.1   -0.2
   0.0    0.0
   0.1   -0.2
   0.2   -0.6
   0.3   -1.3
   0.4   -2.4
   0.5   -3.7
   0.6   -5.3
   1.8  -15.0
   4.5  -30.0
   8.0  -40.0
  14.0  -45.0
  16.0  -50.0
  40.0  -54.0
  60.0  -58.0
  70.0  -65.0
 180.0  -65.0
VH      13 
-180.0  -68.0
 -70.0  -68.0
 -20.0  -60.0
 -10.0  -52.0
  -5.0  -50.0
  -2.0  -30.0
   0.0  -30.0
   2.0  -30.0
   5.0  -50.0
  10.0  -52.0
  20.0  -60.0
  70.0  -68.0
 180.0  -68.0

