ANTMAN:,DG CAPITEL INTERNATIONAL
MODNUM:, HRG03-177D
FCCID:, NA
PATNUM:, HRG03-177D-PAT
DATE:,20050307
MANID:, NA
LOWFRQ:, 17700
HGHFRQ:, 19700
GUNITS:, DBI/DBR
LWGAIN:, 32.3
MDGAIN:, 32.8
HGGAIN:, 33.2
HPBWIDT:, 3.90
POLARI:,H/H
NUPOIN:,93
-180.00,-74.00,
-175.00,-72.00,
-170.00,-71.00,
-165.00,-72.00,
-160.00,-75.00,
-155.00,-65.00,
-150.00,-70.00,
-145.00,-72.00,
-140.00,-69.00,
-135.00,-68.00,
-130.00,-69.00,
-125.00,-74.00,
-120.00,-69.00,
-115.00,-67.00,
-110.00,-69.00,
-105.00,-71.00,
-100.00,-75.00,
-95.00,-73.00,
-90.00,-74.00,
-85.00,-65.00,
-80.00,-69.00,
-75.00,-71.00,
-70.00,-66.00,
-65.00,-58.00,
-60.00,-56.00,
-55.00,-55.00,
-50.00,-48.00,
-45.00,-50.00,
-40.00,-53.00,
-35.00,-44.00,
-30.00,-45.00,
-25.00,-46.00,
-20.00,-43.00,
-15.00,-42.00,
-10.00,-40.00,
-9.00,-38.00,
-8.00,-44.00,
-7.00,-39.00,
-6.00,-33.00,
-5.00,-24.00,
-4.00,-18.00,
-3.00,-10.00,
-2.00,-7.00,
-1.50,-5.00,
-1.00,-3.00,
-0.50,-1.00,
0.00,0.00,
0.50,-1.00,
1.00,-3.00,
1.50,-5.00,
2.00,-7.00,
3.00,-10.00,
4.00,-18.00,
5.00,-24.00,
6.00,-33.00,
7.00,-39.00,
8.00,-44.00,
9.00,-38.00,
10.00,-40.00,
15.00,-42.00,
20.00,-43.00,
25.00,-46.00,
30.00,-45.00,
35.00,-44.00,
40.00,-53.00,
45.00,-50.00,
50.00,-48.00,
55.00,-55.00,
60.00,-56.00,
65.00,-58.00,
70.00,-66.00,
75.00,-71.00,
80.00,-69.00,
85.00,-65.00,
90.00,-74.00,
95.00,-73.00,
100.00,-75.00,
105.00,-71.00,
110.00,-69.00,
115.00,-67.00,
120.00,-69.00,
125.00,-74.00,
130.00,-69.00,
135.00,-68.00,
140.00,-69.00,
145.00,-72.00,
150.00,-70.00,
155.00,-65.00,
160.00,-75.00,
165.00,-72.00,
174.00,-71.00,
178.00,-72.00,
180.00,-74.00,
POLARI:,H/V
NUPOIN:,93
-180.00,-74.00,
-175.00,-73.00,
-170.00,-72.00,
-165.00,-72.00,
-160.00,-75.00,
-155.00,-65.00,
-150.00,-70.00,
-145.00,-73.00,
-140.00,-69.00,
-135.00,-68.00,
-130.00,-69.00,
-125.00,-75.00,
-120.00,-69.00,
-115.00,-68.00,
-110.00,-69.00,
-105.00,-79.00,
-100.00,-76.00,
-95.00,-73.00,
-90.00,-74.00,
-85.00,-65.00,
-80.00,-68.00,
-75.00,-68.00,
-70.00,-60.00,
-65.00,-48.00,
-60.00,-45.00,
-55.00,-44.00,
-50.00,-44.00,
-45.00,-43.00,
-40.00,-49.00,
-35.00,-53.00,
-30.00,-54.00,
-25.00,-51.00,
-20.00,-47.00,
-15.00,-46.00,
-10.00,-44.00,
-9.00,-59.00,
-8.00,-44.00,
-7.00,-41.00,
-6.00,-39.00,
-5.00,-41.00,
-4.00,-61.00,
-3.00,-40.00,
-2.00,-38.00,
-1.50,-36.00,
-1.00,-34.00,
-0.50,-32.00,
0.00,-31.00,
0.50,-32.00,
1.00,-34.00,
1.50,-36.00,
2.00,-38.00,
3.00,-40.00,
4.00,-61.00,
5.00,-41.00,
6.00,-39.00,
7.00,-41.00,
8.00,-44.00,
9.00,-59.00,
10.00,-44.00,
15.00,-46.00,
20.00,-47.00,
25.00,-51.00,
30.00,-54.00,
35.00,-53.00,
40.00,-49.00,
45.00,-43.00,
50.00,-44.00,
55.00,-44.00,
60.00,-45.00,
65.00,-48.00,
70.00,-60.00,
75.00,-68.00,
80.00,-68.00,
85.00,-65.00,
90.00,-74.00,
95.00,-73.00,
100.00,-76.00,
105.00,-79.00,
110.00,-69.00,
115.00,-68.00,
120.00,-69.00,
125.00,-75.00,
130.00,-68.00,
135.00,-69.00,
140.00,-69.00,
145.00,-73.00,
150.00,-70.00,
155.00,-65.00,
160.00,-75.00,
165.00,-72.00,
174.00,-72.00,
178.00,-73.00,
180.00,-74.00,
POLARI:,V/V
NUPOIN:,93
-180.00,-74.00,
-175.00,-73.00,
-170.00,-72.00,
-165.00,-72.00,
-160.00,-75.00,
-155.00,-65.00,
-150.00,-70.00,
-145.00,-73.00,
-140.00,-69.00,
-135.00,-68.00,
-130.00,-69.00,
-125.00,-75.00,
-120.00,-69.00,
-115.00,-68.00,
-110.00,-70.00,
-105.00,-71.00,
-100.00,-75.00,
-95.00,-73.00,
-90.00,-74.00,
-85.00,-64.00,
-80.00,-69.00,
-75.00,-68.00,
-70.00,-67.00,
-65.00,-58.00,
-60.00,-56.00,
-55.00,-47.00,
-50.00,-43.00,
-45.00,-42.00,
-40.00,-40.00,
-35.00,-38.00,
-30.00,-40.00,
-25.00,-41.00,
-20.00,-38.00,
-15.00,-38.00,
-10.00,-41.00,
-9.00,-35.00,
-8.00,-54.00,
-7.00,-44.00,
-6.00,-43.00,
-5.00,-35.00,
-4.00,-26.00,
-3.00,-10.00,
-2.00,-8.00,
-1.50,-5.00,
-1.00,-3.00,
-0.50,-2.00,
0.00,00.00,
0.50,-2.00,
1.00,-3.00,
1.50,-5.00,
2.00,-8.00,
3.00,-10.00,
4.00,-26.00,
5.00,-35.00,
6.00,-43.00,
7.00,-44.00,
8.00,-54.00,
9.00,-35.00,
10.00,-41.00,
15.00,-38.00,
20.00,-38.00,
25.00,-41.00,
30.00,-40.00,
35.00,-38.00,
40.00,-40.00,
45.00,-42.00,
50.00,-43.00,
55.00,-47.00,
60.00,-56.00,
65.00,-58.00,
70.00,-67.00,
75.00,-68.00,
80.00,-69.00,
85.00,-64.00,
90.00,-74.00,
95.00,-73.00,
100.00,-75.00,
105.00,-71.00,
110.00,-70.00,
115.00,-68.00,
120.00,-69.00,
125.00,-75.00,
130.00,-69.00,
135.00,-68.00,
140.00,-69.00,
145.00,-73.00,
150.00,-70.00,
155.00,-65.00,
160.00,-75.00,
165.00,-72.00,
174.00,-72.00,
178.00,-73.00,
180.00,-74.00,
POLARI:,V/H
NUPOIN:,93
-180.00,-74.00,
-175.00,-73.00,
-170.00,-72.00,
-165.00,-72.00,
-160.00,-75.00,
-155.00,-65.00,
-150.00,-70.00,
-145.00,-73.00,
-140.00,-69.00,
-135.00,-68.00,
-130.00,-69.00,
-125.00,-75.00,
-120.00,-69.00,
-115.00,-68.00,
-110.00,-69.00,
-105.00,-79.00,
-100.00,-76.00,
-95.00,-73.00,
-90.00,-74.00,
-85.00,-65.00,
-80.00,-68.00,
-75.00,-68.00,
-70.00,-60.00,
-65.00,-48.00,
-60.00,-45.00,
-55.00,-44.00,
-50.00,-44.00,
-45.00,-43.00,
-40.00,-49.00,
-35.00,-53.00,
-30.00,-54.00,
-25.00,-51.00,
-20.00,-47.00,
-15.00,-46.00,
-10.00,-44.00,
-9.00,-59.00,
-8.00,-44.00,
-7.00,-41.00,
-6.00,-39.00,
-5.00,-41.00,
-4.00,-61.00,
-3.00,-40.00,
-2.00,-38.00,
-1.50,-36.00,
-1.00,-34.00,
-0.50,-32.00,
0.00,-31.00,
0.50,-32.00,
1.00,-34.00,
1.50,-36.00,
2.00,-38.00,
3.00,-40.00,
4.00,-61.00,
5.00,-41.00,
6.00,-39.00,
7.00,-41.00,
8.00,-44.00,
9.00,-59.00,
10.00,-44.00,
15.00,-46.00,
20.00,-47.00,
25.00,-51.00,
30.00,-54.00,
35.00,-53.00,
40.00,-49.00,
45.00,-43.00,
50.00,-44.00,
55.00,-44.00,
60.00,-45.00,
65.00,-48.00,
70.00,-60.00,
75.00,-68.00,
80.00,-68.00,
85.00,-65.00,
90.00,-74.00,
95.00,-73.00,
100.00,-76.00,
105.00,-79.00,
110.00,-69.00,
115.00,-68.00,
120.00,-69.00,
125.00,-75.00,
130.00,-68.00,
135.00,-69.00,
140.00,-69.00,
145.00,-73.00,
150.00,-70.00,
155.00,-65.00,
160.00,-75.00,
165.00,-72.00,
174.00,-72.00,
178.00,-73.00,
180.00,-74.00,
ENDFIL:,EOF










