ANDREW CORPORATION            
HSX8-59A                      
                              
42428A          
NONE            
 6-10-96         
2428             
5925-6425    MHZ   
41.30 dBi       
1.4 DEGREES     
HH      47
-180.0  -74.0
 -87.0  -74.0
 -75.0  -64.0
 -68.0  -64.0
 -64.0  -55.0
 -60.0  -55.0
 -56.0  -50.5
 -30.0  -50.5
 -20.0  -41.5
 -15.0  -41.5
 -13.0  -41.5
 -12.0  -37.5
  -8.8  -37.5
  -7.8  -27.5
  -2.1  -27.5
  -1.9  -22.7
  -1.6  -14.1
  -1.4   -8.1
  -1.1   -4.5
  -0.8   -2.7
  -0.6   -1.1
  -0.3    0.0
   0.0    0.0
   0.3    0.0
   0.6   -1.9
   0.8   -3.8
   1.1   -6.4
   1.4  -10.8
   1.6  -17.9
   1.9  -24.0
   2.9  -24.0
   3.2  -29.2
   5.2  -29.2
   5.7  -32.3
   7.5  -32.3
   8.5  -41.0
  14.5  -41.0
  15.0  -43.0
  20.0  -46.0
  25.0  -46.0
  36.5  -50.0
  43.0  -55.0
  56.0  -55.0
  63.0  -63.5
  80.0  -65.0
  88.0  -74.0
 180.0  -74.0
HV      27
-180.0  -75.0
 -70.0  -75.0
 -56.0  -64.5
 -41.0  -64.5
 -35.0  -62.0
 -26.0  -62.0
 -20.0  -56.0
 -15.0  -56.0
  -8.2  -56.0
  -7.2  -53.5
  -3.0  -53.5
  -1.5  -40.0
   0.0  -40.0
   1.5  -40.0
   3.4  -56.5
   7.0  -56.5
   8.0  -59.0
  10.0  -59.0
  11.0  -62.5
  15.0  -62.5
  30.0  -62.5
  35.0  -65.0
  56.0  -65.0
  61.0  -70.5
  66.0  -70.5
  73.0  -75.0
 180.0  -75.0
VV      54
-180.0  -74.0
 -85.0  -74.0
 -75.0  -66.0
 -70.0  -66.0
 -61.0  -52.0
 -43.0  -52.0
 -40.0  -48.0
 -33.0  -48.0
 -31.0  -45.5
 -23.0  -45.5
 -21.0  -42.0
 -15.0  -42.0
 -14.5  -42.0
 -14.0  -40.0
 -12.5  -40.0
 -12.0  -38.0
  -8.5  -38.0
  -7.5  -28.0
  -3.0  -28.0
  -2.5  -25.0
  -2.0  -25.0
  -1.9  -21.2
  -1.6  -14.7
  -1.4   -8.8
  -1.1   -4.9
  -0.8   -2.7
  -0.6   -1.2
  -0.3    0.0
   0.0    0.0
   0.3    0.0
   0.6   -1.8
   0.8   -3.6
   1.1   -6.2
   1.4  -10.1
   1.6  -17.6
   1.9  -22.0
   2.1  -26.0
   2.6  -26.0
   3.0  -30.0
   7.5  -30.0
   8.3  -37.0
  10.0  -37.0
  11.0  -42.0
  12.0  -42.0
  12.5  -44.3
  15.0  -44.3
  30.0  -48.5
  40.0  -54.8
  49.0  -54.8
  52.0  -57.8
  60.0  -57.8
  76.0  -67.0
  81.0  -74.0
 180.0  -74.0
VH      26
-180.0  -75.0
 -77.0  -75.0
 -70.0  -70.5
 -63.0  -70.5
 -57.0  -62.0
 -30.0  -62.0
 -25.0  -57.0
 -15.0  -57.0
  -6.5  -57.0
  -6.0  -54.7
  -3.5  -54.7
  -1.5  -40.0
   0.0  -40.0
   1.5  -40.0
   2.0  -52.0
   7.5  -52.0
   9.0  -59.0
  10.0  -59.0
  10.5  -62.5
  15.0  -62.5
  36.0  -62.5
  45.0  -67.5
  55.0  -67.5
  65.0  -70.0
  72.0  -75.0
 180.0  -75.0