NAME J33017S00-65N
MAKE LAIRD TECHNOLOGIES
FREQUENCY 3500
H_WIDTH 65
V_WIDTH 7
FRONT_TO_BACK 35
GAIN 17 dBi
TILT 
POLARIZATION Dual Slant
COMMENT Created by the ACMA from pattern data provided by the AP
HORIZONTAL 360
0 0.001
1 0.010
2 0.026
3 0.048
4 0.078
5 0.113
6 0.155
7 0.202
8 0.254
9 0.312
10 0.376
11 0.445
12 0.521
13 0.603
14 0.691
15 0.787
16 0.889
17 0.999
18 1.116
19 1.240
20 1.371
21 1.507
22 1.649
23 1.795
24 1.946
25 2.100
26 2.256
27 2.416
28 2.577
29 2.741
30 2.908
31 3.078
32 3.252
33 3.430
34 3.612
35 3.800
36 3.993
37 4.191
38 4.394
39 4.603
40 4.816
41 5.032
42 5.253
43 5.476
44 5.702
45 5.929
46 6.159
47 6.390
48 6.624
49 6.859
50 7.096
51 7.336
52 7.579
53 7.825
54 8.074
55 8.327
56 8.583
57 8.843
58 9.107
59 9.375
60 9.647
61 9.924
62 10.207
63 10.494
64 10.788
65 11.088
66 11.394
67 11.707
68 12.025
69 12.349
70 12.677
71 13.008
72 13.341
73 13.674
74 14.007
75 14.339
76 14.667
77 14.993
78 15.316
79 15.636
80 15.953
81 16.268
82 16.582
83 16.895
84 17.207
85 17.519
86 17.831
87 18.142
88 18.453
89 18.763
90 19.074
91 19.384
92 19.697
93 20.011
94 20.331
95 20.656
96 20.990
97 21.333
98 21.687
99 22.053
100 22.428
101 22.812
102 23.200
103 23.589
104 23.972
105 24.345
106 24.703
107 25.042
108 25.362
109 25.664
110 25.951
111 26.230
112 26.510
113 26.799
114 27.108
115 27.447
116 27.824
117 28.246
118 28.719
119 29.244
120 29.818
121 30.433
122 31.073
123 31.716
124 32.329
125 32.873
126 33.311
127 33.613
128 33.772
129 33.799
130 33.727
131 33.597
132 33.449
133 33.317
134 33.230
135 33.208
136 33.267
137 33.418
138 33.669
139 34.027
140 34.496
141 35.079
142 35.780
143 36.601
144 37.547
145 38.620
146 39.826
147 41.169
148 42.641
149 44.207
150 45.746
151 46.974
152 47.495
153 47.136
154 46.181
155 45.036
156 43.945
157 43.006
158 42.246
159 41.664
160 41.252
161 40.995
162 40.879
163 40.890
164 41.009
165 41.217
166 41.487
167 41.793
168 42.105
169 42.392
170 42.636
171 42.829
172 42.974
173 43.091
174 43.196
175 43.306
176 43.422
177 43.528
178 43.088
179 45.220
180 96.616
181 44.740
182 42.323
183 42.312
184 41.796
185 41.284
186 40.804
187 40.375
188 40.005
189 39.694
190 39.437
191 39.227
192 39.057
193 38.916
194 38.798
195 38.695
196 38.599
197 38.504
198 38.408
199 38.309
200 38.206
201 38.102
202 37.999
203 37.902
204 37.812
205 37.733
206 37.664
207 37.603
208 37.550
209 37.499
210 37.448
211 37.392
212 37.331
213 37.263
214 37.190
215 37.114
216 37.040
217 36.972
218 36.912
219 36.864
220 36.828
221 36.801
222 36.778
223 36.754
224 36.719
225 36.667
226 36.589
227 36.478
228 36.332
229 36.148
230 35.926
231 35.670
232 35.382
233 35.069
234 34.732
235 34.376
236 34.002
237 33.609
238 33.199
239 32.768
240 32.317
241 31.844
242 31.350
243 30.838
244 30.309
245 29.769
246 29.223
247 28.677
248 28.136
249 27.605
250 27.089
251 26.591
252 26.113
253 25.657
254 25.222
255 24.809
256 24.416
257 24.040
258 23.681
259 23.335
260 23.001
261 22.677
262 22.360
263 22.050
264 21.745
265 21.444
266 21.146
267 20.850
268 20.554
269 20.259
270 19.962
271 19.662
272 19.358
273 19.050
274 18.735
275 18.415
276 18.088
277 17.756
278 17.418
279 17.077
280 16.732
281 16.385
282 16.036
283 15.688
284 15.340
285 14.994
286 14.649
287 14.306
288 13.964
289 13.624
290 13.285
291 12.947
292 12.610
293 12.274
294 11.941
295 11.609
296 11.281
297 10.956
298 10.636
299 10.322
300 10.014
301 9.713
302 9.419
303 9.132
304 8.852
305 8.579
306 8.311
307 8.048
308 7.790
309 7.535
310 7.284
311 7.034
312 6.787
313 6.542
314 6.299
315 6.058
316 5.820
317 5.586
318 5.355
319 5.128
320 4.906
321 4.688
322 4.476
323 4.268
324 4.065
325 3.866
326 3.671
327 3.480
328 3.293
329 3.108
330 2.928
331 2.750
332 2.576
333 2.406
334 2.241
335 2.079
336 1.923
337 1.772
338 1.626
339 1.486
340 1.353
341 1.225
342 1.103
343 0.987
344 0.877
345 0.773
346 0.675
347 0.583
348 0.497
349 0.417
350 0.343
351 0.275
352 0.214
353 0.161
354 0.114
355 0.075
356 0.045
357 0.022
358 0.007
359 0.000
VERTICAL 360
0 0.000
1 0.131
2 0.696
3 1.728
4 3.299
5 5.536
6 8.682
7 13.158
8 18.585
9 17.993
10 14.688
11 12.940
12 12.466
13 12.983
14 14.377
15 16.564
16 19.115
17 20.513
18 19.825
19 18.664
20 18.104
21 18.349
22 19.418
23 21.319
24 23.999
25 26.939
26 28.647
27 28.796
28 28.969
29 29.376
30 27.954
31 24.403
32 20.895
33 18.115
34 16.021
35 14.493
36 13.433
37 12.768
38 12.450
39 12.444
40 12.725
41 13.272
42 14.069
43 15.095
44 16.323
45 17.708
46 19.185
47 20.676
48 22.109
49 23.438
50 24.640
51 25.661
52 26.353
53 26.515
54 26.085
55 25.237
56 24.234
57 23.264
58 22.419
59 21.733
60 21.209
61 20.840
62 20.616
63 20.524
64 20.556
65 20.702
66 20.955
67 21.303
68 21.735
69 22.229
70 22.757
71 23.289
72 23.796
73 24.262
74 24.687
75 25.081
76 25.461
77 25.840
78 26.217
79 26.586
80 26.933
81 27.254
82 27.550
83 27.833
84 28.119
85 28.418
86 28.738
87 29.078
88 29.436
89 29.809
90 30.191
91 30.574
92 30.948
93 31.303
94 31.636
95 31.954
96 32.276
97 32.627
98 33.028
99 33.483
100 33.974
101 34.457
102 34.882
103 35.216
104 35.465
105 35.678
106 35.918
107 36.234
108 36.635
109 37.082
110 37.505
111 37.852
112 38.136
113 38.436
114 38.846
115 39.412
116 40.096
117 40.773
118 41.267
119 41.490
120 41.537
121 41.619
122 41.911
123 42.450
124 43.089
125 43.539
126 43.635
127 43.583
128 43.769
129 44.492
130 45.940
131 48.243
132 51.378
133 54.308
134 54.436
135 52.838
136 51.672
137 51.244
138 51.347
139 51.732
140 52.349
141 53.476
142 55.416
143 56.870
144 54.548
145 51.248
146 49.170
147 48.474
148 49.212
149 51.743
150 57.063
151 59.074
152 52.757
153 49.265
154 47.681
155 47.436
156 48.363
157 50.375
158 52.595
159 52.236
160 49.958
161 48.283
162 47.716
163 48.232
164 49.766
165 52.068
166 54.063
167 54.203
168 53.355
169 52.953
170 53.409
171 54.867
172 57.791
173 64.341
174 67.940
175 56.687
176 51.207
177 47.626
178 45.112
179 43.383
180 86.136
181 41.904
182 42.114
183 42.950
184 44.344
185 46.018
186 47.331
187 47.773
188 47.714
189 47.707
190 47.791
191 47.667
192 47.240
193 46.843
194 46.903
195 47.727
196 49.597
197 53.020
198 59.587
199 68.365
200 58.346
201 54.479
202 52.995
203 52.965
204 54.215
205 56.775
206 59.305
207 57.381
208 54.034
209 51.917
210 51.062
211 51.340
212 52.709
213 55.122
214 58.054
215 59.552
216 58.884
217 57.922
218 57.206
219 56.326
220 54.892
221 52.953
222 50.876
223 49.037
224 47.656
225 46.811
226 46.467
227 46.490
228 46.656
229 46.736
230 46.663
231 46.558
232 46.594
233 46.859
234 47.345
235 47.978
236 48.666
237 49.341
238 49.979
239 50.545
240 50.930
241 50.969
242 50.585
243 49.867
244 48.970
245 48.036
246 47.186
247 46.519
248 46.080
249 45.832
250 45.661
251 45.439
252 45.111
253 44.724
254 44.366
255 44.112
256 44.012
257 44.084
258 44.295
259 44.515
260 44.544
261 44.257
262 43.725
263 43.132
264 42.609
265 42.187
266 41.841
267 41.541
268 41.282
269 41.081
270 40.952
271 40.881
272 40.814
273 40.669
274 40.388
275 39.976
276 39.466
277 38.852
278 38.051
279 36.956
280 35.547
281 33.941
282 32.304
283 30.765
284 29.393
285 28.202
286 27.173
287 26.269
288 25.450
289 24.686
290 23.966
291 23.298
292 22.703
293 22.207
294 21.833
295 21.598
296 21.514
297 21.588
298 21.825
299 22.235
300 22.831
301 23.640
302 24.696
303 26.025
304 27.602
305 29.189
306 30.117
307 29.714
308 28.373
309 26.918
310 25.746
311 24.958
312 24.545
313 24.467
314 24.643
315 24.927
316 25.086
317 24.869
318 24.204
319 23.275
320 22.349
321 21.621
322 21.196
323 21.117
324 21.378
325 21.897
326 22.460
327 22.722
328 22.446
329 21.787
330 21.119
331 20.718
332 20.680
333 20.916
334 21.087
335 20.673
336 19.509
337 18.024
338 16.700
339 15.782
340 15.352
341 15.400
342 15.791
343 16.115
344 15.723
345 14.429
346 12.814
347 11.444
348 10.578
349 10.316
350 10.691
351 11.593
352 12.327
353 11.394
354 8.839
355 6.128
356 3.890
357 2.200
358 1.015
359 0.292
