Andrew Corp
KP13-17B                       
                              
NONE            
NONE            
 4- 7-86         
2981         
1700-2110    MHZ   
35.40 dBi       
3.0 DEGREES     
HH      31
-180.0  -40.0
-140.0  -40.0
-130.0  -39.0
-110.0  -39.0
-100.0  -33.0
 -40.0  -33.0
 -30.0  -30.0
 -20.0  -30.0
 -15.0  -27.0
  -7.5  -22.0
  -3.5  -17.0
  -2.0   -5.3
  -1.5   -3.0
  -1.0   -1.5
  -0.5   -0.6
   0.0    0.0
   0.5   -0.6
   1.0   -1.5
   1.5   -3.0
   2.0   -5.3
   3.5  -17.0
   7.5  -22.0
  15.0  -27.0
  20.0  -30.0
  30.0  -30.0
  40.0  -33.0
 100.0  -33.0
 110.0  -39.0
 130.0  -39.0
 140.0  -40.0
 180.0  -40.0
HV      15
-180.0  -43.0
 -40.0  -43.0
 -20.0  -40.0
 -15.0  -40.0
 -10.0  -40.0
  -6.0  -38.0
  -3.0  -30.0
   0.0  -30.0
   3.0  -30.0
   6.0  -38.0
  10.0  -40.0
  15.0  -40.0
  20.0  -40.0
  40.0  -43.0
 180.0  -43.0
VV      29
-180.0  -40.0
-140.0  -40.0
-130.0  -39.0
-110.0  -39.0
-100.0  -34.0
 -30.0  -34.0
 -20.0  -30.0
 -15.0  -27.0
  -7.5  -22.0
  -3.5  -17.0
  -2.0   -5.3
  -1.5   -3.0
  -1.0   -1.5
  -0.5   -0.6
   0.0    0.0
   0.5   -0.6
   1.0   -1.5
   1.5   -3.0
   2.0   -5.3
   3.5  -17.0
   7.5  -22.0
  15.0  -27.0
  20.0  -30.0
  30.0  -34.0
 100.0  -34.0
 110.0  -39.0
 130.0  -39.0
 140.0  -40.0
 180.0  -40.0
VH      15
-180.0  -43.0
 -40.0  -43.0
 -20.0  -40.0
 -15.0  -40.0
 -10.0  -40.0
  -6.0  -38.0
  -3.0  -30.0
   0.0  -30.0
   3.0  -30.0
   6.0  -38.0
  10.0  -40.0
  15.0  -40.0
  20.0  -40.0
  40.0  -43.0
 180.0  -43.0
