ANDREW CORPORATION            
KP6-15C                       
                              
11157A           
                
11-15-92         
1157             
1427-1535    MHZ   
27.20 dBi       
11. DEGREES     
HH      45
-180.0  -33.0
-172.0  -33.0
-170.0  -35.0
-144.0  -35.0
-123.0  -35.0
-115.0  -31.0
 -35.0  -31.0
 -26.0  -26.0
 -22.0  -26.0
 -15.0  -20.0
 -10.8  -20.0
  -8.3  -14.0
  -7.2  -11.0
  -6.0   -7.8
  -5.0   -5.0
  -4.3   -4.0
  -3.3   -2.0
  -2.0   -0.8
  -1.8   -0.5
  -1.1   -0.2
  -0.8   -0.2
  -0.3   -0.1
   0.0    0.0
   0.3   -0.1
   0.8   -0.2
   1.1   -0.2
   1.8   -0.5
   2.0   -0.8
   3.3   -2.0
   4.3   -4.0
   5.0   -5.0
   6.0   -7.8
   7.2  -11.0
   8.3  -14.0
  10.8  -20.0
  15.0  -20.0
  22.0  -26.0
  26.0  -26.0
  35.0  -31.0
 115.0  -31.0
 123.0  -35.0
 144.0  -35.0
 170.0  -35.0
 172.0  -33.0
 180.0  -33.0
HV      17
-180.0  -42.0
-150.0  -42.0
-145.0  -38.0
 -15.0  -38.0
 -10.0  -38.0
  -9.0  -35.0
  -6.0  -35.0
  -5.0  -32.0
   0.0  -32.0
   5.0  -32.0
   6.0  -35.0
   9.0  -35.0
  10.0  -38.0
  15.0  -38.0
 145.0  -38.0
 150.0  -42.0
 180.0  -42.0
VV      37
-180.0  -33.0
-123.0  -33.0
-110.0  -25.0
-105.0  -25.0
-100.0  -23.0
 -26.0  -23.0
 -22.5  -21.0
 -15.0  -18.5
 -13.0  -18.5
 -10.6  -14.0
  -6.5  -14.0
  -5.2   -9.0
  -4.0   -5.0
  -3.3   -3.0
  -2.1   -1.1
  -1.5   -0.6
  -1.0   -0.2
  -0.5   -0.1
   0.0    0.0
   0.5   -0.1
   1.0   -0.2
   1.5   -0.6
   2.1   -1.1
   3.3   -3.0
   4.0   -5.0
   5.2   -9.0
   6.5  -14.0
  10.6  -14.0
  13.0  -18.5
  15.0  -18.5
  22.5  -21.0
  26.0  -23.0
 100.0  -23.0
 105.0  -25.0
 110.0  -25.0
 123.0  -33.0
 180.0  -33.0
VH      17
-180.0  -42.0
-150.0  -42.0
-145.0  -38.0
 -15.0  -38.0
 -10.0  -38.0
  -9.0  -35.0
  -6.0  -35.0
  -5.0  -32.0
   0.0  -32.0
   5.0  -32.0
   6.0  -35.0
   9.0  -35.0
  10.0  -38.0
  15.0  -38.0
 145.0  -38.0
 150.0  -42.0
 180.0  -42.0
