Andrew Corp
KP6-403B                       
                              
NONE            
NONE            
 3- 6-78         
3444             
403-470      MHZ   
16.30 dBi       
22. DEGREES     
HH      31
-180.0  -20.0
-170.1  -20.0
-170.1  -22.1
 -68.7  -22.3
 -26.9  -16.0
 -15.0   -4.8
 -13.3   -3.5
 -12.0   -2.6
 -10.8   -1.8
  -9.4   -1.0
  -8.0   -0.5
  -6.3   -0.3
  -5.0   -0.2
  -2.7    0.0
  -1.2    0.0
   0.0    0.0
   1.2    0.0
   2.7    0.0
   5.0   -0.2
   6.3   -0.3
   8.0   -0.5
   9.4   -1.0
  10.8   -1.8
  12.0   -2.6
  13.3   -3.5
  15.0   -4.8
  26.9  -16.0
  68.7  -22.3
 170.1  -22.1
 170.1  -20.0
 180.0  -20.0
HV      19
-180.0  -27.1
-170.1  -27.3
-170.1  -30.1
 -29.9  -30.1
 -29.9  -27.1
 -15.0  -27.1
  -2.6  -27.1
  -1.8  -27.3
  -0.8  -27.3
   0.0  -27.1
   0.8  -27.3
   1.8  -27.3
   2.6  -27.1
  15.0  -27.1
  29.9  -27.1
  29.9  -30.1
 170.1  -30.1
 170.1  -27.3
 180.0  -27.1
VV      43
-180.0  -20.0
-170.1  -20.0
-170.1  -21.1
-142.7  -21.1
-139.7  -24.1
-129.8  -24.1
-111.4  -17.2
 -71.2  -12.7
 -34.9  -12.7
 -30.4   -9.9
 -19.0   -9.9
 -15.0   -6.9
 -14.1   -5.9
 -12.6   -4.3
 -10.7   -3.0
  -8.8   -1.8
  -7.3   -1.2
  -5.4   -0.7
  -3.8   -0.5
  -2.3   -0.2
  -1.1   -0.2
   0.0    0.0
   1.1   -0.2
   2.3   -0.2
   3.8   -0.5
   5.4   -0.7
   7.3   -1.2
   8.8   -1.8
  10.7   -3.0
  12.6   -4.3
  14.1   -5.9
  15.0   -6.9
  19.0   -9.9
  30.4   -9.9
  34.9  -12.7
  71.2  -12.7
 111.4  -17.2
 129.8  -24.1
 139.7  -24.1
 142.7  -21.1
 170.1  -21.1
 170.1  -20.0
 180.0  -20.0
VH      17
-180.0  -27.1
-169.6  -27.1
-169.6  -29.9
 -29.9  -29.9
 -29.9  -26.9
 -15.0  -27.1
  -1.7  -27.1
  -0.9  -27.1
   0.0  -27.1
   0.9  -27.1
   1.7  -27.1
  15.0  -27.1
  29.9  -26.9
  29.9  -29.9
 169.6  -29.9
 169.6  -27.1
 180.0  -27.1
