REVNUM:,NSMA WG16.99.050
REVDAT:,19990520
ANTMAN:,ANDREW CORPORATION
MODNUM:,LBX8-65
PATNUM:,4645
FEDORN:,NA
DESCR1:,
DESCR2:,
DESCR3:,
DESCR4:,
DESCR5:,
DTDATA:,20000726
LOWFRQ:,6425
HGHFRQ:,7125
GUNITS:,DBI/DBR
LWGAIN:,41.5
MDGAIN:,42.0
HGGAIN:,42.4
AZWIDT:,1.30
ELWIDT:,1.30
ATVSWR:,1.06
FRTOBA:,60.0
ELTILT:,0
PATTYP:,ENVELOPE
NOFREQ:,NA
PATFRE:,NA
NUMCUT:,4
PATCUT:,AZ
POLARI:,H/H
NUPOIN:,27
-180.00,-60.00,
-130.00,-60.00,
-110.00,-46.00,
-95.00,-46.00,
-85.00,-49.00,
-50.00,-49.00,
-25.00,-39.00,
-15.00,-37.00,
-7.00,-33.00,
-2.00,-22.00,
-1.00,-10.00,
-0.80,-6.00,
-0.40,-1.00,
0.00,0.00,
0.40,-1.00,
0.80,-6.00,
1.00,-10.00,
2.00,-22.00,
7.00,-33.00,
15.00,-37.00,
25.00,-39.00,
50.00,-49.00,
85.00,-49.00,
95.00,-46.00,
110.00,-46.00,
130.00,-60.00,
180.00,-60.00,
PATCUT:,AZ
POLARI:,H/V
NUPOIN:,23
-180.00,-65.00,
-130.00,-65.00,
-110.00,-60.00,
-40.00,-60.00,
-25.00,-55.00,
-15.00,-55.00,
-11.00,-45.00,
-9.00,-45.00,
-7.00,-43.00,
-3.00,-41.00,
-1.00,-33.00,
0.00,-33.00,
1.00,-33.00,
3.00,-41.00,
7.00,-43.00,
9.00,-45.00,
11.00,-45.00,
15.00,-55.00,
25.00,-55.00,
40.00,-60.00,
110.00,-60.00,
130.00,-65.00,
180.00,-65.00,
PATCUT:,AZ
POLARI:,V/V
NUPOIN:,25
-180.00,-61.00,
-130.00,-61.00,
-110.00,-46.00,
-95.00,-46.00,
-85.00,-49.00,
-50.00,-49.00,
-15.00,-40.00,
-7.00,-33.00,
-2.00,-22.00,
-1.00,-10.00,
-0.80,-6.00,
-0.40,-1.00,
0.00,0.00,
0.40,-1.00,
0.80,-6.00,
1.00,-10.00,
2.00,-22.00,
7.00,-33.00,
15.00,-40.00,
50.00,-49.00,
85.00,-49.00,
95.00,-46.00,
110.00,-46.00,
130.00,-61.00,
180.00,-61.00,
PATCUT:,AZ
POLARI:,V/H
NUPOIN:,23
-180.00,-65.00,
-130.00,-65.00,
-105.00,-56.00,
-95.00,-56.00,
-90.00,-58.00,
-40.00,-58.00,
-25.00,-55.00,
-15.00,-55.00,
-12.00,-48.00,
-3.00,-48.00,
-1.00,-33.00,
0.00,-33.00,
1.00,-33.00,
3.00,-48.00,
12.00,-48.00,
15.00,-55.00,
25.00,-55.00,
40.00,-58.00,
90.00,-58.00,
95.00,-56.00,
105.00,-56.00,
130.00,-65.00,
180.00,-65.00,
ENDFIL:,EOF
