MOBI Antenna            
MB177-P03-HSB           
High Performance Antenna
NONE                    
NONE                    
03/28/2011              
NONE                    
17700-19700             
33.7                    
3.4                     
HH    53
-180.0    -57.0     
-100.0    -55.0     
-90.0     -50.0     
-80.0     -45.0     
-70.0     -38.0     
-60.0     -35.0     
-55.0     -35.0     
-50.0     -32.0     
-45.0     -32.0     
-40.0     -32.0     
-35.0     -30.0     
-30.0     -30.0     
-25.0     -30.0     
-20.0     -28.0     
-15.0     -24.0     
-10.0     -20.0     
-6.0      -15.0     
-4.0      -12.0     
-2.5      -5.8      
-2.0      -2.4      
-1.5      -1.9      
-1.0      -1.2      
-0.8      -1.0      
-0.6      -0.8      
-0.4      -0.6      
-0.2      -0.3      
0.0       0.0       
0.2       -0.3      
0.4       -0.6      
0.6       -0.8      
0.8       -1.0      
1.0       -1.2      
1.5       -1.9      
2.0       -2.4      
2.5       -5.8      
4.0       -12.0     
6.0       -15.0     
10.0      -20.0     
15.0      -24.0     
20.0      -28.0     
25.0      -30.0     
30.0      -30.0     
35.0      -30.0     
40.0      -32.0     
45.0      -32.0     
50.0      -32.0     
55.0      -35.0     
60.0      -35.0     
70.0      -38.0     
80.0      -45.0     
90.0      -50.0     
100.0     -55.0     
180.0     -57.0     
HV    31
-180.0    -57.0     
-90.0     -57.0     
-70.0     -46.0     
-50.0     -41.0     
-45.0     -40.0     
-35.0     -38.0     
-25.0     -38.0     
-18.0     -38.0     
-15.0     -35.0     
-12.0     -35.0     
-8.0      -31.0     
-5.0      -31.0     
-2.5      -30.0     
-2.0      -30.0     
-1.0      -30.0     
0.0       -30.0     
1.0       -30.0     
2.0       -30.0     
2.5       -30.0     
5.0       -31.0     
8.0       -31.0     
12.0      -35.0     
15.0      -35.0     
18.0      -38.0     
25.0      -38.0     
35.0      -38.0     
45.0      -40.0     
50.0      -41.0     
70.0      -46.0     
90.0      -57.0     
180.0     -57.0     
VV    53
-180.0    -57.0     
-100.0    -55.0     
-90.0     -49.0     
-80.0     -45.0     
-70.0     -40.0     
-60.0     -34.0     
-55.0     -34.0     
-50.0     -34.0     
-45.0     -31.0     
-40.0     -31.0     
-35.0     -31.0     
-30.0     -31.0     
-25.0     -29.0     
-20.0     -29.0     
-15.0     -24.0     
-10.0     -19.0     
-6.0      -16.0     
-4.0      -13.0     
-2.5      -5.8      
-2.0      -3.4      
-1.5      -1.9      
-1.0      -1.2      
-0.8      -1.1      
-0.6      -0.8      
-0.4      -0.6      
-0.2      -0.3      
0.0       0.0       
0.2       -0.3      
0.4       -0.6      
0.6       -0.8      
0.8       -1.1      
1.0       -1.2      
1.5       -1.9      
2.0       -3.4      
2.5       -5.8      
4.0       -13.0     
6.0       -16.0     
10.0      -19.0     
15.0      -24.0     
20.0      -29.0     
25.0      -29.0     
30.0      -31.0     
35.0      -31.0     
40.0      -31.0     
45.0      -31.0     
50.0      -34.0     
55.0      -34.0     
60.0      -34.0     
70.0      -40.0     
80.0      -45.0     
90.0      -49.0     
100.0     -55.0     
180.0     -57.0     
VH    31
-180.0    -57.0     
-90.0     -57.0     
-70.0     -48.0     
-50.0     -40.0     
-45.0     -40.0     
-35.0     -40.0     
-25.0     -37.0     
-18.0     -37.0     
-15.0     -37.0     
-12.0     -34.0     
-8.0      -34.0     
-5.0      -33.0     
-2.5      -32.0     
-2.0      -30.0     
-1.0      -30.0     
0.0       -30.0     
1.0       -30.0     
2.0       -30.0     
2.5       -32.0     
5.0       -33.0     
8.0       -34.0     
12.0      -34.0     
15.0      -37.0     
18.0      -37.0     
25.0      -37.0     
35.0      -40.0     
45.0      -40.0     
50.0      -40.0     
70.0      -48.0     
90.0      -57.0     
180.0     -57.0     
