MOBI Antenna            
MB71W-P24-VD        
High Performance Antenna
NONE                    
NONE                    
04/28/2008              
NONE                    
7125-8500               
42.7                    
1.2                     
HH    53
-180.0    -69.0     
-100.0    -69.0     
-90.0     -63.0     
-80.0     -57.0     
-70.0     -51.0     
-60.0     -46.0     
-55.0     -45.0     
-50.0     -44.0     
-45.0     -43.0     
-40.0     -42.0     
-35.0     -41.0     
-30.0     -39.0     
-25.0     -38.0     
-20.0     -36.0     
-15.0     -32.0     
-10.0     -28.0     
-6.0      -25.0     
-4.0      -23.0     
-2.5      -17.0     
-2.0      -17.0     
-1.5      -7.7      
-1.0      -3.3      
-0.8      -2.6      
-0.6      -2.0      
-0.4      -0.9      
-0.2      0.0       
0.0       0.0       
0.2       0.0       
0.4       -0.9      
0.6       -2.0      
0.8       -2.6      
1.0       -3.3      
1.5       -7.7      
2.0       -17.0     
2.5       -17.0     
4.0       -23.0     
6.0       -25.0     
10.0      -28.0     
15.0      -32.0     
20.0      -36.0     
25.0      -38.0     
30.0      -39.0     
35.0      -41.0     
40.0      -42.0     
45.0      -43.0     
50.0      -44.0     
55.0      -45.0     
60.0      -46.0     
70.0      -51.0     
80.0      -57.0     
90.0      -63.0     
100.0     -69.0     
180.0     -69.0     
HV    31
-180.0    -72.0     
-100.0    -72.0     
-70.0     -59.0     
-50.0     -55.0     
-45.0     -52.0     
-35.0     -50.0     
-25.0     -49.0     
-18.0     -49.0     
-15.0     -49.0     
-12.0     -48.0     
-8.0      -42.0     
-5.0      -40.0     
-2.5      -34.0     
-2.0      -30.0     
-1.0      -30.0     
0.0       -30.0     
1.0       -30.0     
2.0       -30.0     
2.5       -34.0     
5.0       -40.0     
8.0       -42.0     
12.0      -48.0     
15.0      -49.0     
18.0      -49.0     
25.0      -49.0     
35.0      -50.0     
45.0      -52.0     
50.0      -55.0     
70.0      -59.0     
100.0     -72.0     
180.0     -72.0     
VV    53
-180.0    -71.0     
-100.0    -71.0     
-90.0     -63.0     
-80.0     -60.0     
-70.0     -54.0     
-60.0     -48.0     
-55.0     -46.0     
-50.0     -45.0     
-45.0     -43.0     
-40.0     -42.0     
-35.0     -41.0     
-30.0     -40.0     
-25.0     -38.0     
-20.0     -35.0     
-15.0     -33.0     
-10.0     -29.0     
-6.0      -26.0     
-4.0      -25.0     
-2.5      -15.0     
-2.0      -15.0     
-1.5      -11.9     
-1.0      -5.1      
-0.8      -3.3      
-0.6      -1.9      
-0.4      -0.9      
-0.2      -0.3      
0.0       0.0       
0.2       -0.3      
0.4       -0.9      
0.6       -1.9      
0.8       -3.3      
1.0       -5.1      
1.5       -11.9     
2.0       -15.0     
2.5       -15.0     
4.0       -25.0     
6.0       -26.0     
10.0      -29.0     
15.0      -33.0     
20.0      -35.0     
25.0      -38.0     
30.0      -40.0     
35.0      -41.0     
40.0      -42.0     
45.0      -43.0     
50.0      -45.0     
55.0      -46.0     
60.0      -48.0     
70.0      -54.0     
80.0      -60.0     
90.0      -63.0     
100.0     -71.0     
180.0     -71.0     
VH    31
-180.0    -72.0     
-100.0    -72.0     
-70.0     -64.0     
-50.0     -55.0     
-45.0     -53.0     
-35.0     -51.0     
-25.0     -51.0     
-18.0     -51.0     
-15.0     -50.0     
-12.0     -48.0     
-8.0      -43.0     
-5.0      -39.0     
-2.5      -35.0     
-2.0      -30.0     
-1.0      -30.0     
0.0       -30.0     
1.0       -30.0     
2.0       -30.0     
2.5       -35.0     
5.0       -39.0     
8.0       -43.0     
12.0      -48.0     
15.0      -50.0     
18.0      -51.0     
25.0      -51.0     
35.0      -51.0     
45.0      -53.0     
50.0      -55.0     
70.0      -64.0     
100.0     -72.0     
180.0     -72.0     
