MOBI Antenna
MB71W-P12-VD
Very High Performance Antenna
NONE
NONE
11/12/2007
NONE
7100-8500 MHz
36.1
2.3
HH    53
-180.0    -64.0     
-100.0    -64.0     
-90.0     -64.0     
-80.0     -56.0     
-70.0     -50.0     
-60.0     -43.0     
-55.0     -43.0     
-50.0     -40.0     
-45.0     -40.0     
-40.0     -37.0     
-35.0     -37.0     
-30.0     -37.0     
-25.0     -37.0     
-20.0     -35.6     
-15.0     -35.6     
-10.0     -33.2     
-6.0      -25.9     
-4.0      -19.0     
-2.5      -19.0     
-2.0      -14.4     
-1.5      -7.5      
-1.0      -3.0      
-0.8      -1.8      
-0.6      -0.9      
-0.4      -0.4      
-0.2      -0.2      
0.0       0.0       
0.2       -0.2      
0.4       -0.4      
0.6       -0.9      
0.8       -1.8      
1.0       -3.0      
1.5       -7.5      
2.0       -14.4     
2.5       -19.0     
4.0       -19.0     
6.0       -25.9     
10.0      -33.2    
15.0      -35.6     
20.0      -35.6     
25.0      -37.0     
30.0      -37.0     
35.0      -37.0     
40.0      -37.0     
45.0      -40.0     
50.0      -40.0     
55.0      -43.0     
60.0      -43.0     
70.0      -50.0     
80.0      -56.0     
90.0      -64.0     
100.0     -64.0     
180.0     -64.0     
HV    31
-180.0    -65.0     
-100.0    -65.0     
-70.0     -60.0     
-50.0     -50.0     
-45.0     -50.0     
-35.0     -48.0     
-25.0     -43.0     
-18.0     -43.0     
-15.0     -43.0     
-12.0     -43.0     
-8.0      -40.0     
-5.0      -40.0     
-2.5      -30.0     
-2.0      -30.0     
-1.0      -30.0     
0.0       -30.0     
1.0       -30.0     
2.0       -30.0     
2.5       -30.0     
5.0       -40.0    
8.0       -40.0    
12.0      -43.0     
15.0      -43.0     
18.0      -43.0     
25.0      -43.0     
35.0      -48.0     
45.0      -50.0     
50.0      -50.0     
70.0      -60.0     
100.0     -65.0     
180.0     -65.0     
VV    53
-180.0    -63.0     
-100.0    -63.0     
-90.0     -61.0     
-80.0     -53.0     
-70.0     -48.0     
-60.0     -45.0     
-55.0     -45.0     
-50.0     -41.0     
-45.0     -41.0     
-40.0     -41.0     
-35.0     -34.0     
-30.0     -34.0     
-25.0     -34.0     
-20.0     -33.0     
-15.0     -33.0     
-10.0     -30.0     
-6.0      -30.0     
-4.0      -22.3     
-2.5      -22.3     
-2.0      -15.0     
-1.5      -8.6      
-1.0      -4.4      
-0.8      -3.1      
-0.6      -2.1      
-0.4      -1.2      
-0.2      -0.6      
0.0       0.0       
0.2       -0.6      
0.4       -1.2      
0.6       -2.1      
0.8       -3.1      
1.0       -4.4      
1.5       -8.6      
2.0       -15.0     
2.5       -22.3     
4.0       -22.3    
6.0       -30.0     
10.0      -30.0     
15.0      -33.0     
20.0      -33.0     
25.0      -34.0     
30.0      -34.0     
35.0      -34.0     
40.0      -41.0     
45.0      -41.0     
50.0      -41.0     
55.0      -45.0     
60.0      -45.0     
70.0      -48.0     
80.0      -53.0     
90.0      -61.0     
100.0     -63.0     
180.0     -63.0     
VH    31
-180.0    -64.0     
-100.0    -64.0     
-70.0     -55.0     
-50.0     -50.0     
-45.0     -50.0     
-35.0     -50.0     
-25.0     -45.0     
-18.0     -45.0     
-15.0     -42.0     
-12.0     -42.0     
-8.0      -42.0     
-5.0      -38.0     
-2.5      -30.0     
-2.0      -30.0     
-1.0      -30.0     
0.0       -30.0     
1.0       -30.0     
2.0       -30.0     
2.5       -30.0     
5.0       -38.0    
8.0       -42.0    
12.0      -42.0     
15.0      -45.0     
18.0      -45.0     
25.0      -45.0     
35.0      -50.0     
45.0      -50.0     
50.0      -50.0     
70.0      -55.0     
100.0     -64.0     
180.0     -64.0     
