RFS AUSTRALIA
MGA12-1721                    
GRID ANTENNA
NONE
NONE
31-03-94        
23144R010       
1700 - 2100 MHz 
25.3 dBi        
9.4 Deg         
HH      33
-180.0  -32.0
-130.0  -32.0
-100.0  -24.0
 -45.0  -24.0
 -15.0  -16.5
 -10.2  -16.5
  -9.8  -15.0
  -9.0  -12.5
  -8.2  -10.0
  -7.2   -7.5
  -6.5   -6.0
  -5.7   -4.5
  -4.7   -3.0
  -3.9   -2.0
  -2.8   -1.0
  -2.0   -0.5
   0.0    0.0
   2.0   -0.5
   2.8   -1.0
   3.9   -2.0
   4.7   -3.0
   5.7   -4.5
   6.5   -6.0
   7.2   -7.5
   8.2  -10.0
   9.0  -12.5
   9.8  -15.0
  10.2  -16.5
  15.0  -16.5
  45.0  -24.0
 100.0  -24.0
 130.0  -32.0
 180.0  -32.0
HV      05
-180.0  -37.0
 -20.0  -35.0
   0.0  -35.0
  20.0  -35.0
 180.0  -37.0
VV      33
-180.0  -32.0
-130.0  -32.0
-100.0  -24.0
 -45.0  -24.0
 -15.0  -16.5
  -9.2  -16.5
  -8.9  -15.0
  -8.3  -12.5
  -7.7  -10.0
  -6.9   -7.5
  -6.2   -6.0
  -5.4   -4.5
  -4.5   -3.0
  -3.6   -2.0
  -2.5   -1.0
  -1.8   -0.5
   0.0    0.0
   1.8   -0.5
   2.5   -1.0
   3.6   -2.0
   4.5   -3.0
   5.4   -4.5
   6.2   -6.0
   6.9   -7.5
   7.7  -10.0
   8.3  -12.5
   8.9  -15.0
   9.2  -16.5
  15.0  -16.5
  45.0  -24.0
 100.0  -24.0
 130.0  -32.0
 180.0  -32.0
VH      05
-180.0  -37.0
 -20.0  -35.0
   0.0  -35.0
  20.0  -35.0
 180.0  -37.0
