REVNUM:,NSMA 
REVDAT:,20100218
ANTMAN:,ZCG SCALAR
MODNUM:,GP-6850N
PATNUM:,0001
FEDORN:,NA
DESCR1:,
DESCR2:,
DESCR3:,
DESCR4:,
DESCR5:,
DTDATA:,20100215
LOWFRQ:,820
HGHFRQ:,960
GUNITS:,DBI/DBR
LWGAIN:,21.6
MDGAIN:,22.2
HGGAIN:,22.8
AZWIDT:,8.00
ELWIDT:,10.00
ATVSWR:,1.50
FRTOBA:,28.1
ELTILT:,0.00
PATTYP:,ENVELOPE
NOFREQ:,NA
PATFRE:,NA
NUMCUT:,4
PATCUT:,AZ
POLARI:,H/H
NUPOIN:,73
-180.00,-24.1111,
-170.00,-28.0556,
-160.00,-29.1111,
-150.00,-25.0556,
-140.00,-27.7222,
-130.00,-35.1111,
-120.00,-35.9444,
-110.00,-25.3333,
-100.00,-21.7778,
-90.00,-19.5278,
-80.00,-17.25,
-70.00,-17.25,
-60.00,-21.0278,
-50.00,-27.8889,
-40.00,-18.8611,
-30.00,-25.9444,
-20.00,-16.6944,
-19.00,-14.4722,
-18.00,-11.9722,
-17.00,-11.0833,
-16.00,-11.083,
-15.00,-10.4167,
-14.00,-10.5833,
-13.00,-10.8333,
-12.00,-12.0556,
-11.00,-15.3611,
-10.00,-21.2222,
-9.00,-21.2222,
-8.00,-23.9167,
-7.00,-17.8056,
-6.00,-12.2222,
-5.00,-7.5,
-4.00,-5.55556,
-3.00,-3.58333,
-2.00,-2.25,
-1.00,-0.75,
0.00,0.00,
1.00,-0.75,
2.00,-2.25,
3.00,-3.58333,
4.00,-5.55556,
5.00,-7.5,
6.00,-12.2222,
7.00,-17.8056,
8.00,-23.9167,
9.00,-21.2222,
10.00,-21.2222,
11.00,-15.3611,
12.00,-12.0556,
13.00,-10.8333,
14.00,-10.5833,
15.00,-10.4167,
16.00,-11.0833,
17.00,-11.0833,
18.00,-11.9722,
19.00,-14.4722,
20.00,-16.6944,
30.00,-25.9444,
40.00,-18.8611,
50.00,-27.8889,
60.00,-21.0278,
70.00,-17.25,
80.00,-17.25,
90.00,-19.5378,
100.00,-21.7778,
110.00,-25.3333,
120.00,-35.9444,
130.00,-35.1111,
140.00,-27.7222,
150.00,-25.0556,
160.00,-29.1111,
170.00,-28.0556,
180.00,-24.1111,
PATCUT:,AZ
POLARI:,H/V
NUPOIN:,5
-180.00,38.00,
-15.00,-38.00,
0.00,-30.00,
15.00,-38.00,
180.00,-38.00,
PATCUT:,V/V
NUPOIN:,73
-180.00,-21.1111,
-170.00,-31.4444,
-160.00,-31.1389,
-150.00,-34.75,
-140.00,-28.8611,
-130.00,-32.7778,
-120.00,-31.5833,
-110.00,-34.4444,
-100.00,-31.4444,
-90.00,-33.6389,
-80.00,-34.8889,
-70.00,-30.75,
-60.00,-33.7222,
-50.00,-27.8611,
-40.00,-28.1944,
-30.00,-25.6944,
-20.00,-16.3611,
-19.00,-15.8056,
-18.00,-15.3333,
-17.00,-14.8333,
-16.00,-14.8333,
-15.00,-14.3611,
-14.00,-14.3611,
-13.00,-13.9167,
-12.00,-12.6944,
-11.00,-11.0833,
-10.00,-9.3611,
-9.00,-7.08333,
-8.00,-5.86111,
-7.00,-5.86111,
-6.00,-4.08333,
-5.00,-3.16667,
-4.00,-2.19444,
-3.00,-1.16667,
-2.00,-0.527778,
-1.00,-0.0277773,
0.00,0.00,
1.00,-0.0277773,
2.00,-0.527778,
3.00,-1.16667,
4.00,-2.19444,
5.00,-3.16669,
6.00,-4.08333,
7.00,-5.86111,
8.00,-5.86111,
9.00,-7.08333,
10.00,-9.36111,
11.00,-11.0833,
12.00,-12.6944,
13.00,-13.9467,
14.00,-14.3611,
15.00,-14.3611,
16.00,-14.8333,
17.00,-14.8333,
18.00,-15.3333,
19.00,-15.8056,
20.00,-16.3611,
30.00,-25.6944,
40.00,-28.1944,
50.00,-27.8611,
60.00,-33.7222,
70.00,-30.75,
80.00,-34.8889,
90.00,-33.6389,
100.00,-31.4444,
110.00,-34.4444,
120.00,-31.5833,
130.00,-32.7778,
140.00,-28.8611,
150.00,-34.75,
160.00,-31.1389,
170.00,-31.4444,
180.00,-28.1111,
PATCUT:,AZ
POLARI:,V/H
NUPOIN:,9
-180.00,-38.00
-40.00,-37.00
-30.00,-37.00
-15.00,-37.00
0.00,-28.00
15.00,-37.00
30.00,-37.00
40.00,-37.00
180.00,-38.00
ENDFIL:,EOF