Andrew Corp
P10-65D              
                              
NONE            
NONE            
 5- 1-75         
2628             
6425-7125    MHZ   
43.90 dBi       
1.0 DEGREES     
HH      29
-180.0  -52.0
-175.0  -52.0
-175.0  -60.0
-105.5  -60.0
 -95.0  -49.0
 -30.0  -46.0
 -25.0  -46.0
 -20.0  -42.0
 -15.0  -42.0
  -3.5  -25.0
  -1.5  -25.0
  -1.2  -10.0
  -1.0   -6.0
  -0.5   -1.9
   0.0    0.0
   0.5   -1.9
   1.0   -6.0
   1.2  -10.0
   1.5  -25.0
   3.5  -25.0
  15.0  -42.0
  20.0  -42.0
  25.0  -46.0
  30.0  -46.0
  95.0  -49.0
 105.5  -60.0
 175.0  -60.0
 175.0  -52.0
 180.0  -52.0
HV      19
-180.0  -59.0
-176.0  -59.0
-176.0  -63.0
-110.0  -63.0
 -15.0  -54.1
  -9.0  -50.0
  -6.0  -38.0
  -3.0  -38.0
  -3.0  -30.0
   0.0  -30.0
   3.0  -30.0
   3.0  -38.0
   6.0  -38.0
   9.0  -50.0
  15.0  -54.1
 110.0  -63.0
 176.0  -63.0
 176.0  -59.0
 180.0  -59.0
VV      25
-180.0  -52.0
-175.0  -52.0
-175.0  -60.0
-105.5  -60.0
 -95.5  -50.0
 -45.0  -50.0
 -24.0  -36.0
 -15.0  -36.0
  -3.5  -25.0
  -1.2  -10.0
  -1.0   -6.0
  -0.5   -1.9
   0.0    0.0
   0.5   -1.9
   1.0   -6.0
   1.2  -10.0
   3.5  -25.0
  15.0  -36.0
  24.0  -36.0
  45.0  -50.0
  95.5  -50.0
 105.5  -60.0
 175.0  -60.0
 175.0  -52.0
 180.0  -52.0
VH      21
-180.0  -59.0
-176.0  -59.0
-176.0  -63.0
-100.0  -63.0
 -55.0  -55.0
 -31.5  -55.0
 -15.0  -52.5
  -7.0  -43.0
  -5.0  -43.0
  -2.5  -30.0
   0.0  -30.0
   2.5  -30.0
   5.0  -43.0
   7.0  -43.0
  15.0  -52.5
  31.5  -55.0
  55.0  -55.0
 100.0  -63.0
 176.0  -63.0
 176.0  -59.0
 180.0  -59.0
