Andrew
P12-122E                      
                              
AA1413          
NONE            
10-22-81         
3264             
12200-13250  MHZ   
50.90 dBi       
0.5 DEGREES     
HH      37
-180.0  -58.0
-170.0  -58.0
-170.0  -70.0
-125.0  -70.0
-104.0  -55.0
-100.0  -55.0
-100.0  -52.0
 -60.0  -50.0
 -15.0  -50.0
 -14.5  -47.0
 -12.0  -46.0
  -7.5  -46.0
  -6.5  -39.0
  -4.0  -38.0
  -1.5  -25.0
  -1.0  -25.0
  -0.5  -10.0
  -0.3   -0.6
   0.0    0.0
   0.3   -0.6
   0.5  -10.0
   1.0  -25.0
   1.5  -25.0
   4.0  -38.0
   6.5  -39.0
   7.5  -46.0
  12.0  -46.0
  14.5  -47.0
  15.0  -50.0
  60.0  -50.0
 100.0  -52.0
 100.0  -55.0
 104.0  -55.0
 125.0  -70.0
 170.0  -70.0
 170.0  -58.0
 180.0  -58.0
HV      17
-180.0  -70.0
 -15.0  -70.0
 -10.0  -69.0
  -8.0  -67.1
  -4.0  -61.0
  -3.0  -52.0
  -1.5  -48.0
  -0.5  -30.0
   0.0  -30.0
   0.5  -30.0
   1.5  -48.0
   3.0  -52.0
   4.0  -61.0
   8.0  -67.1
  10.0  -69.0
  15.0  -70.0
 180.0  -70.0
VH      33
-180.0  -58.0
-170.0  -58.0
-170.0  -70.0
-125.0  -70.0
-103.0  -55.0
-101.0  -55.0
-100.0  -53.0
 -20.0  -53.0
 -15.0  -50.5
 -11.8  -42.0
  -7.5  -40.0
  -5.0  -33.0
  -2.0  -33.0
  -1.0  -25.0
  -0.5  -10.0
  -0.3   -0.6
   0.0    0.0
   0.3   -0.6
   0.5  -10.0
   1.0  -25.0
   2.0  -33.0
   5.0  -33.0
   7.5  -40.0
  11.8  -42.0
  15.0  -50.5
  20.0  -53.0
 100.0  -53.0
 101.0  -55.0
 103.0  -55.0
 125.0  -70.0
 170.0  -70.0
 170.0  -58.0
 180.0  -58.0
VH      23
-180.0  -70.0
-120.0  -70.0
-110.0  -68.0
 -75.0  -68.0
 -60.0  -64.0
 -15.0  -64.0
  -7.5  -64.0
  -5.4  -56.0
  -2.5  -56.0
  -1.5  -48.0
  -0.5  -30.0
   0.0  -30.0
   0.5  -30.0
   1.5  -48.0
   2.5  -56.0
   5.4  -56.0
   7.5  -64.0
  15.0  -64.0
  60.0  -64.0
  75.0  -68.0
 110.0  -68.0
 120.0  -70.0
 180.0  -70.0
