MARK ANTENNAS DIV. RSInc.     
P-230C24(*)
S   2SS    101        B 224009
80012M
(NO REVERSE PATTERN)
12-13-92
(none)          
21200-23600 MHz 
40.4 dBi        
1.6 Deg         
HH      35
-180.0  -55.0
-145.0  -55.0
-114.0  -45.0
 -66.0  -45.0
 -60.0  -42.0
 -30.0  -42.0
 -28.5  -36.2
 -20.0  -36.2
 -19.5  -33.0
 -11.5  -33.0
 -10.5  -29.0
  -7.5  -29.0
  -7.0  -27.0
  -4.5  -27.0
  -1.5  -10.0
  -0.8   -3.0
  -0.4   -1.0
   0.0    0.0
   0.4   -1.0
   0.8   -3.0
   1.5  -10.0
   4.5  -27.0
   7.0  -27.0
   7.5  -29.0
  10.5  -29.0
  11.5  -33.0
  19.5  -33.0
  20.0  -36.2
  28.5  -36.2
  30.0  -42.0
  60.0  -42.0
  66.0  -45.0
 114.0  -45.0
 124.0  -55.0
 180.0  -55.0
HV      17
-180.0  -65.0
 -80.0  -65.0
 -70.0  -52.0
 -40.0  -52.0
 -36.0  -46.0
 -10.0  -46.0
  -4.0  -42.0
  -2.0  -30.0
   0.0  -30.0
   2.0  -30.0
   4.0  -42.0
  10.0  -46.0
  36.0  -46.0
  40.0  -52.0
  70.0  -52.0
  80.0  -65.0
 180.0  -65.0
VV      01
   0.0    0.0
VH      01
   0.0    0.0
     
VV       31
-180    -55     
-124    -55     
-109    -45     
-70     -42     
-30     -42     
-28.5   -36.2   
-16.5   -36.2   
-11.5   -32     
-6      -32     
-5      -29     
-4.5    -29     
-3.5    -23     
-2.5    -23     
-1.5    -10     
-.8     -3      
-.45    -1      
0        0      
.45     -1      
.8      -3      
1.5     -10     
2.5     -25     
7       -25     
8       -29     
12.5    -31     
13.5    -36     
17.5    -38     
29      -38     
30      -44     
110     -45     
124     -55     
 180    -55     
VH       24
-180    -65     
-100    -65     
-82     -52     
-50     -52     
-44     -50     
-20     -50     
-17     -48     
-7.5    -48     
-6      -44     
-4      -44     
-2      -30
0       -30     
2       -30     
4       -38     
6       -38     
9       -46     
10.5    -46     
12      -50     
14      -52     
29      -52     
32      -54     
70      -54     
86      -65     
 180    -65     
ELHH       0
ELHV       0
ELVV       0
ELVH       0
