Andrew Corp
P6-15C                        
                              
NONE            
NONE            
 4-16-87         
1513             
1427-1535    MHZ   
26.50 dBi       
7.8 DEGREES     
HH      43
-180.0  -32.0
-171.0  -32.0
-171.0  -34.9
-137.5  -34.9
 -95.0  -25.7
 -28.0  -25.7
 -15.0  -18.4
 -15.0  -17.0
  -8.3  -17.0
  -8.0  -15.7
  -7.0  -10.9
  -6.0   -7.5
  -5.0   -5.1
  -4.5   -4.2
  -4.0   -3.4
  -3.5   -2.9
  -3.0   -2.2
  -2.5   -1.7
  -2.0   -1.1
  -1.5   -0.8
  -1.0   -0.4
   0.0    0.0
   1.0   -0.4
   1.5   -0.8
   2.0   -1.1
   2.5   -1.7
   3.0   -2.2
   3.5   -2.9
   4.0   -3.4
   4.5   -4.2
   5.0   -5.1
   6.0   -7.5
   7.0  -10.9
   8.0  -15.7
   8.3  -17.0
  15.0  -17.0
  15.0  -18.4
  28.0  -25.7
  95.0  -25.7
 137.5  -34.9
 171.0  -34.9
 171.0  -32.0
 180.0  -32.0
HV      15
-180.0  -43.0
 -96.0  -43.0
 -89.9  -38.0
 -53.0  -38.0
 -53.0  -42.0
 -14.8  -42.0
  -6.8  -30.0
   0.0  -30.0
   6.8  -30.0
  14.8  -42.0
  53.0  -42.0
  53.0  -38.0
  89.9  -38.0
  96.0  -43.0
 180.0  -43.0
VV      45
-180.0  -32.0
-159.5  -32.0
-159.5  -38.0
-132.0  -38.0
 -99.0  -28.1
 -89.0  -28.1
 -83.5  -29.5
 -27.0  -29.5
 -23.0  -17.0
  -8.3  -17.0
  -8.0  -15.7
  -7.0  -10.9
  -6.0   -7.5
  -5.0   -5.1
  -4.5   -4.2
  -4.0   -3.4
  -3.5   -2.9
  -3.0   -2.2
  -2.5   -1.7
  -2.0   -1.1
  -1.5   -0.8
  -1.0   -0.4
   0.0    0.0
   1.0   -0.4
   1.5   -0.8
   2.0   -1.1
   2.5   -1.7
   3.0   -2.2
   3.5   -2.9
   4.0   -3.4
   4.5   -4.2
   5.0   -5.1
   6.0   -7.5
   7.0  -10.9
   8.0  -15.7
   8.3  -17.0
  23.0  -17.0
  27.0  -29.5
  83.5  -29.5
  89.0  -28.1
  99.0  -28.1
 132.0  -38.0
 159.5  -38.0
 159.5  -32.0
 180.0  -32.0
VH      21
-180.0  -43.0
-165.0  -43.0
-159.0  -41.0
-141.0  -41.0
-117.0  -36.5
 -66.0  -36.5
 -53.0  -39.0
 -26.5  -39.0
 -15.0  -34.1
  -6.8  -30.0
   0.0  -30.0
   6.8  -30.0
  15.0  -34.1
  26.5  -39.0
  53.0  -39.0
  66.0  -36.5
 117.0  -36.5
 141.0  -41.0
 159.0  -41.0
 165.0  -43.0
 180.0  -43.0
