Andrew Corp
P6F-17C                       
                              
NONE            
NONE            
 1-25-82         
2274             
1700-2110    MHZ   
28.60 dBi       
6.0 DEGREES     
HH      37
-180.0  -36.0
-135.0  -36.0
-111.5  -30.0
-100.0  -30.0
-100.0  -28.1
 -45.0  -28.1
 -23.5  -23.0
 -15.0  -23.0
 -13.0  -21.1
 -13.0  -19.1
  -8.5  -19.1
  -4.0   -5.4
  -3.0   -3.2
  -2.5   -2.3
  -2.0   -1.8
  -1.5   -0.9
  -1.0   -0.7
  -0.5   -0.3
   0.0    0.0
   0.5   -0.3
   1.0   -0.7
   1.5   -0.9
   2.0   -1.8
   2.5   -2.3
   3.0   -3.2
   4.0   -5.4
   8.5  -19.1
  13.0  -19.1
  13.0  -21.1
  15.0  -23.0
  23.5  -23.0
  45.0  -28.1
 100.0  -28.1
 100.0  -30.0
 111.5  -30.0
 135.0  -36.0
 180.0  -36.0
HV      15
-180.0  -45.7
-105.0  -45.7
-105.0  -43.5
 -90.0  -43.5
 -90.0  -45.7
 -11.0  -45.7
  -6.0  -30.0
   0.0  -30.0
   6.0  -30.0
  11.0  -45.7
  90.0  -45.7
  90.0  -43.5
 105.0  -43.5
 105.0  -45.7
 180.0  -45.7
VV      37
-180.0  -36.0
-135.0  -36.0
-111.5  -30.0
-100.0  -30.0
-100.0  -28.2
 -45.0  -28.2
 -23.5  -23.0
 -15.0  -23.0
 -13.0  -21.1
 -13.0  -19.1
  -8.5  -19.1
  -4.0   -5.4
  -3.0   -3.2
  -2.5   -2.3
  -2.0   -1.8
  -1.5   -0.9
  -1.0   -0.7
  -0.5   -0.3
   0.0    0.0
   0.5   -0.3
   1.0   -0.7
   1.5   -0.9
   2.0   -1.8
   2.5   -2.3
   3.0   -3.2
   4.0   -5.4
   8.5  -19.1
  13.0  -19.1
  13.0  -21.1
  15.0  -23.0
  23.5  -23.0
  45.0  -28.2
 100.0  -28.2
 100.0  -30.0
 111.5  -30.0
 135.0  -36.0
 180.0  -36.0
VH      15
-180.0  -45.7
-105.0  -45.7
-105.0  -43.5
 -90.0  -43.5
 -90.0  -45.7
 -11.0  -45.7
  -6.0  -30.0
   0.0  -30.0
   6.0  -30.0
  11.0  -45.7
  90.0  -45.7
  90.0  -43.5
 105.0  -43.5
 105.0  -45.7
 180.0  -45.7
