Andrew Corp
P8-144E                       
                              
NONE            
NONE            
 1-19-81         
1505             
14400-15350  MHZ   
48.60 dBi       
0.6 DEGREES     
HH      23
-180.0  -57.0
-175.0  -57.0
-168.5  -65.0
-130.0  -65.0
-110.0  -49.0
 -40.0  -49.0
 -15.0  -47.0
  -4.5  -36.0
  -1.0  -20.0
  -0.5   -3.0
  -0.3   -1.0
   0.0    0.0
   0.3   -1.0
   0.5   -3.0
   1.0  -20.0
   4.5  -36.0
  15.0  -47.0
  40.0  -49.0
 110.0  -49.0
 130.0  -65.0
 168.5  -65.0
 175.0  -57.0
 180.0  -57.0
HV      19
-180.0  -57.0
-175.0  -57.0
-168.5  -65.0
-130.0  -65.0
-124.0  -60.0
 -15.0  -60.0
  -9.9  -50.1
  -1.5  -40.0
  -1.0  -30.0
   0.0  -30.0
   1.0  -30.0
   1.5  -40.0
   9.9  -50.1
  15.0  -60.0
 124.0  -60.0
 130.0  -65.0
 168.5  -65.0
 175.0  -57.0
 180.0  -57.0
VV      23
-180.0  -57.0
-175.0  -57.0
-168.5  -65.0
-130.0  -65.0
-110.0  -51.0
 -45.0  -51.0
 -15.0  -40.0
  -3.5  -31.9
  -1.0  -20.0
  -0.5   -3.0
  -0.3   -1.0
   0.0    0.0
   0.3   -1.0
   0.5   -3.0
   1.0  -20.0
   3.5  -31.9
  15.0  -40.0
  45.0  -51.0
 110.0  -51.0
 130.0  -65.0
 168.5  -65.0
 175.0  -57.0
 180.0  -57.0
VH      19
-180.0  -57.0
-175.0  -57.0
-168.5  -65.0
-130.0  -65.0
-124.0  -60.0
 -13.0  -60.0
  -1.5  -42.0
  -1.5  -40.0
  -1.0  -30.0
   0.0  -30.0
   1.0  -30.0
   1.5  -40.0
   1.5  -42.0
  13.0  -60.0
 124.0  -60.0
 130.0  -65.0
 168.5  -65.0
 175.0  -57.0
 180.0  -57.0
