Andrew Corp
P8-71D                        
                              
NONE            
NONE            
 5-28-74         
2739             
7125-7750    MHZ   
43.00 dBi       
1.1 DEGREES     
HH      33
-180.0  -50.0
-175.0  -50.0
-175.0  -55.0
-125.0  -55.0
-109.5  -43.0
-100.0  -43.0
 -91.5  -46.0
 -28.0  -46.0
 -25.0  -43.0
 -12.5  -43.0
 -10.0  -35.0
  -3.5  -27.0
  -1.7  -24.4
  -1.5  -15.0
  -1.0   -4.0
  -0.5   -1.2
   0.0    0.0
   0.5   -1.2
   1.0   -4.0
   1.5  -15.0
   1.7  -24.4
   3.5  -27.0
  10.0  -35.0
  12.5  -43.0
  25.0  -43.0
  28.0  -46.0
  91.5  -46.0
 100.0  -43.0
 109.5  -43.0
 125.0  -55.0
 175.0  -55.0
 175.0  -50.0
 180.0  -50.0
HV      19
-180.0  -56.0
-176.5  -56.0
-176.5  -62.0
-120.0  -62.0
-110.0  -54.0
  -8.5  -54.0
  -6.0  -37.0
  -3.0  -37.0
  -3.0  -30.0
   0.0  -30.0
   3.0  -30.0
   3.0  -37.0
   6.0  -37.0
   8.5  -54.0
 110.0  -54.0
 120.0  -62.0
 176.5  -62.0
 176.5  -56.0
 180.0  -56.0
VV      31
-180.0  -50.0
-176.0  -50.0
-176.0  -55.0
-120.0  -55.0
-109.0  -42.0
 -95.0  -42.0
 -90.0  -44.0
 -23.0  -44.0
 -17.5  -35.2
 -15.0  -35.0
  -3.5  -24.1
  -1.7  -24.1
  -1.5  -15.0
  -1.0   -4.0
  -0.5   -1.2
   0.0    0.0
   0.5   -1.2
   1.0   -4.0
   1.5  -15.0
   1.7  -24.1
   3.5  -24.1
  15.0  -35.0
  17.5  -35.2
  23.0  -44.0
  90.0  -44.0
  95.0  -42.0
 109.0  -42.0
 120.0  -55.0
 176.0  -55.0
 176.0  -50.0
 180.0  -50.0
VH      15
-180.0  -56.0
-176.5  -56.0
-176.5  -60.0
-120.0  -60.0
-110.0  -54.0
 -15.0  -54.0
  -2.5  -30.0
   0.0  -30.0
   2.5  -30.0
  15.0  -54.0
 110.0  -54.0
 120.0  -60.0
 176.5  -60.0
 176.5  -56.0
 180.0  -56.0
