RFS kabelmetal
PAL 6 - 71
NONE
NONE
NONE
21.10.96
HTT 950627a
7125 - 7750
40.5
1.5
HH           72 
 -180.0   -48.0 
 -175.0   -48.0 
 -170.0   -52.0 
 -125.0   -52.0 
 -105.0   -42.0 
  -35.0   -42.0 
  -25.0   -40.0 
  -20.0   -36.0 
  -14.0   -36.0 
  -11.0   -30.0 
   -6.5   -30.0 
   -6.0   -26.0 
   -3.5   -26.0 
   -2.5   -22.0 
   -2.0   -13.7 
   -1.9   -12.4 
   -1.8   -11.1 
   -1.7    -9.9 
   -1.6    -8.8 
   -1.5    -7.7 
   -1.4    -6.7 
   -1.3    -5.8 
   -1.2    -4.9 
   -1.1    -4.1 
   -1.0    -3.4 
   -0.9    -2.8 
   -0.8    -2.2 
   -0.7    -1.7 
   -0.6    -1.2 
   -0.5    -0.9 
   -0.4    -0.5 
   -0.3    -0.3 
   -0.2    -0.1 
   -0.1    -0.0 
    0.0    -0.0 
    0.1    -0.0 
    0.2    -0.1 
    0.3    -0.3 
    0.4    -0.5 
    0.5    -0.9 
    0.6    -1.2 
    0.7    -1.7 
    0.8    -2.2 
    0.9    -2.8 
    1.0    -3.4 
    1.1    -4.1 
    1.2    -4.9 
    1.3    -5.8 
    1.4    -6.7 
    1.5    -7.7 
    1.6    -8.8 
    1.7    -9.9 
    1.8   -11.1 
    1.9   -12.4 
    2.0   -13.7 
    2.1   -15.1 
    2.2   -16.6 
    2.3   -18.1 
    2.5   -22.0 
    3.5   -26.0 
    6.0   -26.0 
    6.5   -30.0 
   11.0   -30.0 
   14.0   -36.0 
   20.0   -36.0 
   25.0   -40.0 
   35.0   -42.0 
  105.0   -42.0 
  125.0   -52.0 
  170.0   -52.0 
  175.0   -48.0 
  180.0   -48.0 
HV           21 
 -180.0   -58.0 
  -60.0   -58.0 
  -55.0   -54.0 
  -35.0   -52.0 
  -25.0   -52.0 
  -20.0   -50.0 
  -11.0   -50.0 
   -8.5   -44.0 
   -2.5   -42.0 
   -1.5   -30.0 
    0.0   -30.0 
    1.5   -30.0 
    2.5   -42.0 
    8.5   -44.0 
   11.0   -50.0 
   20.0   -50.0 
   25.0   -52.0 
   35.0   -52.0 
   55.0   -54.0 
   60.0   -58.0 
  180.0   -58.0 
VV           66 
 -180.0   -48.0 
 -175.0   -48.0 
 -170.0   -52.0 
 -125.0   -52.0 
 -105.0   -42.0 
  -40.0   -42.0 
  -25.0   -38.0 
  -20.0   -33.0 
  -15.0   -31.0 
  -10.0   -27.0 
   -2.5   -26.0 
   -2.0   -13.7 
   -1.9   -12.4 
   -1.8   -11.1 
   -1.7    -9.9 
   -1.6    -8.8 
   -1.5    -7.7 
   -1.4    -6.7 
   -1.3    -5.8 
   -1.2    -4.9 
   -1.1    -4.1 
   -1.0    -3.4 
   -0.9    -2.8 
   -0.8    -2.2 
   -0.7    -1.7 
   -0.6    -1.2 
   -0.5    -0.9 
   -0.4    -0.5 
   -0.3    -0.3 
   -0.2    -0.1 
   -0.1    -0.0 
    0.0    -0.0 
    0.1    -0.0 
    0.2    -0.1 
    0.3    -0.3 
    0.4    -0.5 
    0.5    -0.9 
    0.6    -1.2 
    0.7    -1.7 
    0.8    -2.2 
    0.9    -2.8 
    1.0    -3.4 
    1.1    -4.1 
    1.2    -4.9 
    1.3    -5.8 
    1.4    -6.7 
    1.5    -7.7 
    1.6    -8.8 
    1.7    -9.9 
    1.8   -11.1 
    1.9   -12.4 
    2.0   -13.7 
    2.1   -15.1 
    2.2   -16.6 
    2.3   -18.1 
    2.5   -26.0 
   10.0   -27.0 
   15.0   -31.0 
   20.0   -33.0 
   25.0   -38.0 
   40.0   -42.0 
  105.0   -42.0 
  125.0   -52.0 
  170.0   -52.0 
  175.0   -48.0 
  180.0   -48.0 
VH           23 
 -180.0   -58.0 
  -80.0   -58.0 
  -75.0   -57.0 
  -60.0   -57.0 
  -55.0   -55.0 
  -40.0   -53.0 
  -20.0   -53.0 
  -15.0   -52.0 
  -12.0   -45.0 
   -3.0   -45.0 
   -1.5   -30.0 
    0.0   -30.0 
    1.5   -30.0 
    3.0   -45.0 
   12.0   -45.0 
   15.0   -52.0 
   20.0   -53.0 
   40.0   -53.0 
   55.0   -55.0 
   60.0   -57.0 
   75.0   -57.0 
   80.0   -58.0 
  180.0   -58.0 
