Andrew Corp
PL15-21A                      
                              
A30206          
NONE            
 7-11-90         
1417             
2100-2200    MHZ   
37.60 dBi       
2.2 DEGREES     
HH      39
-180.0  -50.0
-122.0  -50.0
 -94.5  -37.0
 -64.0  -37.0
 -46.0  -40.0
 -36.0  -40.0
 -24.0  -37.2
 -15.0  -30.4
 -10.0  -24.4
  -4.0  -23.0
  -3.5  -19.0
  -3.0  -15.0
  -2.5  -11.4
  -2.0   -7.7
  -1.5   -4.7
  -1.0   -2.0
  -0.8   -1.1
  -0.5   -0.5
  -0.3   -0.1
   0.0    0.0
   0.3   -0.1
   0.5   -0.5
   0.8   -1.1
   1.0   -2.0
   1.5   -4.7
   2.0   -7.7
   2.5  -11.4
   3.0  -15.0
   3.5  -19.0
   4.0  -23.0
  10.0  -24.4
  15.0  -30.4
  24.0  -37.2
  36.0  -40.0
  46.0  -40.0
  64.0  -37.0
  94.5  -37.0
 122.0  -50.0
 180.0  -50.0
HV       7
-180.0  -51.0
  -7.5  -51.0
  -2.5  -30.0
   0.0  -30.0
   2.5  -30.0
   7.5  -51.0
 180.0  -51.0
VV      39
-180.0  -50.0
-122.0  -50.0
 -94.5  -37.0
 -64.0  -37.0
 -46.0  -40.0
 -36.0  -40.0
 -24.0  -37.2
 -15.0  -30.4
 -10.0  -24.4
  -4.0  -23.0
  -3.5  -19.0
  -3.0  -15.0
  -2.5  -11.4
  -2.0   -7.7
  -1.5   -4.7
  -1.0   -2.0
  -0.8   -1.1
  -0.5   -0.5
  -0.3   -0.1
   0.0    0.0
   0.3   -0.1
   0.5   -0.5
   0.8   -1.1
   1.0   -2.0
   1.5   -4.7
   2.0   -7.7
   2.5  -11.4
   3.0  -15.0
   3.5  -19.0
   4.0  -23.0
  10.0  -24.4
  15.0  -30.4
  24.0  -37.2
  36.0  -40.0
  46.0  -40.0
  64.0  -37.0
  94.5  -37.0
 122.0  -50.0
 180.0  -50.0
VH       7
-180.0  -51.0
  -7.5  -51.0
  -2.5  -30.0
   0.0  -30.0
   2.5  -30.0
   7.5  -51.0
 180.0  -51.0
