Andrew Corp
PL6-77GE                      
                              
NONE            
NONE            
 7-12-78         
3721             
7750-8400    MHZ   
40.80 dBi       
1.5 DEGREES     
HH      37
-180.0  -48.0
-170.0  -48.0
-170.0  -57.0
-139.0  -57.0
-109.5  -43.0
 -50.0  -43.0
 -45.0  -41.0
 -25.0  -39.0
 -15.0  -39.0
 -11.3  -34.0
  -7.3  -34.0
  -6.3  -30.0
  -3.9  -24.0
  -2.0  -24.0
  -2.0  -23.0
  -1.5   -9.0
  -1.0   -2.9
  -0.5   -0.8
   0.0    0.0
   0.5   -0.8
   1.0   -2.9
   1.5   -9.0
   2.0  -23.0
   2.0  -24.0
   3.9  -24.0
   6.3  -30.0
   7.3  -34.0
  11.3  -34.0
  15.0  -39.0
  25.0  -39.0
  45.0  -41.0
  50.0  -43.0
 109.5  -43.0
 139.0  -57.0
 170.0  -57.0
 170.0  -48.0
 180.0  -48.0
HV      29
-180.0  -57.0
-170.0  -57.0
-170.0  -61.0
-115.0  -61.0
-100.0  -55.9
 -44.0  -55.9
 -39.5  -52.9
 -19.0  -52.9
 -15.0  -51.4
 -13.0  -48.0
  -6.5  -48.0
  -5.0  -46.0
  -2.4  -46.0
  -1.4  -30.0
   0.0  -30.0
   1.4  -30.0
   2.4  -46.0
   5.0  -46.0
   6.5  -48.0
  13.0  -48.0
  15.0  -51.4
  19.0  -52.9
  39.5  -52.9
  44.0  -55.9
 100.0  -55.9
 115.0  -61.0
 170.0  -61.0
 170.0  -57.0
 180.0  -57.0
VV      37
-180.0  -48.0
-170.0  -48.0
-170.0  -57.0
-125.0  -57.0
-105.0  -43.0
 -95.0  -43.0
 -80.0  -48.0
 -60.0  -48.0
 -35.0  -38.0
 -25.0  -36.0
 -15.0  -36.0
 -14.4  -32.0
  -8.9  -32.0
  -4.0  -23.0
  -2.0  -23.0
  -1.5   -9.0
  -1.0   -2.9
  -0.5   -0.8
   0.0    0.0
   0.5   -0.8
   1.0   -2.9
   1.5   -9.0
   2.0  -23.0
   4.0  -23.0
   8.9  -32.0
  14.4  -32.0
  15.0  -36.0
  25.0  -36.0
  35.0  -38.0
  60.0  -48.0
  80.0  -48.0
  95.0  -43.0
 105.0  -43.0
 125.0  -57.0
 170.0  -57.0
 170.0  -48.0
 180.0  -48.0
VH      25
-180.0  -57.0
-170.0  -57.0
-170.0  -61.0
-120.0  -61.0
-110.0  -55.9
 -30.0  -55.9
 -15.0  -53.7
 -12.9  -52.9
  -8.0  -52.9
  -3.5  -51.0
  -2.4  -46.0
  -1.4  -30.0
   0.0  -30.0
   1.4  -30.0
   2.4  -46.0
   3.5  -51.0
   8.0  -52.9
  12.9  -52.9
  15.0  -53.7
  30.0  -55.9
 110.0  -55.9
 120.0  -61.0
 170.0  -61.0
 170.0  -57.0
 180.0  -57.0
