Andrew Corp
PL6-71GD                      
                              
NONE            
NONE            
 5- 6-76         
2704             
7125-7750    MHZ   
40.00 dBi       
1.5 DEGREES     
HH      33
-180.0  -48.0
-170.0  -48.0
-170.0  -55.0
-140.0  -55.0
-110.0  -42.0
 -40.0  -42.0
 -30.0  -40.0
 -15.0  -39.0
 -11.8  -34.0
  -8.4  -34.0
  -4.5  -25.0
  -2.1  -25.0
  -2.0  -20.0
  -1.5   -8.0
  -1.0   -2.3
  -0.5   -0.7
   0.0    0.0
   0.5   -0.7
   1.0   -2.3
   1.5   -8.0
   2.0  -20.0
   2.1  -25.0
   4.5  -25.0
   8.4  -34.0
  11.8  -34.0
  15.0  -39.0
  30.0  -40.0
  40.0  -42.0
 110.0  -42.0
 140.0  -55.0
 170.0  -55.0
 170.0  -48.0
 180.0  -48.0
HV      21
-180.0  -55.0
-170.0  -55.0
-170.0  -60.0
-120.0  -60.0
 -99.5  -53.0
 -23.0  -53.0
 -15.0  -51.0
  -8.0  -46.0
  -2.3  -46.0
  -1.5  -30.0
   0.0  -30.0
   1.5  -30.0
   2.3  -46.0
   8.0  -46.0
  15.0  -51.0
  23.0  -53.0
  99.5  -53.0
 120.0  -60.0
 170.0  -60.0
 170.0  -55.0
 180.0  -55.0
VV      37
-180.0  -48.0
-170.0  -48.0
-170.0  -55.0
-140.0  -55.0
-106.0  -42.0
 -95.0  -42.0
 -65.0  -47.0
 -50.0  -47.0
 -35.0  -38.0
 -15.0  -35.0
 -13.5  -32.0
  -9.0  -32.0
  -4.0  -23.0
  -2.1  -23.0
  -2.0  -20.0
  -1.5   -8.0
  -1.0   -2.3
  -0.5   -0.7
   0.0    0.0
   0.5   -0.7
   1.0   -2.3
   1.5   -8.0
   2.0  -20.0
   2.1  -23.0
   4.0  -23.0
   9.0  -32.0
  13.5  -32.0
  15.0  -35.0
  35.0  -38.0
  50.0  -47.0
  65.0  -47.0
  95.0  -42.0
 106.0  -42.0
 140.0  -55.0
 170.0  -55.0
 170.0  -48.0
 180.0  -48.0
VH      17
-180.0  -55.0
-170.0  -55.0
-170.0  -60.0
-125.0  -60.0
-115.0  -54.9
  -7.4  -54.9
  -3.0  -47.0
  -1.5  -30.0
   0.0    0.0
   1.5  -30.0
   3.0  -47.0
   7.4  -54.9
 115.0  -54.9
 125.0  -60.0
 170.0  -60.0
 170.0  -55.0
 180.0  -55.0
