Andrew Corp
PL8-77GE                      
                              
NONE            
NONE            
 7-12-78         
2760             
7750-8400    MHZ   
43.30 dBi       
1.1 DEGREES     
HH      31
-180.0  -50.0
-170.0  -50.0
-170.0  -60.0
-128.0  -60.0
-110.0  -48.0
 -65.0  -45.0
 -30.0  -45.0
 -20.0  -42.0
 -15.0  -42.0
 -11.5  -40.0
  -8.3  -40.0
  -1.8  -25.0
  -1.5  -18.0
  -1.0   -5.0
  -0.5   -1.0
   0.0    0.0
   0.5   -1.0
   1.0   -5.0
   1.5  -18.0
   1.8  -25.0
   8.3  -40.0
  11.5  -40.0
  15.0  -42.0
  20.0  -42.0
  30.0  -45.0
  65.0  -45.0
 110.0  -48.0
 128.0  -60.0
 170.0  -60.0
 170.0  -50.0
 180.0  -50.0
HV      23
-180.0  -58.1
-170.0  -58.1
-170.0  -65.0
-118.0  -65.0
 -80.0  -58.0
 -20.0  -58.0
 -15.0  -56.0
 -12.5  -50.0
  -6.0  -50.0
  -1.9  -43.0
  -1.5  -30.0
   0.0  -30.0
   1.5  -30.0
   1.9  -43.0
   6.0  -50.0
  12.5  -50.0
  15.0  -56.0
  20.0  -58.0
  80.0  -58.0
 118.0  -65.0
 170.0  -65.0
 170.0  -58.1
 180.0  -58.1
VV      33
-180.0  -50.0
-170.0  -50.0
-170.0  -60.0
-120.0  -60.0
-105.5  -47.0
 -90.0  -47.0
 -74.0  -52.0
 -55.0  -52.0
 -25.0  -38.0
 -13.5  -38.0
 -11.5  -34.0
  -4.0  -34.0
  -1.8  -25.0
  -1.5  -18.0
  -1.0   -5.0
  -0.5   -1.0
   0.0    0.0
   0.5   -1.0
   1.0   -5.0
   1.5  -18.0
   1.8  -25.0
   4.0  -34.0
  11.5  -34.0
  13.5  -38.0
  25.0  -38.0
  55.0  -52.0
  74.0  -52.0
  90.0  -47.0
 105.5  -47.0
 120.0  -60.0
 170.0  -60.0
 170.0  -50.0
 180.0  -50.0
VH      23
-180.0  -58.1
-170.0  -58.1
-170.0  -65.0
-118.0  -65.0
 -80.0  -58.0
 -15.0  -58.0
 -11.5  -53.1
  -4.9  -53.1
  -2.0  -44.0
  -1.9  -43.0
  -1.5  -30.0
   0.0  -30.0
   1.5  -30.0
   1.9  -43.0
   2.0  -44.0
   4.9  -53.1
  11.5  -53.1
  15.0  -58.0
  80.0  -58.0
 118.0  -65.0
 170.0  -65.0
 170.0  -58.1
 180.0  -58.1
