Andrew Corp
PXL10-59D                     
                              
A73200          
NONE            
 5-28-74         
2618             
5925-6425    MHZ   
43.10 dBi       
1.1 DEGREES     
HH      27
-180.0  -49.0
-177.0  -49.0
-171.5  -55.0
-110.5  -55.0
 -98.0  -42.0
 -73.0  -42.0
 -72.0  -43.0
 -35.0  -43.0
 -15.0  -33.0
  -1.8  -23.1
  -1.5  -17.0
  -1.0   -7.0
  -0.5   -2.0
   0.0    0.0
   0.5   -2.0
   1.0   -7.0
   1.5  -17.0
   1.8  -23.1
  15.0  -33.0
  35.0  -43.0
  72.0  -43.0
  73.0  -42.0
  98.0  -42.0
 110.5  -55.0
 171.5  -55.0
 177.0  -49.0
 180.0  -49.0
HV      15
-180.0  -55.0
-110.5  -55.0
 -97.5  -53.0
 -20.0  -53.0
 -15.0  -50.4
  -3.5  -31.0
  -3.5  -30.0
   0.0  -30.0
   3.5  -30.0
   3.5  -31.0
  15.0  -50.4
  20.0  -53.0
  97.5  -53.0
 110.5  -55.0
 180.0  -55.0
VV      27
-180.0  -49.0
-177.0  -49.0
-171.5  -55.0
-110.5  -55.0
 -98.0  -42.0
 -73.0  -42.0
 -72.0  -43.0
 -35.0  -43.0
 -15.0  -33.0
  -1.8  -23.1
  -1.5  -17.0
  -1.0   -7.0
  -0.5   -2.0
   0.0    0.0
   0.5   -2.0
   1.0   -7.0
   1.5  -17.0
   1.8  -23.1
  15.0  -33.0
  35.0  -43.0
  72.0  -43.0
  73.0  -42.0
  98.0  -42.0
 110.5  -55.0
 171.5  -55.0
 177.0  -49.0
 180.0  -49.0
VH      15
-180.0  -55.0
-110.5  -55.0
 -97.5  -53.0
 -20.0  -53.0
 -15.0  -50.4
  -3.5  -31.0
  -3.5  -30.0
   0.0  -30.0
   3.5  -30.0
   3.5  -31.0
  15.0  -50.4
  20.0  -53.0
  97.5  -53.0
 110.5  -55.0
 180.0  -55.0
