Andrew Corp
PXL12-19D                     
                              
A28410          
NONE            
 7-16-90         
1428             
1900-2300    MHZ   
35.50 dBi       
2.8 DEGREES     
HH      51
-180.0  -48.0
-120.0  -48.0
 -90.0  -39.0
 -50.0  -34.0
 -30.0  -34.0
 -20.0  -28.2
 -15.0  -28.0
  -5.0  -23.0
  -3.1  -23.0
  -2.8  -20.0
  -2.3  -12.0
  -1.4   -5.0
  -1.0   -2.0
  -0.9   -1.7
  -0.9   -1.4
  -0.8   -1.1
  -0.7   -0.9
  -0.7   -0.7
  -0.6   -0.5
  -0.5   -0.4
  -0.5   -0.3
  -0.4   -0.2
  -0.3   -0.1
  -0.2    0.0
  -0.1    0.0
   0.0    0.0
   0.1    0.0
   0.2    0.0
   0.3   -0.1
   0.4   -0.2
   0.5   -0.3
   0.5   -0.4
   0.6   -0.5
   0.7   -0.7
   0.7   -0.9
   0.8   -1.1
   0.9   -1.4
   0.9   -1.7
   1.0   -2.0
   1.4   -5.0
   2.3  -12.0
   2.8  -20.0
   3.1  -23.0
   5.0  -23.0
  15.0  -28.0
  20.0  -28.2
  30.0  -34.0
  50.0  -34.0
  90.0  -39.0
 120.0  -48.0
 180.0  -48.0
HV      19
-180.0  -50.0
-115.0  -50.0
 -90.0  -44.7
 -40.0  -41.0
 -20.0  -40.0
 -18.0  -40.0
 -15.0  -39.0
  -5.0  -28.0
  -1.0  -28.0
   0.0  -31.8
   1.0  -28.0
   5.0  -28.0
  15.0  -39.0
  18.0  -40.0
  20.0  -40.0
  40.0  -41.0
  90.0  -44.7
 115.0  -50.0
 180.0  -50.0
VV      53
-180.0  -49.0
-120.0  -49.0
 -90.0  -37.0
 -40.0  -32.0
 -30.0  -32.0
 -18.0  -27.0
 -15.0  -26.5
 -10.2  -26.0
  -9.3  -23.0
  -6.5  -22.0
  -3.0  -22.0
  -2.8  -20.0
  -2.3  -12.0
  -1.4   -5.0
  -1.0   -2.0
  -0.9   -1.7
  -0.9   -1.4
  -0.8   -1.1
  -0.7   -0.9
  -0.7   -0.7
  -0.6   -0.5
  -0.5   -0.4
  -0.5   -0.3
  -0.4   -0.2
  -0.3   -0.1
  -0.2    0.0
   0.0    0.0
   0.2    0.0
   0.3   -0.1
   0.4   -0.2
   0.5   -0.3
   0.5   -0.4
   0.6   -0.5
   0.7   -0.7
   0.7   -0.9
   0.8   -1.1
   0.9   -1.4
   0.9   -1.7
   1.0   -2.0
   1.4   -5.0
   2.3  -12.0
   2.8  -20.0
   3.0  -22.0
   6.5  -22.0
   9.3  -23.0
  10.2  -26.0
  15.0  -26.5
  18.0  -27.0
  30.0  -32.0
  40.0  -32.0
  90.0  -37.0
 120.0  -49.0
 180.0  -49.0
VH      19
-180.0  -50.0
-115.0  -50.0
 -90.0  -44.7
 -40.0  -41.0
 -20.0  -40.0
 -18.0  -40.0
 -15.0  -39.0
  -5.0  -28.0
  -1.0  -28.0
   0.0  -31.8
   1.0  -28.0
   5.0  -28.0
  15.0  -39.0
  18.0  -40.0
  20.0  -40.0
  40.0  -41.0
  90.0  -44.7
 115.0  -50.0
 180.0  -50.0
