Andrew Corp
PXL12-37E                     
                              
A53800          
NONE            
 4-28-74         
2413             
3700-4200    MHZ   
41.00 dBi       
1.5 DEGREES     
HH      31
-180.0  -48.0
-175.0  -48.0
-175.0  -50.0
-171.0  -55.0
-120.0  -55.0
-104.5  -39.0
 -95.5  -39.0
 -90.0  -44.0
 -45.0  -44.0
 -15.0  -32.0
  -8.1  -23.0
  -1.9  -23.0
  -1.7  -15.0
  -1.0   -4.8
  -0.5   -1.5
   0.0    0.0
   0.5   -1.5
   1.0   -4.8
   1.7  -15.0
   1.9  -23.0
   8.1  -23.0
  15.0  -32.0
  45.0  -44.0
  90.0  -44.0
  95.5  -39.0
 104.5  -39.0
 120.0  -55.0
 171.0  -55.0
 175.0  -50.0
 175.0  -48.0
 180.0  -48.0
HV      21
-180.0  -56.0
-175.0  -56.0
-170.0  -63.0
-120.0  -63.0
-110.0  -59.0
 -15.0  -59.0
 -10.1  -54.0
  -5.0  -52.8
  -3.0  -45.0
  -2.0  -30.0
   0.0  -30.0
   2.0  -30.0
   3.0  -45.0
   5.0  -52.8
  10.1  -54.0
  15.0  -59.0
 110.0  -59.0
 120.0  -63.0
 170.0  -63.0
 175.0  -56.0
 180.0  -56.0
VV      31
-180.0  -48.0
-175.0  -48.0
-175.0  -50.0
-170.0  -57.0
-120.0  -57.0
-103.0  -41.0
 -96.0  -41.0
 -90.0  -44.0
 -45.0  -44.0
 -15.0  -35.1
  -7.3  -23.0
  -1.9  -23.0
  -1.7  -15.0
  -1.0   -4.8
  -0.5   -1.5
   0.0    0.0
   0.5   -1.5
   1.0   -4.8
   1.7  -15.0
   1.9  -23.0
   7.3  -23.0
  15.0  -35.1
  45.0  -44.0
  90.0  -44.0
  96.0  -41.0
 103.0  -41.0
 120.0  -57.0
 170.0  -57.0
 175.0  -50.0
 175.0  -48.0
 180.0  -48.0
VH      23
-180.0  -56.0
-175.0  -56.0
-170.0  -63.0
-120.0  -63.0
-110.0  -59.0
 -19.5  -59.0
 -18.0  -56.1
 -15.0  -56.1
  -7.1  -45.0
  -3.0  -45.0
  -2.0  -30.0
   0.0  -30.0
   2.0  -30.0
   3.0  -45.0
   7.1  -45.0
  15.0  -56.1
  18.0  -56.1
  19.5  -59.0
 110.0  -59.0
 120.0  -63.0
 170.0  -63.0
 175.0  -56.0
 180.0  -56.0
