Andrew Corp
PXL8-65D               
                              
NONE            
NONE            
 6- 4-73         
2636L             
6425-7125    MHZ   
42.00 dBi       
1.3 DEGREES     
HH      45
-180.0  -52.0
-176.0  -52.0
-168.0  -56.0
-127.0  -56.0
-106.0  -42.0
-100.0  -42.0
 -94.5  -46.0
 -37.5  -46.0
 -33.0  -41.0
 -24.0  -41.0
 -24.0  -38.0
 -15.0  -36.0
 -10.0  -36.0
 -10.0  -31.0
  -6.0  -31.0
  -5.0  -28.0
  -2.2  -25.3
  -2.1  -23.0
  -2.0  -20.5
  -1.5  -12.0
  -1.0   -3.0
  -0.5   -0.4
   0.0    0.0
   0.5   -0.4
   1.0   -3.0
   1.5  -12.0
   2.0  -20.5
   2.1  -23.0
   2.2  -25.3
   5.0  -28.0
   6.0  -31.0
  10.0  -31.0
  10.0  -36.0
  15.0  -36.0
  24.0  -38.0
  24.0  -41.0
  33.0  -41.0
  37.5  -46.0
  94.5  -46.0
 100.0  -42.0
 106.0  -42.0
 127.0  -56.0
 168.0  -56.0
 176.0  -52.0
 180.0  -52.0
HV       9
-180.0  -48.0
 -15.0  -48.0
  -5.0  -40.0
  -2.5  -34.0
   0.0  -34.0
   2.5  -34.0
   5.0  -40.0
  15.0  -48.0
 180.0  -48.0
VV      41
-180.0  -52.0
-173.5  -52.0
-170.5  -54.0
-117.5  -54.0
-108.0  -46.0
 -97.0  -46.0
 -85.0  -50.0
 -45.0  -50.0
 -30.0  -44.0
 -25.0  -44.0
 -15.0  -40.0
  -6.0  -33.0
  -5.0  -30.0
  -5.0  -26.0
  -2.5  -26.0
  -2.3  -23.0
  -2.0  -20.5
  -1.5  -12.0
  -1.0   -3.0
  -0.5   -0.4
   0.0    0.0
   0.5   -0.4
   1.0   -3.0
   1.5  -12.0
   2.0  -20.5
   2.3  -23.0
   2.5  -26.0
   5.0  -26.0
   5.0  -30.0
   6.0  -33.0
  15.0  -40.0
  25.0  -44.0
  30.0  -44.0
  45.0  -50.0
  85.0  -50.0
  97.0  -46.0
 108.0  -46.0
 117.5  -54.0
 170.5  -54.0
 173.5  -52.0
 180.0  -52.0
VH      11
-180.0  -54.0
 -15.0  -54.0
 -15.0  -46.9
  -7.0  -40.0
  -2.5  -34.0
   0.0  -34.0
   2.5  -34.0
   7.0  -40.0
  15.0  -46.9
  15.0  -54.0
 180.0  -54.0
