NAME RA1653 900MHz 0deg EDT.msi
MAKE Racal Australia Pty Ltd
FREQUENCY 900
GAIN 15.9 dBi
TILT ELECTRICAL 
COMMENT Generated on 7/12/2009 by Telstra's RF-Map2 / DB Admin Version (2.0.0.89) 
HORIZONTAL 360
0.0 0.0
1.0 0.2
2.0 0.8
3.0 1.2
4.0 2.8
5.0 3.8
6.0 5.6
7.0 7.6
8.0 10.4
9.0 17.0
10.0 25.0
11.0 25.0
12.0 19.0
13.0 16.0
14.0 14.4
15.0 13.6
16.0 13.7
17.0 14.4
18.0 15.6
19.0 17.4
20.0 19.8
21.0 23.0
22.0 25.0
23.0 24.8
24.0 22.0
25.0 20.4
26.0 19.0
27.0 18.6
28.0 18.4
29.0 19.2
30.0 20.4
31.0 22.6
32.0 25.0
33.0 25.0
34.0 25.0
35.0 25.0
36.0 25.0
37.0 25.0
38.0 25.0
39.0 25.0
40.0 25.0
41.0 25.0
42.0 25.0
43.0 25.0
44.0 25.0
45.0 25.0
46.0 25.0
47.0 25.0
48.0 25.0
49.0 25.0
50.0 25.0
51.0 25.0
52.0 25.0
53.0 25.0
54.0 25.0
55.0 25.0
56.0 25.0
57.0 25.0
58.0 25.0
59.0 25.0
60.0 25.0
61.0 25.0
62.0 25.0
63.0 25.0
64.0 25.0
65.0 25.0
66.0 25.0
67.0 25.0
68.0 25.0
69.0 25.0
70.0 25.0
71.0 25.0
72.0 24.5
73.0 24.0
74.0 23.7
75.0 23.4
76.0 23.5
77.0 23.6
78.0 23.5
79.0 23.4
80.0 23.4
81.0 23.4
82.0 23.6
83.0 23.8
84.0 24.0
85.0 24.2
86.0 24.6
87.0 25.0
88.0 25.0
89.0 25.0
90.0 25.0
91.0 45.0
92.0 45.0
93.0 45.0
94.0 45.0
95.0 45.0
96.0 45.0
97.0 45.0
98.0 45.0
99.0 45.0
100.0 45.0
101.0 45.0
102.0 45.0
103.0 45.0
104.0 45.0
105.0 45.0
106.0 45.0
107.0 45.0
108.0 45.0
109.0 45.0
110.0 45.0
111.0 45.0
112.0 45.0
113.0 45.0
114.0 45.0
115.0 45.0
116.0 45.0
117.0 45.0
118.0 45.0
119.0 45.0
120.0 45.0
121.0 45.0
122.0 45.0
123.0 45.0
124.0 45.0
125.0 45.0
126.0 45.0
127.0 45.0
128.0 45.0
129.0 45.0
130.0 45.0
131.0 45.0
132.0 45.0
133.0 45.0
134.0 45.0
135.0 45.0
136.0 45.0
137.0 45.0
138.0 45.0
139.0 45.0
140.0 45.0
141.0 45.0
142.0 45.0
143.0 45.0
144.0 45.0
145.0 45.0
146.0 45.0
147.0 45.0
148.0 45.0
149.0 45.0
150.0 45.0
151.0 45.0
152.0 45.0
153.0 45.0
154.0 45.0
155.0 45.0
156.0 45.0
157.0 45.0
158.0 45.0
159.0 45.0
160.0 45.0
161.0 45.0
162.0 45.0
163.0 44.8
164.0 44.1
165.0 44.0
166.0 44.8
167.0 45.0
168.0 45.0
169.0 45.0
170.0 45.0
171.0 45.0
172.0 40.8
173.0 38.0
174.0 36.0
175.0 34.2
176.0 33.2
177.0 31.6
178.0 31.2
179.0 30.6
180.0 30.4
181.0 30.6
182.0 30.9
183.0 31.5
184.0 32.6
185.0 34.0
186.0 35.5
187.0 38.2
188.0 40.4
189.0 44.8
190.0 45.0
191.0 45.0
192.0 45.0
193.0 45.0
194.0 45.0
195.0 44.6
196.0 44.4
197.0 44.8
198.0 45.0
199.0 45.0
200.0 45.0
201.0 45.0
202.0 45.0
203.0 45.0
204.0 45.0
205.0 45.0
206.0 45.0
207.0 45.0
208.0 45.0
209.0 45.0
210.0 45.0
211.0 45.0
212.0 45.0
213.0 45.0
214.0 45.0
215.0 45.0
216.0 45.0
217.0 45.0
218.0 45.0
219.0 45.0
220.0 45.0
221.0 45.0
222.0 45.0
223.0 45.0
224.0 45.0
225.0 45.0
226.0 45.0
227.0 45.0
228.0 45.0
229.0 45.0
230.0 45.0
231.0 45.0
232.0 45.0
233.0 45.0
234.0 45.0
235.0 45.0
236.0 45.0
237.0 45.0
238.0 45.0
239.0 45.0
240.0 45.0
241.0 45.0
242.0 45.0
243.0 45.0
244.0 45.0
245.0 45.0
246.0 45.0
247.0 45.0
248.0 45.0
249.0 45.0
250.0 45.0
251.0 45.0
252.0 45.0
253.0 45.0
254.0 45.0
255.0 45.0
256.0 45.0
257.0 45.0
258.0 45.0
259.0 45.0
260.0 45.0
261.0 45.0
262.0 45.0
263.0 45.0
264.0 45.0
265.0 45.0
266.0 45.0
267.0 45.0
268.0 45.0
269.0 45.0
270.0 23.2
271.0 23.1
272.0 23.0
273.0 22.6
274.0 22.2
275.0 21.9
276.0 21.6
277.0 21.3
278.0 21.0
279.0 21.0
280.0 21.0
281.0 20.6
282.0 20.2
283.0 20.2
284.0 20.2
285.0 20.3
286.0 20.4
287.0 20.7
288.0 21.0
289.0 21.2
290.0 21.4
291.0 21.7
292.0 22.0
293.0 22.2
294.0 22.4
295.0 22.7
296.0 23.0
297.0 23.8
298.0 24.6
299.0 25.0
300.0 25.0
301.0 25.0
302.0 25.0
303.0 25.0
304.0 25.0
305.0 25.0
306.0 25.0
307.0 25.0
308.0 25.0
309.0 25.0
310.0 25.0
311.0 25.0
312.0 25.0
313.0 24.8
314.0 23.6
315.0 23.0
316.0 22.4
317.0 22.3
318.0 22.2
319.0 22.6
320.0 23.0
321.0 24.8
322.0 25.0
323.0 25.0
324.0 25.0
325.0 25.0
326.0 25.0
327.0 23.0
328.0 20.8
329.0 19.0
330.0 18.0
331.0 17.0
332.0 16.8
333.0 17.1
334.0 18.0
335.0 19.5
336.0 21.0
337.0 23.0
338.0 23.0
339.0 21.2
340.0 18.4
341.0 17.0
342.0 15.8
343.0 14.4
344.0 14.0
345.0 14.2
346.0 15.2
347.0 17.0
348.0 21.0
349.0 25.0
350.0 19.0
351.0 14.4
352.0 10.0
353.0 7.8
354.0 5.1
355.0 3.6
356.0 2.2
357.0 1.1
358.0 0.5
359.0 0.2
VERTICAL 360
0.0 0.0
1.0 0.0
2.0 0.1
3.0 0.2
4.0 0.3
5.0 0.3
6.0 0.4
7.0 0.5
8.0 0.6
9.0 0.7
10.0 0.8
11.0 0.9
12.0 1.1
13.0 1.4
14.0 1.5
15.0 1.5
16.0 1.7
17.0 1.8
18.0 2.0
19.0 2.2
20.0 2.3
21.0 2.3
22.0 2.5
23.0 2.7
24.0 3.0
25.0 3.2
26.0 3.4
27.0 3.5
28.0 3.8
29.0 4.0
30.0 4.3
31.0 4.5
32.0 4.8
33.0 5.0
34.0 5.3
35.0 5.5
36.0 5.8
37.0 6.0
38.0 6.3
39.0 6.5
40.0 6.8
41.0 7.0
42.0 7.3
43.0 7.5
44.0 7.9
45.0 8.2
46.0 8.4
47.0 8.5
48.0 8.8
49.0 9.0
50.0 9.4
51.0 9.7
52.0 9.9
53.0 10.2
54.0 10.5
55.0 10.8
56.0 11.0
57.0 11.2
58.0 11.5
59.0 11.8
60.0 12.0
61.0 12.2
62.0 12.4
63.0 12.6
64.0 13.0
65.0 13.3
66.0 13.6
67.0 13.8
68.0 14.0
69.0 14.2
70.0 14.4
71.0 14.6
72.0 14.8
73.0 15.0
74.0 15.4
75.0 15.7
76.0 16.1
77.0 16.5
78.0 16.7
79.0 16.8
80.0 16.9
81.0 17.0
82.0 17.3
83.0 17.5
84.0 17.8
85.0 18.0
86.0 18.2
87.0 18.5
88.0 18.7
89.0 19.0
90.0 19.2
91.0 19.4
92.0 19.7
93.0 19.9
94.0 20.2
95.0 20.4
96.0 20.7
97.0 20.9
98.0 21.2
99.0 21.4
100.0 21.7
101.0 21.9
102.0 22.2
103.0 22.4
104.0 22.7
105.0 22.9
106.0 23.2
107.0 23.6
108.0 23.9
109.0 24.2
110.0 24.6
111.0 24.9
112.0 25.2
113.0 25.5
114.0 25.9
115.0 26.2
116.0 26.3
117.0 26.4
118.0 26.6
119.0 26.7
120.0 26.8
121.0 26.9
122.0 27.0
123.0 27.2
124.0 27.3
125.0 27.4
126.0 27.5
127.0 27.5
128.0 27.6
129.0 27.6
130.0 27.7
131.0 27.7
132.0 27.8
133.0 27.8
134.0 27.9
135.0 27.9
136.0 28.1
137.0 28.3
138.0 28.5
139.0 28.7
140.0 28.9
141.0 29.1
142.0 29.3
143.0 29.5
144.0 29.7
145.0 29.9
146.0 30.0
147.0 30.0
148.0 30.1
149.0 30.1
150.0 30.2
151.0 30.2
152.0 30.3
153.0 30.3
154.0 30.4
155.0 30.4
156.0 30.4
157.0 30.4
158.0 30.4
159.0 30.4
160.0 30.4
161.0 30.4
162.0 30.4
163.0 30.4
164.0 30.4
165.0 30.4
166.0 30.4
167.0 30.4
168.0 30.4
169.0 30.4
170.0 30.4
171.0 30.4
172.0 30.4
173.0 30.4
174.0 30.4
175.0 30.4
176.0 30.4
177.0 30.4
178.0 30.4
179.0 30.4
180.0 30.4
181.0 30.4
182.0 30.4
183.0 30.4
184.0 30.4
185.0 30.4
186.0 30.4
187.0 30.4
188.0 30.4
189.0 30.4
190.0 30.4
191.0 30.4
192.0 30.4
193.0 30.4
194.0 30.4
195.0 30.4
196.0 30.4
197.0 30.4
198.0 30.4
199.0 30.4
200.0 30.4
201.0 30.4
202.0 30.4
203.0 30.4
204.0 30.4
205.0 30.4
206.0 30.4
207.0 30.4
208.0 30.4
209.0 30.4
210.0 30.4
211.0 30.2
212.0 29.9
213.0 29.7
214.0 29.4
215.0 29.2
216.0 28.9
217.0 28.7
218.0 28.4
219.0 28.2
220.0 27.9
221.0 27.8
222.0 27.6
223.0 27.5
224.0 27.3
225.0 27.2
226.0 27.0
227.0 26.9
228.0 26.7
229.0 26.6
230.0 26.4
231.0 26.2
232.0 26.0
233.0 25.8
234.0 25.6
235.0 25.4
236.0 25.2
237.0 25.0
238.0 24.8
239.0 24.6
240.0 24.4
241.0 24.2
242.0 24.0
243.0 23.8
244.0 23.6
245.0 23.4
246.0 23.2
247.0 23.0
248.0 22.8
249.0 22.6
250.0 22.4
251.0 22.2
252.0 22.0
253.0 21.8
254.0 21.6
255.0 21.4
256.0 21.2
257.0 21.0
258.0 20.8
259.0 20.6
260.0 20.4
261.0 20.2
262.0 20.0
263.0 19.8
264.0 19.6
265.0 19.5
266.0 19.3
267.0 19.1
268.0 18.9
269.0 18.7
270.0 18.5
271.0 17.9
272.0 17.7
273.0 17.4
274.0 17.2
275.0 16.9
276.0 16.7
277.0 16.5
278.0 16.2
279.0 16.0
280.0 15.7
281.0 15.5
282.0 15.3
283.0 15.0
284.0 14.8
285.0 14.3
286.0 14.1
287.0 14.0
288.0 13.8
289.0 13.4
290.0 13.0
291.0 13.0
292.0 12.9
293.0 12.7
294.0 12.5
295.0 12.3
296.0 12.0
297.0 11.8
298.0 11.5
299.0 11.3
300.0 11.0
301.0 10.8
302.0 10.5
303.0 10.2
304.0 9.8
305.0 9.5
306.0 9.2
307.0 8.9
308.0 8.5
309.0 8.3
310.0 8.0
311.0 7.8
312.0 7.6
313.0 7.3
314.0 7.0
315.0 6.8
316.0 6.5
317.0 6.3
318.0 6.0
319.0 5.8
320.0 5.5
321.0 5.3
322.0 5.2
323.0 4.8
324.0 4.5
325.0 4.3
326.0 4.0
327.0 3.8
328.0 3.5
329.0 3.3
330.0 3.1
331.0 3.0
332.0 2.9
333.0 2.7
334.0 2.5
335.0 2.3
336.0 2.1
337.0 2.0
338.0 1.8
339.0 1.7
340.0 1.5
341.0 1.4
342.0 1.2
343.0 1.1
344.0 0.9
345.0 0.8
346.0 0.8
347.0 0.7
348.0 0.5
349.0 0.4
350.0 0.3
351.0 0.3
352.0 0.2
353.0 0.2
354.0 0.1
355.0 0.1
356.0 0.0
357.0 0.0
358.0 0.0
359.0 0.0
