NAME S4B42-1CSS
MAKE ZCG
FREQUENCY 118
H_WIDTH 
V_WIDTH 20
FRONT_TO_BACK 0
GAIN 7.5
TILT 0
POLARIZATION 
COMMENT 
VERTICAL 360
0.0 0 
1.0 0 
2.0 0.0277776 
3.0 0.0555559 
4.0 0.222222 
5.0 0.277777 
6.0 0.305556 
7.0 0.75 
8.0 1.25 
9.0 1.58333 
10.0 2.69444 
11.0 3.52778 
12.0 4.94444 
13.0 5.77778 
14.0 7.58333 
15.0 9.30556 
16.0 10.1944 
17.0 11.5 
18.0 12.1944 
19.0 13.4444 
20.0 14.5 
21.0 15 
22.0 15.9444 
23.0 16.6667 
24.0 17 
25.0 17.3611 
26.0 17.1667 
27.0 16.2778 
28.0 14.4444 
29.0 13.4722 
30.0 11.9167 
31.0 11.1389 
32.0 10.25 
33.0 9.75 
34.0 9.77778 
35.0 9.72222 
36.0 9.72222 
37.0 9.77778 
38.0 9.86111 
39.0 10.0833 
40.0 10.25 
41.0 10.1944 
42.0 10.5 
43.0 10.6389 
44.0 10.9444 
45.0 11.25 
46.0 11.6667 
47.0 12.3056 
48.0 13.1389 
49.0 13.6944 
50.0 14.9722 
51.0 15.6389 
52.0 17.1389 
53.0 18.6389 
54.0 19.4722 
55.0 21.1667 
56.0 22.0278 
57.0 23.6667 
58.0 25.1389 
59.0 26.0833 
60.0 27.3889 
61.0 28.0278 
62.0 29.6389 
63.0 31.2778 
64.0 32.1389 
65.0 35.6111 
66.0 41.0833 
67.0 47.3333 
68.0 46.8889 
69.0 43.6667 
70.0 41 
71.0 39.1944 
72.0 37.9444 
73.0 35.9167 
74.0 35.25 
75.0 34.25 
76.0 33.8333 
77.0 32.2778 
78.0 32.5833 
79.0 32.6389 
80.0 32.1389 
81.0 31.1111 
82.0 31.2222 
83.0 30.6389 
84.0 29.8889 
85.0 29.3889 
86.0 28.7222 
87.0 28.7778 
88.0 28.5833 
89.0 27.8056 
90.0 27.0278 
91.0 26.25 
92.0 25.8889 
93.0 25.8611 
94.0 25.3056 
95.0 25.1389 
96.0 25.1667 
97.0 25.1111 
98.0 25.0833 
99.0 24.5833 
100.0 24.7222 
101.0 25.1111 
102.0 25.1111 
103.0 25.6667 
104.0 25.8333 
105.0 25.9444 
106.0 26.0833 
107.0 26.75 
108.0 27.8056 
109.0 29.4167 
110.0 29.4167 
111.0 30.2222 
112.0 31.4167 
113.0 32.7222 
114.0 35.5 
115.0 36.9167 
116.0 39.0833 
117.0 38.6389 
118.0 38.25 
119.0 35.4444 
120.0 33.1944 
121.0 31.9167 
122.0 30.7222 
123.0 30.7222 
124.0 29.25 
125.0 27.3056 
126.0 26.5 
127.0 25.0833 
128.0 24.5 
129.0 24.1944 
130.0 23.8333 
131.0 23.4444 
132.0 22.5 
133.0 21.25 
134.0 21.0278 
135.0 20.2778 
136.0 19.9167 
137.0 19.3611 
138.0 19.0556 
139.0 18.5 
140.0 17.9167 
141.0 17.5556 
142.0 17.5833 
143.0 17.5 
144.0 17.5556 
145.0 17.6944 
146.0 17.6389 
147.0 17.6389 
148.0 17.6667 
149.0 18 
150.0 18.0278 
151.0 18.1944 
152.0 18.4722 
153.0 18.6389 
154.0 18.8333 
155.0 18.9722 
156.0 19.4722 
157.0 19.8889 
158.0 19.9722 
159.0 20.4444 
160.0 20.6389 
161.0 21.0556 
162.0 21.0833 
163.0 21.1944 
164.0 21.6667 
165.0 21.75 
166.0 21.9722 
167.0 22 
168.0 22.3611 
169.0 22.5 
170.0 22.3889 
171.0 21.6111 
172.0 20.6111 
173.0 19.7778 
174.0 18.5278 
175.0 18 
176.0 16.6944 
177.0 15.3611 
178.0 14.7778 
179.0 13.7222 
180.0 13.2222 
181.0 12.1389 
182.0 11.4444 
183.0 11 
184.0 10.25 
185.0 9.66667 
186.0 8.97222 
187.0 8.77778 
188.0 8.27778 
189.0 7.94444 
190.0 7.63889 
191.0 7.55556 
192.0 7.5 
193.0 7.5 
194.0 7.5 
195.0 7.5 
196.0 7.5 
197.0 7.69444 
198.0 7.83333 
199.0 8.30556 
200.0 8.36111 
201.0 8.80556 
202.0 9.41667 
203.0 9.77778 
204.0 10.5833 
205.0 11.0556 
206.0 11.9167 
207.0 13.1944 
208.0 14.0278 
209.0 15.6944 
210.0 16.6389 
211.0 18.8611 
212.0 21.8333 
213.0 23.3611 
214.0 25.4722 
215.0 26.3889 
216.0 26.1944 
217.0 25.5278 
218.0 25 
219.0 23.5278 
220.0 22.0278 
221.0 21.25 
222.0 20.75 
223.0 20.3333 
224.0 19.6389 
225.0 18.8889 
226.0 18.7778 
227.0 18.4167 
228.0 18.0278 
229.0 17.5556 
230.0 17.0833 
231.0 16.6667 
232.0 16 
233.0 15.4167 
234.0 15.4444 
235.0 15.4444 
236.0 15.4444 
237.0 15.4722 
238.0 15.75 
239.0 15.5556 
240.0 15.8056 
241.0 16.0278 
242.0 16.25 
243.0 16.6389 
244.0 16.7778 
245.0 17.2222 
246.0 17.9167 
247.0 18.2778 
248.0 19.3889 
249.0 19.9444 
250.0 21.1944 
251.0 23.3056 
252.0 24.5278 
253.0 27 
254.0 28.3056 
255.0 31.6667 
256.0 32.8333 
257.0 32.3611 
258.0 31.8056 
259.0 31.0278 
260.0 30.0833 
261.0 28.4167 
262.0 27.8611 
263.0 26.8056 
264.0 26.0556 
265.0 25.4444 
266.0 24.5556 
267.0 24.1667 
268.0 23.8611 
269.0 23.6944 
270.0 23.25 
271.0 23.1111 
272.0 23.3056 
273.0 22.9444 
274.0 22.9722 
275.0 22.75 
276.0 22.6389 
277.0 22.4722 
278.0 22.3889 
279.0 22.3611 
280.0 22.6667 
281.0 22.4444 
282.0 22.5 
283.0 22.5556 
284.0 22.3889 
285.0 22.0833 
286.0 22.0833 
287.0 22.0278 
288.0 21.9444 
289.0 22.0278 
290.0 21.5 
291.0 21.25 
292.0 21.1667 
293.0 21.2222 
294.0 21.0833 
295.0 21.0833 
296.0 21.25 
297.0 20.4444 
298.0 19.7222 
299.0 19.7222 
300.0 20.1667 
301.0 20.2778 
302.0 20.2778 
303.0 20.75 
304.0 21.0833 
305.0 21.2222 
306.0 21.7222 
307.0 22.2222 
308.0 22.8611 
309.0 22.4444 
310.0 21.8611 
311.0 20.4444 
312.0 19.3333 
313.0 17.6667 
314.0 16.3056 
315.0 15.5278 
316.0 14.5833 
317.0 14.0833 
318.0 13.3056 
319.0 12.6111 
320.0 12.4167 
321.0 11.9167 
322.0 11.6667 
323.0 11.3889 
324.0 10.7778 
325.0 10.6667 
326.0 10.1944 
327.0 10 
328.0 10.0833 
329.0 10.1389 
330.0 10.1944 
331.0 10.6944 
332.0 11.3889 
333.0 11.8889 
334.0 12.6944 
335.0 13.0833 
336.0 14.1111 
337.0 14.9167 
338.0 16.9722 
339.0 18.8333 
340.0 18.9167 
341.0 16.3333 
342.0 14.9444 
343.0 11.9722 
344.0 9.41667 
345.0 8.41667 
346.0 6.75 
347.0 5.72222 
348.0 5.36111 
349.0 4.72222 
350.0 4 
351.0 3.61111 
352.0 3.02778 
353.0 2.55556 
354.0 2.02778 
355.0 1.66667 
356.0 1 
357.0 0.527778 
358.0 0.361111 
359.0 0.25 
