RFS 
SB 1 - 220 B 
1 ; Compactline single polarization                               
NONE 
NONE 
20031101 
FRT 960202d 
21200 - 23600 MHZ 
35.6 dBi 
2.7 Deg 
HH 99
-180.0  -61.00 
 -95.0  -61.00 
 -72.0  -46.50 
 -49.5  -39.00 
 -26.0  -39.00 
 -20.0  -31.00 
 -14.5  -27.50 
  -9.5  -24.00 
  -8.0  -21.00 
  -3.3  -20.00 
  -3.2  -19.50 
  -3.2  -19.00 
  -3.1  -18.50 
  -3.1  -18.00 
  -3.0  -17.50 
  -3.0  -17.00 
  -3.0  -16.50 
  -2.9  -16.00 
  -2.9  -15.50 
  -2.8  -15.00 
  -2.8  -14.50 
  -2.7  -14.00 
  -2.7  -13.50 
  -2.6  -13.00 
  -2.6  -12.50 
  -2.5  -12.00 
  -2.5  -11.50 
  -2.4  -11.00 
  -2.4  -10.50 
  -2.3  -10.00 
  -2.2   -9.50 
  -2.2   -9.00 
  -2.1   -8.50 
  -2.1   -8.00 
  -2.0   -7.50 
  -1.9   -7.00 
  -1.9   -6.50 
  -1.8   -6.00 
  -1.7   -5.50 
  -1.6   -5.00 
  -1.5   -4.50 
  -1.5   -4.00 
  -1.4   -3.50 
  -1.3   -3.00 
  -1.2   -2.50 
  -1.0   -2.00 
  -0.9   -1.50 
  -0.7   -1.00 
  -0.5   -0.50 
   0.0    0.00 
   0.5   -0.50 
   0.7   -1.00 
   0.9   -1.50 
   1.0   -2.00 
   1.2   -2.50 
   1.3   -3.00 
   1.4   -3.50 
   1.5   -4.00 
   1.5   -4.50 
   1.6   -5.00 
   1.7   -5.50 
   1.8   -6.00 
   1.9   -6.50 
   1.9   -7.00 
   2.0   -7.50 
   2.1   -8.00 
   2.1   -8.50 
   2.2   -9.00 
   2.2   -9.50 
   2.3  -10.00 
   2.4  -10.50 
   2.4  -11.00 
   2.5  -11.50 
   2.5  -12.00 
   2.6  -12.50 
   2.6  -13.00 
   2.7  -13.50 
   2.7  -14.00 
   2.8  -14.50 
   2.8  -15.00 
   2.9  -15.50 
   2.9  -16.00 
   3.0  -16.50 
   3.0  -17.00 
   3.0  -17.50 
   3.1  -18.00 
   3.1  -18.50 
   3.2  -19.00 
   3.2  -19.50 
   3.3  -20.00 
   8.0  -21.00 
   9.5  -24.00 
  14.5  -27.50 
  20.0  -31.00 
  26.0  -39.00 
  49.5  -39.00 
  72.0  -46.50 
  95.0  -61.00 
 180.0  -61.00 
HV 17
-180.0  -66.50 
 -80.0  -66.50 
 -52.0  -55.00 
 -16.0  -55.00 
  -5.0  -44.00 
  -4.0  -38.00 
  -1.5  -38.00 
  -1.5  -30.00 
   0.0  -30.00 
   1.5  -30.00 
   1.5  -38.00 
   4.0  -38.00 
   5.0  -44.00 
  16.0  -55.00 
  52.0  -55.00 
  80.0  -66.50 
 180.0  -66.50 
VV 77
-180.0  -61.00 
 -95.0  -61.00 
 -68.5  -45.50 
 -41.0  -42.50 
 -20.5  -32.50 
 -10.0  -24.50 
  -4.3  -16.10 
  -2.8  -15.00 
  -2.8  -14.50 
  -2.7  -14.00 
  -2.7  -13.50 
  -2.6  -13.00 
  -2.6  -12.50 
  -2.5  -12.00 
  -2.5  -11.50 
  -2.4  -11.00 
  -2.4  -10.50 
  -2.3  -10.00 
  -2.2   -9.50 
  -2.2   -9.00 
  -2.1   -8.50 
  -2.1   -8.00 
  -2.0   -7.50 
  -1.9   -7.00 
  -1.9   -6.50 
  -1.8   -6.00 
  -1.7   -5.50 
  -1.6   -5.00 
  -1.5   -4.50 
  -1.5   -4.00 
  -1.4   -3.50 
  -1.3   -3.00 
  -1.2   -2.50 
  -1.0   -2.00 
  -0.9   -1.50 
  -0.7   -1.00 
  -0.5   -0.50 
   0.0    0.00 
   0.0    0.00 
   0.0    0.00 
   0.5   -0.50 
   0.7   -1.00 
   0.9   -1.50 
   1.0   -2.00 
   1.2   -2.50 
   1.3   -3.00 
   1.4   -3.50 
   1.5   -4.00 
   1.5   -4.50 
   1.6   -5.00 
   1.7   -5.50 
   1.8   -6.00 
   1.9   -6.50 
   1.9   -7.00 
   2.0   -7.50 
   2.1   -8.00 
   2.1   -8.50 
   2.2   -9.00 
   2.2   -9.50 
   2.3  -10.00 
   2.4  -10.50 
   2.4  -11.00 
   2.5  -11.50 
   2.5  -12.00 
   2.6  -12.50 
   2.6  -13.00 
   2.7  -13.50 
   2.7  -14.00 
   2.8  -14.50 
   2.8  -15.00 
   4.3  -16.10 
  10.0  -24.50 
  20.5  -32.50 
  41.0  -42.50 
  68.5  -45.50 
  95.0  -61.00 
 180.0  -61.00 
VH 21
-180.0  -66.50 
 -70.0  -66.50 
 -53.0  -59.00 
 -36.0  -55.00 
 -17.0  -55.00 
  -9.0  -47.50 
  -5.5  -44.00 
  -3.0  -38.00 
  -1.5  -38.00 
  -1.5  -30.00 
   0.0  -30.00 
   1.5  -30.00 
   1.5  -38.00 
   3.0  -38.00 
   5.5  -44.00 
   9.0  -47.50 
  17.0  -55.00 
  36.0  -55.00 
  53.0  -59.00 
  70.0  -66.50 
 180.0  -66.50 
