REVNUM:,NSMA WG16.99.050
REVDAT:,19990520
ANTMAN:,ANDREW CORPORATION
MODNUM:,VHLP1-23
PATNUM:,7014B
FEDORN:,NA
DESCR1:,
DESCR2:,
DESCR3:,
DESCR4:,
DESCR5:,
DTDATA:,20070111
LOWFRQ:, 21200 
HGHFRQ:, 23600 
GUNITS:,DBI/DBR
LWGAIN:,34.7
MDGAIN:,35.3
HGGAIN:,35.9
AZWIDT:,3.0
ELWIDT:,3.0
ATVSWR:,1.3
FRTOBA:,62
ELTILT:,0
PATTYP:,ENVELOPE
NOFREQ:,NA
PATFRE:,NA
NUMCUT:,4
PATCUT:,AZ
POLARI:,H/H
NUPOIN:, 39 
-180.00,-62.00,
-120.00,-62.00,
-95.00,-60.00,
-45.00,-35.00,
-19.00,-35.00,
-15.00,-30.00,
-12.00,-30.00,
-10.00,-26.00,
-8.00,-22.00,
-6.00,-22.00,
-5.99,-20.00,
-4.10,-20.00,
-3.44,-14.30,
-3.00,-10.60,
-2.50,-6.90,
-2.03,-4.36,
-1.50,-2.40,
-1.00,-0.90,
-0.52,-0.14,
0.00,0.00,
0.52,-0.14,
1.00,-0.90,
1.50,-2.40,
2.03,-4.36,
2.50,-6.90,
3.00,-10.60,
3.44,-14.30,
4.10,-20.00,
5.99,-20.00,
6.00,-22.00,
8.00,-22.00,
10.00,-26.00,
12.00,-30.00,
15.00,-30.00,
19.00,-35.00,
45.00,-35.00,
95.00,-60.00,
120.00,-62.00,
180.00,-62.00,
PATCUT:,AZ
POLARI:,H/V
NUPOIN:, 17 
-180.00,-68.00,
-85.00,-68.00,
-60.00,-55.00,
-30.00,-49.00,
-15.00,-49.00,
-10.00,-44.00,
-4.00,-44.00,
-3.00,-30.00,
0.00,-30.00,
3.00,-30.00,
4.00,-44.00,
10.00,-44.00,
15.00,-49.00,
30.00,-49.00,
60.00,-55.00,
85.00,-68.00,
180.00,-68.00,
PATCUT:,AZ
POLARI:,V/V
NUPOIN:, 43 
-180.00,-62.00,
-95.00,-62.00,
-54.00,-39.00,
-45.00,-37.50,
-40.00,-35.00,
-30.00,-35.00,
-29.99,-34.00,
-20.00,-34.00,
-15.00,-28.00,
-14.00,-28.00,
-10.00,-26.00,
-8.00,-22.00,
-6.00,-22.00,
-5.99,-20.00,
-3.60,-20.00,
-3.00,-12.50,
-2.50,-8.00,
-2.03,-5.00,
-1.50,-2.50,
-1.00,-1.01,
-0.52,-0.14,
0.00,0.00,
0.52,-0.14,
1.00,-1.01,
1.50,-2.50,
2.03,-5.00,
2.50,-8.00,
3.00,-12.50,
3.60,-20.00,
5.99,-20.00,
6.00,-22.00,
8.00,-22.00,
10.00,-26.00,
14.00,-28.00,
15.00,-28.00,
20.00,-34.00,
29.99,-34.00,
30.00,-35.00,
40.00,-35.00,
45.00,-37.50,
54.00,-39.00,
95.00,-62.00,
180.00,-62.00,
PATCUT:,AZ
POLARI:,V/H
NUPOIN:, 19 
-180.00,-66.00,
-95.00,-66.00,
-60.00,-54.00,
-43.00,-48.00,
-15.00,-48.00,
-13.00,-48.00,
-7.50,-41.50,
-5.00,-41.50,
-3.00,-30.00,
0.00,-30.00,
3.00,-30.00,
5.00,-41.50,
7.50,-41.50,
13.00,-48.00,
15.00,-48.00,
43.00,-48.00,
60.00,-54.00,
95.00,-66.00,
180.00,-66.00,
ENDFIL:,EOF
