RFS 
SC 3 - 142 A
3 ; Compactline Easy antenna single polarization                               
NONE 
NONE 
2012-11-02
FRT 121003 
14200 - 15350 MHZ 
41.0 dBi 
1.5 Deg        
HH        95 
 -180.00   -69.00 
  -86.50   -69.00 
  -65.00   -51.50
  -43.50   -47.00 
  -15.00   -44.50 
  -13.00   -44.50 
  -11.50   -37.50 
   -9.50   -37.00 
   -7.00   -31.00 
   -4.50   -30.50 
   -3.00   -15.00 
   -2.00   -14.50 
   -1.76   -14.00 
   -1.74   -13.60 
   -1.71   -13.20 
   -1.69   -12.80 
   -1.66   -12.40 
   -1.63   -12.00 
   -1.61   -11.60 
   -1.58   -11.20 
   -1.55   -10.80 
   -1.52   -10.40 
   -1.49   -10.00 
   -1.46    -9.60 
   -1.43    -9.20 
   -1.40    -8.80 
   -1.37    -8.40 
   -1.33    -8.00 
   -1.30    -7.60 
   -1.26    -7.20 
   -1.23    -6.80 
   -1.19    -6.40 
   -1.15    -6.00 
   -1.12    -5.60 
   -1.07    -5.20 
   -1.03    -4.80 
   -0.99    -4.40 
   -0.94    -4.00 
   -0.89    -3.60 
   -0.84    -3.20 
   -0.79    -2.80 
   -0.73    -2.40 
   -0.67    -2.00 
   -0.60    -1.60 
   -0.52    -1.20 
   -0.42    -0.80 
   -0.30    -0.40 
    0.00     0.00 
    0.30    -0.40 
    0.42    -0.80 
    0.52    -1.20 
    0.60    -1.60 
    0.67    -2.00 
    0.73    -2.40 
    0.79    -2.80 
    0.84    -3.20 
    0.89    -3.60 
    0.94    -4.00 
    0.99    -4.40 
    1.03    -4.80 
    1.07    -5.20 
    1.12    -5.60 
    1.15    -6.00 
    1.19    -6.40 
    1.23    -6.80 
    1.26    -7.20 
    1.30    -7.60 
    1.33    -8.00 
    1.37    -8.40 
    1.40    -8.80 
    1.43    -9.20 
    1.46    -9.60 
    1.49   -10.00 
    1.52   -10.40 
    1.55   -10.80 
    1.58   -11.20 
    1.61   -11.60 
    1.63   -12.00 
    1.66   -12.40 
    1.69   -12.80 
    1.71   -13.20 
    1.74   -13.60 
    1.76   -14.00 
    2.00   -14.50 
    3.00   -15.00 
    4.50   -30.50 
    7.00   -31.00 
    9.50   -37.00 
   11.50   -37.50 
   13.00   -44.50 
   15.00   -44.50 
   43.50   -47.00 
   65.00   -51.50 
   86.50   -69.00 
   180.00  -69.00
HV        15 
 -180.00   -72.50 
  -76.00   -72.50 
  -66.50   -64.50 
  -28.50   -58.00 
  -15.00   -57.36 
   -7.50   -57.00 
   -1.50   -30.00 
    0.00   -30.00 
    1.50   -30.00 
    7.50   -57.00 
   15.00   -57.36 
   28.50   -58.00 
   66.50   -64.50 
   76.00   -72.50
   180.00  -72.50
VV        115 
 -180.00   -69.00 
  -85.50   -69.00 
  -60.00   -50.00 
  -20.50   -50.00 
  -19.00   -45.50 
  -15.00   -43.50 
  -14.00   -43.00 
  -12.00   -36.00 
   -6.59   -36.00 
   -4.50   -24.50 
   -3.50   -24.50 
   -2.94   -17.95 
   -2.00   -18.00 
   -1.98   -17.60 
   -1.95   -17.20 
   -1.93   -16.80 
   -1.91   -16.40 
   -1.89   -16.00 
   -1.86   -15.60 
   -1.84   -15.20 
   -1.81   -14.80 
   -1.79   -14.40 
   -1.76   -14.00 
   -1.74   -13.60 
   -1.71   -13.20 
   -1.69   -12.80 
   -1.66   -12.40 
   -1.63   -12.00 
   -1.61   -11.60 
   -1.58   -11.20 
   -1.55   -10.80 
   -1.52   -10.40 
   -1.49   -10.00 
   -1.46    -9.60 
   -1.43    -9.20 
   -1.40    -8.80 
   -1.37    -8.40 
   -1.33    -8.00 
   -1.30    -7.60 
   -1.26    -7.20 
   -1.23    -6.80 
   -1.19    -6.40 
   -1.15    -6.00 
   -1.12    -5.60 
   -1.07    -5.20 
   -1.03    -4.80 
   -0.99    -4.40 
   -0.94    -4.00 
   -0.89    -3.60 
   -0.84    -3.20 
   -0.79    -2.80 
   -0.73    -2.40 
   -0.67    -2.00 
   -0.60    -1.60 
   -0.52    -1.20 
   -0.42    -0.80 
   -0.30    -0.40 
    0.00     0.00 
    0.30    -0.40 
    0.42    -0.80 
    0.52    -1.20 
    0.60    -1.60 
    0.67    -2.00 
    0.73    -2.40 
    0.79    -2.80 
    0.84    -3.20 
    0.89    -3.60 
    0.94    -4.00 
    0.99    -4.40 
    1.03    -4.80 
    1.07    -5.20 
    1.12    -5.60 
    1.15    -6.00 
    1.19    -6.40 
    1.23    -6.80 
    1.26    -7.20 
    1.30    -7.60 
    1.33    -8.00 
    1.37    -8.40 
    1.40    -8.80 
    1.43    -9.20 
    1.46    -9.60 
    1.49   -10.00 
    1.52   -10.40 
    1.55   -10.80 
    1.58   -11.20 
    1.61   -11.60 
    1.63   -12.00 
    1.66   -12.40 
    1.69   -12.80 
    1.71   -13.20 
    1.74   -13.60 
    1.76   -14.00 
    1.79   -14.40 
    1.81   -14.80 
    1.84   -15.20 
    1.86   -15.60 
    1.89   -16.00 
    1.91   -16.40 
    1.93   -16.80 
    1.95   -17.20 
    1.98   -17.60 
    2.00   -18.00 
    2.94   -17.95 
    3.50   -24.50 
    4.50   -24.50 
    6.59   -36.00 
   12.00   -36.00 
   14.00   -43.00 
   15.00   -43.50 
   19.00   -45.50 
   20.50   -50.00 
   60.00   -50.00 
   85.50   -69.00 
   180.00  -69.00
VH        15 
 -180.00   -72.50 
  -94.00   -72.50 
  -85.50   -67.50 
  -41.50   -59.00 
  -15.00   -59.00 
   -8.00   -59.00 
   -1.50   -30.00 
    0.00   -30.00 
    1.50   -30.00 
    8.00   -59.00 
   15.00   -59.00 
   41.50   -59.00 
   85.50   -67.50 
   94.00   -72.50 
   180.00  -72.50
