GABRIEL ELECTRONICS, INC.     
SR4-71BSE                     
HIGH PERFORMANCE ANTENNA      
64975G          
NONE            
11/15/95     
4975            
7125-8500       
37.0            
2.2             
HH           31 
 -180.0   -56.0 
  -78.6   -56.0 
  -58.8   -40.1 
  -26.9   -40.0 
  -25.5   -33.0 
  -13.8   -33.0 
  -12.5   -26.2 
   -8.7   -26.2 
   -8.4   -24.6 
   -5.3   -24.6 
   -4.2   -19.9 
   -3.4   -19.9 
   -2.0    -7.3 
   -1.4    -2.8 
    -.6     -.4 
    0.0     0.0 
     .6     -.4 
    1.4    -2.8 
    2.0    -7.3 
    3.4   -19.9 
    4.2   -19.9 
    5.3   -24.6 
    8.4   -24.6 
    8.7   -26.2 
   12.5   -26.2 
   13.8   -33.0 
   25.5   -33.0 
   26.9   -40.0 
   58.8   -40.1 
   78.6   -56.0 
  180.0   -56.0 
HV           19 
 -180.0   -57.1 
  -58.0   -57.1 
  -51.3   -49.5 
  -35.4   -49.5 
  -31.4   -43.4 
  -21.9   -43.3 
  -18.1   -40.4 
   -6.3   -40.3 
   -4.8   -28.0 
    0.0   -28.0 
    4.8   -28.0 
    6.3   -40.3 
   18.1   -40.4 
   21.9   -43.3 
   31.4   -43.4 
   35.4   -49.5 
   51.3   -49.5 
   58.0   -57.1 
  180.0   -57.1 
VV           43 
 -180.0   -56.0 
  -99.5   -56.0 
  -90.8   -53.8 
  -82.7   -53.8 
  -76.3   -44.1 
  -67.1   -44.1 
  -61.7   -39.0 
  -38.5   -39.0 
  -28.7   -31.4 
  -19.7   -31.4 
  -19.2   -28.4 
  -14.4   -28.4 
  -14.0   -26.7 
   -9.4   -26.7 
   -8.6   -25.4 
   -5.2   -25.4 
   -4.3   -19.3 
   -3.3   -19.3 
   -2.0    -7.3 
   -1.4    -2.9 
    -.7     -.5 
    0.0     0.0 
     .7     -.5 
    1.4    -2.9 
    2.0    -7.3 
    3.3   -19.3 
    4.3   -19.3 
    5.2   -25.4 
    8.6   -25.4 
    9.4   -26.7 
   14.0   -26.7 
   14.4   -28.4 
   19.2   -28.4 
   19.7   -31.4 
   28.7   -31.4 
   38.5   -39.0 
   61.7   -39.0 
   67.1   -44.1 
   76.3   -44.1 
   82.7   -53.8 
   90.8   -53.8 
   99.5   -56.0 
  180.0   -56.0 
VH           19 
 -180.0   -60.3 
  -70.7   -60.3 
  -67.0   -52.7 
  -38.1   -52.7 
  -36.0   -51.3 
  -26.1   -51.3 
  -20.4   -49.0 
   -9.2   -48.9 
   -6.0   -28.0 
    0.0   -28.0 
    6.0   -28.0 
    9.2   -48.9 
   20.4   -49.0 
   26.1   -51.3 
   36.0   -51.3 
   38.1   -52.7 
   67.0   -52.7 
   70.7   -60.3 
  180.0   -60.3 
ELHH         13 
   -5.0   -19.6 
   -3.2   -19.6 
   -2.2   -10.1 
   -1.3    -2.9 
    -.7     -.7 
    -.3     -.2 
    0.0     0.0 
     .3     -.2 
     .7     -.7 
    1.3    -2.9 
    2.2   -10.1 
    3.2   -19.6 
    5.0   -19.6 
ELHV          7 
   -5.0   -41.5 
   -4.0   -41.5 
   -2.1   -28.0 
    0.0   -28.0 
    2.1   -28.0 
    4.0   -41.5 
    5.0   -41.5 
ELVV         13 
   -5.0   -23.3 
   -4.2   -20.0 
   -3.4   -20.0 
   -2.0    -7.3 
   -1.4    -2.8 
    -.6     -.5 
    0.0     0.0 
     .6     -.5 
    1.4    -2.8 
    2.0    -7.3 
    3.4   -20.0 
    4.2   -20.0 
    5.0   -23.3 
ELVH          5 
   -5.0   -29.0 
   -4.8   -28.0 
    0.0   -28.0 
    4.8   -28.0 
    5.0   -29.0 
