RFS 
SU 2 - 107 B 
2 ; Slimline single polarisation 
NONE 
NONE 
20050928  
FRT 011213a 
10700 - 11700 MHZ 
34.2 dBi 
3.1 Deg 
HH 79
-180.0  -60.00 
-101.5  -60.00 
 -90.0  -53.50 
 -71.0  -40.00 
 -59.5  -40.00 
 -56.5  -36.00 
 -33.5  -30.50 
 -15.5  -27.50 
  -4.6  -17.50 
  -4.5  -17.00 
  -4.4  -16.00 
  -4.3  -15.50 
  -4.2  -15.00 
  -4.1  -14.00 
  -4.0  -13.50 
  -3.9  -12.50 
  -3.8  -12.00 
  -3.7  -11.50 
  -3.6  -11.00 
  -3.5  -10.50 
  -3.4   -9.50 
  -3.3   -9.00 
  -3.2   -8.50 
  -3.1   -8.00 
  -3.0   -7.50 
  -2.9   -7.00 
  -2.8   -6.50 
  -2.7   -6.00 
  -2.6   -5.50 
  -2.5   -5.00 
  -2.3   -4.50 
  -2.2   -4.00 
  -2.0   -3.50 
  -1.9   -3.00 
  -1.7   -2.50 
  -1.6   -2.00 
  -1.3   -1.50 
  -1.1   -1.00 
  -0.8   -0.50 
   0.0    0.00 
   0.8   -0.50 
   1.1   -1.00 
   1.3   -1.50 
   1.6   -2.00 
   1.7   -2.50 
   1.9   -3.00 
   2.0   -3.50 
   2.2   -4.00 
   2.3   -4.50 
   2.5   -5.00 
   2.6   -5.50 
   2.7   -6.00 
   2.8   -6.50 
   2.9   -7.00 
   3.0   -7.50 
   3.1   -8.00 
   3.2   -8.50 
   3.3   -9.00 
   3.4   -9.50 
   3.5  -10.50 
   3.6  -11.00 
   3.7  -11.50 
   3.8  -12.00 
   3.9  -12.50 
   4.0  -13.50 
   4.1  -14.00 
   4.2  -15.00 
   4.3  -15.50 
   4.4  -16.00 
   4.5  -17.00 
   4.6  -17.50 
  15.5  -27.50 
  33.5  -30.50 
  56.5  -36.00 
  59.5  -40.00 
  71.0  -40.00 
  90.0  -53.50 
 101.5  -60.00 
 180.0  -60.00 
HV 16
-180.0  -60.00 
 -78.0  -60.00 
 -67.0  -50.00 
 -53.0  -46.34 
 -38.5  -40.00 
 -23.0  -39.00 
  -6.5  -39.00 
  -2.0  -30.00 
   2.0  -30.00 
   6.5  -39.00 
  23.0  -39.00 
  38.5  -40.00 
  53.0  -46.34 
  67.0  -50.00 
  78.0  -60.00 
 180.0  -60.00 
VV 75
-180.0  -60.00 
 -91.0  -60.00 
 -52.0  -40.00 
 -30.0  -31.50 
 -22.0  -30.00 
 -11.5  -23.00 
  -8.5  -22.50 
  -4.5  -17.00 
  -4.4  -16.00 
  -4.3  -15.50 
  -4.2  -15.00 
  -4.1  -14.00 
  -4.0  -13.50 
  -3.9  -12.50 
  -3.8  -12.00 
  -3.7  -11.50 
  -3.6  -11.00 
  -3.5  -10.50 
  -3.4   -9.50 
  -3.3   -9.00 
  -3.2   -8.50 
  -3.1   -8.00 
  -3.0   -7.50 
  -2.9   -7.00 
  -2.8   -6.50 
  -2.7   -6.00 
  -2.6   -5.50 
  -2.5   -5.00 
  -2.3   -4.50 
  -2.2   -4.00 
  -2.0   -3.50 
  -1.9   -3.00 
  -1.7   -2.50 
  -1.6   -2.00 
  -1.3   -1.50 
  -1.1   -1.00 
  -0.8   -0.50 
   0.0    0.00 
   0.8   -0.50 
   1.1   -1.00 
   1.3   -1.50 
   1.6   -2.00 
   1.7   -2.50 
   1.9   -3.00 
   2.0   -3.50 
   2.2   -4.00 
   2.3   -4.50 
   2.5   -5.00 
   2.6   -5.50 
   2.7   -6.00 
   2.8   -6.50 
   2.9   -7.00 
   3.0   -7.50 
   3.1   -8.00 
   3.2   -8.50 
   3.3   -9.00 
   3.4   -9.50 
   3.5  -10.50 
   3.6  -11.00 
   3.7  -11.50 
   3.8  -12.00 
   3.9  -12.50 
   4.0  -13.50 
   4.1  -14.00 
   4.2  -15.00 
   4.3  -15.50 
   4.4  -16.00 
   4.5  -17.00 
   8.5  -22.50 
  11.5  -23.00 
  22.0  -30.00 
  30.0  -31.50 
  52.0  -40.00 
  91.0  -60.00 
 180.0  -60.00 
VH 16
-180.0  -60.00 
 -94.0  -60.00 
 -59.0  -50.00 
 -31.0  -48.00 
 -20.0  -44.00 
  -7.0  -44.00 
  -5.5  -40.00 
  -2.0  -30.00 
   2.0  -30.00 
   5.5  -40.00 
   7.0  -44.00 
  20.0  -44.00 
  31.0  -48.00 
  59.0  -50.00 
  94.0  -60.00 
 180.0  -60.00 
