RFS 
SU 3 - 142 A 
3 ; Slimline antenna single polarization                               
NONE 
NONE 
20040119 
FRT 980801b 
14200 - 15350 MHZ 
40.0 dBi 
1.6 Deg 
HH 115
-180.0  -67.00 
-100.0  -67.00 
 -70.0  -50.00 
 -50.0  -41.00 
 -30.0  -41.00 
 -20.0  -35.00 
 -15.0  -35.00 
 -11.0  -35.00 
  -7.5  -29.00 
  -6.5  -29.00 
  -5.5  -23.00 
  -2.4  -23.00 
  -2.3  -22.50 
  -2.3  -22.00 
  -2.3  -21.50 
  -2.3  -21.00 
  -2.2  -20.50 
  -2.2  -20.00 
  -2.2  -19.50 
  -2.2  -19.00 
  -2.1  -18.50 
  -2.1  -18.00 
  -2.1  -17.50 
  -2.0  -17.00 
  -2.0  -16.50 
  -2.0  -16.00 
  -1.9  -15.50 
  -1.9  -15.00 
  -1.9  -14.50 
  -1.8  -14.00 
  -1.8  -13.50 
  -1.8  -13.00 
  -1.7  -12.50 
  -1.7  -12.00 
  -1.7  -11.50 
  -1.6  -11.00 
  -1.6  -10.50 
  -1.6  -10.00 
  -1.5   -9.50 
  -1.5   -9.00 
  -1.4   -8.50 
  -1.4   -8.00 
  -1.4   -7.50 
  -1.3   -7.00 
  -1.3   -6.50 
  -1.2   -6.00 
  -1.2   -5.50 
  -1.1   -5.00 
  -1.1   -4.50 
  -1.0   -4.00 
  -0.9   -3.50 
  -0.9   -3.00 
  -0.8   -2.50 
  -0.7   -2.00 
  -0.6   -1.50 
  -0.5   -1.00 
  -0.4   -0.50 
   0.0    0.00 
   0.4   -0.50 
   0.5   -1.00 
   0.6   -1.50 
   0.7   -2.00 
   0.8   -2.50 
   0.9   -3.00 
   0.9   -3.50 
   1.0   -4.00 
   1.1   -4.50 
   1.1   -5.00 
   1.2   -5.50 
   1.2   -6.00 
   1.3   -6.50 
   1.3   -7.00 
   1.4   -7.50 
   1.4   -8.00 
   1.4   -8.50 
   1.5   -9.00 
   1.5   -9.50 
   1.6  -10.00 
   1.6  -10.50 
   1.6  -11.00 
   1.7  -11.50 
   1.7  -12.00 
   1.7  -12.50 
   1.8  -13.00 
   1.8  -13.50 
   1.8  -14.00 
   1.9  -14.50 
   1.9  -15.00 
   1.9  -15.50 
   2.0  -16.00 
   2.0  -16.50 
   2.0  -17.00 
   2.1  -17.50 
   2.1  -18.00 
   2.1  -18.50 
   2.2  -19.00 
   2.2  -19.50 
   2.2  -20.00 
   2.2  -20.50 
   2.3  -21.00 
   2.3  -21.50 
   2.3  -22.00 
   2.3  -22.50 
   2.4  -23.00 
   5.5  -23.00 
   6.5  -29.00 
   7.5  -29.00 
  11.0  -35.00 
  15.0  -35.00 
  20.0  -35.00 
  30.0  -41.00 
  50.0  -41.00 
  70.0  -50.00 
 100.0  -67.00 
 180.0  -67.00 
HV 15
-180.0  -72.00 
 -75.0  -72.00 
 -60.0  -62.00 
 -30.0  -50.00 
 -15.0  -48.00 
  -7.0  -43.00 
  -2.0  -32.00 
   0.0  -32.00 
   2.0  -32.00 
   7.0  -43.00 
  15.0  -48.00 
  30.0  -50.00 
  60.0  -62.00 
  75.0  -72.00 
 180.0  -72.00 
VV 107
-180.0  -67.00 
 -80.0  -67.00 
 -50.0  -50.00 
 -30.0  -40.00 
 -20.0  -38.00 
 -15.0  -38.00 
  -7.5  -30.00 
  -5.0  -25.00 
  -4.0  -25.00 
  -3.0  -21.00 
  -2.5  -21.00 
  -2.3  -21.00 
  -2.2  -20.50 
  -2.2  -20.00 
  -2.2  -19.50 
  -2.2  -19.00 
  -2.1  -18.50 
  -2.1  -18.00 
  -2.1  -17.50 
  -2.0  -17.00 
  -2.0  -16.50 
  -2.0  -16.00 
  -1.9  -15.50 
  -1.9  -15.00 
  -1.9  -14.50 
  -1.8  -14.00 
  -1.8  -13.50 
  -1.8  -13.00 
  -1.7  -12.50 
  -1.7  -12.00 
  -1.7  -11.50 
  -1.6  -11.00 
  -1.6  -10.50 
  -1.6  -10.00 
  -1.5   -9.50 
  -1.5   -9.00 
  -1.4   -8.50 
  -1.4   -8.00 
  -1.4   -7.50 
  -1.3   -7.00 
  -1.3   -6.50 
  -1.2   -6.00 
  -1.2   -5.50 
  -1.1   -5.00 
  -1.1   -4.50 
  -1.0   -4.00 
  -0.9   -3.50 
  -0.9   -3.00 
  -0.8   -2.50 
  -0.7   -2.00 
  -0.6   -1.50 
  -0.5   -1.00 
  -0.4   -0.50 
   0.0    0.00 
   0.4   -0.50 
   0.5   -1.00 
   0.6   -1.50 
   0.7   -2.00 
   0.8   -2.50 
   0.9   -3.00 
   0.9   -3.50 
   1.0   -4.00 
   1.1   -4.50 
   1.1   -5.00 
   1.2   -5.50 
   1.2   -6.00 
   1.3   -6.50 
   1.3   -7.00 
   1.4   -7.50 
   1.4   -8.00 
   1.4   -8.50 
   1.5   -9.00 
   1.5   -9.50 
   1.6  -10.00 
   1.6  -10.50 
   1.6  -11.00 
   1.7  -11.50 
   1.7  -12.00 
   1.7  -12.50 
   1.8  -13.00 
   1.8  -13.50 
   1.8  -14.00 
   1.9  -14.50 
   1.9  -15.00 
   1.9  -15.50 
   2.0  -16.00 
   2.0  -16.50 
   2.0  -17.00 
   2.1  -17.50 
   2.1  -18.00 
   2.1  -18.50 
   2.2  -19.00 
   2.2  -19.50 
   2.2  -20.00 
   2.2  -20.50 
   2.3  -21.00 
   2.5  -21.00 
   3.0  -21.00 
   4.0  -25.00 
   5.0  -25.00 
   7.5  -30.00 
  15.0  -38.00 
  20.0  -38.00 
  30.0  -40.00 
  50.0  -50.00 
  80.0  -67.00 
 180.0  -67.00 
VH 19
-180.0  -72.00 
 -80.0  -72.00 
 -60.0  -62.00 
 -50.0  -57.00 
 -30.0  -57.00 
 -20.0  -49.00 
 -15.0  -49.00 
  -5.0  -49.00 
  -2.0  -32.00 
   0.0  -32.00 
   2.0  -32.00 
   5.0  -49.00 
  15.0  -49.00 
  20.0  -49.00 
  30.0  -57.00 
  50.0  -57.00 
  60.0  -62.00 
  80.0  -72.00 
 180.0  -72.00 
