REVNUM:,NSMA WG16.99.050
REVDAT:,
COMNT1:,this RPE file was created by the Australian Communications and Media Authority
ANTMAN:,NOKIA
MODNUM:,T555A07.10
PATNUM:,
FEDORN:,NA
DESCR1:,
DESCR2:,
DESCR3:,
DESCR4:,
DESCR5:,
DTDATA:,
LOWFRQ:,
HGHFRQ:,
GUNITS:,DBI/DBR
LWGAIN:,
MDGAIN:,35.5
HGGAIN:,
AZWIDT:,2.6
ELWIDT:,
ATVSWR:,
FRTOBA:,62
ELTILT:,
PATTYP:,ENVELOPE
NOFREQ:,NA
PATFRE:,NA
NUMCUT:,4
PATCUT:,AZ
POLARI:,H/H
NUPOIN:,39
-180.0,-62.0,
-100.0,-62.0,
-90.0,-58.0,
-75.0,-48.0,
-60.0,-42.0,
-45.0,-35.0,
-40.0,-34.0,
-30.0,-33.0,
-15.0,-28.0,
-10.0,-24.0,
-6.0,-17.0,
-5.0,-16.0,
-4.0,-14.0,
-3.0,-14.0,
-2.5,-10.0,
-2.0,-6.0,
-1.5,-3.0,
-1.0,-1.0,
-0.5,0.0,
0.0,0.0,
0.5,0.0,
1.0,-1.0,
1.5,-3.0,
2.0,-6.0,
2.5,-10.0,
3.0,-14.0,
4.0,-14.0,
5.0,-16.0,
6.0,-17.0,
10.0,-24.0,
15.0,-28.0,
30.0,-33.0,
40.0,-34.0,
45.0,-35.0,
60.0,-42.0,
75.0,-48.0,
90.0,-58.0,
100.0,-62.0,
180.0,-62.0,
PATCUT:,AZ
POLARI:,H/V
NUPOIN:,11
-180.0,-62.0,
-90.0,-62.0,
-45.0,-54.0,
-5.0,-42.0,
-3.0,-30.0,
0.0,-30.0,
3.0,-30.0,
5.0,-42.0,
45.0,-54.0,
90.0,-62.0,
180.0,-62.0,
PATCUT:,AZ
POLARI:,V/V
NUPOIN:,37
-180.0,-62.0,
-100.0,-62.0,
-90.0,-55.0,
-75.0,-48.0,
-60.0,-40.0,
-45.0,-34.0,
-35.0,-32.0,
-30.0,-32.0,
-20.0,-30.0,
-15.0,-25.0,
-6.0,-18.0,
-4.0,-15.0,
-3.0,-15.0,
-2.5,-10.0,
-2.0,-6.0,
-1.5,-3.0,
-1.0,-1.0,
-0.5,0.0,
0.0,0.0,
0.5,0.0,
1.0,-1.0,
1.5,-3.0,
2.0,-6.0,
2.5,-10.0,
3.0,-15.0,
4.0,-15.0,
6.0,-18.0,
15.0,-25.0,
20.0,-30.0,
30.0,-32.0,
35.0,-32.0,
45.0,-34.0,
60.0,-40.0,
75.0,-48.0,
90.0,-55.0,
100.0,-62.0,
180.0,-62.0,
PATCUT:,AZ
POLARI:,V/H
NUPOIN:,15
-180.0,-62.0,
-90.0,-62.0,
-45.0,-54.0,
-15.0,-50.0,
-10.0,-44.0,
-5.0,-35.0,
-3.0,-30.0,
0.0,-30.0,
3.0,-30.0,
5.0,-35.0,
10.0,-44.0,
15.0,-50.0,
45.0,-54.0,
90.0,-62.0,
180.0,-62.0,
ENDFIL:,EOF