REVNUM:,NSMA WG16.99.050
REVDAT:,19990520
COMNT1:,5 to 180 degrees: No peaks will exceed the RPE by more than 2 dB.
COMNT2:,0 to 5 degrees: Typical RPE. Reference: 1301-UKY 210 40+ Rev A
ANTMAN:,ERICSSON
MODNUM:,UKY 210 76/SC11 and UKY 210 76/SC15 
DESCR1:,0.6 m Compact Antenna 15 GHz, Single Polarised, High Performance
LOWFRQ:,14400
HGHFRQ:,15350
GUNITS:,DBI/DBI
MDGAIN:,36.6
AZWIDT:,2.9
ELWIDT:,2.9
ELTILT:,0.0
PATTYP:,ENVELOPE
NOFREQ:,NA
PATFRE:,NA
NUMCUT:,4
PATCUT:,AZ
POLARI:,H/H
NUPOIN:,27
FSTLST:,-180.000,+179.999
-180.000,-27.000,
-95.000,-27.000,
-60.000,-4.000,
-25.000,2.000,
-10.000,8.000,
-5.000,18.000,
-3.500,18.000,
-3.000,22.600,
-2.500,27.600,
-2.000,31.100,
-1.450,33.600,
-1.000,35.400,
-0.500,36.300,
0.000,36.600,
0.500,36.300,
1.000,35.400,
1.450,33.600,
2.000,31.100,
2.500,27.600,
3.000,22.600,
3.500,18.000,
5.000,18.000,
10.000,8.000,
25.000,2.000,
60.000,-4.000,
95.000,-27.000,
179.999,-27.000,
PATCUT:,AZ
POLARI:,H/V
NUPOIN:,15
FSTLST:,-180.000,+179.999
-180.000,-31.000,
-95.000,-31.000,
-70.000,-24.000,
-15.000,-15.000,
-10.000,-2.000,
-5.000,-2.000,
-2.900,6.600,
0.000,6.600,
2.900,6.600,
5.000,-2.000,
10.000,-2.000,
15.000,-15.000,
70.000,-24.000,
95.000,-31.000,
179.999,-31.000,
PATCUT:,AZ
POLARI:,V/V
NUPOIN:,27
FSTLST:,-180.000,+179.999
-180.000,-27.000,
-95.000,-27.000,
-60.000,-4.000,
-25.000,2.000,
-10.000,8.000,
-5.000,18.000,
-3.500,18.000,
-3.000,22.600,
-2.500,27.600,
-2.000,31.100,
-1.450,33.600,
-1.000,35.400,
-0.500,36.300,
0.000,36.600,
0.500,36.300,
1.000,35.400,
1.450,33.600,
2.000,31.100,
2.500,27.600,
3.000,22.600,
3.500,18.000,
5.000,18.000,
10.000,8.000,
25.000,2.000,
60.000,-4.000,
95.000,-27.000,
179.999,-27.000,
PATCUT:,AZ
POLARI:,V/H
NUPOIN:,15
FSTLST:,-180.000,+179.999
-180.000,-31.000,
-95.000,-31.000,
-70.000,-24.000,
-15.000,-15.000,
-10.000,-2.000,
-5.000,-2.000,
-2.900,6.600,
0.000,6.600,
2.900,6.600,
5.000,-2.000,
10.000,-2.000,
15.000,-15.000,
70.000,-24.000,
95.000,-31.000,
179.999,-31.000,
ENDFIL:,EOF
