REVNUM:,NSMA WG16.99.050
REVDAT:,19990520
COMNT1:,5 to 180 degrees: No peaks will exceed the RPE by more than 2 dB.
COMNT2:,0 to 5 degrees: Typical RPE. Reference: 1301-UKY 210 40+ Rev A
ANTMAN:,ERICSSON
MODNUM:,UKY 210 80/SC11 and UKY 210 80/SC15
DESCR1:,0.6 m Compact Antenna 38 GHz, Single Polarised, High Performance
LOWFRQ:,37000
HGHFRQ:,39500
GUNITS:,DBI/DBI
MDGAIN:,44.3
AZWIDT:,1.2
ELWIDT:,1.2
ELTILT:,0.0
PATTYP:,ENVELOPE
NOFREQ:,NA
PATFRE:,NA
NUMCUT:,4
PATCUT:,AZ
POLARI:,H/H
NUPOIN:,43
FSTLST:,-180.000,+179.999
-180.000,-19.000,
-85.000,-19.000,
-80.000,-13.000,
-70.000,-12.000,
-65.000,-5.000,
-60.000,-3.000,
-55.000,-2.000,
-25.000,-1.000,
-15.000,1.000,
-10.000,6.000,
-5.000,15.000,
-4.000,19.300,
-3.500,19.300,
-3.000,22.300,
-2.500,25.300,
-2.000,25.300,
-1.500,29.300,
-1.000,35.300,
-0.600,41.300,
-0.500,42.500,
-0.250,43.900,
0.000,44.300,
0.250,43.900,
0.500,42.500,
0.600,41.300,
1.000,35.300,
1.500,29.300,
2.000,25.300,
2.500,25.300,
3.000,22.300,
3.500,19.300,
4.000,19.300,
5.000,15.000,
10.000,6.000,
15.000,1.000,
25.000,-1.000,
55.000,-2.000,
60.000,-3.000,
65.000,-5.000,
70.000,-12.000,
80.000,-13.000,
85.000,-19.000,
179.999,-19.000,
PATCUT:,AZ
POLARI:,H/V
NUPOIN:,13
FSTLST:,-180.000,+179.999
-180.000,-20.000,
-70.000,-20.000,
-60.000,-16.000,
-15.000,-16.000,
-5.000,-5.000,
-1.200,14.300,
0.000,14.300,
1.200,14.300,
5.000,-5.000,
15.000,-16.000,
60.000,-16.000,
70.000,-20.000,
179.999,-20.000,
PATCUT:,AZ
POLARI:,V/V
NUPOIN:,37
FSTLST:,-180.000,+179.999
-180.000,-19.000,
-70.000,-19.000,
-65.000,-10.000,
-50.000,-8.000,
-25.000,-8.000,
-15.000,-1.000,
-10.000,8.000,
-5.000,16.000,
-4.000,19.300,
-3.500,19.300,
-3.000,22.300,
-2.500,25.300,
-2.000,25.300,
-1.500,29.300,
-1.000,35.300,
-0.600,41.300,
-0.500,42.500,
-0.250,43.900,
0.000,44.300,
0.250,43.900,
0.500,42.500,
0.600,41.300,
1.000,35.300,
1.500,29.300,
2.000,25.300,
2.500,25.300,
3.000,22.300,
3.500,19.300,
4.000,19.300,
5.000,16.000,
10.000,8.000,
15.000,-1.000,
25.000,-8.000,
50.000,-8.000,
65.000,-10.000,
70.000,-19.000,
179.999,-19.000,
PATCUT:,AZ
POLARI:,V/H
NUPOIN:,13
FSTLST:,-180.000,+179.999
-180.000,-20.000,
-70.000,-20.000,
-60.000,-16.000,
-15.000,-16.000,
-5.000,-5.000,
-1.200,14.300,
0.000,14.300,
1.200,14.300,
5.000,-5.000,
15.000,-16.000,
60.000,-16.000,
70.000,-20.000,
179.999,-20.000,
ENDFIL:,EOF
