REVNUM:,NSMA WG16.99.050
REVDAT:,19990520
ANTMAN:,ERICSSON
MODNUM:,UKY 220 43/DC15
PATNUM:,22043dc15a
FEDORN:,NA
DESCR1:,ANT2 0.6 15 HPX
DESCR2:,R1x
DESCR3:,
DESCR4:,
DESCR5:,
DTDATA:,20100609
LOWFRQ:,14400
HGHFRQ:,15350
GUNITS:,DBI/DBR
LWGAIN:,36.5
MDGAIN:,36.8
HGGAIN:,37.2
AZWIDT:,2.5
ELWIDT:,2.5
ATVSWR:,1.5
FRTOBA:,64
ELTILT:,0
ANTWID:,0.6
PATTYP:,ENVELOPE
NOFREQ:,NA
PATFRE:,NA
NUMCUT:,4
PATCUT:,AZ
POLARI:,H/H
NUPOIN:,33
-180.00,-64.00,
-95.00,-64.00,
-65.00,-50.00,
-40.00,-38.00,
-20.00,-38.00,
-17.00,-33.00,
-12.50,-33.00,
-9.00,-28.00,
-6.00,-22.00,
-3.40,-22.00,
-3.20,-20.00,
-2.70,-14.00,
-2.10,-8.00,
-1.50,-4.30,
-1.00,-1.60,
-0.50,-0.30,
0.00,0.00,
0.50,-0.30,
1.00,-1.60,
1.50,-4.30,
2.10,-8.00,
2.70,-14.00,
3.20,-20.00,
3.40,-22.00,
6.00,-22.00,
9.00,-28.00,
12.50,-33.00,
17.00,-33.00,
20.00,-38.00,
40.00,-38.00,
65.00,-50.00,
95.00,-64.00,
180.00,-64.00,
PATCUT:,AZ
POLARI:,H/V
NUPOIN:,15
-180.00,-68.00,
-85.00,-68.00,
-40.00,-56.00,
-15.00,-56.00,
-8.00,-50.00,
-5.00,-42.00,
-3.00,-30.00,
0.00,-30.00,
3.00,-30.00,
5.00,-42.00,
8.00,-50.00,
15.00,-56.00,
40.00,-56.00,
85.00,-68.00,
180.00,-68.00,
PATCUT:,AZ
POLARI:,V/V
NUPOIN:,41
-180.00,-64.00,
-90.00,-64.00,
-68.00,-48.00,
-65.00,-48.00,
-56.00,-42.00,
-52.00,-40.00,
-35.00,-37.00,
-28.00,-36.00,
-25.00,-36.00,
-15.00,-31.50,
-10.00,-29.00,
-6.70,-26.00,
-5.50,-21.00,
-3.20,-21.00,
-2.90,-17.00,
-2.50,-12.00,
-2.00,-7.50,
-1.50,-4.00,
-1.00,-1.62,
-0.50,-0.20,
0.00,0.00,
0.50,-0.20,
1.00,-1.62,
1.50,-4.00,
2.00,-7.50,
2.50,-12.00,
2.90,-17.00,
3.20,-21.00,
5.50,-21.00,
6.70,-26.00,
10.00,-29.00,
15.00,-31.50,
25.00,-36.00,
28.00,-36.00,
35.00,-37.00,
52.00,-40.00,
56.00,-42.00,
65.00,-48.00,
68.00,-48.00,
90.00,-64.00,
180.00,-64.00,
PATCUT:,AZ
POLARI:,V/H
NUPOIN:,23
-180.00,-68.00,
-90.00,-68.00,
-75.00,-64.00,
-45.00,-56.00,
-40.00,-56.00,
-30.00,-52.00,
-11.00,-52.00,
-9.00,-46.00,
-6.00,-46.00,
-5.00,-42.00,
-3.00,-30.00,
0.00,-30.00,
3.00,-30.00,
5.00,-42.00,
6.00,-46.00,
9.00,-46.00,
11.00,-52.00,
30.00,-52.00,
40.00,-56.00,
45.00,-56.00,
75.00,-64.00,
90.00,-68.00,
180.00,-68.00,
ENDFIL:,EOF
