REVNUM:,NSMA WG16.99.050
REVDAT:,19990520
COMNT1:,5 to 180 degrees: No peaks will exceed the RPE by more than 2 dB.
COMNT2:,0 to 5 degrees: Typical RPE. Reference: 1301-UKY 210 40+ Rev A
ANTMAN:,ERICSSON
MODNUM:,UKY 210 42/SC11, UKY 210 42/SC15 and UKY 210 42/DC12
DESCR1:,1.2 m Compact Antenna 15 GHz, Single and Dual Polarised, High Performance
LOWFRQ:,14400
HGHFRQ:,15350
GUNITS:,DBI/DBI
MDGAIN:,42.7
AZWIDT:,1.4
ELWIDT:,1.4
ELTILT:,0.0
PATTYP:,ENVELOPE
NOFREQ:,NA
PATFRE:,NA
NUMCUT:,4
PATCUT:,AZ
POLARI:,H/H
NUPOIN:,41
FSTLST:,-180.000,+180
-180.000,-29.000,
-95.000,-29.000,
-70.000,-11.000,
-60.000,-4.000,
-35.000,0.000,
-25.000,1.000,
-10.000,8.000,
-5.000,14.000,
-4.500,14.000,
-4.000,16.700,
-3.500,16.700,
-3.000,22.700,
-2.500,24.700,
-2.000,24.700,
-1.500,24.700,
-1.250,31.700,
-1.000,36.200,
-0.700,39.700,
-0.500,41.300,
-0.250,42.500,
0.000,42.700,
0.250,42.500,
0.500,41.300,
0.700,39.700,
1.000,36.200,
1.250,31.700,
1.500,24.700,
2.000,24.700,
2.500,24.700,
3.000,22.700,
3.500,16.700,
4.000,16.700,
4.500,14.000,
5.000,14.000,
10.000,8.000,
25.000,1.000,
35.000,0.000,
60.000,-4.000,
70.000,-11.000,
95.000,-29.000,
180,-29.000,
PATCUT:,AZ
POLARI:,H/V
NUPOIN:,13
FSTLST:,-180.000,+180
-180.000,-32.000,
-90.000,-32.000,
-45.000,-17.000,
-20.000,-16.000,
-5.000,-7.000,
-1.400,12.700,
0.000,12.700,
1.400,12.700,
5.000,-7.000,
20.000,-16.000,
45.000,-17.000,
90.000,-32.000,
180,-32.000,
PATCUT:,AZ
POLARI:,V/V
NUPOIN:,41
FSTLST:,-180.000,+180
-180.000,-29.000,
-95.000,-29.000,
-70.000,-11.000,
-60.000,-4.000,
-35.000,0.000,
-25.000,1.000,
-10.000,8.000,
-5.000,14.000,
-4.500,14.000,
-4.000,16.700,
-3.500,16.700,
-3.000,22.700,
-2.500,24.700,
-2.000,24.700,
-1.500,24.700,
-1.250,31.700,
-1.000,36.200,
-0.700,39.700,
-0.500,41.300,
-0.250,42.500,
0.000,42.700,
0.250,42.500,
0.500,41.300,
0.700,39.700,
1.000,36.200,
1.250,31.700,
1.500,24.700,
2.000,24.700,
2.500,24.700,
3.000,22.700,
3.500,16.700,
4.000,16.700,
4.500,14.000,
5.000,14.000,
10.000,8.000,
25.000,1.000,
35.000,0.000,
60.000,-4.000,
70.000,-11.000,
95.000,-29.000,
180,-29.000,
PATCUT:,AZ
POLARI:,V/H
NUPOIN:,13
FSTLST:,-180.000,+180
-180.000,-32.000,
-90.000,-32.000,
-45.000,-17.000,
-20.000,-16.000,
-5.000,-7.000,
-1.400,12.700,
0.000,12.700,
1.400,12.700,
5.000,-7.000,
20.000,-16.000,
45.000,-17.000,
90.000,-32.000,
180,-32.000,
ENDFIL:,EOF
