REVNUM:,NSMA WG16.99.050
REVDAT:,19990520
ANTMAN:,ERICSSON
MODNUM:,ML18 0.6m HP 2p
PATNUM:,0621077dc12a
FEDORN:,NA
DESCR1:,UKY 210 77/DC12
DESCR2:,
DESCR3:,
DESCR4:,
DESCR5:,
DTDATA:,20060313
LOWFRQ:,17700
HGHFRQ:,19700
GUNITS:,DBI/DBR
LWGAIN:,39.2
MDGAIN:,39.8
HGGAIN:,40.3
AZWIDT:,1.8
ELWIDT:,1.8
ATVSWR:,1.29
FRTOBA:,65
ELTILT:,0
ANTWID:,0.6
PATTYP:,ENVELOPE
NOFREQ:,NA
PATFRE:,NA
NUMCUT:,4
PATCUT:,AZ
POLARI:,H/H
NUPOIN:,27
-180,-67.8,
-90,-67.8,
-60,-44.8,
-40,-40.8,
-20,-37.8,
-10,-31.8,
-5,-21.8,
-4,-18,
-3,-12,
-1.5,-12,
-1,-5,
-0.9,-3,
-0.5,-1,
0,0,
0.5,-1,
0.9,-3,
1,-5,
1.5,-12,
3,-12,
4,-18,
5,-21.8,
10,-31.8,
20,-37.8,
40,-40.8,
60,-44.8,
90,-67.8,
180,-67.8,
PATCUT:,AZ
POLARI:,H/V
NUPOIN:,13
-180,-71.8,
-90,-71.8,
-60,-64.8,
-20,-54.8,
-5,-44.8,
-1,-32,
0,-32,
1,-32,
5,-44.8,
20,-54.8,
60,-64.8,
90,-71.8,
180,-71.8,
PATCUT:,AZ
POLARI:,V/V
NUPOIN:,27
-180,-67.8,
-90,-67.8,
-60,-44.8,
-40,-40.8,
-20,-37.8,
-10,-31.8,
-5,-21.8,
-4,-18,
-3,-12,
-1.5,-12,
-1,-5,
-0.9,-3,
-0.5,-1,
0,0,
0.5,-1,
0.9,-3,
1,-5,
1.5,-12,
3,-12,
4,-18,
5,-21.8,
10,-31.8,
20,-37.8,
40,-40.8,
60,-44.8,
90,-67.8,
180,-67.8,
PATCUT:,AZ
POLARI:,V/H
NUPOIN:,13
-180,-71.8,
-90,-71.8,
-60,-64.8,
-20,-54.8,
-5,-44.8,
-1,-32,
0,-32,
1,-32,
5,-44.8,
20,-54.8,
60,-64.8,
90,-71.8,
180,-71.8,
ENDFIL:,EOF
