REVNUM:,NSMA WG16.99.050
REVDAT:,19990520
ANTMAN:,ERICSSON
MODNUM:,UKY 210 95/SC11
PATNUM:,21095sc11b
FEDORN:,NA
DESCR1:,ANT1 0.6 7/8 HP
DESCR2:,
DESCR3:,
DESCR4:,
DESCR5:,
DTDATA:,20090128
LOWFRQ:,7100
HGHFRQ:,8500
GUNITS:,DBI/DBR
LWGAIN:,31.0
MDGAIN:,32.0
HGGAIN:,32.7
AZWIDT:,4.2
ELWIDT:,4.2
ATVSWR:,1.29
FRTOBA:,57
ELTILT:,0
ANTWID:,0.6
PATTYP:,ENVELOPE
NOFREQ:,NA
PATFRE:,NA
NUMCUT:,4
PATCUT:,AZ
POLARI:,H/H
NUPOIN:,41
-180,-58,
-100,-57,
-70,-43,
-65,-39,
-52,-33,
-45,-33,
-35,-30,
-27,-30,
-20,-27,
-10,-19,
-5,-12,
-4.5,-12,
-4,-9.4,
-3.5,-7,
-3,-5.1,
-2.5,-3.5,
-2.1,-3,
-1.5,-1.3,
-1,-0.6,
-0.5,-0.2,
0,0,
0.5,-0.2,
1,-0.6,
1.5,-1.3,
2.1,-3,
2.5,-3.5,
3,-5.1,
3.5,-7,
4,-9.4,
4.5,-12,
5,-12,
10,-19,
20,-27,
27,-30,
35,-30,
45,-33,
52,-33,
65,-39,
70,-43,
100,-57,
180,-58,
PATCUT:,AZ
POLARI:,H/V
NUPOIN:,15
-180,-62,
-80,-62,
-70,-53,
-35,-44,
-20,-44,
-5,-34,
-1.5,-32,
0,-32,
1.5,-32,
5,-34,
20,-44,
35,-44,
70,-53,
80,-62,
180,-62,
PATCUT:,AZ
POLARI:,V/V
NUPOIN:,41
-180,-58,
-100,-57,
-70,-43,
-65,-39,
-52,-33,
-45,-33,
-35,-30,
-27,-30,
-20,-27,
-10,-19,
-5,-12,
-4.5,-12,
-4,-9.4,
-3.5,-7,
-3,-5.1,
-2.5,-3.5,
-2.1,-3,
-1.5,-1.3,
-1,-0.6,
-0.5,-0.2,
0,0,
0.5,-0.2,
1,-0.6,
1.5,-1.3,
2.1,-3,
2.5,-3.5,
3,-5.1,
3.5,-7,
4,-9.4,
4.5,-12,
5,-12,
10,-19,
20,-27,
27,-30,
35,-30,
45,-33,
52,-33,
65,-39,
70,-43,
100,-57,
180,-58,
PATCUT:,AZ
POLARI:,V/H
NUPOIN:,15
-180,-62,
-80,-62,
-70,-53,
-35,-44,
-20,-44,
-5,-34,
-1.5,-32,
0,-32,
1.5,-32,
5,-34,
20,-44,
35,-44,
70,-53,
80,-62,
180,-62,
ENDFIL:,EOF
