REVNUM:,NSMA WG16.99.050
REVDAT:,19990520
ANTMAN:,ERICSSON
MODNUM:,UKY 220 73/SC15
PATNUM:,22073sc15a
FEDORN:,NA
DESCR1:,ANT2 0.3 38 HP
DESCR2:,R1x
DESCR3:,
DESCR4:,
DESCR5:,
DTDATA:,20110501
LOWFRQ:,37000
HGHFRQ:,40000
GUNITS:,DBI/DBR
LWGAIN:,40.3
MDGAIN:,40.4
HGGAIN:,40.5
AZWIDT:,1.7
ELWIDT:,1.7
ATVSWR:,1.5
FRTOBA:,61
ELTILT:,0
ANTWID:,0.3
PATTYP:,ENVELOPE
NOFREQ:,NA
PATFRE:,NA
NUMCUT:,4
PATCUT:,AZ
POLARI:,H/H
NUPOIN:,33
-180,-60.4,
-90,-60.4,
-55,-43.4,
-30,-42.4,
-25,-40.6,
-20,-40.4,
-15,-38.4,
-10,-31.4,
-5,-26.4,
-4,-26.4,
-3,-21.3,
-2.2,-21.3,
-2,-17.2,
-1.5,-8.7,
-1,-3.7,
-0.5,-0.8,
0,0,
0.5,-0.8,
1,-3.7,
1.5,-8.7,
2,-17.2,
2.2,-21.3,
3,-21.3,
4,-26.4,
5,-26.4,
10,-31.4,
15,-38.4,
20,-40.4,
25,-40.6,
30,-42.4,
55,-43.4,
90,-60.4,
180,-60.4,
PATCUT:,AZ
POLARI:,H/V
NUPOIN:,13
-180,-62.4,
-70,-62.4,
-60,-56.4,
-15,-56.4,
-5,-45.4,
-2,-30,
0,-30,
2,-30,
5,-45.4,
15,-56.4,
60,-56.4,
70,-62.4,
180,-62.4,
PATCUT:,AZ
POLARI:,V/V
NUPOIN:,31
-180,-60.4,
-75,-60.4,
-70,-54.4,
-65,-54.4,
-60,-51.4,
-25,-46.4,
-20,-43.4,
-15,-35.4,
-10,-31.4,
-5,-25.1,
-3,-21.3,
-2,-21.3,
-1.5,-10.6,
-1,-4.1,
-0.5,-1.1,
0,0,
0.5,-1.1,
1,-4.1,
1.5,-10.6,
2,-21.3,
3,-21.3,
5,-25.1,
10,-31.4,
15,-35.4,
20,-43.4,
25,-46.4,
60,-51.4,
65,-54.4,
70,-54.4,
75,-60.4,
180,-60.4,
PATCUT:,AZ
POLARI:,V/H
NUPOIN:,13
-180,-62.4,
-70,-62.4,
-60,-56.4,
-15,-56.4,
-5,-45.4,
-2,-30,
0,-30,
2,-30,
5,-45.4,
15,-56.4,
60,-56.4,
70,-62.4,
180,-62.4,
ENDFIL:,EOF
