REVNUM:,NSMA WG16.99.050
REVDAT:,19990520
ANTMAN:,ANDREW CORPORATION
MODNUM:,VHLP4-11W
PATNUM:,7183
FEDORN:,NA
DESCR1:,
DESCR2:,
DESCR3:,
DESCR4:,
DESCR5:,
DTDATA:,20110127
LOWFRQ:, 10700 
HGHFRQ:, 11700 
GUNITS:,DBI/DBR
LWGAIN:,40.6
MDGAIN:,40.8
HGGAIN:,41.0
AZWIDT:,1.5
ELWIDT:,1.5
ATVSWR:,1.3
FRTOBA:,66
ELTILT:,0
PATTYP:,ENVELOPE
NOFREQ:,NA
PATFRE:,NA
NUMCUT:,4
PATCUT:,AZ
POLARI:,H/H
NUPOIN:, 47 
-180.00,-66.00,
-95.50,-66.00,
-68.00,-46.00,
-50.00,-42.00,
-30.00,-42.00,
-22.50,-38.50,
-17.50,-34.50,
-15.00,-34.50,
-12.00,-34.50,
-11.00,-32.00,
-10.00,-31.00,
-8.00,-27.50,
-5.50,-25.00,
-5.00,-25.00,
-4.00,-24.00,
-3.00,-17.00,
-1.70,-17.00,
-1.50,-12.65,
-1.25,-8.10,
-1.00,-4.65,
-0.75,-2.55,
-0.50,-1.15,
-0.25,-0.25,
0.00,0.00,
0.25,-0.25,
0.50,-1.15,
0.75,-2.55,
1.00,-4.65,
1.25,-8.10,
1.50,-12.65,
1.70,-17.00,
3.00,-17.00,
4.00,-24.00,
5.00,-25.00,
5.50,-25.00,
8.00,-27.50,
10.00,-31.00,
11.00,-32.00,
12.00,-34.50,
15.00,-34.50,
17.50,-34.50,
22.50,-38.50,
30.00,-42.00,
50.00,-42.00,
68.00,-46.00,
95.50,-66.00,
180.00,-66.00,
PATCUT:,AZ
POLARI:,H/V
NUPOIN:, 17 
-180.00,-68.00,
-73.00,-68.00,
-58.50,-64.00,
-23.00,-60.50,
-15.00,-58.50,
-12.00,-57.50,
-6.00,-52.50,
-2.00,-30.00,
0.00,-30.00,
2.00,-30.00,
6.00,-52.50,
12.00,-57.50,
15.00,-58.50,
23.00,-60.50,
58.50,-64.00,
73.00,-68.00,
180.00,-68.00,
PATCUT:,AZ
POLARI:,V/V
NUPOIN:, 51 
-180.00,-66.00,
-88.00,-66.00,
-51.50,-42.00,
-30.00,-42.00,
-27.50,-39.00,
-19.00,-39.00,
-18.50,-36.50,
-16.00,-36.50,
-15.50,-34.00,
-15.00,-34.00,
-11.50,-34.00,
-10.50,-31.00,
-9.00,-31.00,
-8.50,-28.00,
-6.50,-28.00,
-5.50,-25.00,
-4.00,-25.00,
-2.75,-17.00,
-1.55,-17.00,
-1.50,-14.85,
-1.25,-8.85,
-1.00,-5.25,
-0.75,-2.80,
-0.50,-1.10,
-0.25,-0.20,
0.00,0.00,
0.25,-0.20,
0.50,-1.10,
0.75,-2.80,
1.00,-5.25,
1.25,-8.85,
1.50,-14.85,
1.55,-17.00,
2.75,-17.00,
4.00,-25.00,
5.50,-25.00,
6.50,-28.00,
8.50,-28.00,
9.00,-31.00,
10.50,-31.00,
11.50,-34.00,
15.00,-34.00,
15.50,-34.00,
16.00,-36.50,
18.50,-36.50,
19.00,-39.00,
27.50,-39.00,
30.00,-42.00,
51.50,-42.00,
88.00,-66.00,
180.00,-66.00,
PATCUT:,AZ
POLARI:,V/H
NUPOIN:, 17 
-180.00,-68.00,
-86.00,-68.00,
-54.50,-58.50,
-23.50,-58.50,
-15.00,-56.00,
-8.00,-54.00,
-5.00,-48.00,
-2.00,-30.00,
0.00,-30.00,
2.00,-30.00,
5.00,-48.00,
8.00,-54.00,
15.00,-56.00,
23.50,-58.50,
54.50,-58.50,
86.00,-68.00,
180.00,-68.00,
ENDFIL:,EOF
