REVNUM:,NSMA WG16.99.050
REVDAT:,19990520
ANTMAN:,ANDREW CORPORATION
MODNUM:,VHLP2-23
PATNUM:,7205B
FEDORN:,NA
DESCR1:,
DESCR2:,
DESCR3:,
DESCR4:,
DESCR5:,
DTDATA:,20091113
LOWFRQ:, 21200 
HGHFRQ:, 23600 
GUNITS:,DBI/DBR
LWGAIN:,40.0
MDGAIN:,40.5
HGGAIN:,41.0
AZWIDT:,1.7
ELWIDT:,1.7
ATVSWR:,1.3
FRTOBA:,65
ELTILT:,0
PATTYP:,ENVELOPE
NOFREQ:,NA
PATFRE:,NA
NUMCUT:,4
PATCUT:,AZ
POLARI:,H/H
NUPOIN:, 35 
-180.00,-65.00,
-100.00,-65.00,
-55.00,-44.00,
-40.00,-44.00,
-32.50,-40.00,
-20.00,-40.00,
-15.00,-36.00,
-4.00,-22.00,
-2.30,-22.00,
-2.00,-16.00,
-1.70,-11.20,
-1.50,-7.70,
-1.30,-5.40,
-1.00,-3.30,
-0.80,-1.90,
-0.50,-0.70,
-0.30,-0.10,
0.00,0.00,
0.30,-0.10,
0.50,-0.70,
0.80,-1.90,
1.00,-3.30,
1.30,-5.40,
1.50,-7.70,
1.70,-11.20,
2.00,-16.00,
2.30,-22.00,
4.00,-22.00,
15.00,-36.00,
20.00,-40.00,
32.50,-40.00,
40.00,-44.00,
55.00,-44.00,
100.00,-65.00,
180.00,-65.00,
PATCUT:,AZ
POLARI:,H/V
NUPOIN:, 15 
-180.00,-71.00,
-90.00,-71.00,
-50.00,-55.00,
-15.00,-55.00,
-8.00,-46.00,
-5.00,-46.00,
-2.00,-30.00,
0.00,-30.00,
2.00,-30.00,
5.00,-46.00,
8.00,-46.00,
15.00,-55.00,
50.00,-55.00,
90.00,-71.00,
180.00,-71.00,
PATCUT:,AZ
POLARI:,V/V
NUPOIN:, 37 
-180.00,-65.00,
-85.00,-65.00,
-60.00,-46.00,
-55.00,-44.00,
-40.00,-44.00,
-32.50,-40.00,
-20.00,-40.00,
-15.00,-36.00,
-5.00,-25.00,
-2.30,-22.00,
-2.00,-16.00,
-1.70,-11.20,
-1.50,-7.70,
-1.30,-5.40,
-1.00,-3.30,
-0.80,-1.90,
-0.50,-0.70,
-0.30,-0.10,
0.00,0.00,
0.30,-0.10,
0.50,-0.70,
0.80,-1.90,
1.00,-3.30,
1.30,-5.40,
1.50,-7.70,
1.70,-11.20,
2.00,-16.00,
2.30,-22.00,
5.00,-25.00,
15.00,-36.00,
20.00,-40.00,
32.50,-40.00,
40.00,-44.00,
55.00,-44.00,
60.00,-46.00,
85.00,-65.00,
180.00,-65.00,
PATCUT:,AZ
POLARI:,V/H
NUPOIN:, 15 
-180.00,-71.00,
-85.00,-71.00,
-45.00,-55.00,
-15.00,-55.00,
-8.00,-46.00,
-5.00,-46.00,
-2.00,-30.00,
0.00,-30.00,
2.00,-30.00,
5.00,-46.00,
8.00,-46.00,
15.00,-55.00,
45.00,-55.00,
85.00,-71.00,
180.00,-71.00,
ENDFIL:,EOF
