REVNUM:,NSMA WG16.99.050
REVDAT:,19990520
ANTMAN:,ANDREW CORPORATION
MODNUM:,VHLP3-18
PATNUM:,7152
FEDORN:,NA
DESCR1:,
DESCR2:,
DESCR3:,
DESCR4:,
DESCR5:,
DTDATA:,20090907
LOWFRQ:, 17700 
HGHFRQ:, 19700 
GUNITS:,DBI/DBR
LWGAIN:,42.7
MDGAIN:,43.5
HGGAIN:,43.7
AZWIDT:,1.1
ELWIDT:,1.1
ATVSWR:,1.3
FRTOBA:,71
ELTILT:,0
PATTYP:,ENVELOPE
NOFREQ:,NA
PATFRE:,NA
NUMCUT:,4
PATCUT:,AZ
POLARI:,H/H
NUPOIN:, 37 
-180.00,-71.00,
-95.00,-71.00,
-83.00,-63.50,
-67.50,-54.00,
-55.00,-50.00,
-45.00,-46.00,
-30.00,-46.00,
-20.00,-43.00,
-15.00,-38.00,
-10.00,-36.30,
-5.00,-28.00,
-3.00,-20.00,
-2.20,-13.50,
-1.30,-13.50,
-1.10,-9.30,
-0.80,-4.50,
-0.60,-2.00,
-0.30,0.00,
0.00,0.00,
0.30,0.00,
0.60,-2.00,
0.80,-4.50,
1.10,-9.30,
1.30,-13.50,
2.20,-13.50,
3.00,-20.00,
5.00,-28.00,
10.00,-36.30,
15.00,-38.00,
20.00,-43.00,
30.00,-46.00,
45.00,-46.00,
55.00,-50.00,
67.50,-54.00,
83.00,-63.50,
95.00,-71.00,
180.00,-71.00,
PATCUT:,AZ
POLARI:,H/V
NUPOIN:, 19 
-180.00,-76.00,
-95.00,-76.00,
-75.00,-68.00,
-60.00,-65.00,
-45.00,-62.00,
-15.00,-55.00,
-5.00,-46.00,
-2.50,-42.00,
-1.00,-30.00,
0.00,-30.00,
1.00,-30.00,
2.50,-42.00,
5.00,-46.00,
15.00,-55.00,
45.00,-62.00,
60.00,-65.00,
75.00,-68.00,
95.00,-76.00,
180.00,-76.00,
PATCUT:,AZ
POLARI:,V/V
NUPOIN:, 33 
-180.00,-71.00,
-95.00,-71.00,
-90.00,-68.00,
-67.50,-53.50,
-45.00,-48.00,
-35.00,-45.00,
-20.00,-45.00,
-15.00,-38.00,
-10.00,-35.50,
-7.50,-32.00,
-5.00,-27.20,
-2.30,-12.50,
-1.10,-12.50,
-0.80,-6.00,
-0.50,-1.50,
-0.20,0.00,
0.00,0.00,
0.20,0.00,
0.50,-1.50,
0.80,-6.00,
1.10,-12.50,
2.30,-12.50,
5.00,-27.20,
7.50,-32.00,
10.00,-35.50,
15.00,-38.00,
20.00,-45.00,
35.00,-45.00,
45.00,-48.00,
67.50,-53.50,
90.00,-68.00,
95.00,-71.00,
180.00,-71.00,
PATCUT:,AZ
POLARI:,V/H
NUPOIN:, 19 
-180.00,-76.00,
-95.00,-76.00,
-90.00,-73.00,
-67.50,-66.00,
-39.00,-60.00,
-15.00,-55.00,
-5.00,-47.00,
-3.00,-40.00,
-1.00,-30.00,
0.00,-30.00,
1.00,-30.00,
3.00,-40.00,
5.00,-47.00,
15.00,-55.00,
39.00,-60.00,
67.50,-66.00,
90.00,-73.00,
95.00,-76.00,
180.00,-76.00,
ENDFIL:,EOF
