REVNUM:,NSMA WG16.99.050
REVDAT:,19990520
ANTMAN:,ANDREW CORPORATION
MODNUM:,VHLP4-11
PATNUM:,7043
FEDORN:,NA
DESCR1:,
DESCR2:,
DESCR3:,
DESCR4:,
DESCR5:,
DTDATA:,20050922
LOWFRQ:, 10700 
HGHFRQ:, 11700 
GUNITS:,DBI/DBR
LWGAIN:,40.0
MDGAIN:,40.4
HGGAIN:,40.8
AZWIDT:,1.5
ELWIDT:,1.5
ATVSWR:,1.3
FRTOBA:,67
ELTILT:,0
PATTYP:,ENVELOPE
NOFREQ:,NA
PATFRE:,NA
NUMCUT:,4
PATCUT:,AZ
POLARI:,H/H
NUPOIN:, 61 
-180.00,-67.00,
-98.00,-67.00,
-69.00,-46.00,
-60.00,-46.00,
-52.50,-44.00,
-30.00,-44.00,
-25.00,-41.00,
-15.00,-41.00,
-13.50,-40.00,
-12.50,-36.00,
-10.00,-34.00,
-8.78,-32.00,
-7.52,-28.00,
-4.80,-28.00,
-4.00,-20.00,
-2.99,-16.00,
-1.71,-16.00,
-1.65,-14.00,
-1.50,-11.00,
-1.37,-8.80,
-1.25,-7.11,
-1.14,-5.82,
-0.99,-4.47,
-0.88,-3.32,
-0.75,-2.30,
-0.63,-1.62,
-0.49,-0.95,
-0.39,-0.54,
-0.25,-0.20,
-0.15,0.00,
0.00,0.00,
0.15,0.00,
0.25,-0.20,
0.39,-0.54,
0.49,-0.95,
0.63,-1.62,
0.75,-2.30,
0.88,-3.32,
0.99,-4.47,
1.14,-5.82,
1.25,-7.11,
1.37,-8.80,
1.50,-11.00,
1.65,-14.00,
1.71,-16.00,
2.99,-16.00,
4.00,-20.00,
4.80,-28.00,
7.52,-28.00,
8.78,-32.00,
10.00,-34.00,
12.50,-36.00,
13.50,-40.00,
15.00,-41.00,
25.00,-41.00,
30.00,-44.00,
52.50,-44.00,
60.00,-46.00,
69.00,-46.00,
98.00,-67.00,
180.00,-67.00,
PATCUT:,AZ
POLARI:,H/V
NUPOIN:, 31 
-180.00,-72.00,
-75.00,-72.00,
-67.00,-66.00,
-60.00,-65.00,
-53.00,-64.00,
-45.00,-63.00,
-37.50,-63.00,
-30.00,-60.00,
-20.00,-60.00,
-17.50,-56.00,
-15.00,-56.00,
-12.50,-54.00,
-7.50,-54.00,
-5.00,-54.00,
-1.50,-30.00,
0.00,-30.00,
1.50,-30.00,
5.00,-54.00,
7.50,-54.00,
12.50,-54.00,
15.00,-56.00,
17.50,-56.00,
20.00,-60.00,
30.00,-60.00,
37.50,-63.00,
45.00,-63.00,
53.00,-64.00,
60.00,-65.00,
67.00,-66.00,
75.00,-72.00,
180.00,-72.00,
PATCUT:,AZ
POLARI:,V/V
NUPOIN:, 57 
-180.00,-68.00,
-98.00,-68.00,
-84.00,-64.00,
-67.00,-50.00,
-52.00,-42.00,
-30.00,-42.00,
-27.50,-39.00,
-17.50,-39.00,
-15.00,-36.00,
-12.50,-36.00,
-11.00,-32.00,
-9.28,-32.00,
-7.52,-25.00,
-5.50,-25.00,
-5.01,-25.00,
-3.51,-20.00,
-2.73,-14.00,
-1.44,-14.00,
-1.26,-10.00,
-1.15,-7.58,
-1.00,-5.62,
-0.88,-4.20,
-0.75,-2.91,
-0.64,-2.17,
-0.49,-1.15,
-0.38,-0.74,
-0.25,-0.27,
-0.13,0.00,
0.00,0.00,
0.13,0.00,
0.25,-0.27,
0.38,-0.74,
0.49,-1.15,
0.64,-2.17,
0.75,-2.91,
0.88,-4.20,
1.00,-5.62,
1.15,-7.58,
1.26,-10.00,
1.44,-14.00,
2.73,-14.00,
3.51,-20.00,
5.01,-25.00,
5.50,-25.00,
7.52,-25.00,
9.28,-32.00,
11.00,-32.00,
12.50,-36.00,
15.00,-36.00,
17.50,-39.00,
27.50,-39.00,
30.00,-42.00,
52.00,-42.00,
67.00,-50.00,
84.00,-64.00,
98.00,-68.00,
180.00,-68.00,
PATCUT:,AZ
POLARI:,V/H
NUPOIN:, 37 
-180.00,-70.00,
-90.00,-70.00,
-75.00,-68.00,
-68.00,-62.00,
-60.00,-62.00,
-35.00,-62.00,
-30.00,-60.00,
-20.00,-60.00,
-18.00,-58.00,
-15.00,-54.00,
-10.00,-54.00,
-8.50,-54.00,
-7.50,-50.00,
-6.00,-50.00,
-5.00,-46.00,
-3.50,-46.00,
-2.50,-40.00,
-1.50,-30.00,
0.00,-30.00,
1.50,-30.00,
2.50,-40.00,
3.50,-46.00,
5.00,-46.00,
6.00,-50.00,
7.50,-50.00,
8.50,-54.00,
10.00,-54.00,
15.00,-54.00,
18.00,-58.00,
20.00,-60.00,
30.00,-60.00,
35.00,-62.00,
60.00,-62.00,
68.00,-62.00,
75.00,-68.00,
90.00,-70.00,
180.00,-70.00,
ENDFIL:,EOF
