REVNUM:,NSMA WG16.99.050
REVDAT:,19990520
ANTMAN:,ANDREW CORPORATION
MODNUM:,VHLP2-10W
PATNUM:,7086B
FEDORN:,NA
DESCR1:,For 10.0-10.7G band see RPE #7085B
DESCR2:,
DESCR3:,
DESCR4:,
DESCR5:,
DTDATA:,20070109
LOWFRQ:, 10500 
HGHFRQ:, 10700 
GUNITS:,DBI/DBR
LWGAIN:,34.0
MDGAIN:,34.15
HGGAIN:,34.3
AZWIDT:,3.7
ELWIDT:,3.7
ATVSWR:,1.3
FRTOBA:,58
ELTILT:,0
PATTYP:,ENVELOPE
NOFREQ:,NA
PATFRE:,NA
NUMCUT:,4
PATCUT:,AZ
POLARI:,H/H
NUPOIN:, 45 
-180.00,-58.00,
-97.50,-58.00,
-55.00,-38.00,
-40.00,-38.00,
-35.00,-36.00,
-30.00,-36.00,
-25.00,-33.00,
-19.50,-33.00,
-15.00,-30.00,
-11.00,-25.00,
-9.00,-25.00,
-8.00,-22.00,
-4.75,-22.00,
-4.50,-20.00,
-4.00,-16.00,
-3.50,-11.50,
-3.00,-8.50,
-2.50,-5.70,
-2.00,-3.59,
-1.50,-1.83,
-1.00,-0.74,
-0.50,-0.07,
0.00,0.00,
0.50,-0.07,
1.00,-0.74,
1.50,-1.83,
2.00,-3.59,
2.50,-5.70,
3.00,-8.50,
3.50,-11.50,
4.00,-16.00,
4.50,-20.00,
4.75,-22.00,
8.00,-22.00,
9.00,-25.00,
11.00,-25.00,
15.00,-30.00,
19.50,-33.00,
25.00,-33.00,
30.00,-36.00,
35.00,-36.00,
40.00,-38.00,
55.00,-38.00,
97.50,-58.00,
180.00,-58.00,
PATCUT:,AZ
POLARI:,H/V
NUPOIN:, 15 
-180.00,-61.00,
-57.50,-61.00,
-45.00,-54.00,
-25.00,-54.00,
-15.00,-52.00,
-5.00,-42.00,
-3.00,-30.00,
0.00,-30.00,
3.00,-30.00,
5.00,-42.00,
15.00,-52.00,
25.00,-54.00,
45.00,-54.00,
57.50,-61.00,
180.00,-61.00,
PATCUT:,AZ
POLARI:,V/V
NUPOIN:, 37 
-180.00,-58.00,
-90.00,-58.00,
-60.00,-40.00,
-52.50,-36.00,
-22.50,-36.00,
-15.00,-29.00,
-13.50,-26.00,
-10.00,-26.00,
-8.00,-20.50,
-4.30,-20.50,
-4.00,-17.00,
-3.50,-12.00,
-3.00,-8.50,
-2.50,-5.70,
-2.00,-3.59,
-1.50,-1.83,
-1.00,-0.74,
-0.50,-0.07,
0.00,0.00,
0.50,-0.07,
1.00,-0.74,
1.50,-1.83,
2.00,-3.59,
2.50,-5.70,
3.00,-8.50,
3.50,-12.00,
4.00,-17.00,
4.30,-20.50,
8.00,-20.50,
10.00,-26.00,
13.50,-26.00,
15.00,-29.00,
22.50,-36.00,
52.50,-36.00,
60.00,-40.00,
90.00,-58.00,
180.00,-58.00,
PATCUT:,AZ
POLARI:,V/H
NUPOIN:, 13 
-180.00,-61.00,
-60.00,-61.00,
-45.00,-52.00,
-15.00,-52.00,
-5.00,-42.00,
-3.00,-30.00,
0.00,-30.00,
3.00,-30.00,
5.00,-42.00,
15.00,-52.00,
45.00,-52.00,
60.00,-61.00,
180.00,-61.00,
ENDFIL:,EOF
