REVNUM:,NSMA WG16.99.050
REVDAT:,19990520
ANTMAN:,XI'AN PUTIAN
MODNUM:,WTC06-212D-Y/Q
PATNUM:,U06212236-Y/Q
FEDORN:,NA
DESCR1:,
DESCR2:,
DESCR3:,
DESCR4:,
DESCR5:,
DTDATA:,20070518
LOWFRQ:,21200
HGHFRQ:,23600
GUNITS:,DBI/DBR
LWGAIN:,39.9
MDGAIN:,40.4
HGGAIN:,40.8
AZWIDT:,1.60
ELWIDT:,1.60
ATVSWR:,1.30
FRTOBA:,64.0
ELTILT:,0
PATTYP:,ENVELOPE
NOFREQ:,NA
PATFRE:,NA
NUMCUT:,4
PATCUT:,AZ
POLARI:,H/H
NUPOIN:,37
-180.00,-64.00,
-100.00,-64.00,
-40.00,-39.00,
-12.50,-39.00,
-6.20,-34.00,
-5.50,-27.00,
-4.50,-27.00,
-3.00,-17.00,
-1.88,-17.00,
-1.72,-13.91,
-1.56,-10.73,
-1.38,-6.92,
-1.18,-4.23,
-0.99,-2.73,
-0.88,-1.94,
-0.64,-0.66,
-0.49,-0.34,
-0.30,-0.09,
0.00,0.00,
0.30,-0.09,
0.49,-0.34,
0.64,-0.66,
0.88,-1.94,
0.99,-2.73,
1.18,-4.23,
1.38,-6.92,
1.56,-10.73,
1.72,-13.91,
1.88,-17.00,
3.00,-17.00,
4.50,-27.00,
5.50,-27.00,
6.20,-34.00,
12.50,-39.00,
40.00,-39.00,
100.00,-64.00,
180.00,-64.00,
PATCUT:,AZ
POLARI:,H/V
NUPOIN:,17
-180.00,-71.00,
-100.00,-71.00,
-60.00,-62.00,
-45.00,-59.00,
-15.00,-59.00,
-5.00,-48.00,
-3.00,-48.00,
-1.30,-30.00,
0.00,-30.00,
1.30,-30.00,
3.00,-48.00,
5.00,-48.00,
15.00,-59.00,
40.00,-59.00,
60.00,-62.00,
100.00,-71.00,
180.00,-71.00,
PATCUT:,AZ
POLARI:,V/V
NUPOIN:,37
-180.00,-64.00,
-100.00,-64.00,
-50.00,-42.00,
-15.00,-40.00,
-12.50,-35.00,
-6.50,-30.00,
-5.00,-22.00,
-4.00,-22.00,
-3.00,-17.00,
-1.80,-17.00,
-1.56,-11.00,
-1.38,-6.92,
-1.18,-4.23,
-0.99,-2.73,
-0.88,-1.94,
-0.64,-0.66,
-0.49,-0.34,
-0.30,-0.09,
0.00,0.00,
0.30,-0.09,
0.49,-0.34,
0.64,-0.66,
0.88,-1.94,
0.99,-2.73,
1.18,-4.23,
1.38,-6.92,
1.56,-11.00,
1.80,-17.00,
3.00,-17.00,
4.00,-22.00,
5.00,-22.00,
6.50,-30.00,
12.50,-35.00,
15.00,-40.00,
50.00,-42.00,
100.00,-64.00,
180.00,-64.00,
PATCUT:,AZ
POLARI:,V/H
NUPOIN:,19
-180.00,-71.00,
-100.00,-71.00,
-60.00,-60.00,
-13.00,-58.00,
-7.50,-56.00,
-4.80,-47.00,
-4.00,-39.00,
-2.50,-39.00,
-1.25,-30.00,
0.00,-30.00,
1.25,-30.00,
2.50,-39.00,
4.00,-39.00,
4.80,-47.00,
7.50,-56.00,
13.00,-58.00,
60.00,-60.00,
100.00,-71.00,
180.00,-71.00,
ENDFIL:,EOF
