NAME Y306
MAKE ZCG Scalar
FREQUENCY 151
H_WIDTH 55
V_WIDTH 46
FRONT_TO_BACK 17
GAIN 9
TILT 0
POLARIZATION 
COMMENT VHF 6 Element yagi 151 MHz
HORIZONTAL 360
0.0 0 
1.0 0.0555549 
2.0 0.194444 
3.0 0.111111 
4.0 0.138888 
5.0 0.138888 
6.0 0.333333 
7.0 0.277777 
8.0 0.333333 
9.0 0.555555 
10.0 0.611111 
11.0 0.527777 
12.0 0.722222 
13.0 0.777777 
14.0 0.944444 
15.0 1.05556 
16.0 1.02778 
17.0 1.22222 
18.0 1.47222 
19.0 1.52778 
20.0 1.58333 
21.0 1.91667 
22.0 1.94444 
23.0 2.11111 
24.0 2.47222 
25.0 2.55556 
26.0 2.75 
27.0 3.16667 
28.0 3.33333 
29.0 3.55556 
30.0 3.75 
31.0 4.08333 
32.0 4.36111 
33.0 4.77778 
34.0 5.05556 
35.0 5.44444 
36.0 5.86111 
37.0 6.27778 
38.0 6.75 
39.0 7.30555 
40.0 7.83333 
41.0 8.30556 
42.0 8.97222 
43.0 9.75 
44.0 10.3611 
45.0 11.2778 
46.0 11.9444 
47.0 12.5833 
48.0 13.5278 
49.0 14.75 
50.0 15.9167 
51.0 17.4167 
52.0 19.1667 
53.0 21.4722 
54.0 24.3611 
55.0 28.8333 
56.0 37.4722 
57.0 38.8333 
58.0 29.8889 
59.0 25.3056 
60.0 22.3056 
61.0 20.3333 
62.0 18.8056 
63.0 17.4167 
64.0 16.3611 
65.0 15.3333 
66.0 14.5278 
67.0 13.75 
68.0 13.3611 
69.0 12.8333 
70.0 12.3611 
71.0 11.8889 
72.0 11.5556 
73.0 11.25 
74.0 11.0278 
75.0 10.8056 
76.0 10.7222 
77.0 10.5833 
78.0 10.3889 
79.0 10.3056 
80.0 10.25 
81.0 10.3056 
82.0 10.25 
83.0 10.3056 
84.0 10.3889 
85.0 10.5 
86.0 10.6944 
87.0 10.6667 
88.0 10.8056 
89.0 11.0278 
90.0 11.2778 
91.0 11.4722 
92.0 11.6111 
93.0 11.9444 
94.0 12.1667 
95.0 12.5 
96.0 12.8611 
97.0 13.3611 
98.0 13.6944 
99.0 13.9722 
100.0 14.4722 
101.0 14.6389 
102.0 15.2222 
103.0 15.6944 
104.0 16.0833 
105.0 16.5278 
106.0 17 
107.0 17.3611 
108.0 17.5556 
109.0 18 
110.0 18.25 
111.0 18.4444 
112.0 18.7222 
113.0 18.9722 
114.0 19 
115.0 19.1111 
116.0 19.0556 
117.0 19 
118.0 18.9722 
119.0 18.8889 
120.0 18.8333 
121.0 18.6111 
122.0 18.4722 
123.0 18.4722 
124.0 18.25 
125.0 18.2222 
126.0 18.1111 
127.0 18 
128.0 18.0278 
129.0 17.8056 
130.0 17.7222 
131.0 17.6944 
132.0 17.7222 
133.0 17.6389 
134.0 17.5278 
135.0 17.6111 
136.0 17.5833 
137.0 17.5 
138.0 17.4722 
139.0 17.6111 
140.0 17.5833 
141.0 17.5833 
142.0 17.5556 
143.0 17.6111 
144.0 17.6111 
145.0 17.6111 
146.0 17.6944 
147.0 17.6111 
148.0 17.6389 
149.0 17.6111 
150.0 17.6944 
151.0 17.8056 
152.0 17.7222 
153.0 17.75 
154.0 17.7778 
155.0 17.8611 
156.0 17.8333 
157.0 17.8333 
158.0 17.7778 
159.0 17.8056 
160.0 17.8056 
161.0 17.8333 
162.0 17.8056 
163.0 17.7778 
164.0 17.7778 
165.0 17.7778 
166.0 17.75 
167.0 17.75 
168.0 17.7222 
169.0 17.6667 
170.0 17.6389 
171.0 17.6111 
172.0 17.5833 
173.0 17.7222 
174.0 17.5556 
175.0 17.5556 
176.0 17.5 
177.0 17.4444 
178.0 17.4167 
179.0 17.4167 
180.0 17.3889 
181.0 17.4167 
182.0 17.3611 
183.0 17.3056 
184.0 17.4167 
185.0 17.3611 
186.0 17.25 
187.0 17.2778 
188.0 17.2222 
189.0 17.2222 
190.0 17.1944 
191.0 17.2222 
192.0 17.2222 
193.0 17.3611 
194.0 17.25 
195.0 17.25 
196.0 17.2778 
197.0 17.3056 
198.0 17.3333 
199.0 17.3611 
200.0 17.4167 
201.0 17.4167 
202.0 17.4167 
203.0 17.5556 
204.0 17.5 
205.0 17.6111 
206.0 17.5556 
207.0 17.7778 
208.0 17.8056 
209.0 17.7778 
210.0 17.9444 
211.0 18.0556 
212.0 18.1389 
213.0 18.1944 
214.0 18.3056 
215.0 18.5278 
216.0 18.4722 
217.0 18.6111 
218.0 18.8333 
219.0 18.8056 
220.0 19.0556 
221.0 19.2222 
222.0 19.3333 
223.0 19.5 
224.0 19.8056 
225.0 19.9444 
226.0 20.0833 
227.0 20.3333 
228.0 20.6944 
229.0 20.8056 
230.0 21.1667 
231.0 21.4722 
232.0 21.6389 
233.0 22.0556 
234.0 22.4167 
235.0 22.6389 
236.0 23 
237.0 23.4444 
238.0 23.7222 
239.0 23.8889 
240.0 23.9444 
241.0 24.1111 
242.0 24.0556 
243.0 23.9444 
244.0 23.7222 
245.0 23.5278 
246.0 23.2222 
247.0 22.75 
248.0 22.4722 
249.0 21.8611 
250.0 21.1944 
251.0 20.8889 
252.0 20.25 
253.0 19.6944 
254.0 18.9722 
255.0 18.6389 
256.0 18 
257.0 17.5278 
258.0 17.25 
259.0 16.6667 
260.0 16.0278 
261.0 15.8889 
262.0 15.4167 
263.0 14.8333 
264.0 14.6111 
265.0 14.1667 
266.0 13.8889 
267.0 13.4167 
268.0 13.3889 
269.0 12.9444 
270.0 12.8056 
271.0 12.6389 
272.0 12.4167 
273.0 12.1667 
274.0 12.1111 
275.0 12 
276.0 12.0278 
277.0 12 
278.0 11.9167 
279.0 11.8333 
280.0 11.8889 
281.0 11.8611 
282.0 11.9722 
283.0 12.0278 
284.0 12.0556 
285.0 12.3611 
286.0 12.5278 
287.0 13 
288.0 13 
289.0 13.4444 
290.0 13.9722 
291.0 14.2778 
292.0 14.8889 
293.0 15.6944 
294.0 16.1111 
295.0 17.0833 
296.0 18.3611 
297.0 19.8333 
298.0 20.7778 
299.0 23.1389 
300.0 26.6667 
301.0 32.2778 
302.0 37.5 
303.0 34.7778 
304.0 27.8889 
305.0 23.5 
306.0 21.8611 
307.0 19.5 
308.0 17.3333 
309.0 15.6944 
310.0 15 
311.0 13.6944 
312.0 12.4167 
313.0 12 
314.0 11.0556 
315.0 10.1389 
316.0 9.38889 
317.0 8.75 
318.0 8.36111 
319.0 7.63889 
320.0 7.13889 
321.0 6.61111 
322.0 6.19444 
323.0 5.91667 
324.0 5.36111 
325.0 4.97222 
326.0 4.55556 
327.0 4.27778 
328.0 3.91667 
329.0 3.72222 
330.0 3.44444 
331.0 3.13889 
332.0 2.83333 
333.0 2.72222 
334.0 2.5 
335.0 2.30556 
336.0 2 
337.0 2.02778 
338.0 1.77778 
339.0 1.63889 
340.0 1.47222 
341.0 1.22222 
342.0 1.13889 
343.0 0.972222 
344.0 0.972222 
345.0 0.777777 
346.0 0.583333 
347.0 0.5 
348.0 0.583333 
349.0 0.5 
350.0 0.333333 
351.0 0.277777 
352.0 0.194444 
353.0 0.277777 
354.0 0.111111 
355.0 0.222222 
356.0 0.0555549 
357.0 0.0555549 
358.0 0 
359.0 0.111111 
VERTICAL 360
0.0 0 
1.0 0.111111 
2.0 0 
3.0 0.0277778 
4.0 0 
5.0 0.0555552 
6.0 0.166667 
7.0 0.111111 
8.0 0.222222 
9.0 0.194444 
10.0 0.333333 
11.0 0.333333 
12.0 0.388889 
13.0 0.499999 
14.0 0.666666 
15.0 0.888888 
16.0 0.999999 
17.0 1.02778 
18.0 1.22222 
19.0 1.33333 
20.0 1.52778 
21.0 1.72222 
22.0 1.88889 
23.0 2.16667 
24.0 2.38889 
25.0 2.58333 
26.0 2.86111 
27.0 3.22222 
28.0 3.47222 
29.0 3.69444 
30.0 4 
31.0 4.38889 
32.0 4.75 
33.0 5.11111 
34.0 5.55556 
35.0 5.97222 
36.0 6.41667 
37.0 7.05556 
38.0 7.61111 
39.0 7.77778 
40.0 8.47222 
41.0 9.05556 
42.0 9.77778 
43.0 10.3611 
44.0 11.1667 
45.0 11.5 
46.0 12.3333 
47.0 13.1944 
48.0 14.2222 
49.0 15.1389 
50.0 16.1667 
51.0 17.1944 
52.0 18.6389 
53.0 19.8889 
54.0 21.4444 
55.0 23.3056 
56.0 25.3889 
57.0 26.6111 
58.0 29.8056 
59.0 33.6667 
60.0 39.5278 
61.0 43.9722 
62.0 38.5278 
63.0 34.3611 
64.0 31.8056 
65.0 30.5 
66.0 29.1389 
67.0 28.0556 
68.0 27.3611 
69.0 26.7222 
70.0 26.4444 
71.0 26.1111 
72.0 25.9722 
73.0 26.0833 
74.0 26.1389 
75.0 26.1944 
76.0 26.3333 
77.0 26.6667 
78.0 27.25 
79.0 27.6667 
80.0 28.25 
81.0 28.9167 
82.0 29.6944 
83.0 30.2222 
84.0 31.0833 
85.0 32.0556 
86.0 33.0556 
87.0 34.0833 
88.0 35.1389 
89.0 36.2222 
90.0 36.7778 
91.0 37.6111 
92.0 38.3056 
93.0 38.8333 
94.0 39.3611 
95.0 39.9167 
96.0 39.9167 
97.0 39.9444 
98.0 40.0556 
99.0 40 
100.0 40.1389 
101.0 40.25 
102.0 40.5 
103.0 41 
104.0 41.5556 
105.0 42.4722 
106.0 45.4167 
107.0 46.8611 
108.0 45.4722 
109.0 49.5 
110.0 50.9167 
111.0 50.0556 
112.0 48.2778 
113.0 47.25 
114.0 45.0556 
115.0 43 
116.0 41.5278 
117.0 39.9444 
118.0 38.5278 
119.0 37.8611 
120.0 36.9167 
121.0 36.0278 
122.0 35.1389 
123.0 34.25 
124.0 33.75 
125.0 33.1111 
126.0 32.4167 
127.0 31.8056 
128.0 31.0833 
129.0 30.6667 
130.0 30.0556 
131.0 29.4444 
132.0 29.1944 
133.0 28.6667 
134.0 28.1111 
135.0 27.6111 
136.0 27.25 
137.0 26.7222 
138.0 26.1111 
139.0 25.6667 
140.0 25.1944 
141.0 24.8333 
142.0 24.2778 
143.0 23.8611 
144.0 23.5833 
145.0 23.1111 
146.0 22.75 
147.0 22.5 
148.0 22.1389 
149.0 21.7222 
150.0 21.3889 
151.0 21.0556 
152.0 20.6944 
153.0 20.4444 
154.0 20.3611 
155.0 20.0556 
156.0 19.8333 
157.0 19.4722 
158.0 19.4444 
159.0 19.2778 
160.0 19 
161.0 18.7778 
162.0 18.7778 
163.0 18.6111 
164.0 18.4444 
165.0 18.3333 
166.0 18.25 
167.0 18.0556 
168.0 17.9722 
169.0 17.9722 
170.0 17.8056 
171.0 17.75 
172.0 17.75 
173.0 17.7222 
174.0 17.6944 
175.0 17.5556 
176.0 17.5278 
177.0 17.5278 
178.0 17.4444 
179.0 17.5 
180.0 17.3889 
181.0 17.4722 
182.0 17.4167 
183.0 17.5 
184.0 17.4722 
185.0 17.5278 
186.0 17.4722 
187.0 17.3611 
188.0 17.4722 
189.0 17.4167 
190.0 17.4444 
191.0 17.5 
192.0 17.5556 
193.0 17.5556 
194.0 17.5833 
195.0 17.5556 
196.0 17.5556 
197.0 17.75 
198.0 17.7778 
199.0 17.8333 
200.0 17.8333 
201.0 17.9722 
202.0 18.0833 
203.0 18.0556 
204.0 18.1944 
205.0 18.25 
206.0 18.3333 
207.0 18.4167 
208.0 18.5556 
209.0 18.7778 
210.0 18.8056 
211.0 19.0278 
212.0 19.25 
213.0 19.3333 
214.0 19.5833 
215.0 19.8611 
216.0 19.9722 
217.0 20.1667 
218.0 20.5278 
219.0 20.6667 
220.0 21 
221.0 21.4167 
222.0 21.6944 
223.0 22.0556 
224.0 22.4444 
225.0 22.9444 
226.0 23.1667 
227.0 23.6667 
228.0 24.2222 
229.0 24.7778 
230.0 25.1389 
231.0 25.75 
232.0 26.0833 
233.0 26.7778 
234.0 27.5833 
235.0 28.3333 
236.0 28.8056 
237.0 29.6389 
238.0 30.5556 
239.0 31.1111 
240.0 31.8889 
241.0 32.8611 
242.0 34 
243.0 34.8333 
244.0 36.3611 
245.0 37.6667 
246.0 38.6944 
247.0 39.9167 
248.0 41.6944 
249.0 43.4722 
250.0 44.1667 
251.0 45.3889 
252.0 47.0556 
253.0 47.8333 
254.0 48.75 
255.0 47.5833 
256.0 47.1667 
257.0 46.6111 
258.0 46.1944 
259.0 46.3056 
260.0 45.8889 
261.0 45.9444 
262.0 46.8056 
263.0 47.5 
264.0 47.5556 
265.0 48.9167 
266.0 50.7778 
267.0 51.9167 
268.0 52.75 
269.0 50.1111 
270.0 48.3333 
271.0 44.6944 
272.0 41.7222 
273.0 39.1667 
274.0 38.0833 
275.0 36.2778 
276.0 34.4167 
277.0 32.9167 
278.0 32.2222 
279.0 31.0833 
280.0 30.3056 
281.0 29.2222 
282.0 28.3611 
283.0 27.4167 
284.0 27.0833 
285.0 26.4167 
286.0 25.8056 
287.0 25.3889 
288.0 24.9167 
289.0 24.3889 
290.0 23.9444 
291.0 23.9167 
292.0 23.5556 
293.0 23.3611 
294.0 23.3611 
295.0 23.3611 
296.0 23.3056 
297.0 23.3889 
298.0 23.5 
299.0 23.7778 
300.0 24.0278 
301.0 24.3056 
302.0 24.9722 
303.0 25.6944 
304.0 26.5 
305.0 27.1111 
306.0 27.7778 
307.0 28.1111 
308.0 27.7778 
309.0 27.3333 
310.0 25.8333 
311.0 23.9722 
312.0 23.0556 
313.0 21.6111 
314.0 19.8889 
315.0 18.3889 
316.0 17.6944 
317.0 16.4444 
318.0 15.1667 
319.0 14.0556 
320.0 13.5833 
321.0 12.6111 
322.0 11.6667 
323.0 11.1944 
324.0 10.3889 
325.0 9.75 
326.0 8.88889 
327.0 8.41667 
328.0 8.02778 
329.0 7.30556 
330.0 6.72222 
331.0 6.44444 
332.0 5.91667 
333.0 5.47222 
334.0 5.02778 
335.0 4.77778 
336.0 4.33333 
337.0 4.02778 
338.0 3.72222 
339.0 3.30556 
340.0 3.22222 
341.0 2.91667 
342.0 2.5 
343.0 2.36111 
344.0 2.02778 
345.0 1.86111 
346.0 1.69444 
347.0 1.44444 
348.0 1.33333 
349.0 1.16667 
350.0 0.861111 
351.0 0.833333 
352.0 0.694444 
353.0 0.583333 
354.0 0.416667 
355.0 0.361111 
356.0 0.333333 
357.0 0.277778 
358.0 0.25 
359.0 0.138889 
