Model:HP377 Band:8 Size:0.9
Model:DEFAULT Band:8 Size:0.3
 Model:DEFAULT Band:1.5 Size:0.3
 Model:DEFAULT Band:8 Size:0.3
 Model:Tx Band:8 Size:11
 Model:DEFAULT Band:22 Size:2.4
 Model:DEFAULT Band:15 Size:2.4
 Model:DEFAULT Band:15 Size:2.4
 Model:DEFAULT Band:15 Size:2.4
 Model:VHLP2515 Band:15 Size:0.8
 Model:HP215 Band:15 Size:0.6
 Model:HP215 Band:15 Size:0.6
 Model:SB2142 Band:15 Size:0.6
 Model:SB2142 Band:15 Size:0.6
 Model:SB2142 Band:15 Size:0.6
 Model:SB2220 Band:22 Size:0.6
 Model:HPLP123 Band:22 Size:0.3
 Model:AANT23G2 Band:22 Size:0.6
 Model:AANT23G2 Band:22 Size:0.6
 Model:DEFAULT Band:22 Size:0.8
 Model:DEFAULT Band:8 Size:0.8
 Model:HP377 Band:8 Size:0.9
 Model:HP377 Band:8 Size:0.9
 Model:HP377 Band:8 Size:0.9
 Model:HP377 Band:8 Size:0.9
 Model:HP377 Band:8 Size:0.9
 Model:HP377 Band:8 Size:0.9
 Model:HP377 Band:8 Size:0.9
 Model:HP377 Band:8 Size:0.9
 Model:HP377 Band:8 Size:0.9
 Model:HP377 Band:8 Size:0.9
 Model:HP377 Band:8 Size:0.9
 Model:HP377 Band:8 Size:0.9
 Model:HP377 Band:8 Size:0.9
 Model:VHLPX211W Band:11 Size:0.6
 Model:DEFAULT Band:11 Size:0.3
 Model:VHLPX211W Band:11 Size:0.6
 Model:HP377 Band:8 Size:0.9
 Model:DEFAULT Band:8 Size:0.8
 Model:HP377 Band:8 Size:0.9
 Model:HP377 Band:8 Size:0.9
 Model:VHLPX211W Band:11 Size:0.6
 Model:SU4107 Band:11 Size:1.2
 Model:VHLPX211W Band:11 Size:0.6
 Model:VHLPX211W Band:11 Size:0.6
 Model:DEFAULT Band:11 Size:0.6
 Model:VHLPX211W Band:11 Size:0.6
 Model:VHLPX211W Band:11 Size:0.6
 Model:VHLPX211W Band:11 Size:0.6
 Model:HAE1109 Band:11 Size:0.9
 Model:DEFAULT Band:6.7 Size:1.8
 Model:DEFAULT Band:6.7 Size:1.8
 Model:DEFAULT Band:6.7 Size:1.8
 Model:DEFAULT Band:6.7 Size:1.8
 Model:DEFAULT Band:6.7 Size:1.8
 Model:DEFAULT Band:6.7 Size:1.8
 Model:DEFAULT Band:6.7 Size:1.8
 Model:DEFAULT Band:6.7 Size:1.8
 Model:DEFAULT Band:6.7 Size:1.8
 Model:DEFAULT Band:6.7 Size:1.8
 Model:DEFAULT Band:6.7 Size:1.8
 Model:DEFAULT Band:6.7 Size:1.8
 Model:DEFAULT Band:6.7 Size:1.8
 Model:DEFAULT Band:6.7 Size:1.8
 Model:DEFAULT Band:6.7 Size:1.8
 Model:DEFAULT Band:6.7 Size:1.8
 Model:DEFAULT Band:6.7 Size:1.8
 Model:DEFAULT Band:6.7 Size:1.8
 Model:DEFAULT Band:6.7 Size:1.8
 Model:DEFAULT Band:6.7 Size:1.8
 Model:DEFAULT Band:6.7 Size:1.8
 Model:DEFAULT Band:6.7 Size:1.8
 Model:DEFAULT Band:6.7 Size:1.8
 Model:DEFAULT Band:6.7 Size:1.8
 Model:DEFAULT Band:6.7 Size:1.8
 Model:DEFAULT Band:6.7 Size:1.8
 Model:DEFAULT Band:6.7 Size:1.8
 Model:DEFAULT Band:6.7 Size:1.8
 Model:DEFAULT Band:6.7 Size:1.8
 Model:DEFAULT Band:6.7 Size:1.8
 Model:DEFAULT Band:6.7 Size:1.8
 Model:DEFAULT Band:6.7 Size:1.8
 Model:DEFAULT Band:6.7 Size:1.8
 Model:DEFAULT Band:6.7 Size:1.8
 Model:DEFAULT Band:6.7 Size:1.8
 Model:DEFAULT Band:6.7 Size:1.8
 Model:DEFAULT Band:6.7 Size:1.8
 Model:DEFAULT Band:6.7 Size:1.8
 Model:DEFAULT Band:6.7 Size:1.8
 Model:DEFAULT Band:6.7 Size:1.8
 Model:DEFAULT Band:6.7 Size:1.8
 Model:DEFAULT Band:6.7 Size:1.8
 Model:DEFAULT Band:6.7 Size:1.8
 Model:DEFAULT Band:6.7 Size:1.8
 Model:DEFAULT Band:6.7 Size:1.8
 Model:DEFAULT Band:6.7 Size:1.8
 Model:DEFAULT Band:6.7 Size:1.8
 Model:DEFAULT Band:6.7 Size:1.8
 Model:DEFAULT Band:6.7 Size:1.8
 Model:DEFAULT Band:6.7 Size:1.8
 Model:DEFAULT Band:6.7 Size:1.8
 Model:DEFAULT Band:6.7 Size:1.8
 Model:DEFAULT Band:6.7 Size:1.8
 Model:DEFAULT Band:6.7 Size:1.8
 Model:DEFAULT Band:6.7 Size:1.8
 Model:DEFAULT Band:6.7 Size:1.8
 Model:DEFAULT Band:6.7 Size:1.8
 Model:DEFAULT Band:6.7 Size:1.8
 Model:DEFAULT Band:6.7 Size:1.8
 Model:DEFAULT Band:6.7 Size:1.8
 Model:DEFAULT Band:6.7 Size:1.8
 Model:DEFAULT Band:6.7 Size:1.8
 Model:DEFAULT Band:6.7 Size:1.8
 Model:DEFAULT Band:6.7 Size:1.8
 Model:DEFAULT Band:6.7 Size:1.8
 Model:DEFAULT Band:6.7 Size:1.8
 Model:DEFAULT Band:6.7 Size:1.8
 Model:DEFAULT Band:6.7 Size:1.8
 Model:DEFAULT Band:6.7 Size:1.8
 Model:DEFAULT Band:6.7 Size:1.8
 Model:DEFAULT Band:6.7 Size:1.8
 Model:DEFAULT Band:6.7 Size:1.8
 Model:DEFAULT Band:6.7 Size:1.8
 Model:DEFAULT Band:6.7 Size:1.8
 Model:DEFAULT Band:6.7 Size:1.8
 Model:DEFAULT Band:6.7 Size:1.8
 Model:DEFAULT Band:6.7 Size:1.8
 Model:DEFAULT Band:6.7 Size:1.8
 Model:DEFAULT Band:6.7 Size:1.8
 Model:DEFAULT Band:6.7 Size:1.8
 Model:DEFAULT Band:6.7 Size:1.8
 Model:DEFAULT Band:6.7 Size:1.8
 Model:DEFAULT Band:6.7 Size:1.8
 Model:DEFAULT Band:6.7 Size:1.8
 Model:DEFAULT Band:6.7 Size:1.8
 Model:DEFAULT Band:6.7 Size:1.8
 Model:DEFAULT Band:6.7 Size:1.8
 Model:DEFAULT Band:6.7 Size:1.8
 Model:DEFAULT Band:6.7 Size:1.8
 Model:DEFAULT Band:6.7 Size:1.8
 Model:DEFAULT Band:6.7 Size:1.8
 Model:DEFAULT Band:6.7 Size:1.8
 Model:DEFAULT Band:6.7 Size:1.8
 Model:DEFAULT Band:6.7 Size:1.8
 Model:DEFAULT Band:6.7 Size:1.8
 Model:DEFAULT Band:6.7 Size:1.8
 Model:DEFAULT Band:6.7 Size:1.8
 Model:DEFAULT Band:6.7 Size:1.8
 Model:DEFAULT Band:6.7 Size:1.8
 Model:DEFAULT Band:6.7 Size:1.8
 Model:DEFAULT Band:6.7 Size:1.8
 Model:DEFAULT Band:6.7 Size:1.8
 Model:DEFAULT Band:6.7 Size:1.8
 Model:DEFAULT Band:6.7 Size:1.8
 Model:DEFAULT Band:6.7 Size:1.8
 Model:DEFAULT Band:6.7 Size:1.8
 Model:DEFAULT Band:6.7 Size:1.8
 Model:DEFAULT Band:6.7 Size:1.8
 Model:DEFAULT Band:6.7 Size:1.8
 Model:DEFAULT Band:6.7 Size:1.8
 Model:DEFAULT Band:6.7 Size:1.8
 Model:DEFAULT Band:6.7 Size:1.8
 Model:DEFAULT Band:6.7 Size:1.8
 Model:DEFAULT Band:6.7 Size:1.8
 Model:DEFAULT Band:6.7 Size:1.8
 Model:DEFAULT Band:6.7 Size:1.8
 Model:DEFAULT Band:6.7 Size:1.8
 Model:DEFAULT Band:6.7 Size:1.8
 Model:DEFAULT Band:6.7 Size:1.8
 Model:DEFAULT Band:6.7 Size:1.8
 Model:DEFAULT Band:6.7 Size:1.8
 Model:DEFAULT Band:6.7 Size:1.8
 Model:DEFAULT Band:6.7 Size:1.8
 Model:DEFAULT Band:6.7 Size:1.8
 Model:DEFAULT Band:6.7 Size:1.8
 Model:DEFAULT Band:6.7 Size:1.8
 Model:DEFAULT Band:6.7 Size:1.8
 Model:DEFAULT Band:6.7 Size:1.8
 Model:DEFAULT Band:6.7 Size:1.8
 Model:DEFAULT Band:6.7 Size:1.8
 Model:DEFAULT Band:6.7 Size:1.8
 Model:DEFAULT Band:6.7 Size:1.8
 Model:DEFAULT Band:6.7 Size:1.8
 Model:DEFAULT Band:6.7 Size:1.8
 Model:DEFAULT Band:6.7 Size:1.8
 Model:DEFAULT Band:6.7 Size:1.8
 Model:DEFAULT Band:6.7 Size:1.8
 Model:DEFAULT Band:6.7 Size:1.8
 Model:DEFAULT Band:6.7 Size:1.8
 Model:DEFAULT Band:6.7 Size:1.8
 Model:DEFAULT Band:6.7 Size:1.8
 Model:DEFAULT Band:6.7 Size:1.8
 Model:DEFAULT Band:6.7 Size:1.8
 Model:DEFAULT Band:6.7 Size:1.8
 Model:DEFAULT Band:6.7 Size:1.8
 Model:DEFAULT Band:6.7 Size:1.8
 Model:DEFAULT Band:6.7 Size:1.8
 Model:DEFAULT Band:6.7 Size:1.8
 Model:DEFAULT Band:6.7 Size:1.8
 Model:DEFAULT Band:6.7 Size:1.8
 Model:DEFAULT Band:6.7 Size:1.8
 Model:DEFAULT Band:6.7 Size:1.8
 Model:DEFAULT Band:6.7 Size:1.8
 Model:DEFAULT Band:6.7 Size:1.8
 Model:DEFAULT Band:6.7 Size:1.8
 Model:DEFAULT Band:6.7 Size:1.8
 Model:DEFAULT Band:6.7 Size:1.8
 Model:DEFAULT Band:6.7 Size:1.8
 Model:DEFAULT Band:6.7 Size:1.8
 Model:DEFAULT Band:6.7 Size:1.8
 Model:DEFAULT Band:6.7 Size:1.8
 Model:DEFAULT Band:6.7 Size:1.8
 Model:DEFAULT Band:6.7 Size:1.8
 Model:DEFAULT Band:6.7 Size:1.8
 Model:DEFAULT Band:6.7 Size:1.8
 Model:DEFAULT Band:6.7 Size:1.8
 Model:DEFAULT Band:6.7 Size:1.8
 Model:DEFAULT Band:6.7 Size:1.8
 Model:DEFAULT Band:6.7 Size:1.8
 Model:DEFAULT Band:6.7 Size:1.8
 Model:DEFAULT Band:6.7 Size:1.8
 Model:DEFAULT Band:6.7 Size:1.8
 Model:DEFAULT Band:6.7 Size:1.8
 Model:DEFAULT Band:6.7 Size:1.8
 Model:DEFAULT Band:6.7 Size:1.8
 Model:DEFAULT Band:6.7 Size:1.8
 Model:DEFAULT Band:6.7 Size:1.8
 Model:DEFAULT Band:6.7 Size:1.8
 Model:DEFAULT Band:6.7 Size:1.8
 Model:DEFAULT Band:6.7 Size:1.8
 Model:DEFAULT Band:6.7 Size:1.8
 Model:DEFAULT Band:6.7 Size:1.8
 Model:DEFAULT Band:6.7 Size:1.8
 Model:DEFAULT Band:6.7 Size:1.8
 Model:DEFAULT Band:6.7 Size:1.8
 Model:DEFAULT Band:6.7 Size:1.8
 Model:DEFAULT Band:6.7 Size:1.8
 Model:DEFAULT Band:6.7 Size:1.8
 Model:DEFAULT Band:6.7 Size:1.8
 Model:DEFAULT Band:6.7 Size:1.8
 Model:DEFAULT Band:6.7 Size:1.8
 Model:DEFAULT Band:6.7 Size:1.8
 Model:DEFAULT Band:6.7 Size:1.8
 Model:DEFAULT Band:6.7 Size:1.8
 Model:DEFAULT Band:6.7 Size:1.8
 Model:DEFAULT Band:6.7 Size:1.8
 Model:DEFAULT Band:6.7 Size:1.8
 Model:DEFAULT Band:6.7 Size:1.8
 Model:DEFAULT Band:6.7 Size:1.8
 Model:DEFAULT Band:6.7 Size:1.8
 Model:DEFAULT Band:6.7 Size:1.8
 Model:DEFAULT Band:6.7 Size:1.8
 Model:DEFAULT Band:6.7 Size:1.8
 Model:DEFAULT Band:6.7 Size:1.8
 Model:DEFAULT Band:6.7 Size:1.8
 Model:DEFAULT Band:6.7 Size:1.8
 Model:DEFAULT Band:6.7 Size:1.8
 Model:DEFAULT Band:6.7 Size:1.8
 Model:DEFAULT Band:6.7 Size:1.8
 Model:DEFAULT Band:6.7 Size:1.8
 Model:DEFAULT Band:6.7 Size:1.8
 Model:DEFAULT Band:6.7 Size:1.8
 Model:DEFAULT Band:6.7 Size:1.8
 Model:DEFAULT Band:6.7 Size:1.8
 Model:DEFAULT Band:6.7 Size:1.8
 Model:DEFAULT Band:6.7 Size:1.8
 Model:DEFAULT Band:6.7 Size:1.8
 Model:DEFAULT Band:6.7 Size:1.8
 Model:DEFAULT Band:6.7 Size:1.8
 Model:DEFAULT Band:6.7 Size:1.8
 Model:DEFAULT Band:6.7 Size:1.8
 Model:DEFAULT Band:6.7 Size:1.8
 Model:DEFAULT Band:6.7 Size:1.8
 Model:DEFAULT Band:6.7 Size:1.8
 Model:DEFAULT Band:6.7 Size:1.8
 Model:DEFAULT Band:6.7 Size:1.8
 Model:DEFAULT Band:6.7 Size:1.8
 Model:DEFAULT Band:6.7 Size:1.8
 Model:DEFAULT Band:6.7 Size:1.8
 Model:DEFAULT Band:6.7 Size:1.8
 Model:DEFAULT Band:6.7 Size:1.8
 Model:DEFAULT Band:6.7 Size:1.8
 Model:DEFAULT Band:6.7 Size:1.8
 Model:DEFAULT Band:6.7 Size:1.8
 Model:DEFAULT Band:6.7 Size:1.8
 Model:DEFAULT Band:6.7 Size:1.8
 Model:DEFAULT Band:6.7 Size:1.8
 Model:DEFAULT Band:6.7 Size:1.8
 Model:DEFAULT Band:6.7 Size:1.8
 Model:DEFAULT Band:6.7 Size:1.8
 Model:DEFAULT Band:6.7 Size:1.8
 Model:DEFAULT Band:6.7 Size:1.8
 Model:DEFAULT Band:6.7 Size:1.8
 Model:DEFAULT Band:6.7 Size:1.8
 Model:DEFAULT Band:6.7 Size:1.8
 Model:DEFAULT Band:6.7 Size:1.8
 Model:DEFAULT Band:6.7 Size:1.8
 Model:DEFAULT Band:6.7 Size:1.8
 Model:DEFAULT Band:6.7 Size:1.8
 Model:DEFAULT Band:6.7 Size:1.8
 Model:DEFAULT Band:6.7 Size:1.8
 Model:DEFAULT Band:6.7 Size:1.8
 Model:DEFAULT Band:6.7 Size:1.8
 Model:DEFAULT Band:6.7 Size:1.8
 Model:DEFAULT Band:6.7 Size:1.8
 Model:DEFAULT Band:6.7 Size:1.8
 Model:DEFAULT Band:6.7 Size:1.8
 Model:DEFAULT Band:6.7 Size:1.8
 Model:DEFAULT Band:6.7 Size:1.8
 Model:DEFAULT Band:6.7 Size:1.8
 Model:DEFAULT Band:6.7 Size:1.8
 Model:DEFAULT Band:6.7 Size:1.8
 Model:DEFAULT Band:6.7 Size:1.8
 Model:DEFAULT Band:6.7 Size:1.8
 Model:DEFAULT Band:6.7 Size:1.8
 Model:DEFAULT Band:6.7 Size:1.8
 Model:DEFAULT Band:6.7 Size:1.8
 Model:DEFAULT Band:6.7 Size:1.8
 Model:DEFAULT Band:6.7 Size:1.8
 Model:DEFAULT Band:6.7 Size:1.8
 Model:DEFAULT Band:6.7 Size:1.8
 Model:DEFAULT Band:6.7 Size:1.8
 Model:DEFAULT Band:6.7 Size:1.8
 Model:DEFAULT Band:6.7 Size:1.8
 Model:DEFAULT Band:6.7 Size:1.8
 Model:DEFAULT Band:6.7 Size:1.8
 Model:DEFAULT Band:6.7 Size:1.8
 Model:DEFAULT Band:6.7 Size:1.8
 Model:DEFAULT Band:6.7 Size:1.8
 Model:DEFAULT Band:6.7 Size:1.8
 Model:DEFAULT Band:6.7 Size:1.8
 Model:DEFAULT Band:6.7 Size:1.8
 Model:DEFAULT Band:6.7 Size:1.8
 Model:DEFAULT Band:6.7 Size:1.8
 Model:DEFAULT Band:6.7 Size:1.8
 Model:DEFAULT Band:6.7 Size:1.8
 Model:DEFAULT Band:6.7 Size:1.8
 Model:DEFAULT Band:6.7 Size:1.8
 Model:DEFAULT Band:6.7 Size:1.8
 Model:DEFAULT Band:6.7 Size:1.8
 Model:DEFAULT Band:6.7 Size:1.8
 Model:DEFAULT Band:6.7 Size:1.8
 Model:DEFAULT Band:6.7 Size:1.8
 Model:DEFAULT Band:6.7 Size:1.8
 Model:DEFAULT Band:6.7 Size:1.8
 Model:DEFAULT Band:6.7 Size:1.8
 Model:DEFAULT Band:6.7 Size:1.8
 Model:DEFAULT Band:6.7 Size:1.8
 Model:DEFAULT Band:6.7 Size:1.8
 Model:DEFAULT Band:6.7 Size:1.8
 Model:DEFAULT Band:6.7 Size:1.8
 Model:DEFAULT Band:6.7 Size:1.8
 Model:DEFAULT Band:6.7 Size:1.8
 Model:DEFAULT Band:6.7 Size:1.8
 Model:DEFAULT Band:6.7 Size:1.8
 Model:DEFAULT Band:6.7 Size:1.8
 Model:DEFAULT Band:6.7 Size:1.8
 Model:DEFAULT Band:6.7 Size:1.8
 Model:DEFAULT Band:6.7 Size:1.8
 Model:DEFAULT Band:6.7 Size:1.8
 Model:DEFAULT Band:6.7 Size:1.8
 Model:DEFAULT Band:6.7 Size:1.8
 Model:DEFAULT Band:6.7 Size:1.8
 Model:DEFAULT Band:6.7 Size:1.8
 Model:DEFAULT Band:6.7 Size:1.8
 Model:DEFAULT Band:6.7 Size:1.8
 Model:DEFAULT Band:6.7 Size:1.8
 Model:DEFAULT Band:6.7 Size:1.8
 Model:DEFAULT Band:6.7 Size:1.8
 Model:DEFAULT Band:6.7 Size:1.8
 Model:DEFAULT Band:6.7 Size:1.8
 Model:DEFAULT Band:6.7 Size:1.8
 Model:DEFAULT Band:6.7 Size:1.8
 Model:DEFAULT Band:6.7 Size:1.8
 Model:DEFAULT Band:6.7 Size:1.8
 Model:DEFAULT Band:6.7 Size:1.8
 Model:DEFAULT Band:6.7 Size:1.8
 Model:DEFAULT Band:6.7 Size:1.8
 Model:DEFAULT Band:6.7 Size:1.8
 Model:DEFAULT Band:6.7 Size:1.8
 Model:DEFAULT Band:6.7 Size:1.8
 Model:DEFAULT Band:6.7 Size:1.8
 Model:DEFAULT Band:6.7 Size:1.8
 Model:DEFAULT Band:6.7 Size:1.8
 Model:DEFAULT Band:6.7 Size:1.8
 Model:DEFAULT Band:6.7 Size:1.8
 Model:DEFAULT Band:6.7 Size:1.8
 Model:DEFAULT Band:6.7 Size:1.8
 Model:DEFAULT Band:6.7 Size:1.8
 Model:DEFAULT Band:6.7 Size:1.8
 Model:DEFAULT Band:6.7 Size:1.8
 Model:DEFAULT Band:6.7 Size:1.8
 Model:DEFAULT Band:6.7 Size:1.8
 Model:DEFAULT Band:6.7 Size:1.8
 Model:DEFAULT Band:6.7 Size:1.8
 Model:DEFAULT Band:6.7 Size:1.8
 Model:DEFAULT Band:6.7 Size:1.8
 Model:DEFAULT Band:6.7 Size:1.8
 Model:DEFAULT Band:6.7 Size:1.8
 Model:DEFAULT Band:6.7 Size:1.8
 Model:DEFAULT Band:6.7 Size:1.8
 Model:DEFAULT Band:6.7 Size:1.8
 Model:DEFAULT Band:6.7 Size:1.8
 Model:DEFAULT Band:6.7 Size:1.8
 Model:DEFAULT Band:6.7 Size:1.8
 Model:DEFAULT Band:6.7 Size:1.8
 Model:DEFAULT Band:6.7 Size:1.8
 Model:DEFAULT Band:6.7 Size:1.8
 Model:DEFAULT Band:6.7 Size:1.8
 Model:DEFAULT Band:6.7 Size:1.8
 Model:DEFAULT Band:6.7 Size:1.8
 Model:DEFAULT Band:6.7 Size:1.8
 Model:DEFAULT Band:6.7 Size:1.8
 Model:DEFAULT Band:6.7 Size:1.8
 Model:DEFAULT Band:6.7 Size:1.8
 Model:DEFAULT Band:6.7 Size:1.8
 Model:DEFAULT Band:6.7 Size:1.8
 Model:DEFAULT Band:6.7 Size:1.8
 Model:DEFAULT Band:6.7 Size:1.8
 Model:DEFAULT Band:6.7 Size:1.8
 Model:DEFAULT Band:6.7 Size:1.8
 Model:DEFAULT Band:6.7 Size:1.8
 Model:DEFAULT Band:6.7 Size:1.8
 Model:DEFAULT Band:6.7 Size:1.8
 Model:DEFAULT Band:6.7 Size:1.8
 Model:DEFAULT Band:6.7 Size:1.8
 Model:DEFAULT Band:6.7 Size:1.8
 Model:DEFAULT Band:6.7 Size:1.8
 Model:DEFAULT Band:6.7 Size:1.8
 Model:DEFAULT Band:6.7 Size:1.8
 Model:DEFAULT Band:6.7 Size:1.8
 Model:DEFAULT Band:6.7 Size:1.8
 Model:DEFAULT Band:6.7 Size:1.8
 Model:DEFAULT Band:6.7 Size:1.8
 Model:DEFAULT Band:6.7 Size:1.8
 Model:DEFAULT Band:6.7 Size:1.8
 Model:DEFAULT Band:6.7 Size:1.8
 Model:DEFAULT Band:6.7 Size:1.8
 Model:DEFAULT Band:6.7 Size:1.8
 Model:DEFAULT Band:6.7 Size:1.8
 Model:DEFAULT Band:6.7 Size:1.8
 Model:DEFAULT Band:6.7 Size:1.8
 Model:DEFAULT Band:6.7 Size:1.8
 Model:DEFAULT Band:6.7 Size:1.8
 Model:DEFAULT Band:6.7 Size:1.8
 Model:DEFAULT Band:6.7 Size:1.8
 Model:DEFAULT Band:6.7 Size:1.8
 Model:DEFAULT Band:6.7 Size:1.8
 Model:DEFAULT Band:6.7 Size:1.8
 Model:DEFAULT Band:6.7 Size:1.8
 Model:DEFAULT Band:6.7 Size:1.8
 Model:DEFAULT Band:6.7 Size:1.8
 Model:DEFAULT Band:6.7 Size:1.8
 Model:DEFAULT Band:6.7 Size:1.8
 Model:DEFAULT Band:6.7 Size:1.8
 Model:DEFAULT Band:6.7 Size:1.8
 Model:DEFAULT Band:6.7 Size:1.8
 Model:DEFAULT Band:6.7 Size:1.8
 Model:DEFAULT Band:6.7 Size:1.8
 Model:DEFAULT Band:6.7 Size:1.8
 Model:DEFAULT Band:6.7 Size:1.8
 Model:DEFAULT Band:6.7 Size:1.8
 Model:DEFAULT Band:6.7 Size:1.8
 Model:DEFAULT Band:6.7 Size:1.8
 Model:DEFAULT Band:6.7 Size:1.8
 Model:DEFAULT Band:6.7 Size:1.8
 Model:DEFAULT Band:6.7 Size:1.8
 Model:DEFAULT Band:6.7 Size:1.8
 Model:DEFAULT Band:6.7 Size:1.8
 Model:DEFAULT Band:6.7 Size:1.8
 Model:DEFAULT Band:6.7 Size:1.8
 Model:DEFAULT Band:6.7 Size:1.8
 Model:DEFAULT Band:6.7 Size:1.8
 Model:DEFAULT Band:6.7 Size:1.8
 Model:DEFAULT Band:6.7 Size:1.8
 Model:DEFAULT Band:6.7 Size:1.8
 Model:DEFAULT Band:6.7 Size:1.8
 Model:DEFAULT Band:6.7 Size:1.8
 Model:DEFAULT Band:6.7 Size:1.8
 Model:DEFAULT Band:6.7 Size:1.8
 Model:DEFAULT Band:6.7 Size:1.8
 Model:DEFAULT Band:6.7 Size:1.8
 Model:DEFAULT Band:6.7 Size:1.8
 Model:DEFAULT Band:6.7 Size:1.8
 Model:DEFAULT Band:6.7 Size:1.8
 Model:DEFAULT Band:6.7 Size:1.8
 Model:DEFAULT Band:6.7 Size:1.8
 Model:DEFAULT Band:6.7 Size:1.8
 Model:DEFAULT Band:6.7 Size:1.8
 Model:DEFAULT Band:6.7 Size:1.8
 Model:DEFAULT Band:6.7 Size:1.8
 Model:DEFAULT Band:6.7 Size:1.8
 Model:DEFAULT Band:6.7 Size:1.8
 Model:DEFAULT Band:6.7 Size:1.8
 Model:DEFAULT Band:6.7 Size:1.8
 Model:DEFAULT Band:6.7 Size:1.8
 Model:DEFAULT Band:6.7 Size:1.8
 Model:DEFAULT Band:6.7 Size:1.8
 Model:DEFAULT Band:6.7 Size:1.8
 Model:DEFAULT Band:6.7 Size:1.8
 Model:DEFAULT Band:6.7 Size:1.8
 Model:DEFAULT Band:6.7 Size:1.8
 Model:DEFAULT Band:6.7 Size:1.8
 Model:DEFAULT Band:6.7 Size:1.8
 Model:DEFAULT Band:6.7 Size:1.8
 Model:DEFAULT Band:6.7 Size:1.8
 Model:DEFAULT Band:6.7 Size:1.8
 Model:DEFAULT Band:6.7 Size:1.8
 Model:DEFAULT Band:6.7 Size:1.8
 Model:DEFAULT Band:6.7 Size:1.8
 Model:DEFAULT Band:6.7 Size:1.8
 Model:DEFAULT Band:6.7 Size:1.8
 Model:DEFAULT Band:6.7 Size:1.8
 Model:DEFAULT Band:6.7 Size:1.8
 Model:DEFAULT Band:6.7 Size:1.8
 Model:DEFAULT Band:6.7 Size:1.8
 Model:DEFAULT Band:6.7 Size:1.8
 Model:DEFAULT Band:6.7 Size:1.8
 Model:DEFAULT Band:6.7 Size:1.8
 Model:DEFAULT Band:6.7 Size:1.8
 Model:DEFAULT Band:6.7 Size:1.8
 Model:DEFAULT Band:6.7 Size:1.8
 Model:DEFAULT Band:6.7 Size:1.8
 Model:DEFAULT Band:6.7 Size:1.8
 Model:DEFAULT Band:6.7 Size:1.8
 Model:DEFAULT Band:6.7 Size:1.8
 Model:DEFAULT Band:6.7 Size:1.8
 Model:DEFAULT Band:6.7 Size:1.8
 Model:DEFAULT Band:6.7 Size:1.8
 Model:DEFAULT Band:6.7 Size:1.8
 Model:DEFAULT Band:6.7 Size:1.8
 Model:DEFAULT Band:6.7 Size:1.8
 Model:DEFAULT Band:6.7 Size:1.8
 Model:DEFAULT Band:6.7 Size:1.8
 Model:DEFAULT Band:6.7 Size:1.8
 Model:DEFAULT Band:6.7 Size:1.8
 Model:DEFAULT Band:6.7 Size:1.8
 Model:DEFAULT Band:6.7 Size:1.8
 Model:DEFAULT Band:6.7 Size:1.8
 Model:DEFAULT Band:6.7 Size:1.8
 Model:DEFAULT Band:6.7 Size:1.8
 Model:DEFAULT Band:6.7 Size:1.8
 Model:DEFAULT Band:6.7 Size:1.8
 Model:DEFAULT Band:6.7 Size:1.8
 Model:DEFAULT Band:6.7 Size:1.8
 Model:DEFAULT Band:6.7 Size:1.8
 Model:DEFAULT Band:6.7 Size:1.8
 Model:DEFAULT Band:6.7 Size:1.8
 Model:DEFAULT Band:6.7 Size:1.8
 Model:DEFAULT Band:6.7 Size:1.8
 Model:DEFAULT Band:6.7 Size:1.8
 Model:DEFAULT Band:6.7 Size:1.8
 Model:DEFAULT Band:6.7 Size:1.8
 Model:DEFAULT Band:6.7 Size:1.8
 Model:DEFAULT Band:6.7 Size:1.8
 Model:DEFAULT Band:6.7 Size:1.8
 Model:DEFAULT Band:6.7 Size:1.8
 Model:DEFAULT Band:6.7 Size:1.8
 Model:DEFAULT Band:6.7 Size:1.8
 Model:DEFAULT Band:6.7 Size:1.8
 Model:DEFAULT Band:6.7 Size:1.8
 Model:DEFAULT Band:6.7 Size:1.8
 Model:DEFAULT Band:6.7 Size:1.8
 Model:DEFAULT Band:6.7 Size:1.8
 Model:DEFAULT Band:6.7 Size:1.8
 Model:DEFAULT Band:6.7 Size:1.8
 Model:DEFAULT Band:6.7 Size:1.8
 Model:DEFAULT Band:6.7 Size:1.8
 Model:DEFAULT Band:6.7 Size:1.8
 Model:DEFAULT Band:6.7 Size:1.8
 Model:DEFAULT Band:6.7 Size:1.8
 Model:DEFAULT Band:6.7 Size:1.8
 Model:DEFAULT Band:6.7 Size:1.8
 Model:DEFAULT Band:6.7 Size:1.8
 Model:DEFAULT Band:6.7 Size:1.8
 Model:DEFAULT Band:6.7 Size:1.8
 Model:DEFAULT Band:6.7 Size:1.8
 Model:DEFAULT Band:6.7 Size:1.8
 Model:DEFAULT Band:6.7 Size:1.8
 Model:DEFAULT Band:6.7 Size:1.8
 Model:DEFAULT Band:6.7 Size:1.8
 Model:DEFAULT Band:6.7 Size:1.8
 Model:DEFAULT Band:6.7 Size:1.8
 Model:DEFAULT Band:6.7 Size:1.8
 Model:DEFAULT Band:6.7 Size:1.8
 Model:DEFAULT Band:6.7 Size:1.8
 Model:DEFAULT Band:6.7 Size:1.8
 Model:DEFAULT Band:6.7 Size:1.8
 Model:DEFAULT Band:6.7 Size:1.8
 Model:DEFAULT Band:6.7 Size:1.8
 Model:DEFAULT Band:6.7 Size:1.8
 Model:DEFAULT Band:6.7 Size:1.8
 Model:DEFAULT Band:6.7 Size:1.8
 Model:DEFAULT Band:6.7 Size:1.8
 Model:DEFAULT Band:6.7 Size:1.8
 Model:DEFAULT Band:6.7 Size:1.8
 Model:DEFAULT Band:6.7 Size:1.8
 Model:DEFAULT Band:6.7 Size:1.8
 Model:DEFAULT Band:6.7 Size:1.8
 Model:DEFAULT Band:6.7 Size:1.8
 Model:DEFAULT Band:6.7 Size:1.8
 Model:DEFAULT Band:6.7 Size:1.8
 Model:DEFAULT Band:6.7 Size:1.8
 Model:DEFAULT Band:6.7 Size:1.8
 Model:DEFAULT Band:6.7 Size:1.8
 Model:DEFAULT Band:6.7 Size:1.8
 Model:DEFAULT Band:6.7 Size:1.8
 Model:DEFAULT Band:6.7 Size:1.8
 Model:DEFAULT Band:6.7 Size:1.8
 Model:DEFAULT Band:6.7 Size:1.8
 Model:DEFAULT Band:6.7 Size:1.8
 Model:DEFAULT Band:6.7 Size:1.8
 Model:DEFAULT Band:6.7 Size:1.8
 Model:DEFAULT Band:6.7 Size:1.8
 Model:DEFAULT Band:6.7 Size:1.8
 Model:DEFAULT Band:6.7 Size:1.8
 Model:DEFAULT Band:6.7 Size:1.8
 Model:DEFAULT Band:6.7 Size:1.8
 Model:DEFAULT Band:6.7 Size:1.8
 Model:DEFAULT Band:6.7 Size:1.8
 Model:DEFAULT Band:6.7 Size:1.8
 Model:DEFAULT Band:6.7 Size:1.8
 Model:DEFAULT Band:6.7 Size:1.8
 Model:DEFAULT Band:6.7 Size:1.8
 Model:DEFAULT Band:6.7 Size:1.8
 Model:DEFAULT Band:6.7 Size:1.8
 Model:DEFAULT Band:6.7 Size:1.8
 Model:DEFAULT Band:6.7 Size:1.8
 Model:DEFAULT Band:6.7 Size:1.8
 Model:DEFAULT Band:6.7 Size:1.8
 Model:DEFAULT Band:6.7 Size:1.8
 Model:DEFAULT Band:6.7 Size:1.8
 Model:DEFAULT Band:6.7 Size:1.8
 Model:DEFAULT Band:6.7 Size:1.8
 Model:DEFAULT Band:8 Size:0.3
 Model:HP377 Band:8 Size:0.9
 Model:HP377 Band:8 Size:0.9
 Model:HP377 Band:8 Size:0.9
 Model:DEFAULT Band:6.7 Size:1.8
 Model:DEFAULT Band:6.7 Size:1.8
 Model:DEFAULT Band:6.7 Size:1.8
 Model:DEFAULT Band:6.7 Size:1.8
 Model:DEFAULT Band:6.7 Size:1.8
 Model:DEFAULT Band:6.7 Size:1.8
 Model:DEFAULT Band:6.7 Size:1.8
 Model:DEFAULT Band:6.7 Size:1.8
 Model:DEFAULT Band:6.7 Size:1.8
 Model:DEFAULT Band:6.7 Size:1.8
 Model:DEFAULT Band:6.7 Size:1.8
 Model:DEFAULT Band:6.7 Size:1.8
 Model:DEFAULT Band:6.7 Size:1.8
 Model:DEFAULT Band:6.7 Size:1.8
 Model:DEFAULT Band:6.7 Size:1.8
 Model:DEFAULT Band:6.7 Size:1.8
 Model:DEFAULT Band:6.7 Size:1.8
 Model:DEFAULT Band:6.7 Size:1.8
 Model:DEFAULT Band:6.7 Size:1.8
 Model:DEFAULT Band:6.7 Size:1.8
 Model:DEFAULT Band:6.7 Size:1.8
 Model:DEFAULT Band:6.7 Size:1.8
 Model:DEFAULT Band:6.7 Size:1.8
 Model:DEFAULT Band:6.7 Size:1.8
 Model:DEFAULT Band:6.7 Size:1.8
 Model:DEFAULT Band:6.7 Size:1.8
 Model:DEFAULT Band:6.7 Size:1.8
 Model:DEFAULT Band:6.7 Size:1.8
 Model:DEFAULT Band:6.7 Size:1.8
 Model:DEFAULT Band:6.7 Size:1.8
 Model:DEFAULT Band:6.7 Size:1.8
 Model:DEFAULT Band:6.7 Size:1.8
 Model:DEFAULT Band:6.7 Size:1.8
 Model:DEFAULT Band:6.7 Size:1.8
 Model:DEFAULT Band:6.7 Size:1.8
 Model:DEFAULT Band:6.7 Size:1.8
 Model:DEFAULT Band:6.7 Size:1.8
 Model:DEFAULT Band:6.7 Size:1.8
 Model:DEFAULT Band:6.7 Size:1.8
 Model:DEFAULT Band:6.7 Size:1.8
 Model:DEFAULT Band:6.7 Size:1.8
 Model:DEFAULT Band:6.7 Size:1.8
 Model:DEFAULT Band:6.7 Size:1.8
 Model:DEFAULT Band:6.7 Size:1.8
 Model:DEFAULT Band:6.7 Size:1.8
 Model:DEFAULT Band:6.7 Size:1.8
 Model:DEFAULT Band:6.7 Size:1.8
 Model:DEFAULT Band:6.7 Size:1.8
 Model:DEFAULT Band:6.7 Size:1.8
 Model:DEFAULT Band:6.7 Size:1.8
 Model:DEFAULT Band:6.7 Size:1.8
 Model:DEFAULT Band:6.7 Size:1.8
 Model:DEFAULT Band:6.7 Size:1.8
 Model:DEFAULT Band:6.7 Size:1.8
 Model:DEFAULT Band:6.7 Size:1.8
 Model:DEFAULT Band:6.7 Size:1.8
 Model:DEFAULT Band:6.7 Size:1.8
 Model:DEFAULT Band:6.7 Size:1.8
 Model:DEFAULT Band:6.7 Size:1.8
 Model:DEFAULT Band:6.7 Size:1.8
 Model:DEFAULT Band:6.7 Size:1.8
 Model:DEFAULT Band:6.7 Size:1.8
 Model:DEFAULT Band:6.7 Size:1.8
 Model:DEFAULT Band:6.7 Size:1.8
 Model:DEFAULT Band:6.7 Size:1.8
 Model:DEFAULT Band:6.7 Size:1.8
 Model:DEFAULT Band:6.7 Size:1.8
 Model:DEFAULT Band:6.7 Size:1.8
 Model:DEFAULT Band:6.7 Size:1.8
 Model:DEFAULT Band:6.7 Size:1.8
 Model:DEFAULT Band:6.7 Size:1.8
 Model:DEFAULT Band:6.7 Size:1.8
 Model:DEFAULT Band:6.7 Size:1.8
 Model:DEFAULT Band:6.7 Size:1.8
 Model:DEFAULT Band:6.7 Size:1.8
 Model:DEFAULT Band:6.7 Size:1.8
 Model:DEFAULT Band:6.7 Size:1.8
 Model:DEFAULT Band:6.7 Size:1.8
 Model:DEFAULT Band:6.7 Size:1.8
 Model:DEFAULT Band:6.7 Size:1.8
 Model:DEFAULT Band:6.7 Size:1.8
 Model:DEFAULT Band:6.7 Size:1.8
 Model:DEFAULT Band:6.7 Size:1.8
 Model:DEFAULT Band:6.7 Size:1.8
 Model:DEFAULT Band:6.7 Size:1.8
 Model:DEFAULT Band:6.7 Size:1.8
 Model:DEFAULT Band:6.7 Size:1.8
 Model:DEFAULT Band:6.7 Size:1.8
 Model:DEFAULT Band:6.7 Size:1.8
 Model:DEFAULT Band:6.7 Size:1.8
 Model:DEFAULT Band:6.7 Size:1.8
 Model:DEFAULT Band:6.7 Size:1.8
 Model:DEFAULT Band:6.7 Size:1.8
 Model:DEFAULT Band:6.7 Size:1.8
 Model:DEFAULT Band:6.7 Size:1.8
 Model:DEFAULT Band:6.7 Size:1.8
 Model:DEFAULT Band:6.7 Size:1.8
 Model:DEFAULT Band:6.7 Size:1.8
 Model:DEFAULT Band:6.7 Size:1.8
 Model:DEFAULT Band:6.7 Size:1.8
 Model:DEFAULT Band:6.7 Size:1.8
 Model:DEFAULT Band:6.7 Size:1.8
 Model:DEFAULT Band:6.7 Size:1.8
 Model:DEFAULT Band:6.7 Size:1.8
 Model:DEFAULT Band:6.7 Size:1.8
 Model:DEFAULT Band:6.7 Size:1.8
 Model:DEFAULT Band:6.7 Size:1.8
 Model:DEFAULT Band:6.7 Size:1.8
 Model:DEFAULT Band:6.7 Size:1.8
 Model:DEFAULT Band:6.7 Size:1.8
 Model:DEFAULT Band:6.7 Size:1.8
 Model:DEFAULT Band:6.7 Size:1.8
 Model:DEFAULT Band:6.7 Size:1.8
 Model:DEFAULT Band:6.7 Size:1.8
 Model:DEFAULT Band:6.7 Size:1.8
 Model:DEFAULT Band:6.7 Size:1.8
 Model:DEFAULT Band:6.7 Size:1.8
 Model:DEFAULT Band:6.7 Size:1.8
 Model:DEFAULT Band:6.7 Size:1.8
 Model:DEFAULT Band:6.7 Size:1.8
 Model:DEFAULT Band:6.7 Size:1.8
 Model:DEFAULT Band:6.7 Size:1.8
 Model:DEFAULT Band:6.7 Size:1.8
 Model:DEFAULT Band:6.7 Size:1.8
 Model:DEFAULT Band:6.7 Size:1.8
 Model:DEFAULT Band:6.7 Size:1.8
 Model:DEFAULT Band:6.7 Size:1.8
 Model:DEFAULT Band:6.7 Size:1.8
 Model:DEFAULT Band:6.7 Size:1.8
 Model:DEFAULT Band:6.7 Size:1.8
 Model:DEFAULT Band:6.7 Size:1.8
 Model:DEFAULT Band:6.7 Size:1.8
 Model:DEFAULT Band:6.7 Size:1.8
 Model:DEFAULT Band:6.7 Size:1.8
 Model:DEFAULT Band:6.7 Size:1.8
 Model:DEFAULT Band:6.7 Size:1.8
 Model:DEFAULT Band:6.7 Size:1.8
 Model:DEFAULT Band:6.7 Size:1.8
 Model:DEFAULT Band:6.7 Size:1.8
 Model:DEFAULT Band:6.7 Size:1.8
 Model:DEFAULT Band:6.7 Size:1.8
 Model:DEFAULT Band:6.7 Size:1.8
 Model:DEFAULT Band:6.7 Size:1.8
 Model:DEFAULT Band:6.7 Size:1.8
 Model:DEFAULT Band:6.7 Size:1.8
 Model:DEFAULT Band:6.7 Size:1.8
 Model:DEFAULT Band:6.7 Size:1.8
 Model:DEFAULT Band:6.7 Size:1.8
 Model:DEFAULT Band:6.7 Size:1.8
 Model:DEFAULT Band:6.7 Size:1.8
 Model:DEFAULT Band:6.7 Size:1.8
 Model:DEFAULT Band:6.7 Size:1.8
 Model:DEFAULT Band:6.7 Size:1.8
 Model:DEFAULT Band:6.7 Size:1.8
 Model:DEFAULT Band:6.7 Size:1.8
 Model:DEFAULT Band:6.7 Size:1.8
 Model:DEFAULT Band:6.7 Size:1.8
 Model:DEFAULT Band:6.7 Size:1.8
 Model:DEFAULT Band:6.7 Size:1.8
 Model:DEFAULT Band:6.7 Size:1.8
 Model:DEFAULT Band:6.7 Size:1.8
 Model:DEFAULT Band:6.7 Size:1.8
 Model:DEFAULT Band:6.7 Size:1.8
 Model:DEFAULT Band:6.7 Size:1.8
 Model:DEFAULT Band:6.7 Size:1.8
 Model:DEFAULT Band:6.7 Size:1.8
 Model:DEFAULT Band:6.7 Size:1.8
 Model:DEFAULT Band:6.7 Size:1.8
