REVNUM:,NSMA WG16.99.050
REVDAT:,19990520
ANTMAN:,ANDREW CORPORATION
MODNUM:,HPX6-71W
PATNUM:,2860
FEDORN:,NA
DESCR1:,
DESCR2:,
DESCR3:,
DESCR4:,
DESCR5:,
DTDATA:,19930610
LOWFRQ:,7125
HGHFRQ:,8500
GUNITS:,DBI/DBR
LWGAIN:,39.6
MDGAIN:,40.4
HGGAIN:,41.0
AZWIDT:,1.50
ELWIDT:,1.50
ATVSWR:,1.15
FRTOBA:,65.0
ELTILT:,0
PATTYP:,ENVELOPE
NOFREQ:,NA
PATFRE:,NA
NUMCUT:,4
PATCUT:,AZ
POLARI:,H/H
NUPOIN:,37
-180.0,10.0,
0.0,10.0,
180.0,10.0,
