REVNUM:,NSMA WG16.99.050
REVDAT:,19990520
ANTMAN:,RADIO WAVES INC.
MODNUM:,HP3-7.7
DESCR1:,3 FT LOW SIDELOBE ANTENNA
PATNUM:,9133
DTDATA:,20030617
LOWFRQ:,7125
HGHFRQ:,8500
GUNITS:,DBI/DBR
LWGAIN:,33.9
MDGAIN:,34.5
HGGAIN:,35.2
AZWIDT:,3.3
ELWIDT:,3.3
ELTILT:,0
ANTLEN:,0.9,
PATTYP:,ENVELOPE,
NOFREQ:,NA,
PATFRE:,NA,
NUMCUT:,4,
PATCUT:,AZ,
POLARI:,H/H,
NUPOIN:,27,
FSTLST:,-180,180
-180,-60,
-100,-60,
-72,-36,
-50,-33,
-39,-29,
-17,-24,
-9,-21,
-3,-9.92
-2.5,-6.89
-2,-4.41
-1.5,-2.48
-1,-1.10
-0.5,-0.28
0,0.00
0.5,-0.28
1,-1.10
1.5,-2.48
2,-4.41
2.5,-6.89
3,-9.92
9,-21
17,-24
39,-29
50,-33,
72,-36,
100,-60,
180,-60,
PATCUT:,AZ,
POLARI:,H/V,
NUPOIN:,10,
FSTLST:,-180,180
-180,-67,
-94,-67,
-63,-50,
-10,-46,
-5,-30,
5,-30, 
10,-46,
63,-50, 
94,-67,
180,-67,
PATCUT:,AZ,
POLARI:,V/V,
NUPOIN:,33,
FSTLST:,-180,180
-180,-60, 
-100,-60, 
-79,-44, 
-66,-39.5, 
-53,-38, 
-24,-33, 
-16,-30, 
-11,-25, 
-6,-13, 
-3.5,-12.72, 
-3,-9.92, 
-2.5,-6.89, 
-2,-4.41,
-1.5,-2.48,
-1,-1.10,
-0.5,-0.28,
0,0.00,
0.5,-0.28,
1,-1.10,
1.5,-2.48,
2,-4.41,
2.5,-6.89,
3,-9.92,
3.5,-12.72,
6,-13,
11,-25,
16,-30,
24,-33,
53,-38,
66,-39.5,
79,-44,
100,-60,
180,-60,
PATCUT:,AZ,
POLARI:,V/H,
NUPOIN:,10,
FSTLST:,-180,180
-180,-67, 
-100,-67, 
-55,-48, 
-6,-46, 
-5,-30, 
5,-30, 
6,-46, 
55,-48,
100,-67,
180,-67,
ENDFIL:,EOF,
