REVNUM:,NSMA WG16.99.050
REVDAT:,19990520
COMNT1:,5 to 180 degrees: No peaks will exceed the RPE by more than 2 dB.
COMNT2:,0 to 5 degrees: Typical RPE. Reference: 1301-UKY 210 40+ Rev A
ANTMAN:,ERICSSON
MODNUM:,UKY 210 43/SC11, UKY 210 43/SC15 and UKY 210 43/DC12 
DESCR1:,1.2 m Compact Antenna 18 GHz, Single and Dual Polarised, High Performance
LOWFRQ:,17700
HGHFRQ:,19700
GUNITS:,DBI/DBI
MDGAIN:,44.6
AZWIDT:,1.1
ELWIDT:,1.1
ELTILT:,0.0
PATTYP:,ENVELOPE
NOFREQ:,NA
PATFRE:,NA
NUMCUT:,4
PATCUT:,AZ
POLARI:,H/H
NUPOIN:,39
FSTLST:,-180.000,+179.999
-180.000,-28.000,
-90.000,-28.000,
-80.000,-24.000,
-70.000,-11.000,
-60.000,-4.000,
-30.000,1.000,
-20.000,1.000,
-10.000,6.000,
-5.000,8.000,
-4.500,11.600,
-4.000,16.100,
-3.500,16.600,
-3.000,17.600,
-2.500,20.600,
-2.000,25.600,
-1.500,31.600,
-1.000,31.600,
-0.550,41.600,
-0.250,43.800,
0.000,44.600,
0.250,43.800,
0.550,41.600,
1.000,31.600,
1.500,31.600,
2.000,25.600,
2.500,20.600,
3.000,17.600,
3.500,16.600,
4.000,16.100,
4.500,11.600,
5.000,8.000,
10.000,6.000,
20.000,1.000,
30.000,1.000,
60.000,-4.000,
70.000,-11.000,
80.000,-24.000,
90.000,-28.000,
179.999,-28.000,
PATCUT:,AZ
POLARI:,H/V
NUPOIN:,15
FSTLST:,-180.000,+179.999
-180.000,-32.000,
-80.000,-32.000,
-70.000,-25.000,
-15.000,-19.000,
-10.000,-16.000,
-5.000,-4.000,
-1.100,14.600,
0.000,14.600,
1.100,14.600,
5.000,-4.000,
10.000,-16.000,
15.000,-19.000,
70.000,-25.000,
80.000,-32.000,
179.999,-32.000,
PATCUT:,AZ
POLARI:,V/V
NUPOIN:,39
FSTLST:,-180.000,+179.999
-180.000,-28.000,
-90.000,-28.000,
-80.000,-24.000,
-70.000,-11.000,
-60.000,-4.000,
-30.000,1.000,
-20.000,1.000,
-10.000,6.000,
-5.000,8.000,
-4.500,11.600,
-4.000,16.100,
-3.500,16.600,
-3.000,17.600,
-2.500,20.600,
-2.000,25.600,
-1.500,31.600,
-1.000,31.600,
-0.550,41.600,
-0.250,43.800,
0.000,44.600,
0.250,43.800,
0.550,41.600,
1.000,31.600,
1.500,31.600,
2.000,25.600,
2.500,20.600,
3.000,17.600,
3.500,16.600,
4.000,16.100,
4.500,11.600,
5.000,8.000,
10.000,6.000,
20.000,1.000,
30.000,1.000,
60.000,-4.000,
70.000,-11.000,
80.000,-24.000,
90.000,-28.000,
179.999,-28.000,
PATCUT:,AZ
POLARI:,V/H
NUPOIN:,15
FSTLST:,-180.000,+179.999
-180.000,-32.000,
-80.000,-32.000,
-70.000,-25.000,
-15.000,-19.000,
-10.000,-16.000,
-5.000,-4.000,
-1.100,14.600,
0.000,14.600,
1.100,14.600,
5.000,-4.000,
10.000,-16.000,
15.000,-19.000,
70.000,-25.000,
80.000,-32.000,
179.999,-32.000,
ENDFIL:,EOF
