REVNUM:,NSMA WG16.99.050
REVDAT:,19990520
ANTMAN:,ERICSSON
MODNUM:,UKY 220 44/SC15
PATNUM:,22044sc15a
FEDORN:,NA
DESCR1:,ANT2 0.6 18 HP
DESCR2:,R1x
DESCR3:,
DESCR4:,
DESCR5:,
DTDATA:,20091120
LOWFRQ:,17700
HGHFRQ:,19700
GUNITS:,DBI/DBR
LWGAIN:,38.4
MDGAIN:,38.9
HGGAIN:,39.1
AZWIDT:,2.1
ELWIDT:,2.1
ATVSWR:,1.5
FRTOBA:,66
ELTILT:,0
ANTWID:,0.6
PATTYP:,ENVELOPE
NOFREQ:,NA
PATFRE:,NA
NUMCUT:,4
PATCUT:,AZ
POLARI:,H/H
NUPOIN:,37
-180.00,-66.00,
-95.00,-66.00,
-60.00,-43.00,
-52.00,-42.00,
-30.00,-42.00,
-22.00,-37.00,
-15.00,-35.00,
-10.00,-33.00,
-9.00,-30.00,
-7.50,-26.00,
-5.00,-26.00,
-4.50,-24.00,
-2.80,-24.00,
-2.50,-18.50,
-2.00,-11.20,
-1.50,-5.90,
-1.00,-2.40,
-0.50,-0.40,
0.00,0.00,
0.50,-0.40,
1.00,-2.40,
1.50,-5.90,
2.00,-11.20,
2.50,-18.50,
2.80,-24.00,
4.50,-24.00,
5.00,-26.00,
7.50,-26.00,
9.00,-30.00,
10.00,-33.00,
15.00,-35.00,
22.00,-37.00,
30.00,-42.00,
52.00,-42.00,
60.00,-43.00,
95.00,-66.00,
180.00,-66.00,
PATCUT:,AZ
POLARI:,H/V
NUPOIN:,15
-180.00,-70.00,
-90.00,-70.00,
-50.00,-57.00,
-22.00,-55.00,
-15.00,-50.00,
-6.00,-42.00,
-2.00,-30.00,
0.00,-30.00,
2.00,-30.00,
6.00,-42.00,
15.00,-50.00,
22.00,-55.00,
50.00,-57.00,
90.00,-70.00,
180.00,-70.00,
PATCUT:,AZ
POLARI:,V/V
NUPOIN:,39
-180.00,-66.00,
-95.00,-66.00,
-80.00,-57.00,
-60.00,-43.50,
-52.00,-42.00,
-30.00,-42.00,
-20.00,-36.00,
-18.00,-34.00,
-15.00,-34.00,
-14.00,-32.00,
-9.50,-30.00,
-7.50,-28.00,
-5.00,-25.00,
-4.00,-22.00,
-3.00,-22.00,
-2.00,-11.20,
-1.50,-5.90,
-1.00,-2.40,
-0.50,-0.40,
0.00,0.00,
0.50,-0.40,
1.00,-2.40,
1.50,-5.90,
2.00,-11.20,
3.00,-22.00,
4.00,-22.00,
5.00,-25.00,
7.50,-28.00,
9.50,-30.00,
14.00,-32.00,
15.00,-34.00,
18.00,-34.00,
20.00,-36.00,
30.00,-42.00,
52.00,-42.00,
60.00,-43.50,
80.00,-57.00,
95.00,-66.00,
180.00,-66.00,
PATCUT:,AZ
POLARI:,V/H
NUPOIN:,15
-180.00,-70.00,
-90.00,-70.00,
-50.00,-57.00,
-22.00,-55.00,
-15.00,-50.00,
-6.00,-42.00,
-2.00,-30.00,
0.00,-30.00,
2.00,-30.00,
6.00,-42.00,
15.00,-50.00,
22.00,-55.00,
50.00,-57.00,
90.00,-70.00,
180.00,-70.00,
ENDFIL:,EOF
