REVNUM:,NSMA WG16.99.050
REVDAT:,19990520
ANTMAN:,ERICSSON
MODNUM:,UKY 210 50/DC12
PATNUM:,21050dc12b
FEDORN:,NA
DESCR1:,
DESCR2:,
DESCR3:,
DESCR4:,
DESCR5:,
DTDATA:,20060505
LOWFRQ:,7100
HGHFRQ:,8500
GUNITS:,DBI/DBR
LWGAIN:,40.1
MDGAIN:,41.0
HGGAIN:,41.7
AZWIDT:,1.44
ELWIDT:,1.44
ATVSWR:,1.22
FRTOBA:,68
ELTILT:,0
PATTYP:,ENVELOPE
NOFREQ:,NA
PATFRE:,NA
NUMCUT:,4
PATCUT:,AZ
POLARI:,H/H
NUPOIN:,29
-180,-69,
-95,-69,
-70,-47,
-60,-44,
-20,-39,
-10,-35,
-5,-26,
-4,-19,
-3.5,-18.5,
-3,-14.5,
-1.5,-12.5,
-1,-5.1,
-0.8,-3,
-0.5,-1.1,
0,0,
0.5,-1.1,
0.8,-3,
1,-5.1,
1.5,-12.5,
3,-14.5,
3.5,-18.5,
4,-19,
5,-26,
10,-35,
20,-39,
60,-44,
70,-47,
95,-69,
180,-69,
PATCUT:,AZ
POLARI:,H/V
NUPOIN:,15
-180,-69,
-70,-69,
-65,-62,
-55,-59,
-10,-53,
-5,-46,
-1.5,-32,
0,-32,
1.5,-32,
5,-46,
10,-53,
55,-59,
65,-62,
70,-69,
180,-69,
PATCUT:,AZ
POLARI:,V/V
NUPOIN:,29
-180,-69,
-95,-69,
-70,-47,
-60,-44,
-20,-39,
-10,-35,
-5,-26,
-4,-19,
-3.5,-18.5,
-3,-14.5,
-1.5,-12.5,
-1,-5.1,
-0.8,-3,
-0.5,-1.1,
0,0,
0.5,-1.1,
0.8,-3,
1,-5.1,
1.5,-12.5,
3,-14.5,
3.5,-18.5,
4,-19,
5,-26,
10,-35,
20,-39,
60,-44,
70,-47,
95,-69,
180,-69,
PATCUT:,AZ
POLARI:,V/H
NUPOIN:,15
-180,-69,
-70,-69,
-65,-62,
-55,-59,
-10,-53,
-5,-46,
-1.5,-32,
0,-32,
1.5,-32,
5,-46,
10,-53,
55,-59,
65,-62,
70,-69,
180,-69,
ENDFIL:,EOF
