REVNUM:,NSMA WG16.99.050
REVDAT:,19990520
COMNT1:,5 to 180 degrees: No peaks will exceed the RPE by more than 2 dB.
COMNT2:,0 to 5 degrees: Typical RPE. Reference: 1301-UKY 210 40+ Rev A
ANTMAN:,ERICSSON
MODNUM:,UKY 210 89/SC15 
DESCR1:,0.6 m Compact Antenna 13 GHz, Single Polarised, High Performance
LOWFRQ:,12750
HGHFRQ:,13250
GUNITS:,DBI/DBI
MDGAIN:,36.0
AZWIDT:,3.1
ELWIDT:,3.1
ELTILT:,0.0
PATTYP:,ENVELOPE
NOFREQ:,NA
PATFRE:,NA
NUMCUT:,4
PATCUT:,AZ
POLARI:,H/H
NUPOIN:,39
FSTLST:,-180.000,+179.999
-180.000,-25.000,
-100.000,-25.000,
-85.000,-16.000,
-75.000,-15.000,
-65.000,-5.000,
-55.000,-2.000,
-35.000,-1.000,
-25.000,1.000,
-20.000,4.000,
-10.000,13.000,
-5.000,13.000,
-4.000,14.000,
-3.500,19.500,
-3.000,24.500,
-2.500,28.000,
-2.000,31.000,
-1.550,33.000,
-1.000,34.800,
-0.500,35.700,
0.000,36.000,
0.500,35.700,
1.000,34.800,
1.550,33.000,
2.000,31.000,
2.500,28.000,
3.000,24.500,
3.500,19.500,
4.000,14.000,
5.000,13.000,
10.000,13.000,
20.000,4.000,
25.000,1.000,
35.000,-1.000,
55.000,-2.000,
65.000,-5.000,
75.000,-15.000,
85.000,-16.000,
100.000,-25.000,
179.999,-25.000,
PATCUT:,AZ
POLARI:,H/V
NUPOIN:,13
FSTLST:,-180.000,+179.999
-180.000,-28.000,
-80.000,-28.000,
-15.000,-16.000,
-10.000,-5.000,
-5.000,-5.000,
-3.100,6.000,
0.000,6.000,
3.100,6.000,
5.000,-5.000,
10.000,-5.000,
15.000,-16.000,
80.000,-28.000,
179.999,-28.000,
PATCUT:,AZ
POLARI:,V/V
NUPOIN:,39
FSTLST:,-180.000,+179.999
-180.000,-25.000,
-100.000,-25.000,
-85.000,-16.000,
-75.000,-15.000,
-65.000,-5.000,
-55.000,-2.000,
-35.000,-1.000,
-25.000,1.000,
-20.000,4.000,
-10.000,13.000,
-5.000,13.000,
-4.000,14.000,
-3.500,19.500,
-3.000,24.500,
-2.500,28.000,
-2.000,31.000,
-1.550,33.000,
-1.000,34.800,
-0.500,35.700,
0.000,36.000,
0.500,35.700,
1.000,34.800,
1.550,33.000,
2.000,31.000,
2.500,28.000,
3.000,24.500,
3.500,19.500,
4.000,14.000,
5.000,13.000,
10.000,13.000,
20.000,4.000,
25.000,1.000,
35.000,-1.000,
55.000,-2.000,
65.000,-5.000,
75.000,-15.000,
85.000,-16.000,
100.000,-25.000,
179.999,-25.000,
PATCUT:,AZ
POLARI:,V/H
NUPOIN:,13
FSTLST:,-180.000,+179.999
-180.000,-28.000,
-80.000,-28.000,
-15.000,-16.000,
-10.000,-5.000,
-5.000,-5.000,
-3.100,6.000,
0.000,6.000,
3.100,6.000,
5.000,-5.000,
10.000,-5.000,
15.000,-16.000,
80.000,-28.000,
179.999,-28.000,
ENDFIL:,EOF
