NERA CORPORATION            
06HP177A-1-F
                              
B4100969          
                
17-02-99
06HP177A1F
17700-19700    MHZ   
39.5 dBi       
1.9 DEGREES     
HH      22
-180    -70
-100    -70
-85     -60
-52     -44
-25     -42
-15     -35
-9      -30
-5      -25
-4      -20
-2      -19
-0.95   -3
0	  0
0.95    -3
2      -19
4      -20
5      -25
9      -30
15     -35
25     -42
52     -44
85     -60
100    -70
HV      16
-180   -72
-97    -72
-75    -62
-50    -55
-30    -55
-17    -47
-8     -46
-3     -30
0      -30
3      -30
8      -46
17     -47
30     -55
50     -55
75     -62
97     -72
VV	 1
0	  0
VH     1
0	  0