HATC
A07D09HS
none
none
none
20110111
none
7125-8500 MHZ
34.8 dB
3.0 Deg
HH 35
-180.00 -61.00
-100.00 -61.00
-70.00 -41.00
-20.00 -29.00
-12.00 -29.00
-10.00 -24.00
-8.00 -24.00
-6.00 -17.00
-3.80 -17.00
-3.50 -14.00
-3.00 -10.00
-2.30 -5.84
-2.00 -4.15
-1.75 -3.03
-1.30 -1.36
-1.00 -0.70
-0.50 -0.13
0.00 0.00
0.50 -0.13
1.00 -0.70
1.30 -1.36
1.75 -3.03
2.00 -4.15
2.30 -5.84
3.00 -10.00
3.50 -14.00
3.80 -17.00
6.00 -17.00
8.00 -24.00
10.00 -24.00
12.00 -29.00
20.00 -29.00
70.00 -41.00
100.00 -61.00
180.00 -61.00
HV 19
-180.00 -61.00
-95.00 -61.00
-40.00 -51.00
-13.00 -51.00
-10.00 -45.00
-7.50 -45.00
-6.00 -42.00
-4.00 -42.00
-1.00 -30.00
0.00 -30.00
1.00 -30.00
4.00 -42.00
6.00 -42.00
7.50 -45.00
10.00 -45.00
13.00 -51.00
40.00 -51.00
95.00 -61.00
180.00 -61.00
VV 33
-180.00 -61.00
-100.00 -61.00
-70.00 -41.00
-20.00 -28.00
-15.00 -26.00
-9.00 -26.00
-7.00 -18.00
-3.80 -15.00
-3.50 -14.00
-3.00 -10.00
-2.30 -5.84
-2.00 -4.15
-1.75 -3.03
-1.30 -1.36
-1.00 -0.70
-0.50 -0.13
0.00 0.00
0.50 -0.13
1.00 -0.70
1.30 -1.36
1.75 -3.03
2.00 -4.15
2.30 -5.84
3.00 -10.00
3.50 -14.00
3.80 -15.00
7.00 -18.00
9.00 -26.00
15.00 -26.00
20.00 -28.00
70.00 -41.00
100.00 -61.00
180.00 -61.00
VH 17
-180.00 -61.00
-95.00 -61.00
-70.00 -52.00
-13.00 -47.00
-10.00 -44.00
-6.20 -33.00
-5.00 -31.00
-3.00 -30.00
0.00 -30.00
3.00 -30.00
5.00 -31.00
6.20 -33.00
10.00 -44.00
13.00 -47.00
70.00 -52.00
95.00 -61.00
180.00 -61.00

