HATC
A07D06HAC
NONE
NONE
NONE
11-10-11
NONE
7125-8500 MHz
30.7 dBi
4.7 DEGREES
HH          47
-180.00 -57.86 
-95.40 	-57.86 
-85.14 	-51.13 
-76.86 	-48.04 
-64.26 	-46.25 
-43.29 	-42.56 
-37.71 	-40.90 
-32.85 	-38.30 
-27.63 	-32.96 
-22.32 	-25.94 
-18.27 	-23.96 
-6.48 	-23.60 
-5.94 	-21.45 
-5.40 	-18.54 
-4.86 	-15.32 
-4.32 	-12.09 
-3.78 	-9.19 
-3.24 	-6.63 
-2.70 	-4.51 
-2.16 	-2.85 
-1.62 	-1.58 
-1.08 	-0.66 
-0.54 	-0.16 
0.00 	0.00 
0.54 	-0.16 
1.08 	-0.66 
1.62 	-1.58 
2.16 	-2.85 
2.70 	-4.51 
3.24 	-6.63 
3.78 	-9.19 
4.32 	-12.09 
4.86 	-15.32 
5.40 	-18.54 
5.94 	-21.45 
6.48 	-23.60 
18.27 	-23.96 
22.32 	-25.94 
27.63 	-32.96 
32.85 	-38.30 
37.71 	-40.90 
43.29 	-42.56 
64.26 	-46.25 
76.86 	-48.04 
85.14 	-51.13 
95.40 	-57.86 
180.00 	-57.86 
HV          23
-180.00 -58.64 
-81.90 	-58.64 
-72.81 	-56.20 
-65.61 	-54.79 
-55.08 	-52.65 
-53.37 	-48.56 
-46.44 	-47.59 
-37.80 	-46.25 
-15.12 	-42.73 
-6.30 	-39.04 
-3.60 	-30.00 
0.00 	-30.00 
3.60 	-30.00 
6.30 	-39.04 
15.12 	-42.73 
37.80 	-46.25 
46.44 	-47.59 
53.37 	-48.56 
55.08 	-52.65 
65.61 	-54.79 
72.81 	-56.20 
81.90 	-58.64 
180.00 	-58.64 
VV           47
-180.00 -57.54 
-95.67 	-57.54 
-90.27 	-54.70 
-81.99 	-53.95 
-65.61 	-47.74 
-50.40 	-45.47 
-45.09 	-43.77 
-39.69 	-34.87 
-31.14 	-31.53 
-13.59 	-23.15 
-7.56 	-20.23 
-6.48 	-18.66 
-5.94 	-17.78 
-5.40 	-16.27 
-4.86 	-14.01 
-4.32 	-11.35 
-3.78 	-8.74 
-3.24 	-6.41 
-2.70 	-4.42 
-2.16 	-2.83 
-1.62 	-1.61 
-1.08 	-0.72 
-0.54 	-0.19 
0.00 	0.00 
0.54 	-0.19 
1.08 	-0.72 
1.62 	-1.61 
2.16 	-2.83 
2.70 	-4.42 
3.24 	-6.41 
3.78 	-8.74 
4.32 	-11.35 
4.86 	-14.01 
5.40 	-16.27 
5.94 	-17.78 
6.48 	-18.66 
7.56 	-20.23 
13.59 	-23.15 
31.14 	-31.53 
39.69 	-34.87 
45.09 	-43.77 
50.40 	-45.47 
65.61 	-47.74 
81.99 	-53.95 
90.27 	-54.70 
95.67 	-57.54 
180.00 	-57.54 
VH          23
-180.00 -58.34 
-84.87 	-58.34 
-50.76 	-56.24 
-50.49 	-55.22 
-40.86 	-53.55 
-31.23 	-52.49 
-30.51 	-49.87 
-20.34 	-47.72 
-14.40 	-43.43 
-9.90 	-41.42 
-4.50 	-30.00 
0.00 	-30.00 
4.50 	-30.00 
9.90 	-41.42 
14.40 	-43.43 
20.34 	-47.72 
30.51 	-49.87 
31.23 	-52.49 
40.86 	-53.55 
50.49 	-55.22 
50.76 	-56.24 
84.87 	-58.34 
180.00 	-58.34



