REVNUM:,NSMA WG16.99.050
REVDAT:,19990520
ANTMAN:,DragonWave
MODNUM:,A-ANT-23G-1
DESCR1:,1ft Antenna
PATNUM:,9141
DTDATA:,20031906
LOWFRQ:,21200
HGHFRQ:,23600
GUNITS:,DBI/DBR
LWGAIN:,34.6
MDGAIN:,35.3
HGGAIN:,35.7
AZWIDT:,2.9
ELWIDT:,2.9
ELTILT:,0
ANTLEN:,0.3,
PATTYP:,ENVELOPE,
NOFREQ:,NA,
PATFRE:,NA,
NUMCUT:,4,
PATCUT:,AZ,
POLARI:,H/H,
NUPOIN:,27,
FSTLST:,-180,180
-180,-60,
-105,-60,
-77.5,-46,
-50,-42,
-30,-40,
-10,-28,
-3,-18,
-2.5,-14.81
-2,-10.29
-1.5,-6.58
-1,-3.70
-0.5,-1.65
-0.3,-0.41
0,0
0.5,-0.41
1,-1.65
1.5,-3.70
2,-6.58
2.5,-10.29
3,-14.81
4,-18
10,-28
30,-40
50,-42,
77.5,-46,
105,-60,
180,-60,
PATCUT:,AZ,
POLARI:,H/V,
NUPOIN:,13,
FSTLST:,-180,180
-180,-65,
-63,-65,
-18,-58,
-12,-51.2, 
-6,-47.2,
-1,-28, 
0,-28,
1,-28,
6,-47.2,
12,-51.2,
18,-58, 
63,-65,
180,-65,
PATCUT:,AZ,
POLARI:,V/V,
NUPOIN:,25,
FSTLST:,-180,180
-180,-60, 
-107,-60, 
-88,-47, 
-55,-45, 
-19,-36, 
-5,-24, 
-3,-16, 
-2,-10.29, 
-1.5,-6.58, 
-1,-3.70, 
-0.5,-1.65, 
-0.3,-0.41,
0,0,
0.3,-0.41,
0.5,-1.65,
1,-3.70,
1.5,-6.58,
2,-10.29,
3,-16,
5,-24,
19,-36,
55,-42.9,
88,-47,
107,-60,
180,-60,
PATCUT:,AZ,
POLARI:,V/H,
NUPOIN:,11,
FSTLST:,-180,180
-180,-65, 
-70,-65,
-13,-58, 
-6,-51.9, 
-2,-28, 
0,-28,
2,-28,
6,-51.9,
13,-58,
70,-65,
180,-65
ENDFIL:,EOF
