NAME 	CA420Y+++
MAKE 	ComAnt 
FREQUENCY 	420
GAIN 	11 dBi
TILT 	none
POLARIZATION 	V
COMMENT 	
HORIZONTAL 360 	
0	0
1	0.1
2	0.2
3	0.3
4	0.4
5	0.5
6	0.6
7	0.7
8	0.8
9	0.9
10	1
11	1.2
12	1.4
13	1.6
14	1.8
15	2
16	2.2
17	2.4
18	2.6
19	2.8
20	3
21	3.2
22	3.4
23	3.6
24	3.8
25	4
26	4.2
27	4.4
28	4.6
29	4.8
30	5
31	5.3
32	5.6
33	5.9
34	6.2
35	6.5
36	7
37	7.5
38	8
39	8.5
40	9
41	9.6
42	10.2
43	10.8
44	11.4
45	12
46	13.2
47	14.4
48	15.6
49	16.8
50	18
51	17.8
52	17.6
53	17.4
54	17.2
55	17
56	16.8
57	16.6
58	16.4
59	16.2
60	16
61	15.6
62	15.2
63	14.8
64	14.4
65	14
66	13.64
67	13.28
68	12.92
69	12.56
70	12.2
71	12.16
72	12.12
73	12.08
74	12.04
75	12
76	12.1
77	12.2
78	12.3
79	12.4
80	12.5
81	12.8
82	13.1
83	13.4
84	13.7
85	14
86	14.8
87	15.6
88	16.4
89	17.2
90	18
91	17.8
92	17.6
93	17.4
94	17.2
95	17
96	16.64
97	16.28
98	15.92
99	15.56
100	15.2
101	15.16
102	15.12
103	15.08
104	15.04
105	15
106	15.04
107	15.08
108	15.12
109	15.16
110	15.2
111	15.3
112	15.4
113	15.5
114	15.6
115	15.7
116	15.86
117	16.02
118	16.18
119	16.34
120	16.5
121	16.8
122	17.1
123	17.4
124	17.7
125	18
126	18.2
127	18.4
128	18.6
129	18.8
130	19
131	19.2
132	19.4
133	19.6
134	19.8
135	20
136	19.8
137	19.6
138	19.4
139	19.2
140	19
141	18.8
142	18.6
143	18.4
144	18.2
145	18
146	17.9
147	17.8
148	17.7
149	17.6
150	17.5
151	17.4
152	17.3
153	17.2
154	17.1
155	17
156	16.8
157	16.6
158	16.4
159	16.2
160	16
161	15.9
162	15.8
163	15.7
164	15.6
165	15.5
166	15.44
167	15.38
168	15.32
169	15.26
170	15.2
171	15.18
172	15.16
173	15.14
174	15.12
175	15.1
176	15.08
177	15.06
178	15.04
179	15.02
180	15
181	15.02
182	15.04
183	15.06
184	15.08
185	15.1
186	15.12
187	15.14
188	15.16
189	15.18
190	15.2
191	15.26
192	15.32
193	15.38
194	15.44
195	15.5
196	15.6
197	15.7
198	15.8
199	15.9
200	16
201	16.2
202	16.4
203	16.6
204	16.8
205	17
206	17.1
207	17.2
208	17.3
209	17.4
210	17.5
211	17.6
212	17.7
213	17.8
214	17.9
215	18
216	18.2
217	18.4
218	18.6
219	18.8
220	19
221	19.2
222	19.4
223	19.6
224	19.8
225	20
226	19.8
227	19.6
228	19.4
229	19.2
230	19
231	18.8
232	18.6
233	18.4
234	18.2
235	18
236	17.7
237	17.4
238	17.1
239	16.8
240	16.5
241	16.34
242	16.18
243	16.02
244	15.86
245	15.7
246	15.6
247	15.5
248	15.4
249	15.3
250	15.2
251	15.16
252	15.12
253	15.08
254	15.04
255	15
256	15.04
257	15.08
258	15.12
259	15.16
260	15.2
261	15.56
262	15.92
263	16.28
264	16.64
265	17
266	17.2
267	17.4
268	17.6
269	17.8
270	18
271	17.2
272	16.4
273	15.6
274	14.8
275	14
276	13.7
277	13.4
278	13.1
279	12.8
280	12.5
281	12.4
282	12.3
283	12.2
284	12.1
285	12
286	12.04
287	12.08
288	12.12
289	12.16
290	12.2
291	12.56
292	12.92
293	13.28
294	13.64
295	14
296	14.4
297	14.8
298	15.2
299	15.6
300	16
301	16.2
302	16.4
303	16.6
304	16.8
305	17
306	17.2
307	17.4
308	17.6
309	17.8
310	18
311	16.8
312	15.6
313	14.4
314	13.2
315	12
316	11.4
317	10.8
318	10.2
319	9.6
320	9
321	8.5
322	8
323	7.5
324	7
325	6.5
326	6.2
327	5.9
328	5.6
329	5.3
330	5
331	4.8
332	4.6
333	4.4
334	4.2
335	4
336	3.8
337	3.6
338	3.4
339	3.2
340	3
341	2.8
342	2.6
343	2.4
344	2.2
345	2
346	1.8
347	1.6
348	1.4
349	1.2
350	1
351	0.9
352	0.8
353	0.7
354	0.6
355	0.5
356	0.4
357	0.3
358	0.2
359	0.1
VERTICAL 360 	
0	0
1	0.1
2	0.2
3	0.3
4	0.4
5	0.5
6	0.6
7	0.7
8	0.8
9	0.9
10	1
11	1.2
12	1.4
13	1.6
14	1.8
15	2
16	2.2
17	2.4
18	2.6
19	2.8
20	3
21	3.4
22	3.8
23	4.2
24	4.6
25	5
26	5.6
27	6.2
28	6.8
29	7.4
30	8
31	8.4
32	8.8
33	9.2
34	9.6
35	10
36	10.6
37	11.2
38	11.8
39	12.4
40	13
41	13.4
42	13.8
43	14.2
44	14.6
45	15
46	15.6
47	16.2
48	16.8
49	17.4
50	18
51	18.8
52	19.6
53	20.4
54	21.2
55	22
56	21.8
57	21.6
58	21.4
59	21.2
60	21
61	20.8
62	20.6
63	20.4
64	20.2
65	20
66	20.8
67	21.6
68	22.4
69	23.2
70	24
71	24.2
72	24.4
73	24.6
74	24.8
75	25
76	25.2
77	25.4
78	25.6
79	25.8
80	26
81	26.2
82	26.4
83	26.6
84	26.8
85	27
86	27.6
87	28.2
88	28.8
89	29.4
90	30
91	29.4
92	28.8
93	28.2
94	27.6
95	27
96	26.8
97	26.6
98	26.4
99	26.2
100	26
101	25.8
102	25.6
103	25.4
104	25.2
105	25
106	24.4
107	23.8
108	23.2
109	22.6
110	22
111	21.9
112	21.8
113	21.7
114	21.6
115	21.5
116	21.4
117	21.3
118	21.2
119	21.1
120	21
121	20.9
122	20.8
123	20.7
124	20.6
125	20.5
126	20.4
127	20.3
128	20.2
129	20.1
130	20
131	19.9
132	19.8
133	19.7
134	19.6
135	19.5
136	19.4
137	19.3
138	19.2
139	19.1
140	19
141	18.9
142	18.8
143	18.7
144	18.6
145	18.5
146	18.4
147	18.3
148	18.2
149	18.1
150	18
151	17.9
152	17.8
153	17.7
154	17.6
155	17.5
156	17.4
157	17.3
158	17.2
159	17.1
160	17
161	16.8
162	16.6
163	16.4
164	16.2
165	16
166	15.9
167	15.8
168	15.7
169	15.6
170	15.5
171	15.44
172	15.38
173	15.32
174	15.26
175	15.2
176	15.16
177	15.12
178	15.08
179	15.04
180	15
181	15.04
182	15.08
183	15.12
184	15.16
185	15.2
186	15.26
187	15.32
188	15.38
189	15.44
190	15.5
191	15.6
192	15.7
193	15.8
194	15.9
195	16
196	16.2
197	16.4
198	16.6
199	16.8
200	17
201	17.1
202	17.2
203	17.3
204	17.4
205	17.5
206	17.6
207	17.7
208	17.8
209	17.9
210	18
211	18.1
212	18.2
213	18.3
214	18.4
215	18.5
216	18.6
217	18.7
218	18.8
219	18.9
220	19
221	19.1
222	19.2
223	19.3
224	19.4
225	19.5
226	19.6
227	19.7
228	19.8
229	19.9
230	20
231	20.1
232	20.2
233	20.3
234	20.4
235	20.5
236	20.6
237	20.7
238	20.8
239	20.9
240	21
241	21.1
242	21.2
243	21.3
244	21.4
245	21.5
246	21.6
247	21.7
248	21.8
249	21.9
250	22
251	22.6
252	23.2
253	23.8
254	24.4
255	25
256	25.2
257	25.4
258	25.6
259	25.8
260	26
261	26.2
262	26.4
263	26.6
264	26.8
265	27
266	27.6
267	28.2
268	28.8
269	29.4
270	30
271	29.4
272	28.8
273	28.2
274	27.6
275	27
276	26.8
277	26.6
278	26.4
279	26.2
280	26
281	25.8
282	25.6
283	25.4
284	25.2
285	25
286	24.8
287	24.6
288	24.4
289	24.2
290	24
291	23.2
292	22.4
293	21.6
294	20.8
295	20
296	20.2
297	20.4
298	20.6
299	20.8
300	21
301	21.2
302	21.4
303	21.6
304	21.8
305	22
306	21.2
307	20.4
308	19.6
309	18.8
310	18
311	17.4
312	16.8
313	16.2
314	15.6
315	15
316	14.6
317	14.2
318	13.8
319	13.4
320	13
321	12.4
322	11.8
323	11.2
324	10.6
325	10
326	9.6
327	9.2
328	8.8
329	8.4
330	8
331	7.4
332	6.8
333	6.2
334	5.6
335	5
336	4.6
337	4.2
338	3.8
339	3.4
340	3
341	2.8
342	2.6
343	2.4
344	2.2
345	2
346	1.8
347	1.6
348	1.4
349	1.2
350	1
351	0.9
352	0.8
353	0.7
354	0.6
355	0.5
356	0.4
357	0.3
358	0.2
359	0.1