NAME CJLPA401U
MAKE ARGUS
FREQUENCY  2050
H_WIDTH 59.10
V_WIDTH 61.16
FRONT_TO_BACK   21  
GAIN  8.04 dBi
TILT ELECTRICAL    0
COMMENTS
HORIZONTAL   360
       0.0       0.0
       1.0       0.0
       2.0       0.0
       3.0       0.0
       4.0       0.1
       5.0       0.1
       6.0       0.1
       7.0       0.2
       8.0       0.2
       9.0       0.3
      10.0       0.3
      11.0       0.4
      12.0       0.5
      13.0       0.6
      14.0       0.7
      15.0       0.8
      16.0       0.9
      17.0       1.0
      18.0       1.1
      19.0       1.3
      20.0       1.4
      21.0       1.5
      22.0       1.7
      23.0       1.9
      24.0       2.0
      25.0       2.2
      26.0       2.4
      27.0       2.5
      28.0       2.7
      29.0       2.9
      30.0       3.1
      31.0       3.3
      32.0       3.6
      33.0       3.8
      34.0       4.0
      35.0       4.2
      36.0       4.5
      37.0       4.7
      38.0       5.0
      39.0       5.2
      40.0       5.5
      41.0       5.7
      42.0       6.0
      43.0       6.3
      44.0       6.5
      45.0       6.8
      46.0       7.1
      47.0       7.4
      48.0       7.6
      49.0       7.9
      50.0       8.2
      51.0       8.5
      52.0       8.7
      53.0       9.0
      54.0       9.3
      55.0       9.6
      56.0       9.8
      57.0      10.1
      58.0      10.4
      59.0      10.7
      60.0      10.9
      61.0      11.2
      62.0      11.5
      63.0      11.7
      64.0      12.0
      65.0      12.2
      66.0      12.5
      67.0      12.7
      68.0      13.0
      69.0      13.2
      70.0      13.4
      71.0      13.6
      72.0      13.8
      73.0      14.0
      74.0      14.1
      75.0      14.3
      76.0      14.4
      77.0      14.5
      78.0      14.6
      79.0      14.7
      80.0      14.8
      81.0      14.8
      82.0      14.9
      83.0      15.0
      84.0      15.0
      85.0      15.1
      86.0      15.2
      87.0      15.2
      88.0      15.3
      89.0      15.4
      90.0      15.5
      91.0      15.6
      92.0      15.7
      93.0      15.8
      94.0      15.9
      95.0      16.1
      96.0      16.2
      97.0      16.4
      98.0      16.6
      99.0      16.8
     100.0      17.0
     101.0      17.2
     102.0      17.4
     103.0      17.6
     104.0      17.9
     105.0      18.1
     106.0      18.3
     107.0      18.5
     108.0      18.8
     109.0      19.0
     110.0      19.2
     111.0      19.5
     112.0      19.7
     113.0      19.9
     114.0      20.1
     115.0      20.3
     116.0      20.6
     117.0      20.8
     118.0      21.0
     119.0      21.2
     120.0      21.5
     121.0      21.7
     122.0      22.0
     123.0      22.4
     124.0      22.7
     125.0      23.1
     126.0      23.5
     127.0      24.0
     128.0      24.6
     129.0      25.2
     130.0      25.9
     131.0      26.7
     132.0      27.6
     133.0      28.6
     134.0      29.7
     135.0      31.0
     136.0      32.2
     137.0      33.5
     138.0      34.6
     139.0      35.5
     140.0      35.8
     141.0      35.6
     142.0      34.9
     143.0      33.9
     144.0      32.7
     145.0      31.4
     146.0      30.2
     147.0      29.1
     148.0      28.0
     149.0      27.1
     150.0      26.4
     151.0      25.7
     152.0      25.1
     153.0      24.5
     154.0      24.0
     155.0      23.6
     156.0      23.2
     157.0      22.9
     158.0      22.6
     159.0      22.3
     160.0      22.1
     161.0      21.9
     162.0      21.7
     163.0      21.5
     164.0      21.4
     165.0      21.3
     166.0      21.2
     167.0      21.1
     168.0      21.1
     169.0      21.0
     170.0      21.0
     171.0      20.9
     172.0      20.9
     173.0      21.0
     174.0      21.0
     175.0      21.1
     176.0      21.2
     177.0      21.3
     178.0      21.5
     179.0      21.7
     180.0      21.9
     181.0      22.1
     182.0      22.4
     183.0      22.6
     184.0      22.9
     185.0      23.2
     186.0      23.4
     187.0      23.7
     188.0      24.1
     189.0      24.4
     190.0      24.8
     191.0      25.2
     192.0      25.6
     193.0      26.1
     194.0      26.6
     195.0      27.2
     196.0      27.9
     197.0      28.6
     198.0      29.4
     199.0      30.3
     200.0      31.3
     201.0      32.4
     202.0      33.6
     203.0      34.8
     204.0      35.9
     205.0      36.9
     206.0      37.6
     207.0      37.8
     208.0      37.5
     209.0      36.8
     210.0      35.8
     211.0      34.6
     212.0      33.3
     213.0      32.1
     214.0      30.9
     215.0      29.8
     216.0      28.9
     217.0      28.0
     218.0      27.2
     219.0      26.5
     220.0      25.9
     221.0      25.3
     222.0      24.8
     223.0      24.3
     224.0      23.8
     225.0      23.4
     226.0      23.1
     227.0      22.7
     228.0      22.4
     229.0      22.2
     230.0      21.9
     231.0      21.7
     232.0      21.5
     233.0      21.3
     234.0      21.2
     235.0      21.0
     236.0      20.9
     237.0      20.7
     238.0      20.6
     239.0      20.5
     240.0      20.4
     241.0      20.3
     242.0      20.2
     243.0      20.1
     244.0      20.1
     245.0      20.0
     246.0      19.9
     247.0      19.8
     248.0      19.7
     249.0      19.7
     250.0      19.6
     251.0      19.5
     252.0      19.4
     253.0      19.3
     254.0      19.2
     255.0      19.1
     256.0      19.0
     257.0      18.9
     258.0      18.9
     259.0      18.8
     260.0      18.7
     261.0      18.7
     262.0      18.7
     263.0      18.6
     264.0      18.6
     265.0      18.6
     266.0      18.6
     267.0      18.6
     268.0      18.7
     269.0      18.7
     270.0      18.7
     271.0      18.8
     272.0      18.8
     273.0      18.9
     274.0      18.9
     275.0      19.0
     276.0      19.0
     277.0      19.0
     278.0      19.0
     279.0      18.9
     280.0      18.9
     281.0      18.8
     282.0      18.7
     283.0      18.5
     284.0      18.3
     285.0      18.1
     286.0      17.8
     287.0      17.5
     288.0      17.2
     289.0      16.8
     290.0      16.4
     291.0      16.0
     292.0      15.6
     293.0      15.2
     294.0      14.7
     295.0      14.3
     296.0      13.8
     297.0      13.4
     298.0      13.0
     299.0      12.5
     300.0      12.1
     301.0      11.7
     302.0      11.3
     303.0      10.9
     304.0      10.5
     305.0      10.1
     306.0       9.8
     307.0       9.4
     308.0       9.1
     309.0       8.7
     310.0       8.4
     311.0       8.1
     312.0       7.7
     313.0       7.4
     314.0       7.1
     315.0       6.8
     316.0       6.5
     317.0       6.3
     318.0       6.0
     319.0       5.7
     320.0       5.4
     321.0       5.2
     322.0       4.9
     323.0       4.7
     324.0       4.4
     325.0       4.2
     326.0       4.0
     327.0       3.7
     328.0       3.5
     329.0       3.3
     330.0       3.1
     331.0       2.9
     332.0       2.7
     333.0       2.5
     334.0       2.4
     335.0       2.2
     336.0       2.0
     337.0       1.9
     338.0       1.7
     339.0       1.6
     340.0       1.4
     341.0       1.3
     342.0       1.2
     343.0       1.0
     344.0       0.9
     345.0       0.8
     346.0       0.7
     347.0       0.6
     348.0       0.5
     349.0       0.5
     350.0       0.4
     351.0       0.3
     352.0       0.2
     353.0       0.2
     354.0       0.1
     355.0       0.1
     356.0       0.1
     357.0       0.0
     358.0       0.0
     359.0       0.0
VERTICAL   360
       0.0       0.1
       1.0       0.0
       2.0       0.0
       3.0       0.0
       4.0       0.0
       5.0       0.0
       6.0       0.0
       7.0       0.0
       8.0       0.1
       9.0       0.1
      10.0       0.1
      11.0       0.2
      12.0       0.2
      13.0       0.3
      14.0       0.4
      15.0       0.5
      16.0       0.6
      17.0       0.7
      18.0       0.8
      19.0       0.9
      20.0       1.1
      21.0       1.2
      22.0       1.4
      23.0       1.5
      24.0       1.7
      25.0       1.9
      26.0       2.1
      27.0       2.3
      28.0       2.5
      29.0       2.7
      30.0       2.9
      31.0       3.1
      32.0       3.4
      33.0       3.6
      34.0       3.9
      35.0       4.1
      36.0       4.4
      37.0       4.7
      38.0       5.0
      39.0       5.3
      40.0       5.6
      41.0       5.9
      42.0       6.3
      43.0       6.6
      44.0       7.0
      45.0       7.3
      46.0       7.7
      47.0       8.1
      48.0       8.5
      49.0       8.9
      50.0       9.3
      51.0       9.7
      52.0      10.2
      53.0      10.7
      54.0      11.2
      55.0      11.7
      56.0      12.2
      57.0      12.7
      58.0      13.3
      59.0      13.9
      60.0      14.5
      61.0      15.1
      62.0      15.8
      63.0      16.6
      64.0      17.3
      65.0      18.0
      66.0      18.8
      67.0      19.6
      68.0      20.3
      69.0      21.1
      70.0      21.9
      71.0      22.7
      72.0      23.4
      73.0      24.0
      74.0      24.5
      75.0      24.9
      76.0      25.0
      77.0      24.9
      78.0      24.7
      79.0      24.4
      80.0      24.0
      81.0      23.5
      82.0      23.0
      83.0      22.5
      84.0      22.1
      85.0      21.7
      86.0      21.3
      87.0      20.9
      88.0      20.6
      89.0      20.3
      90.0      19.9
      91.0      19.7
      92.0      19.5
      93.0      19.2
      94.0      19.0
      95.0      18.8
      96.0      18.6
      97.0      18.5
      98.0      18.4
      99.0      18.3
     100.0      18.3
     101.0      18.3
     102.0      18.3
     103.0      18.2
     104.0      18.2
     105.0      18.2
     106.0      18.2
     107.0      18.2
     108.0      18.3
     109.0      18.4
     110.0      18.4
     111.0      18.5
     112.0      18.6
     113.0      18.7
     114.0      18.9
     115.0      19.0
     116.0      19.1
     117.0      19.2
     118.0      19.3
     119.0      19.5
     120.0      19.5
     121.0      19.6
     122.0      19.7
     123.0      19.7
     124.0      19.6
     125.0      19.6
     126.0      19.6
     127.0      19.6
     128.0      19.6
     129.0      19.5
     130.0      19.5
     131.0      19.5
     132.0      19.5
     133.0      19.5
     134.0      19.6
     135.0      19.7
     136.0      19.7
     137.0      19.8
     138.0      20.0
     139.0      20.2
     140.0      20.3
     141.0      20.5
     142.0      20.8
     143.0      21.1
     144.0      21.4
     145.0      21.7
     146.0      22.0
     147.0      22.5
     148.0      23.0
     149.0      23.6
     150.0      24.3
     151.0      25.1
     152.0      26.0
     153.0      27.0
     154.0      28.2
     155.0      29.6
     156.0      31.2
     157.0      33.3
     158.0      36.2
     159.0      40.5
     160.0      43.9
     161.0      42.7
     162.0      38.7
     163.0      35.2
     164.0      32.7
     165.0      30.9
     166.0      29.4
     167.0      28.2
     168.0      27.2
     169.0      26.2
     170.0      25.4
     171.0      24.7
     172.0      24.1
     173.0      23.4
     174.0      22.9
     175.0      23.5
     176.0      24.6
     177.0      25.1
     178.0      24.6
     179.0      24.2
     180.0      23.9
     181.0      23.7
     182.0      23.5
     183.0      23.3
     184.0      23.2
     185.0      23.1
     186.0      23.1
     187.0      23.0
     188.0      23.0
     189.0      23.0
     190.0      23.0
     191.0      23.0
     192.0      22.9
     193.0      22.8
     194.0      22.6
     195.0      22.3
     196.0      22.1
     197.0      21.8
     198.0      21.5
     199.0      21.2
     200.0      20.9
     201.0      20.6
     202.0      20.3
     203.0      20.0
     204.0      19.6
     205.0      19.3
     206.0      19.1
     207.0      18.8
     208.0      18.5
     209.0      18.2
     210.0      18.0
     211.0      17.8
     212.0      17.6
     213.0      17.5
     214.0      17.4
     215.0      17.3
     216.0      17.2
     217.0      17.1
     218.0      17.1
     219.0      17.1
     220.0      17.0
     221.0      17.0
     222.0      16.9
     223.0      16.9
     224.0      16.8
     225.0      16.8
     226.0      16.7
     227.0      16.7
     228.0      16.7
     229.0      16.6
     230.0      16.7
     231.0      16.7
     232.0      16.6
     233.0      16.6
     234.0      16.6
     235.0      16.6
     236.0      16.5
     237.0      16.5
     238.0      16.5
     239.0      16.5
     240.0      16.5
     241.0      16.5
     242.0      16.4
     243.0      16.5
     244.0      16.5
     245.0      16.5
     246.0      16.5
     247.0      16.5
     248.0      16.5
     249.0      16.6
     250.0      16.6
     251.0      16.7
     252.0      16.7
     253.0      16.8
     254.0      16.8
     255.0      16.9
     256.0      16.9
     257.0      17.0
     258.0      17.0
     259.0      17.1
     260.0      17.2
     261.0      17.2
     262.0      17.1
     263.0      17.1
     264.0      17.1
     265.0      17.1
     266.0      17.0
     267.0      16.9
     268.0      16.8
     269.0      16.6
     270.0      16.5
     271.0      16.3
     272.0      16.1
     273.0      16.0
     274.0      15.8
     275.0      15.6
     276.0      15.4
     277.0      15.2
     278.0      14.9
     279.0      14.7
     280.0      14.5
     281.0      14.3
     282.0      14.0
     283.0      13.7
     284.0      13.5
     285.0      13.2
     286.0      13.0
     287.0      12.7
     288.0      12.4
     289.0      12.1
     290.0      11.9
     291.0      11.6
     292.0      11.4
     293.0      11.1
     294.0      10.9
     295.0      10.6
     296.0      10.4
     297.0      10.1
     298.0       9.9
     299.0       9.7
     300.0       9.5
     301.0       9.3
     302.0       9.0
     303.0       8.8
     304.0       8.5
     305.0       8.3
     306.0       8.0
     307.0       7.8
     308.0       7.5
     309.0       7.3
     310.0       7.0
     311.0       6.8
     312.0       6.5
     313.0       6.3
     314.0       6.1
     315.0       5.8
     316.0       5.6
     317.0       5.3
     318.0       5.1
     319.0       4.9
     320.0       4.8
     321.0       4.5
     322.0       4.3
     323.0       4.1
     324.0       4.0
     325.0       3.8
     326.0       3.6
     327.0       3.4
     328.0       3.3
     329.0       3.1
     330.0       2.9
     331.0       2.8
     332.0       2.6
     333.0       2.5
     334.0       2.4
     335.0       2.2
     336.0       2.1
     337.0       2.0
     338.0       1.9
     339.0       1.7
     340.0       1.6
     341.0       1.5
     342.0       1.4
     343.0       1.3
     344.0       1.2
     345.0       1.1
     346.0       1.0
     347.0       0.9
     348.0       0.8
     349.0       0.7
     350.0       0.6
     351.0       0.5
     352.0       0.5
     353.0       0.4
     354.0       0.3
     355.0       0.3
     356.0       0.2
     357.0       0.2
     358.0       0.2
     359.0       0.1
