NAME CNPX410M
MAKE ARGUS TECHNOLOGIES
FREQUENCY 2150.
H_WIDTH  86.2
V_WIDTH   6.5
FRONT_TO_BACK 29.4  
GAIN 17.1 dBi
TILT  0.0
HORIZONTAL   360
       0.0       0.0
       1.0       0.0
       2.0       0.0
       3.0       0.0
       4.0       0.0
       5.0       0.0
       6.0       0.1
       7.0       0.1
       8.0       0.1
       9.0       0.1
      10.0       0.2
      11.0       0.2
      12.0       0.2
      13.0       0.3
      14.0       0.3
      15.0       0.3
      16.0       0.4
      17.0       0.4
      18.0       0.5
      19.0       0.5
      20.0       0.6
      21.0       0.7
      22.0       0.7
      23.0       0.8
      24.0       0.9
      25.0       0.9
      26.0       1.0
      27.0       1.1
      28.0       1.2
      29.0       1.3
      30.0       1.4
      31.0       1.5
      32.0       1.6
      33.0       1.7
      34.0       1.8
      35.0       1.9
      36.0       2.0
      37.0       2.1
      38.0       2.3
      39.0       2.4
      40.0       2.5
      41.0       2.7
      42.0       2.8
      43.0       3.0
      44.0       3.1
      45.0       3.2
      46.0       3.4
      47.0       3.5
      48.0       3.7
      49.0       3.9
      50.0       4.0
      51.0       4.2
      52.0       4.3
      53.0       4.5
      54.0       4.6
      55.0       4.8
      56.0       5.0
      57.0       5.2
      58.0       5.3
      59.0       5.5
      60.0       5.7
      61.0       5.9
      62.0       6.1
      63.0       6.3
      64.0       6.6
      65.0       6.8
      66.0       7.0
      67.0       7.2
      68.0       7.4
      69.0       7.7
      70.0       7.9
      71.0       8.1
      72.0       8.3
      73.0       8.6
      74.0       8.8
      75.0       9.0
      76.0       9.3
      77.0       9.5
      78.0       9.8
      79.0      10.0
      80.0      10.3
      81.0      10.6
      82.0      10.8
      83.0      11.1
      84.0      11.3
      85.0      11.6
      86.0      11.8
      87.0      12.1
      88.0      12.3
      89.0      12.6
      90.0      12.8
      91.0      13.1
      92.0      13.3
      93.0      13.6
      94.0      13.9
      95.0      14.1
      96.0      14.4
      97.0      14.6
      98.0      14.9
      99.0      15.1
     100.0      15.3
     101.0      15.5
     102.0      15.7
     103.0      15.9
     104.0      16.1
     105.0      16.3
     106.0      16.5
     107.0      16.7
     108.0      16.9
     109.0      17.2
     110.0      17.4
     111.0      17.7
     112.0      17.9
     113.0      18.2
     114.0      18.5
     115.0      18.7
     116.0      19.0
     117.0      19.3
     118.0      19.6
     119.0      19.9
     120.0      20.1
     121.0      20.4
     122.0      20.7
     123.0      20.9
     124.0      21.2
     125.0      21.4
     126.0      21.7
     127.0      21.9
     128.0      22.1
     129.0      22.4
     130.0      22.6
     131.0      22.9
     132.0      23.1
     133.0      23.4
     134.0      23.7
     135.0      23.9
     136.0      24.2
     137.0      24.5
     138.0      24.9
     139.0      25.2
     140.0      25.5
     141.0      25.9
     142.0      26.2
     143.0      26.6
     144.0      27.0
     145.0      27.4
     146.0      27.8
     147.0      28.3
     148.0      28.7
     149.0      29.2
     150.0      29.7
     151.0      30.2
     152.0      30.7
     153.0      31.2
     154.0      31.6
     155.0      32.0
     156.0      32.4
     157.0      32.7
     158.0      32.9
     159.0      33.0
     160.0      33.1
     161.0      33.1
     162.0      33.1
     163.0      33.0
     164.0      32.9
     165.0      32.7
     166.0      32.5
     167.0      32.3
     168.0      32.1
     169.0      31.8
     170.0      31.5
     171.0      31.2
     172.0      30.9
     173.0      30.5
     174.0      30.3
     175.0      30.0
     176.0      29.8
     177.0      29.6
     178.0      29.4
     179.0      29.4
     180.0      29.4
     181.0      29.4
     182.0      29.6
     183.0      29.8
     184.0      30.0
     185.0      30.3
     186.0      30.7
     187.0      31.1
     188.0      31.5
     189.0      31.9
     190.0      32.4
     191.0      32.8
     192.0      33.2
     193.0      33.6
     194.0      33.9
     195.0      34.1
     196.0      34.2
     197.0      34.1
     198.0      34.0
     199.0      33.7
     200.0      33.3
     201.0      32.8
     202.0      32.2
     203.0      31.5
     204.0      30.8
     205.0      30.1
     206.0      29.4
     207.0      28.8
     208.0      28.2
     209.0      27.6
     210.0      27.1
     211.0      26.6
     212.0      26.2
     213.0      25.8
     214.0      25.5
     215.0      25.2
     216.0      25.0
     217.0      24.7
     218.0      24.5
     219.0      24.4
     220.0      24.2
     221.0      24.0
     222.0      23.9
     223.0      23.7
     224.0      23.5
     225.0      23.4
     226.0      23.2
     227.0      23.1
     228.0      22.9
     229.0      22.8
     230.0      22.7
     231.0      22.6
     232.0      22.6
     233.0      22.5
     234.0      22.4
     235.0      22.2
     236.0      22.0
     237.0      21.8
     238.0      21.5
     239.0      21.2
     240.0      20.8
     241.0      20.4
     242.0      20.0
     243.0      19.6
     244.0      19.2
     245.0      18.9
     246.0      18.5
     247.0      18.2
     248.0      17.9
     249.0      17.7
     250.0      17.5
     251.0      17.3
     252.0      17.1
     253.0      16.9
     254.0      16.8
     255.0      16.6
     256.0      16.4
     257.0      16.1
     258.0      15.9
     259.0      15.7
     260.0      15.4
     261.0      15.1
     262.0      14.9
     263.0      14.6
     264.0      14.3
     265.0      14.1
     266.0      13.9
     267.0      13.6
     268.0      13.4
     269.0      13.2
     270.0      12.9
     271.0      12.7
     272.0      12.5
     273.0      12.2
     274.0      12.0
     275.0      11.7
     276.0      11.5
     277.0      11.2
     278.0      10.9
     279.0      10.6
     280.0      10.4
     281.0      10.1
     282.0       9.8
     283.0       9.6
     284.0       9.3
     285.0       9.1
     286.0       8.8
     287.0       8.6
     288.0       8.3
     289.0       8.1
     290.0       7.9
     291.0       7.6
     292.0       7.4
     293.0       7.2
     294.0       7.0
     295.0       6.8
     296.0       6.6
     297.0       6.4
     298.0       6.1
     299.0       5.9
     300.0       5.7
     301.0       5.5
     302.0       5.4
     303.0       5.2
     304.0       5.0
     305.0       4.8
     306.0       4.6
     307.0       4.5
     308.0       4.3
     309.0       4.1
     310.0       4.0
     311.0       3.8
     312.0       3.7
     313.0       3.5
     314.0       3.4
     315.0       3.2
     316.0       3.1
     317.0       3.0
     318.0       2.8
     319.0       2.7
     320.0       2.5
     321.0       2.4
     322.0       2.3
     323.0       2.1
     324.0       2.0
     325.0       1.9
     326.0       1.8
     327.0       1.6
     328.0       1.5
     329.0       1.4
     330.0       1.4
     331.0       1.3
     332.0       1.2
     333.0       1.1
     334.0       1.0
     335.0       1.0
     336.0       0.9
     337.0       0.8
     338.0       0.8
     339.0       0.7
     340.0       0.6
     341.0       0.6
     342.0       0.5
     343.0       0.4
     344.0       0.4
     345.0       0.3
     346.0       0.3
     347.0       0.3
     348.0       0.2
     349.0       0.2
     350.0       0.2
     351.0       0.1
     352.0       0.1
     353.0       0.1
     354.0       0.1
     355.0       0.1
     356.0       0.0
     357.0       0.0
     358.0       0.0
     359.0       0.0
VERTICAL   360
       0.0       0.0
       1.0       0.2
       2.0       0.9
       3.0       2.3
       4.0       4.3
       5.0       7.0
       6.0      10.7
       7.0      15.6
       8.0      20.1
       9.0      20.4
      10.0      19.7
      11.0      19.9
      12.0      20.9
      13.0      21.5
      14.0      21.3
      15.0      20.9
      16.0      21.4
      17.0      23.1
      18.0      26.6
      19.0      34.0
      20.0      39.0
      21.0      31.0
      22.0      28.5
      23.0      28.5
      24.0      30.9
      25.0      36.5
      26.0      42.1
      27.0      34.3
      28.0      30.7
      29.0      29.5
      30.0      30.2
      31.0      32.8
      32.0      38.2
      33.0      44.2
      34.0      37.4
      35.0      33.4
      36.0      31.8
      37.0      31.9
      38.0      33.5
      39.0      36.8
      40.0      43.3
      41.0      45.0
      42.0      39.5
      43.0      36.3
      44.0      35.0
      45.0      35.0
      46.0      36.2
      47.0      38.8
      48.0      42.8
      49.0      45.0
      50.0      45.0
      51.0      42.9
      52.0      40.7
      53.0      39.7
      54.0      39.9
      55.0      41.0
      56.0      42.9
      57.0      44.7
      58.0      45.0
      59.0      45.0
      60.0      45.0
      61.0      45.0
      62.0      45.0
      63.0      45.0
      64.0      45.0
      65.0      45.0
      66.0      45.0
      67.0      45.0
      68.0      45.0
      69.0      45.0
      70.0      45.0
      71.0      45.0
      72.0      45.0
      73.0      45.0
      74.0      45.0
      75.0      45.0
      76.0      45.0
      77.0      45.0
      78.0      45.0
      79.0      45.0
      80.0      45.0
      81.0      45.0
      82.0      45.0
      83.0      45.0
      84.0      45.0
      85.0      45.0
      86.0      45.0
      87.0      45.0
      88.0      45.0
      89.0      45.0
      90.0      45.0
      91.0      45.0
      92.0      45.0
      93.0      45.0
      94.0      45.0
      95.0      45.0
      96.0      45.0
      97.0      45.0
      98.0      45.0
      99.0      45.0
     100.0      45.0
     101.0      45.0
     102.0      45.0
     103.0      45.0
     104.0      45.0
     105.0      45.0
     106.0      45.0
     107.0      45.0
     108.0      45.0
     109.0      45.0
     110.0      45.0
     111.0      45.0
     112.0      45.0
     113.0      45.0
     114.0      45.0
     115.0      45.0
     116.0      45.0
     117.0      45.0
     118.0      45.0
     119.0      45.0
     120.0      45.0
     121.0      45.0
     122.0      45.0
     123.0      45.0
     124.0      45.0
     125.0      45.0
     126.0      45.0
     127.0      45.0
     128.0      45.0
     129.0      45.0
     130.0      45.0
     131.0      45.0
     132.0      45.0
     133.0      45.0
     134.0      45.0
     135.0      45.0
     136.0      45.0
     137.0      45.0
     138.0      45.0
     139.0      45.0
     140.0      45.0
     141.0      45.0
     142.0      45.0
     143.0      45.0
     144.0      45.0
     145.0      45.0
     146.0      45.0
     147.0      45.0
     148.0      45.0
     149.0      45.0
     150.0      45.0
     151.0      45.0
     152.0      45.0
     153.0      45.0
     154.0      45.0
     155.0      45.0
     156.0      45.0
     157.0      45.0
     158.0      45.0
     159.0      45.0
     160.0      45.0
     161.0      45.0
     162.0      45.0
     163.0      45.0
     164.0      45.0
     165.0      45.0
     166.0      45.0
     167.0      45.0
     168.0      45.0
     169.0      45.0
     170.0      45.0
     171.0      45.0
     172.0      45.0
     173.0      44.2
     174.0      39.9
     175.0      36.1
     176.0      33.3
     177.0      31.3
     178.0      30.0
     179.0      29.2
     180.0      29.0
     181.0      29.4
     182.0      30.3
     183.0      31.9
     184.0      34.1
     185.0      37.2
     186.0      41.3
     187.0      45.0
     188.0      45.0
     189.0      45.0
     190.0      45.0
     191.0      45.0
     192.0      45.0
     193.0      45.0
     194.0      45.0
     195.0      45.0
     196.0      45.0
     197.0      45.0
     198.0      45.0
     199.0      45.0
     200.0      45.0
     201.0      45.0
     202.0      45.0
     203.0      45.0
     204.0      45.0
     205.0      45.0
     206.0      45.0
     207.0      45.0
     208.0      45.0
     209.0      45.0
     210.0      45.0
     211.0      45.0
     212.0      45.0
     213.0      45.0
     214.0      45.0
     215.0      45.0
     216.0      45.0
     217.0      45.0
     218.0      45.0
     219.0      45.0
     220.0      45.0
     221.0      45.0
     222.0      45.0
     223.0      45.0
     224.0      45.0
     225.0      45.0
     226.0      45.0
     227.0      45.0
     228.0      45.0
     229.0      45.0
     230.0      45.0
     231.0      45.0
     232.0      45.0
     233.0      45.0
     234.0      45.0
     235.0      45.0
     236.0      45.0
     237.0      45.0
     238.0      45.0
     239.0      45.0
     240.0      45.0
     241.0      45.0
     242.0      45.0
     243.0      45.0
     244.0      45.0
     245.0      45.0
     246.0      45.0
     247.0      45.0
     248.0      45.0
     249.0      45.0
     250.0      45.0
     251.0      45.0
     252.0      45.0
     253.0      45.0
     254.0      45.0
     255.0      45.0
     256.0      45.0
     257.0      45.0
     258.0      45.0
     259.0      45.0
     260.0      45.0
     261.0      45.0
     262.0      45.0
     263.0      45.0
     264.0      45.0
     265.0      45.0
     266.0      45.0
     267.0      45.0
     268.0      45.0
     269.0      45.0
     270.0      45.0
     271.0      45.0
     272.0      45.0
     273.0      45.0
     274.0      45.0
     275.0      45.0
     276.0      45.0
     277.0      45.0
     278.0      45.0
     279.0      45.0
     280.0      45.0
     281.0      45.0
     282.0      45.0
     283.0      45.0
     284.0      45.0
     285.0      45.0
     286.0      45.0
     287.0      45.0
     288.0      45.0
     289.0      45.0
     290.0      45.0
     291.0      45.0
     292.0      45.0
     293.0      44.3
     294.0      42.9
     295.0      41.6
     296.0      40.5
     297.0      39.7
     298.0      39.1
     299.0      38.8
     300.0      38.5
     301.0      38.1
     302.0      37.5
     303.0      36.6
     304.0      35.5
     305.0      34.6
     306.0      33.8
     307.0      33.5
     308.0      33.7
     309.0      34.7
     310.0      36.6
     311.0      40.1
     312.0      45.0
     313.0      44.7
     314.0      39.7
     315.0      36.3
     316.0      34.7
     317.0      34.5
     318.0      35.7
     319.0      39.0
     320.0      45.0
     321.0      42.5
     322.0      36.2
     323.0      33.0
     324.0      31.5
     325.0      31.7
     326.0      33.5
     327.0      38.1
     328.0      43.8
     329.0      36.7
     330.0      32.0
     331.0      29.7
     332.0      29.4
     333.0      30.9
     334.0      35.2
     335.0      42.2
     336.0      35.0
     337.0      30.2
     338.0      28.1
     339.0      28.2
     340.0      30.5
     341.0      36.6
     342.0      38.3
     343.0      30.8
     344.0      27.7
     345.0      27.4
     346.0      29.5
     347.0      35.6
     348.0      34.1
     349.0      28.3
     350.0      27.3
     351.0      36.8
     352.0      36.7
     353.0      19.4
     354.0      12.5
     355.0       8.1
     356.0       5.0
     357.0       2.8
     358.0       1.3
     359.0       0.4
