RFS FRANCE                    
DA 6-7185 MDL                   

NONE            
NONE            
9-11-99          
DA 6-7185         
7100-8500  MHZ   
40.80 dBi       
1.6 DEGREES     
HH      21
-180.0  -62.0
-100.0  -62.0
 -70.0  -45.0
 -30.0  -35.0
 -15.0  -35.0
  -5.0  -22.5
  -2.0  -15.0
  -1.5  -10.0
  -1.0   -5.0
  -0.5   -1.0
   0.0    0.0
   0.5   -1.0
   1.0   -5.0
   1.5  -10.0
   2.0  -15.0
   5.0  -22.5
  15.0  -35.0
  30.0  -35.0
  70.0  -45.0
 100.0  -62.0
 180.0  -62.0
HV      15
-180.0  -62.0
 -90.0  -62.0
 -60.0  -50.0
 -30.0  -45.0
 -10.0  -45.0
  -5.0  -35.0
  -5.0  -32.0
   0.0  -32.0
   5.0  -32.0
   5.0  -35.0
  10.0  -45.0
  30.0  -45.0
  60.0  -50.0
  90.0  -62.0
 180.0  -62.0
VV      23
-180.0  -62.0
-100.0  -62.0
 -30.0  -35.0
 -20.0  -35.0
 -15.0  -33.5
 -10.0  -25.0
  -5.0  -22.5
  -2.0  -15.0
  -1.5  -10.0
  -1.0   -5.0
  -0.5   -1.0
   0.0    0.0
   0.5   -1.0
   1.0   -5.0
   1.5  -10.0
   2.0  -15.0
   5.0  -22.5
  10.0  -25.0
  15.0  -33.5
  20.0  -35.0
  30.0  -35.0
 100.0  -62.0
 180.0  -62.0
VH      15
-180.0  -62.0
 -90.0  -62.0
 -60.0  -50.0
 -30.0  -46.0
 -15.0  -46.0
  -5.0  -35.0
  -5.0  -32.0
   0.0  -32.0
   5.0  -32.0
   5.0  -35.0
  15.0  -46.0
  30.0  -46.0
  60.0  -50.0
  90.0  -62.0
 180.0  -62.0

