Andrew Corp
FP12F-15D                     
                              
NONE            
NONE            
12- 3-80         
6319             
1427-1535    MHZ   
31.80 dBi       
4.2 DEGREES     
HH      33
-180.0  -40.0
-170.0  -40.0
-170.0  -44.0
-120.0  -44.0
 -80.0  -30.0
 -32.5  -30.0
 -15.0  -22.0
  -6.0  -22.0
  -5.0  -15.1
  -4.0   -9.9
  -3.0   -5.7
  -2.5   -4.1
  -2.0   -2.9
  -1.5   -1.9
  -1.0   -0.9
  -0.5   -0.3
   0.0    0.0
   0.5   -0.3
   1.0   -0.9
   1.5   -1.9
   2.0   -2.9
   2.5   -4.1
   3.0   -5.7
   4.0   -9.9
   5.0  -15.1
   6.0  -22.0
  15.0  -22.0
  32.5  -30.0
  80.0  -30.0
 120.0  -44.0
 170.0  -44.0
 170.0  -40.0
 180.0  -40.0
HV      19
-180.0  -40.0
-170.0  -40.0
-170.0  -42.0
-130.0  -42.0
-120.0  -40.0
 -80.0  -40.0
 -20.0  -39.0
 -15.0  -33.0
 -10.0  -26.0
   0.0  -26.0
  10.0  -26.0
  15.0  -33.0
  20.0  -39.0
  80.0  -40.0
 120.0  -40.0
 130.0  -42.0
 170.0  -42.0
 170.0  -40.0
 180.0  -40.0
VV      33
-180.0  -40.0
-170.0  -40.0
-170.0  -44.0
-120.0  -44.0
 -80.0  -30.0
 -32.5  -30.0
 -15.0  -22.0
  -6.0  -22.0
  -5.0  -15.1
  -4.0   -9.9
  -3.0   -5.7
  -2.5   -4.1
  -2.0   -2.9
  -1.5   -1.9
  -1.0   -0.9
  -0.5   -0.3
   0.0    0.0
   0.5   -0.3
   1.0   -0.9
   1.5   -1.9
   2.0   -2.9
   2.5   -4.1
   3.0   -5.7
   4.0   -9.9
   5.0  -15.1
   6.0  -22.0
  15.0  -22.0
  32.5  -30.0
  80.0  -30.0
 120.0  -44.0
 170.0  -44.0
 170.0  -40.0
 180.0  -40.0
VH      19
-180.0  -40.0
-170.0  -40.0
-170.0  -42.0
-130.0  -42.0
-120.0  -40.0
 -80.0  -40.0
 -20.0  -39.0
 -15.0  -33.0
 -10.0  -26.0
   0.0  -26.0
  10.0  -26.0
  15.0  -33.0
  20.0  -39.0
  80.0  -40.0
 120.0  -40.0
 130.0  -42.0
 170.0  -42.0
 170.0  -40.0
 180.0  -40.0
