RFS AUSTRALIA
GKA38-1721                    
GRID ANTENNA
NONE
NONE
02-03-95        
30240R015       
1700 - 2100 MHz 
34.7 dBi        
3.0 Deg           
HH      37
-180.0  -45.0
-120.0  -45.0
-100.0  -34.0
 -60.0  -34.0
 -15.0  -32.0
  -8.0  -20.0
  -3.0  -20.0
  -2.9  -17.5
  -2.8  -15.0
  -2.7  -12.5
  -2.6  -10.0
  -2.4   -7.5
  -2.2   -6.0
  -1.9   -4.5
  -1.5   -3.0
  -1.1   -2.0
  -0.7   -1.0
  -0.5   -0.5
   0.0    0.0
   0.5   -0.5
   0.7   -1.0
   1.1   -2.0
   1.5   -3.0
   1.9   -4.5
   2.2   -6.0
   2.4   -7.5
   2.6  -10.0
   2.7  -12.5
   2.8  -15.0
   2.9  -17.5
   3.0  -20.0
   8.0  -20.0
  15.0  -32.0
  60.0  -34.0
 100.0  -34.0
 120.0  -45.0
 180.0  -45.0
HV      05
-180.0  -46.0
 -15.0  -46.0
   0.0  -40.0
  15.0  -46.0
 180.0  -46.0
VV      41
-180.0  -45.0
-120.0  -45.0
-100.0  -34.0
 -90.0  -34.0
 -80.0  -36.0
 -60.0  -36.0
 -15.0  -32.0
  -8.0  -20.0
  -3.0  -20.0
  -2.9  -17.5
  -2.8  -15.0
  -2.7  -12.5
  -2.6  -10.0
  -2.4   -7.5
  -2.2   -6.0
  -1.9   -4.5
  -1.5   -3.0
  -1.1   -2.0
  -0.7   -1.0
  -0.5   -0.5
   0.0    0.0
   0.5   -0.5
   0.7   -1.0
   1.1   -2.0
   1.5   -3.0
   1.9   -4.5
   2.2   -6.0
   2.4   -7.5
   2.6  -10.0
   2.7  -12.5
   2.8  -15.0
   2.9  -17.5
   3.0  -20.0
   8.0  -20.0
  15.0  -32.0
  60.0  -36.0
  80.0  -36.0
  90.0  -34.0
 100.0  -34.0
 120.0  -45.0
 180.0  -45.0
VH      05
-180.0  -46.0
 -15.0  -46.0
   0.0  -40.0
  15.0  -46.0
 180.0  -46.0
