RFS 
GKA8-19N
Reformatted data provided by the AP; original data points were extracted from an RPE image plot
NONE 
NONE 
1995-03-01
NONE 
1900 - 2300 MHZ 
31.8 dBi 
4.1 Deg 
HH      143
 -180.0  -40.00
 -120.1  -40.00
  -89.8  -32.00
  -40.3  -32.00
  -15.0  -25.00
  -14.9  -24.76
  -14.8  -24.59
  -14.7  -24.43
  -14.6  -24.26
  -14.5  -24.10
  -14.4  -23.94
  -14.3  -23.77
  -14.2  -23.61
  -14.1  -23.44
  -14.0  -23.28
  -13.9  -23.11
  -13.8  -22.95
  -13.7  -22.78
  -13.6  -22.62
  -13.5  -22.45
  -13.4  -22.29
  -13.3  -22.12
  -13.2  -21.96
  -13.1  -21.79
  -13.0  -21.63
  -12.9  -21.46
  -12.8  -21.30
  -12.7  -21.13
  -12.6  -20.97
  -12.5  -20.80
  -12.4  -20.64
  -12.3  -20.47
  -12.2  -20.31
  -12.1  -20.14
  -12.0  -20.00
   -3.6  -20.00
   -3.5  -17.64
   -3.4  -14.74
   -3.3  -12.80
   -3.2  -11.32
   -3.1  -10.06
   -3.0   -9.00
   -2.9   -8.06
   -2.8   -7.24
   -2.7   -6.51
   -2.6   -5.85
   -2.5   -5.24
   -2.4   -4.69
   -2.3   -4.19
   -2.2   -3.73
   -2.1   -3.32
   -2.0   -2.94
   -1.9   -2.59
   -1.8   -2.28
   -1.7   -1.99
   -1.6   -1.72
   -1.5   -1.48
   -1.4   -1.26
   -1.3   -1.07
   -1.2   -0.89
   -1.1   -0.73
   -1.0   -0.59
   -0.9   -0.46
   -0.8   -0.36
   -0.7   -0.27
   -0.6   -0.19
   -0.5   -0.12
   -0.4   -0.07
   -0.3   -0.03
   -0.2    0.00
   -0.1    0.00
    0.0    0.00
    0.1    0.00
    0.2    0.00
    0.3   -0.03
    0.4   -0.07
    0.5   -0.12
    0.6   -0.19
    0.7   -0.27
    0.8   -0.36
    0.9   -0.46
    1.0   -0.59
    1.1   -0.73
    1.2   -0.89
    1.3   -1.07
    1.4   -1.26
    1.5   -1.48
    1.6   -1.72
    1.7   -1.99
    1.8   -2.28
    1.9   -2.59
    2.0   -2.94
    2.1   -3.32
    2.2   -3.73
    2.3   -4.19
    2.4   -4.69
    2.5   -5.24
    2.6   -5.85
    2.7   -6.51
    2.8   -7.24
    2.9   -8.06
    3.0   -9.00
    3.1  -10.06
    3.2  -11.32
    3.3  -12.80
    3.4  -14.74
    3.5  -17.64
    3.6  -20.00
   12.0  -20.00
   12.1  -20.14
   12.2  -20.31
   12.3  -20.47
   12.4  -20.64
   12.5  -20.80
   12.6  -20.97
   12.7  -21.13
   12.8  -21.30
   12.9  -21.46
   13.0  -21.63
   13.1  -21.79
   13.2  -21.96
   13.3  -22.12
   13.4  -22.29
   13.5  -22.45
   13.6  -22.62
   13.7  -22.78
   13.8  -22.95
   13.9  -23.11
   14.0  -23.28
   14.1  -23.44
   14.2  -23.61
   14.3  -23.77
   14.4  -23.94
   14.5  -24.10
   14.6  -24.26
   14.7  -24.43
   14.8  -24.59
   14.9  -24.76
   15.0  -25.00
   40.3  -32.00
   89.8  -32.00
  120.1  -40.00
  180.0  -40.00
VV      145
 -180.0  -40.00
 -120.1  -40.00
  -89.8  -32.00
  -59.5  -32.00
  -30.4  -33.99
  -15.0  -26.98
  -14.9  -26.86
  -14.8  -26.62
  -14.7  -26.38
  -14.6  -26.15
  -14.5  -25.91
  -14.4  -25.67
  -14.3  -25.43
  -14.2  -25.20
  -14.1  -24.96
  -14.0  -24.72
  -13.9  -24.48
  -13.8  -24.25
  -13.7  -24.01
  -13.6  -23.77
  -13.5  -23.53
  -13.4  -23.30
  -13.3  -23.06
  -13.2  -22.82
  -13.1  -22.58
  -13.0  -22.34
  -12.9  -22.11
  -12.8  -21.87
  -12.7  -21.63
  -12.6  -21.39
  -12.5  -21.16
  -12.4  -20.92
  -12.3  -20.68
  -12.2  -20.44
  -12.1  -20.21
  -12.0  -20.00
   -3.6  -20.00
   -3.5  -17.64
   -3.4  -14.74
   -3.3  -12.80
   -3.2  -11.32
   -3.1  -10.06
   -3.0   -9.00
   -2.9   -8.06
   -2.8   -7.24
   -2.7   -6.51
   -2.6   -5.85
   -2.5   -5.24
   -2.4   -4.69
   -2.3   -4.19
   -2.2   -3.73
   -2.1   -3.32
   -2.0   -2.94
   -1.9   -2.59
   -1.8   -2.28
   -1.7   -1.99
   -1.6   -1.72
   -1.5   -1.48
   -1.4   -1.26
   -1.3   -1.07
   -1.2   -0.89
   -1.1   -0.73
   -1.0   -0.59
   -0.9   -0.46
   -0.8   -0.36
   -0.7   -0.27
   -0.6   -0.19
   -0.5   -0.12
   -0.4   -0.07
   -0.3   -0.03
   -0.2    0.00
   -0.1    0.00
    0.0    0.00
    0.1    0.00
    0.2    0.00
    0.3   -0.03
    0.4   -0.07
    0.5   -0.12
    0.6   -0.19
    0.7   -0.27
    0.8   -0.36
    0.9   -0.46
    1.0   -0.59
    1.1   -0.73
    1.2   -0.89
    1.3   -1.07
    1.4   -1.26
    1.5   -1.48
    1.6   -1.72
    1.7   -1.99
    1.8   -2.28
    1.9   -2.59
    2.0   -2.94
    2.1   -3.32
    2.2   -3.73
    2.3   -4.19
    2.4   -4.69
    2.5   -5.24
    2.6   -5.85
    2.7   -6.51
    2.8   -7.24
    2.9   -8.06
    3.0   -9.00
    3.1  -10.06
    3.2  -11.32
    3.3  -12.80
    3.4  -14.74
    3.5  -17.64
    3.6  -20.00
   12.0  -20.00
   12.1  -20.21
   12.2  -20.44
   12.3  -20.68
   12.4  -20.92
   12.5  -21.16
   12.6  -21.39
   12.7  -21.63
   12.8  -21.87
   12.9  -22.11
   13.0  -22.34
   13.1  -22.58
   13.2  -22.82
   13.3  -23.06
   13.4  -23.30
   13.5  -23.53
   13.6  -23.77
   13.7  -24.01
   13.8  -24.25
   13.9  -24.48
   14.0  -24.72
   14.1  -24.96
   14.2  -25.20
   14.3  -25.43
   14.4  -25.67
   14.5  -25.91
   14.6  -26.15
   14.7  -26.38
   14.8  -26.62
   14.9  -26.86
   15.0  -26.98
   30.4  -33.99
   59.5  -32.00
   89.8  -32.00
  120.1  -40.00
  180.0  -40.00
HV      5
 -180.0  -42.00
  -15.0  -42.00
    0.0  -40.00
   15.0  -42.00
  180.0  -42.00
VH      5
 -180.0  -42.00
  -15.0  -42.00
    0.0  -40.00
   15.0  -42.00
  180.0  -42.00
  