Andrew Corp
GP12F-890                     
                              
NONE            
NONE            
 1-21-82         
2331             
890-960      MHZ   
27.90 dBi       
6.5 DEGREES     
HH      39
-180.0  -30.0
-120.0  -30.0
-120.0  -29.0
-100.0  -29.0
 -85.0  -25.0
 -30.0  -25.0
 -15.0  -18.0
 -10.0  -14.0
  -7.5   -7.7
  -6.0   -5.0
  -5.0   -3.3
  -4.0   -2.1
  -3.5   -1.8
  -3.0   -1.1
  -2.5   -0.9
  -2.0   -0.5
  -1.5   -0.3
  -1.0   -0.2
  -0.5   -0.1
   0.0    0.0
   0.5   -0.1
   1.0   -0.2
   1.5   -0.3
   2.0   -0.5
   2.5   -0.9
   3.0   -1.1
   3.5   -1.8
   4.0   -2.1
   5.0   -3.3
   6.0   -5.0
   7.5   -7.7
  10.0  -14.0
  15.0  -18.0
  30.0  -25.0
  85.0  -25.0
 100.0  -29.0
 120.0  -29.0
 120.0  -30.0
 180.0  -30.0
HV       7
-180.0  -32.0
 -70.0  -32.0
 -30.0  -29.0
   0.0  -29.0
  30.0  -29.0
  70.0  -32.0
 180.0  -32.0
VV      39
-180.0  -30.0
-120.0  -30.0
-120.0  -29.0
-100.0  -29.0
 -85.0  -25.0
 -30.0  -25.0
 -15.0  -18.0
 -10.0  -14.0
  -7.5   -7.7
  -6.0   -5.0
  -5.0   -3.3
  -4.0   -2.1
  -3.5   -1.8
  -3.0   -1.1
  -2.5   -0.9
  -2.0   -0.5
  -1.5   -0.3
  -1.0   -0.2
  -0.5   -0.1
   0.0    0.0
   0.5   -0.1
   1.0   -0.2
   1.5   -0.3
   2.0   -0.5
   2.5   -0.9
   3.0   -1.1
   3.5   -1.8
   4.0   -2.1
   5.0   -3.3
   6.0   -5.0
   7.5   -7.7
  10.0  -14.0
  15.0  -18.0
  30.0  -25.0
  85.0  -25.0
 100.0  -29.0
 120.0  -29.0
 120.0  -30.0
 180.0  -30.0
VH       7
-180.0  -32.0
 -70.0  -32.0
 -30.0  -29.0
   0.0  -29.0
  30.0  -29.0
  70.0  -32.0
 180.0  -32.0
