Andrew Corp
GP4F-890A                     
                              
NONE            
NONE            
 9- 3-87         
2335             
890-960      MHZ   
19.10 dBi       
17. DEGREES     
HH      55
-180.0  -22.0
-170.0  -22.0
-168.0  -25.8
-149.0  -25.8
-140.0  -21.0
 -80.0  -21.0
 -76.0  -19.1
 -72.0  -19.1
 -67.5  -17.4
 -62.5  -17.4
 -57.0  -17.0
 -47.5  -17.0
 -40.0  -12.8
 -35.0  -11.3
 -20.0  -11.3
 -15.0   -8.0
 -13.4   -7.8
 -12.6   -5.9
 -11.2   -5.3
 -10.0   -3.9
  -7.5   -2.2
  -5.0   -0.9
  -4.0   -0.6
  -3.0   -0.5
  -2.5   -0.3
  -2.0   -0.1
  -1.5    0.0
   0.0    0.0
   1.5    0.0
   2.0   -0.1
   2.5   -0.3
   3.0   -0.5
   4.0   -0.6
   5.0   -0.9
   7.5   -2.2
  10.0   -3.9
  11.2   -5.3
  12.6   -5.9
  13.4   -7.8
  15.0   -8.0
  20.0  -11.3
  35.0  -11.3
  40.0  -12.8
  47.5  -17.0
  57.0  -17.0
  62.5  -17.4
  67.5  -17.4
  72.0  -19.1
  76.0  -19.1
  80.0  -21.0
 140.0  -21.0
 149.0  -25.8
 168.0  -25.8
 170.0  -22.0
 180.0  -22.0
HV       3
-180.0  -23.0
   0.0  -23.0
 180.0  -23.0
VV      49
-180.0  -22.0
-170.0  -22.0
-167.5  -21.0
-150.0  -21.0
-139.0  -19.1
-112.5  -19.1
-100.0  -15.3
 -91.0  -15.3
 -90.0  -15.2
 -76.0  -15.2
 -70.0  -14.9
 -32.5  -14.9
 -23.0  -11.6
 -14.5  -11.6
 -11.8  -10.0
 -11.5   -8.0
  -9.2   -5.0
  -7.5   -3.1
  -5.0   -1.2
  -4.0   -0.9
  -3.0   -0.6
  -2.5   -0.3
  -2.0   -0.1
  -1.5    0.0
   0.0    0.0
   1.5    0.0
   2.0   -0.1
   2.5   -0.3
   3.0   -0.6
   4.0   -0.9
   5.0   -1.2
   7.5   -3.1
   9.2   -5.0
  11.5   -8.0
  11.8  -10.0
  14.5  -11.6
  23.0  -11.6
  32.5  -14.9
  70.0  -14.9
  76.0  -15.2
  90.0  -15.2
  91.0  -15.3
 100.0  -15.3
 112.5  -19.1
 139.0  -19.1
 150.0  -21.0
 167.5  -21.0
 170.0  -22.0
 180.0  -22.0
VH      21
-180.0  -27.1
-170.0  -27.1
-168.0  -19.9
-117.5  -19.9
-112.5  -19.2
 -41.5  -19.2
 -40.0  -17.0
 -35.0  -16.2
 -22.0  -16.2
 -17.5  -15.2
   0.0  -15.2
  17.5  -15.2
  22.0  -16.2
  35.0  -16.2
  40.0  -17.0
  41.5  -19.2
 112.5  -19.2
 117.5  -19.9
 168.0  -19.9
 170.0  -27.1
 180.0  -27.1
