Andrew Corp
GP6-15B                       
                              
NONE            
NONE            
 8- 4-92         
1342             
1427-1535    MHZ   
26.50 dBi       
7.5 DEGREES     
HH      23
-180.0  -30.0
-110.0  -30.0
-100.0  -24.0
 -40.0  -24.0
 -15.0  -14.0
  -7.0  -14.0
  -5.0   -6.0
  -4.0   -3.7
  -3.0   -2.0
  -2.0   -0.8
  -1.0   -0.1
   0.0    0.0
   1.0   -0.1
   2.0   -0.8
   3.0   -2.0
   4.0   -3.7
   5.0   -6.0
   7.0  -14.0
  15.0  -14.0
  40.0  -24.0
 100.0  -24.0
 110.0  -30.0
 180.0  -30.0
HV       9
-180.0  -35.0
 -40.0  -35.0
 -40.0  -33.0
 -15.0  -33.0
   0.0  -33.0
  15.0  -33.0
  40.0  -33.0
  40.0  -35.0
 180.0  -35.0
VV      29
-180.0  -31.0
-120.0  -31.0
-110.0  -30.0
-100.0  -27.0
 -60.0  -27.0
 -20.0  -20.0
 -15.0  -16.0
 -10.0  -16.0
  -7.0  -13.5
  -5.0   -6.0
  -4.0   -3.7
  -3.0   -1.9
  -2.0   -0.8
  -1.0   -0.1
   0.0    0.0
   1.0   -0.1
   2.0   -0.8
   3.0   -1.9
   4.0   -3.7
   5.0   -6.0
   7.0  -13.5
  10.0  -16.0
  15.0  -16.0
  20.0  -20.0
  60.0  -27.0
 100.0  -27.0
 110.0  -30.0
 120.0  -31.0
 180.0  -31.0
VH       9
-180.0  -33.0
 -40.0  -33.0
 -40.0  -32.0
 -15.0  -32.0
   0.0  -32.0
  15.0  -32.0
  40.0  -32.0
  40.0  -33.0
 180.0  -33.0
