Andrew Corp
GPL10-17B                     
                              
NONE            
NONE            
 7-19-90         
1383             
1700-2110    MHZ   
33.00 dBi       
3.4 DEGREES     
HH      59
-180.0  -42.0
-120.0  -42.0
-120.0  -41.0
-100.0  -41.0
 -90.0  -31.0
 -35.0  -31.0
 -23.0  -29.0
 -15.0  -24.0
 -10.0  -20.0
  -4.9  -20.0
  -4.0  -15.0
  -3.9  -14.8
  -3.2   -9.6
  -2.9   -8.1
  -2.5   -6.0
  -2.2   -4.1
  -2.0   -3.5
  -1.9   -2.9
  -1.7   -2.3
  -1.6   -1.9
  -1.4   -1.5
  -1.3   -1.1
  -1.2   -0.8
  -1.0   -0.6
  -0.9   -0.4
  -0.7   -0.3
  -0.6   -0.2
  -0.4   -0.1
  -0.3    0.0
   0.0    0.0
   0.3    0.0
   0.4   -0.1
   0.6   -0.2
   0.7   -0.3
   0.9   -0.4
   1.0   -0.6
   1.2   -0.8
   1.3   -1.1
   1.4   -1.5
   1.6   -1.9
   1.7   -2.3
   1.9   -2.9
   2.0   -3.5
   2.2   -4.1
   2.5   -6.0
   2.9   -8.1
   3.2   -9.6
   3.9  -14.8
   4.0  -15.0
   4.9  -20.0
  10.0  -20.0
  15.0  -24.0
  23.0  -29.0
  35.0  -31.0
  90.0  -31.0
 100.0  -41.0
 120.0  -41.0
 120.0  -42.0
 180.0  -42.0
HV      13
-180.0  -45.0
-100.0  -45.0
-100.0  -43.0
 -80.0  -43.0
 -15.0  -42.0
  -5.0  -42.0
   0.0  -40.0
   5.0  -42.0
  15.0  -42.0
  80.0  -43.0
 100.0  -43.0
 100.0  -45.0
 180.0  -45.0
VV      67
-180.0  -43.0
-145.0  -43.0
-145.0  -42.0
-120.0  -42.0
-120.0  -39.0
-100.0  -39.0
 -90.0  -35.0
 -60.0  -35.0
 -50.0  -31.0
 -26.0  -31.0
 -20.0  -30.0
 -15.0  -27.0
 -10.0  -22.0
  -6.0  -21.0
  -5.0  -20.0
  -4.0  -15.0
  -3.9  -14.7
  -3.2   -9.9
  -2.5   -6.1
  -2.3   -5.5
  -2.2   -4.8
  -2.0   -4.2
  -1.8   -3.7
  -1.7   -3.1
  -1.5   -2.6
  -1.3   -2.1
  -1.2   -1.6
  -1.0   -1.2
  -0.8   -0.9
  -0.7   -0.6
  -0.5   -0.3
  -0.3   -0.2
  -0.2    0.0
   0.0    0.0
   0.2    0.0
   0.3   -0.2
   0.5   -0.3
   0.7   -0.6
   0.8   -0.9
   1.0   -1.2
   1.2   -1.6
   1.3   -2.1
   1.5   -2.6
   1.7   -3.1
   1.8   -3.7
   2.0   -4.2
   2.2   -4.8
   2.3   -5.5
   2.5   -6.1
   3.2   -9.9
   3.9  -14.7
   4.0  -15.0
   5.0  -20.0
   6.0  -21.0
  10.0  -22.0
  15.0  -27.0
  20.0  -30.0
  26.0  -31.0
  50.0  -31.0
  60.0  -35.0
  90.0  -35.0
 100.0  -39.0
 120.0  -39.0
 120.0  -42.0
 145.0  -42.0
 145.0  -43.0
 180.0  -43.0
VH      13
-180.0  -45.0
-100.0  -45.0
-100.0  -43.0
 -80.0  -43.0
 -15.0  -42.0
  -5.0  -42.0
   0.0  -40.0
   5.0  -42.0
  15.0  -42.0
  80.0  -43.0
 100.0  -43.0
 100.0  -45.0
 180.0  -45.0
