Andrew Corp
GPL15-17B                     
                              
NONE            
NONE            
 7- 9-90         
1385             
1700-2110    MHZ   
36.50 dBi       
2.3 DEGREES     
HH      63
-180.0  -46.0
-135.0  -46.0
-135.0  -43.0
-125.0  -40.0
-112.0  -40.0
-100.0  -33.0
 -79.0  -33.0
 -77.0  -34.0
 -35.0  -34.0
 -15.0  -28.0
 -11.5  -23.0
  -5.0  -22.0
  -5.0  -18.0
  -3.6  -18.0
  -3.5  -15.0
  -3.0  -10.0
  -2.5   -7.0
  -2.3   -5.9
  -2.2   -5.0
  -2.0   -4.1
  -1.8   -3.4
  -1.7   -2.7
  -1.5   -2.1
  -1.3   -1.6
  -1.2   -1.2
  -1.0   -0.8
  -0.8   -0.6
  -0.7   -0.4
  -0.5   -0.2
  -0.3   -0.1
  -0.2    0.0
   0.0    0.0
   0.2    0.0
   0.3   -0.1
   0.5   -0.2
   0.7   -0.4
   0.8   -0.6
   1.0   -0.8
   1.2   -1.2
   1.3   -1.6
   1.5   -2.1
   1.7   -2.7
   1.8   -3.4
   2.0   -4.1
   2.2   -5.0
   2.3   -5.9
   2.5   -7.0
   3.0  -10.0
   3.5  -15.0
   3.6  -18.0
   5.0  -18.0
   5.0  -22.0
  11.5  -23.0
  15.0  -28.0
  35.0  -34.0
  77.0  -34.0
  79.0  -33.0
 100.0  -33.0
 112.0  -40.0
 125.0  -40.0
 135.0  -43.0
 135.0  -46.0
 180.0  -46.0
HV      19
-180.0  -49.0
-140.0  -49.0
-140.0  -47.0
-115.0  -47.0
-115.0  -45.0
 -25.0  -45.0
 -20.0  -44.0
  -5.0  -44.0
  -5.0  -40.0
   0.0  -40.0
   5.0  -40.0
   5.0  -44.0
  20.0  -44.0
  25.0  -45.0
 115.0  -45.0
 115.0  -47.0
 140.0  -47.0
 140.0  -49.0
 180.0  -49.0
VV      63
-180.0  -46.0
-135.0  -46.0
-135.0  -43.0
-125.0  -40.0
-112.0  -40.0
-100.0  -33.0
 -79.0  -33.0
 -77.0  -34.0
 -35.0  -34.0
 -15.0  -28.0
 -11.5  -23.0
  -5.0  -22.0
  -5.0  -18.0
  -3.6  -18.0
  -3.5  -15.0
  -3.0  -10.0
  -2.5   -7.0
  -2.3   -5.9
  -2.2   -5.0
  -2.0   -4.1
  -1.8   -3.4
  -1.7   -2.7
  -1.5   -2.1
  -1.3   -1.6
  -1.2   -1.2
  -1.0   -0.8
  -0.8   -0.6
  -0.7   -0.4
  -0.5   -0.2
  -0.3   -0.1
  -0.2    0.0
   0.0    0.0
   0.2    0.0
   0.3   -0.1
   0.5   -0.2
   0.7   -0.4
   0.8   -0.6
   1.0   -0.8
   1.2   -1.2
   1.3   -1.6
   1.5   -2.1
   1.7   -2.7
   1.8   -3.4
   2.0   -4.1
   2.2   -5.0
   2.3   -5.9
   2.5   -7.0
   3.0  -10.0
   3.5  -15.0
   3.6  -18.0
   5.0  -18.0
   5.0  -22.0
  11.5  -23.0
  15.0  -28.0
  35.0  -34.0
  77.0  -34.0
  79.0  -33.0
 100.0  -33.0
 112.0  -40.0
 125.0  -40.0
 135.0  -43.0
 135.0  -46.0
 180.0  -46.0
VH      19
-180.0  -49.0
-140.0  -49.0
-140.0  -47.0
-115.0  -47.0
-115.0  -45.0
 -25.0  -45.0
 -20.0  -44.0
  -5.0  -44.0
  -5.0  -40.0
   0.0  -40.0
   5.0  -40.0
   5.0  -44.0
  20.0  -44.0
  25.0  -45.0
 115.0  -45.0
 115.0  -47.0
 140.0  -47.0
 140.0  -49.0
 180.0  -49.0
