Andrew Corp
HP1B-220A                     
                              
NONE            
NONE            
 2- 2-94         
3801             
21200-23600  MHZ   
34.80 dBi       
2.8 DEGREES     
HH      55
-180.0  -60.0
 -95.0  -60.0
 -79.0  -54.0
 -65.0  -42.0
 -59.0  -39.0
 -48.0  -35.0
 -42.5  -32.5
 -29.0  -29.0
 -17.0  -29.0
 -15.0  -25.0
 -10.0  -25.0
  -5.0  -17.0
  -4.0  -16.0
  -2.9  -12.9
  -2.7  -11.0
  -2.5   -9.9
  -2.3   -8.1
  -2.1   -6.9
  -2.0   -6.0
  -1.8   -5.1
  -1.6   -3.9
  -1.4   -3.0
  -1.2   -2.1
  -0.9   -1.2
  -0.8   -0.9
  -0.6   -0.6
  -0.4   -0.3
   0.0    0.0
   0.4   -0.3
   0.6   -0.6
   0.8   -0.9
   0.9   -1.2
   1.2   -2.1
   1.4   -3.0
   1.6   -3.9
   1.8   -5.1
   2.0   -6.0
   2.1   -6.9
   2.3   -8.1
   2.5   -9.9
   2.7  -11.0
   2.9  -12.9
   4.0  -16.0
   5.0  -17.0
  10.0  -25.0
  15.0  -25.0
  17.0  -29.0
  29.0  -29.0
  42.5  -32.5
  48.0  -35.0
  59.0  -39.0
  65.0  -42.0
  79.0  -54.0
  95.0  -60.0
 180.0  -60.0
HV      15
-180.0  -65.0
 -80.0  -65.0
 -50.0  -53.0
 -20.0  -44.0
 -15.0  -44.0
  -4.6  -40.0
  -4.0  -30.0
   0.0  -30.0
   4.0  -30.0
   4.6  -40.0
  15.0  -44.0
  20.0  -44.0
  50.0  -53.0
  80.0  -65.0
 180.0  -65.0
VV      55
-180.0  -60.0
 -80.0  -60.0
 -50.0  -40.0
 -36.0  -34.0
 -20.0  -26.0
 -15.0  -26.0
 -10.0  -25.0
  -8.0  -22.0
  -6.0  -20.0
  -5.0  -18.0
  -3.2  -17.9
  -3.0  -16.0
  -2.9  -13.8
  -2.8  -12.6
  -2.7  -11.1
  -2.5   -9.9
  -2.3   -8.1
  -2.1   -6.9
  -2.0   -6.0
  -1.8   -5.1
  -1.6   -3.9
  -1.4   -3.0
  -1.2   -2.1
  -0.9   -1.2
  -0.8   -0.9
  -0.6   -0.6
  -0.4   -0.3
   0.0    0.0
   0.4   -0.3
   0.6   -0.6
   0.8   -0.9
   0.9   -1.2
   1.2   -2.1
   1.4   -3.0
   1.6   -3.9
   1.8   -5.1
   2.0   -6.0
   2.1   -6.9
   2.3   -8.1
   2.5   -9.9
   2.7  -11.1
   2.8  -12.6
   2.9  -13.8
   3.0  -16.0
   3.2  -17.9
   5.0  -18.0
   6.0  -20.0
   8.0  -22.0
  10.0  -25.0
  15.0  -26.0
  20.0  -26.0
  36.0  -34.0
  50.0  -40.0
  80.0  -60.0
 180.0  -60.0
VH      13
-180.0  -65.0
 -80.0  -65.0
 -60.0  -53.0
 -19.5  -40.0
  -4.6  -40.0
  -4.0  -30.0
   0.0  -30.0
   4.0  -30.0
   4.6  -40.0
  19.5  -40.0
  60.0  -53.0
  80.0  -65.0
 180.0  -65.0
