Andrew Corp
HP8-18A                       
                              
NONE            
NONE            
 7-10-90         
1394             
1850-1990    MHZ   
31.30 dBi       
4.5 DEGREES     
HH      35
-180.0  -50.0
-100.0  -50.0
 -85.0  -41.3
 -60.0  -34.8
 -55.0  -34.0
 -50.0  -33.3
 -25.0  -33.3
 -20.0  -28.6
 -15.0  -22.7
 -14.0  -21.5
  -9.8  -21.5
  -7.0  -18.0
  -5.3  -18.0
  -4.4  -10.0
  -3.0   -3.2
  -2.7   -2.5
  -1.2   -0.5
   0.0    0.0
   1.2   -0.5
   2.7   -2.5
   3.0   -3.2
   4.4  -10.0
   5.3  -18.0
   7.0  -18.0
   9.8  -21.5
  14.0  -21.5
  15.0  -22.7
  20.0  -28.6
  25.0  -33.3
  50.0  -33.3
  55.0  -34.0
  60.0  -34.8
  85.0  -41.3
 100.0  -50.0
 180.0  -50.0
HV      27
-180.0  -50.0
 -55.0  -50.0
 -50.0  -48.9
 -34.2  -48.9
 -30.0  -45.3
 -25.0  -43.5
 -20.0  -41.7
 -11.7  -41.7
 -11.0  -40.1
  -8.2  -40.1
  -8.0  -39.8
  -6.0  -36.6
  -4.5  -30.0
   0.0  -30.0
   4.5  -30.0
   6.0  -36.6
   8.0  -39.8
   8.2  -40.1
  11.0  -40.1
  11.7  -41.7
  20.0  -41.7
  25.0  -43.5
  30.0  -45.3
  34.2  -48.9
  50.0  -48.9
  55.0  -50.0
 180.0  -50.0
VV      43
-180.0  -50.0
 -85.0  -50.0
 -80.0  -48.4
 -50.0  -39.4
 -40.0  -37.2
 -30.0  -36.0
 -20.0  -28.6
 -15.0  -24.5
 -14.0  -22.1
  -9.3  -22.1
  -8.8  -19.5
  -8.0  -18.5
  -7.1  -17.5
  -6.2  -17.0
  -5.3  -16.5
  -4.4  -11.9
  -3.7   -7.0
  -3.0   -3.8
  -2.2   -2.0
  -1.7   -1.0
  -0.9   -0.2
   0.0    0.0
   0.9   -0.2
   1.7   -1.0
   2.2   -2.0
   3.0   -3.8
   3.7   -7.0
   4.4  -11.9
   5.3  -16.5
   6.2  -17.0
   7.1  -17.5
   8.0  -18.5
   8.8  -19.5
   9.3  -22.1
  14.0  -22.1
  15.0  -24.5
  20.0  -28.6
  30.0  -36.0
  40.0  -37.2
  50.0  -39.4
  80.0  -48.4
  85.0  -50.0
 180.0  -50.0
VH      27
-180.0  -50.0
 -80.0  -50.0
 -75.0  -48.2
 -50.0  -43.7
 -29.9  -43.7
 -25.0  -41.4
 -20.0  -40.6
 -15.0  -39.9
  -8.4  -39.9
  -8.0  -38.3
  -7.0  -34.4
  -6.0  -32.5
  -4.5  -30.0
   0.0  -30.0
   4.5  -30.0
   6.0  -32.5
   7.0  -34.4
   8.0  -38.3
   8.4  -39.9
  15.0  -39.9
  20.0  -40.6
  25.0  -41.4
  29.9  -43.7
  50.0  -43.7
  75.0  -48.2
  80.0  -50.0
 180.0  -50.0
