Andrew Corp
HP8-77GE                      
                              
NONE            
NONE            
 2-18-76         
3765             
7750-8400    MHZ   
43.30 dBi       
1.1 DEGREES     
HH      25
-180.0  -68.0
-100.0  -68.0
 -60.0  -46.0
 -35.0  -46.0
 -15.0  -40.0
  -9.5  -39.0
  -5.4  -28.0
  -2.9  -25.0
  -1.6  -25.0
  -1.5  -11.0
  -1.0   -5.0
  -0.5   -1.3
   0.0    0.0
   0.5   -1.3
   1.0   -5.0
   1.5  -11.0
   1.6  -25.0
   2.9  -25.0
   5.4  -28.0
   9.5  -39.0
  15.0  -40.0
  35.0  -46.0
  60.0  -46.0
 100.0  -68.0
 180.0  -68.0
HV      25
-180.0  -70.0
-100.0  -70.0
 -50.0  -60.0
 -40.0  -60.0
 -30.5  -55.9
 -24.0  -55.4
 -15.0  -51.8
 -12.6  -49.0
  -3.5  -49.0
  -2.2  -46.0
  -1.9  -40.0
  -1.4  -30.0
   0.0  -30.0
   1.4  -30.0
   1.9  -40.0
   2.2  -46.0
   3.5  -49.0
  12.6  -49.0
  15.0  -51.8
  24.0  -55.4
  30.5  -55.9
  40.0  -60.0
  50.0  -60.0
 100.0  -70.0
 180.0  -70.0
VV      35
-180.0  -68.0
-100.0  -68.0
 -60.5  -54.1
 -44.5  -54.1
 -40.0  -50.0
 -23.0  -40.1
 -14.0  -40.1
 -11.1  -34.0
  -7.5  -34.0
  -5.4  -28.0
  -4.7  -27.2
  -3.5  -27.0
  -2.5  -25.0
  -1.6  -25.0
  -1.5  -11.0
  -1.0   -5.0
  -0.5   -1.3
   0.0    0.0
   0.5   -1.3
   1.0   -5.0
   1.5  -11.0
   1.6  -25.0
   2.5  -25.0
   3.5  -27.0
   4.7  -27.2
   5.4  -28.0
   7.5  -34.0
  11.1  -34.0
  14.0  -40.1
  23.0  -40.1
  40.0  -50.0
  44.5  -54.1
  60.5  -54.1
 100.0  -68.0
 180.0  -68.0
VH      29
-180.0  -70.0
-100.0  -70.0
 -65.5  -60.0
 -40.0  -60.0
 -30.5  -55.9
 -24.0  -55.4
 -15.0  -54.8
 -11.5  -49.9
  -7.0  -49.9
  -5.6  -45.8
  -4.5  -45.8
  -3.0  -40.0
  -1.9  -40.0
  -1.4  -30.0
   0.0  -30.0
   1.4  -30.0
   1.9  -40.0
   3.0  -40.0
   4.5  -45.8
   5.6  -45.8
   7.0  -49.9
  11.5  -49.9
  15.0  -54.8
  24.0  -55.4
  30.5  -55.9
  40.0  -60.0
  65.5  -60.0
 100.0  -70.0
 180.0  -70.0
