Andrew Corp
HSX1-180                      
                              
NONE            
NONE            
 3-10-94         
2050             
17700-19700  MHZ   
33.00 dBi       
3.6 DEGREES     
HH      71
-180.0  -64.0
-105.0  -64.0
 -75.0  -52.0
 -55.0  -40.0
 -30.0  -35.0
 -18.0  -34.0
 -15.0  -30.0
  -8.0  -18.0
  -4.4  -18.0
  -4.3  -17.0
  -4.2  -16.0
  -4.0  -15.0
  -3.9  -14.0
  -3.8  -13.0
  -3.6  -12.0
  -3.5  -11.0
  -3.1   -9.0
  -2.9   -8.0
  -2.8   -7.0
  -2.6   -6.0
  -2.3   -5.0
  -2.3   -4.8
  -2.1   -4.2
  -2.0   -3.6
  -1.8   -3.0
  -1.6   -2.4
  -1.4   -2.8
  -0.8   -0.6
  -0.6   -0.4
  -0.5   -0.3
  -0.5   -0.2
  -0.4   -0.2
  -0.3   -0.1
  -0.2   -0.1
   0.0    0.0
   0.2   -0.1
   0.3   -0.1
   0.4   -0.2
   0.5   -0.2
   0.5   -0.3
   0.6   -0.3
   0.6   -0.4
   0.8   -0.6
   1.1   -1.2
   1.4   -1.8
   1.6   -2.4
   1.8   -3.0
   2.0   -3.6
   2.1   -4.2
   2.3   -4.8
   2.3   -5.0
   2.6   -6.0
   2.6   -6.0
   2.8   -7.0
   2.9   -8.0
   3.1   -9.0
   3.3  -10.0
   3.5  -11.0
   3.6  -12.0
   3.8  -13.0
   3.9  -14.0
   4.0  -15.0
   4.2  -16.0
   4.3  -17.0
   8.0  -18.0
  15.0  -30.0
  18.0  -34.0
  25.0  -35.0
  75.0  -52.0
 107.0  -64.0
 180.0  -64.0
HV      13
-180.0  -64.0
 -64.0  -64.0
 -45.0  -48.0
 -15.0  -46.0
 -10.0  -46.0
  -2.5  -34.0
   0.0  -34.0
   2.5  -34.0
  10.0  -46.0
  15.0  -46.0
  50.0  -51.0
  60.0  -64.0
 180.0  -64.0
VV      73
-180.0  -60.0
 -75.0  -60.0
 -60.0  -44.0
 -30.0  -33.0
 -15.0  -22.5
  -6.5  -18.0
  -4.4  -18.0
  -4.3  -17.0
  -4.2  -16.0
  -4.0  -15.0
  -3.9  -14.0
  -3.8  -13.0
  -3.6  -12.0
  -3.5  -11.0
  -3.3  -10.0
  -3.1   -9.0
  -2.9   -8.0
  -2.8   -7.0
  -2.6   -6.0
  -2.3   -5.0
  -2.3   -4.8
  -2.1   -4.2
  -2.0   -3.6
  -1.8   -3.0
  -1.6   -2.4
  -1.4   -1.8
  -1.1   -1.2
  -0.8   -0.6
  -0.6   -0.4
  -0.6   -0.3
  -0.5   -0.3
  -0.5   -0.2
  -0.4   -0.2
  -0.3   -0.1
  -0.2   -0.1
   0.0    0.0
   0.2   -0.1
   0.3   -0.1
   0.4   -0.2
   0.5   -0.2
   0.5   -0.3
   0.6   -0.3
   0.6   -0.4
   0.8   -0.6
   1.1   -1.2
   1.4   -1.8
   1.6   -2.4
   1.8   -3.0
   2.0   -3.6
   2.1   -4.2
   2.3   -4.8
   2.3   -5.0
   2.6   -6.0
   2.8   -7.0
   2.9   -8.0
   3.1   -9.0
   3.3  -10.0
   3.5  -11.0
   3.6  -12.0
   3.8  -13.0
   3.9  -14.0
   4.0  -15.0
   4.2  -16.0
   4.3  -17.0
   4.4  -18.0
   6.5  -18.0
  15.0  -22.5
  30.0  -33.0
  45.0  -43.0
  60.0  -44.0
  67.0  -46.0
  80.0  -60.0
 180.0  -60.0
VH      16
-180.0  -68.0
 -90.0  -68.0
 -80.0  -64.0
 -48.0  -50.0
 -24.0  -42.0
 -15.0  -42.0
  -7.0  -41.0
  -3.0  -34.0
   0.0  -34.0
   3.0  -34.0
   7.0  -41.0
  15.0  -50.0
  45.0  -51.0
  80.0  -64.0
  90.0  -68.0
 180.0  -68.0
