ANDREW CORPORATION            
HSX10-107                      
                              
82338A          
                
 9-26-96         
2338              
10700-11700    MHZ   
 8.20 dBi       
0.7 DEGREES     
HH      50
-180.0  -75.0
 -90.0  -75.0
 -72.0  -61.5
 -60.0  -57.5
 -41.5  -51.5
 -20.0  -51.5
 -12.5  -47.5
  -7.5  -38.5
  -2.8  -35.3
  -2.0  -30.5
  -1.0  -28.5
  -0.9  -21.7
  -0.8  -16.7
  -0.7  -12.1
  -0.6   -8.5
  -0.5   -5.5
  -0.4   -3.5
  -0.3   -1.8
  -0.2   -0.5
  -0.1    0.0
   0.0    0.0
   0.1    0.0
   0.2   -0.5
   0.3   -2.0
   0.4   -3.6
   0.5   -5.9
   0.6   -8.8
   0.7  -12.2
   0.8  -17.3
   0.9  -26.0
   1.5  -28.0
   2.6  -35.0
   7.6  -35.0
   8.0  -36.5
  11.0  -36.5
  12.0  -36.5
  15.0  -42.0
  22.5  -42.8
  28.0  -48.0
  30.0  -52.0
  38.0  -52.0
  44.0  -54.8
  70.2  -59.0
  84.0  -69.5
 110.1  -74.3
 114.9  -75.0
 180.0  -75.0
HV      25
-180.0  -77.0
 -80.1  -77.0
 -70.2  -72.5
 -60.0  -72.5
 -39.0  -67.5
 -13.1  -67.5
  -4.9  -57.6
  -2.1  -57.6
  -1.3  -49.0
  -0.7  -40.0
   0.0  -40.0
   0.7  -40.0
   1.5  -55.0
   2.0  -57.5
  10.5  -57.5
  14.0  -68.0
  18.5  -68.0
  19.0  -70.0
  25.0  -70.0
  39.9  -71.0
  50.4  -73.0
  63.0  -73.0
  75.0  -76.0
 180.0  -76.0
VV      54
-180.0  -75.0
 -90.0  -75.0
 -80.1  -70.0
 -70.2  -60.0
 -60.0  -60.0
 -50.1  -56.0
 -39.9  -54.0
 -33.0  -50.5
 -21.0  -50.5
 -15.0  -50.5
 -13.0  -49.0
 -10.0  -49.0
  -7.5  -35.5
  -3.0  -35.5
  -2.0  -30.0
  -1.0  -29.1
  -0.9  -22.7
  -0.8  -16.0
  -0.7  -11.9
  -0.6   -8.6
  -0.5   -5.4
  -0.4   -3.4
  -0.3   -2.0
  -0.2   -0.6
  -0.1    0.0
   0.0    0.0
   0.1    0.0
   0.2   -0.9
   0.3   -2.1
   0.4   -3.7
   0.5   -6.1
   0.6   -9.4
   0.7  -13.0
   0.8  -18.3
   0.9  -24.9
   0.9  -30.0
   1.5  -30.5
   2.5  -34.0
   7.5  -34.0
   8.0  -37.0
  11.5  -37.0
  13.0  -41.2
  24.0  -41.2
  30.0  -47.0
  31.0  -52.5
  41.0  -52.5
  45.0  -58.0
  56.5  -59.0
  60.0  -61.3
  70.0  -61.3
  80.0  -72.0
  85.0  -75.0
 180.0  -75.0
VH      26
-180.0  -77.0
 -80.1  -77.0
 -73.1  -70.5
 -38.1  -70.5
 -36.0  -68.0
 -18.0  -68.0
 -17.0  -65.7
  -8.0  -65.7
  -6.5  -57.5
  -2.0  -57.5
  -1.5  -48.0
  -0.7  -40.0
   0.0  -40.0
   0.1  -40.0
   0.7  -40.0
   2.0  -54.5
  10.0  -54.5
  13.0  -60.0
  15.0  -66.0
  22.0  -66.0
  24.0  -70.0
  30.0  -70.0
  33.0  -72.5
  65.1  -72.5
  80.1  -78.0
 180.0  -78.0