ANDREW CORPORATION            
HSX10-130                      
                              
72566A          
NONE            
 7-12-96         
2566              
12750-13250  MHZ   
48.80 dBi       
0.5 DEGREES     
HH      50
-180.0  -78.0
 -90.0  -78.0
 -65.5  -60.0
 -60.0  -60.0
 -45.0  -54.0
 -30.0  -53.0
 -25.0  -51.0
 -15.0  -48.0
  -8.5  -47.0
  -7.0  -36.0
  -3.0  -36.0
  -2.0  -30.0
  -0.9  -28.0
  -0.8  -24.0
  -0.7  -18.3
  -0.6  -13.0
  -0.5   -8.7
  -0.4   -5.4
  -0.3   -3.0
  -0.2   -1.3
  -0.1   -0.3
   0.0    0.0
   0.0    0.0
   0.1   -0.2
   0.2   -1.0
   0.3   -2.7
   0.4   -5.0
   0.5   -8.0
   0.6  -12.0
   0.7  -17.0
   0.8  -20.0
   0.9  -28.0
   2.0  -30.0
   3.0  -36.0
   6.5  -36.0
   7.5  -42.0
  12.0  -42.0
  15.0  -46.0
  24.0  -47.0
  27.0  -53.0
  38.0  -53.0
  40.0  -54.0
  44.0  -55.0
  50.0  -59.0
  55.0  -60.0
  65.0  -60.0
  75.0  -68.0
  85.0  -76.0
  90.0  -78.0
 180.0  -78.0
HV      28
-180.0  -78.0
 -80.0  -78.0
 -70.0  -73.0
 -45.0  -73.0
 -36.0  -72.0
 -10.0  -72.0
  -6.0  -59.0
  -2.2  -59.0
  -1.5  -56.0
  -1.1  -46.0
  -0.7  -46.0
  -0.5  -40.0
   0.0  -40.0
   0.0  -40.0
   0.5  -40.0
   0.8  -50.0
   0.8  -52.0
   1.3  -52.0
   1.9  -59.0
  11.0  -59.0
  15.0  -68.0
  20.0  -70.0
  30.0  -72.0
  35.0  -73.0
  45.0  -73.0
  77.0  -75.0
  80.0  -78.0
 180.0  -78.0
VV      49
-180.0  -78.0
 -85.0  -78.0
 -70.0  -60.0
 -55.0  -60.0
 -50.0  -58.0
 -45.0  -56.0
 -40.0  -56.0
 -36.0  -52.0
 -20.0  -52.0
 -15.0  -49.0
 -10.0  -49.0
  -8.5  -45.0
  -7.5  -39.0
  -6.5  -36.0
  -3.0  -36.0
  -2.0  -30.0
  -0.9  -30.0
  -0.7  -20.0
  -0.7  -18.0
  -0.6  -12.4
  -0.5   -8.3
  -0.4   -5.1
  -0.3   -2.8
  -0.2   -1.1
  -0.1   -0.3
   0.0    0.0
   0.0    0.0
   0.1   -0.3
   0.2   -1.3
   0.3   -2.8
   0.4   -5.0
   0.5   -8.0
   0.6  -12.0
   0.7  -17.0
   0.7  -20.0
   0.9  -30.0
   2.0  -35.0
   6.0  -35.5
   7.5  -39.0
   9.0  -45.0
  15.0  -47.0
  20.0  -50.0
  30.0  -50.0
  36.0  -57.0
  50.0  -58.0
  60.0  -62.0
  70.0  -63.0
  80.0  -78.0
 180.0  -78.0
VH      25
-180.0  -78.0
 -80.0  -78.0
 -75.0  -74.0
 -45.0  -74.0
 -40.0  -71.0
 -15.0  -71.0
 -12.0  -71.0
  -5.0  -63.0
  -3.0  -63.0
  -2.0  -60.0
  -1.2  -50.0
  -0.5  -40.0
   0.0  -40.0
   0.0  -40.0
   0.5  -40.0
   1.0  -45.0
   2.0  -60.0
  15.0  -60.0
  20.0  -66.0
  24.0  -70.0
  45.0  -70.0
  60.0  -74.0
  75.0  -74.0
  80.0  -78.0
 180.0  -78.0