Andrew Corp
HSX2-180                      
                              
NONE            
NONE            
 4-12-94         
2052             
17700-19700  MHZ   
38.40 dBi       
1.9 DEGREES     
HH      68
-180.0  -64.0
 -80.0  -64.0
 -44.0  -47.0
 -38.0  -42.0
 -30.0  -42.0
 -30.0  -40.0
 -20.0  -37.0
 -15.0  -33.5
 -10.0  -30.0
  -7.0  -26.0
  -5.0  -26.0
  -4.6  -22.0
  -2.5  -20.0
  -2.3  -18.0
  -2.2  -16.0
  -2.1  -14.0
  -1.9  -12.0
  -1.7  -10.0
  -1.6   -8.0
  -1.3   -6.0
  -1.1   -4.0
  -1.0   -3.4
  -0.9   -2.8
  -0.6   -2.2
  -0.7   -1.6
  -0.6   -1.0
  -0.4   -0.4
  -0.3   -0.4
  -0.3   -0.3
  -0.3   -0.2
  -0.2   -0.2
  -0.2   -0.1
  -0.1   -0.1
   0.0    0.0
   0.1   -0.1
   0.2   -0.1
   0.2   -0.2
   0.3   -0.2
   0.3   -0.3
   0.3   -0.4
   0.4   -0.4
   0.6   -1.0
   0.7   -1.6
   0.8   -2.2
   0.9   -2.8
   1.0   -3.4
   1.1   -4.0
   1.3   -6.0
   1.6   -8.0
   1.7  -10.0
   1.9  -12.0
   2.1  -14.0
   2.2  -16.0
   2.3  -18.0
   2.5  -20.0
   4.0  -32.0
   5.0  -26.0
   7.0  -26.0
  10.0  -30.0
  15.0  -33.5
  20.0  -37.0
  30.0  -40.0
  30.0  -42.0
  38.0  -42.0
  44.0  -47.0
  80.0  -64.0
  90.0  -64.0
 180.0  -64.0
HV      17
-180.0  -66.0
 -60.0  -66.0
 -50.0  -52.0
 -36.0  -50.0
 -25.0  -50.0
 -15.0  -47.3
 -10.0  -46.0
  -5.0  -40.0
  -2.0  -36.0
   0.0  -36.0
   2.0  -36.0
   5.0  -40.0
  10.0  -46.0
  15.0  -51.0
  50.0  -52.0
  60.0  -66.0
 180.0  -66.0
VV      68
-180.0  -64.0
 -63.0  -64.0
 -49.0  -48.0
 -35.0  -42.5
 -30.0  -42.0
 -30.0  -38.0
 -26.0  -38.0
 -20.0  -37.0
 -15.0  -33.5
 -10.0  -30.0
  -5.0  -25.0
  -4.0  -22.0
  -2.5  -20.0
  -2.3  -18.0
  -2.2  -16.0
  -2.1  -14.0
  -1.9  -12.0
  -1.7  -10.0
  -1.6   -9.0
  -1.3   -6.0
  -1.1   -4.0
  -1.0   -3.4
  -0.9   -2.8
  -0.8   -2.2
  -0.7   -1.6
  -0.6   -1.0
  -0.4   -0.4
  -0.3   -0.4
  -0.3   -0.3
  -0.3   -0.2
  -0.2   -0.2
  -0.2   -0.1
  -0.1   -0.1
   0.0    0.0
   0.1   -0.1
   0.2   -0.1
   0.2   -0.2
   0.3   -0.2
   0.3   -0.3
   0.3   -0.4
   0.4   -0.4
   0.6   -1.0
   0.7   -1.6
   0.8   -2.2
   0.9   -2.8
   1.0   -3.4
   1.1   -4.0
   1.3   -6.0
   1.6   -8.0
   1.7  -10.0
   1.9  -12.0
   2.1  -14.0
   2.2  -16.0
   2.3  -18.0
   2.5  -20.0
   4.0  -22.0
   5.0  -25.0
  10.0  -30.0
  15.0  -33.5
  20.0  -37.0
  26.0  -38.0
  30.0  -38.0
  30.0  -42.0
  35.0  -42.5
  49.0  -48.0
  63.0  -64.0
  77.0  -64.0
 180.0  -64.0
VH      16
-180.0  -68.0
 -72.0  -68.0
 -36.0  -50.0
 -26.0  -50.0
 -15.0  -47.5
 -10.0  -46.0
  -2.0  -36.0
   0.0  -36.0
   2.0  -36.0
  10.0  -46.0
  15.0  -47.5
  26.0  -50.0
  36.0  -50.0
  72.0  -68.0
  75.0  -68.0
 180.0  -68.0
