ANDREW CORPORATION            
HSX4-130                       
                              
72490A          
NONE            
 7-22-96         
2490              
12750-13250  MHZ   
41.60 dBi       
1.3 DEGREES     
HH      63
-180.0  -68.0
-120.0  -68.0
 -90.0  -68.0
 -80.0  -63.0
 -60.0  -53.0
 -55.0  -53.0
 -50.0  -50.0
 -45.0  -50.0
 -40.0  -47.0
 -35.0  -47.0
 -30.0  -45.5
 -25.0  -40.0
 -15.0  -40.0
 -10.0  -38.0
  -7.0  -28.0
  -3.0  -28.0
  -2.7  -22.0
  -2.1  -20.7
  -1.7  -20.0
  -1.7  -18.8
  -1.6  -15.6
  -1.4  -11.3
  -1.3   -9.5
  -1.2   -6.4
  -1.0   -4.3
  -0.8   -2.7
  -0.6   -1.4
  -0.4   -0.6
  -0.2   -0.2
  -0.2   -0.1
  -0.1   -0.1
   0.0    0.0
   0.0    0.0
   0.1   -0.1
   0.2   -0.1
   0.2   -0.2
   0.4   -0.6
   0.6   -1.4
   0.8   -2.7
   1.0   -4.3
   1.2   -6.4
   1.3   -9.5
   1.4  -11.3
   1.6  -15.6
   1.7  -18.8
   1.7  -20.0
   2.1  -20.7
   2.7  -22.0
   3.0  -28.0
   7.5  -28.0
   9.5  -30.0
  11.0  -34.0
  15.0  -34.0
  21.0  -34.0
  25.0  -39.0
  30.0  -44.0
  40.0  -46.0
  54.0  -46.0
  60.0  -50.0
  75.0  -60.0
  95.0  -68.0
 120.0  -68.0
 180.0  -68.0
HV      29
-180.0  -72.0
-120.0  -72.0
 -75.0  -72.0
 -70.0  -70.0
 -60.0  -66.0
 -50.0  -66.0
 -45.0  -62.0
 -40.0  -60.0
 -20.0  -60.0
 -15.0  -60.0
 -12.0  -56.0
  -5.0  -56.0
  -3.0  -48.0
  -2.0  -40.0
   0.0  -40.0
   0.0  -40.0
   2.0  -40.0
   3.0  -50.0
   4.0  -52.0
  15.0  -52.0
  20.0  -55.0
  25.0  -55.0
  35.0  -58.0
  40.0  -62.0
  48.0  -64.0
  60.0  -64.0
  75.0  -68.0
  85.0  -72.0
 180.0  -72.0
VV      61
-180.0  -70.0
 -90.0  -70.0
 -67.0  -60.0
 -60.0  -56.0
 -55.0  -54.0
 -40.0  -42.5
 -30.0  -42.5
 -25.0  -41.0
 -20.0  -39.0
 -15.0  -39.0
 -12.0  -39.0
 -10.0  -30.0
  -9.0  -30.0
  -7.0  -28.0
  -4.0  -28.0
  -3.0  -27.0
  -2.5  -22.0
  -2.0  -18.8
  -1.7  -18.8
  -1.6  -15.6
  -1.4  -11.3
  -1.3   -9.5
  -1.2   -6.4
  -1.0   -4.3
  -0.8   -2.7
  -0.6   -1.4
  -0.4   -0.5
  -0.4   -0.4
  -0.2   -0.2
  -0.2   -0.1
  -0.1   -0.1
   0.0    0.0
   0.0    0.0
   0.1   -0.1
   0.2   -0.1
   0.2   -0.2
   0.4   -0.4
   0.4   -0.5
   0.6   -1.4
   0.8   -2.7
   1.0   -4.3
   1.2   -6.4
   1.3   -9.5
   1.4  -11.3
   1.6  -15.6
   1.7  -18.8
   2.0  -18.8
   2.5  -22.0
   3.0  -28.0
   7.0  -28.0
  15.0  -33.0
  18.0  -33.0
  21.0  -36.0
  24.0  -36.0
  26.0  -39.0
  30.0  -45.0
  55.0  -45.0
  60.0  -50.0
  70.0  -60.0
  90.0  -70.0
 180.0  -70.0
VH      27
-180.0  -72.0
 -90.0  -72.0
 -70.0  -65.0
 -50.0  -60.0
 -35.0  -59.0
 -15.0  -59.0
 -12.5  -58.0
 -10.0  -54.0
  -7.5  -50.0
  -5.0  -50.0
  -4.0  -47.0
  -3.0  -43.0
  -2.0  -40.0
   0.0  -40.0
   0.0  -40.0
   2.0  -40.0
   3.0  -43.0
   4.0  -50.0
   5.0  -53.0
  15.0  -53.0
  25.0  -53.0
  35.0  -56.0
  40.0  -58.0
  50.0  -58.0
  60.0  -60.0
  80.0  -72.0
 180.0  -72.0