ANDREW CORPORATION            
HSX8-64A                      
                              
52456A          
NONE            
 6-15-96         
2456             
6425-7125    MHZ   
42.00 dBi       
1.3 DEGREES     
HH      55
-180.0  -75.0
 -92.0  -75.0
 -76.0  -68.0
 -71.0  -61.5
 -57.5  -55.0
 -41.0  -55.0
 -34.0  -48.0
 -28.0  -48.0
 -15.0  -40.5
 -11.0  -40.5
  -9.2  -34.5
  -8.0  -34.5
  -7.0  -30.0
  -4.0  -30.0
  -3.5  -28.5
  -1.9  -28.5
  -1.7  -19.8
  -1.6  -15.7
  -1.4  -12.0
  -1.2   -8.8
  -1.0   -6.1
  -0.8   -3.9
  -0.6   -2.2
  -0.4   -1.0
  -0.2   -0.2
   0.0    0.0
   0.2   -0.2
   0.4   -1.0
   0.6   -2.2
   0.8   -3.9
   1.0   -6.1
   1.2   -8.8
   1.4  -12.0
   1.6  -15.7
   1.8  -24.0
   2.6  -24.0
   3.1  -29.5
   4.6  -29.5
   5.1  -32.7
   7.0  -32.7
   7.5  -37.0
   9.5  -37.0
  10.0  -43.0
  12.5  -43.0
  13.0  -46.0
  15.0  -46.0
  22.5  -46.0
  30.0  -49.0
  35.0  -54.0
  48.0  -58.0
  63.0  -58.0
  70.0  -69.0
  78.0  -69.0
  81.0  -75.0
 180.0  -75.0
HV      25
-180.0  -75.0
 -71.0  -75.0
 -69.0  -73.0
 -59.0  -73.0
 -51.0  -66.0
 -22.5  -66.0
 -20.0  -62.0
 -15.0  -62.0
  -5.0  -62.0
  -4.0  -57.5
  -3.0  -57.5
  -1.3  -40.0
   0.0  -40.0
   1.3  -40.0
   2.5  -49.0
   3.5  -56.0
   7.0  -56.0
   7.5  -59.0
   9.0  -59.0
   9.5  -64.0
  11.5  -68.0
  15.0  -68.0
  55.0  -68.0
  66.0  -75.0
 180.0  -75.0
VV      53
-180.0  -75.0
 -93.0  -75.0
 -90.0  -73.0
 -81.0  -73.0
 -71.0  -63.5
 -64.0  -63.5
 -52.5  -54.2
 -42.5  -54.2
 -25.0  -48.0
 -18.0  -39.4
 -15.0  -39.4
 -10.0  -39.4
  -9.5  -35.7
  -8.5  -35.7
  -6.6  -30.3
  -3.0  -30.3
  -2.5  -25.8
  -1.7  -25.8
  -1.5  -15.7
  -1.4  -12.0
  -1.2   -8.8
  -1.0   -6.1
  -0.8   -3.9
  -0.6   -2.2
  -0.4   -1.0
  -0.2   -0.2
   0.0    0.0
   0.2   -0.2
   0.4   -1.0
   0.6   -2.2
   0.8   -3.9
   1.0   -6.1
   1.2   -8.8
   1.4  -12.0
   1.6  -15.7
   1.9  -23.0
   2.6  -23.0
   3.1  -31.0
   6.3  -31.0
   7.5  -34.0
   8.5  -34.0
   9.5  -36.0
  11.0  -44.0
  15.0  -44.0
  26.0  -50.0
  30.0  -50.0
  34.0  -52.7
  45.0  -52.7
  52.5  -56.3
  62.0  -56.3
  74.0  -69.0
  85.0  -75.0
 180.0  -75.0
VH      30
-180.0  -75.0
 -70.0  -75.0
 -65.0  -67.0
 -54.0  -67.0
 -50.0  -63.0
 -29.0  -63.0
 -22.0  -57.0
 -15.0  -57.0
  -6.5  -57.0
  -6.0  -56.0
  -5.1  -56.0
  -3.5  -48.3
  -2.0  -48.3
  -1.3  -40.0
   0.0  -40.0
   1.3  -40.0
   2.0  -49.0
   3.5  -49.0
   4.5  -56.5
   8.8  -56.5
   9.2  -62.0
  10.0  -62.0
  10.5  -67.7
  15.0  -67.7
  22.0  -70.0
  47.0  -70.0
  51.0  -71.0
  67.5  -71.0
  74.0  -75.0
 180.0  -75.0