ANDREW CORPORATION            
HSX8-107                       
                              
82320A          
                
 9-20-96         
2320              
10700-11700    MHZ   
46.50 dBi       
0.8 DEGREES     
HH      63
-180.0  -75.0
 -83.5  -75.0
 -77.5  -69.0
 -70.5  -69.0
 -65.0  -65.0
 -60.0  -57.0
 -55.0  -57.0
 -40.0  -50.5
 -24.0  -50.5
 -20.5  -48.0
 -15.0  -47.0
 -11.0  -46.0
 -10.0  -42.0
  -9.0  -38.0
  -8.0  -38.0
  -7.0  -32.0
  -4.0  -32.0
  -3.0  -26.5
  -1.9  -26.5
  -1.5  -22.0
  -1.1  -22.0
  -1.0  -20.0
  -0.9  -16.0
  -0.8  -12.5
  -0.7   -9.0
  -0.6   -6.5
  -0.5   -4.5
  -0.4   -3.0
  -0.3   -1.5
  -0.2   -1.0
  -0.1   -0.3
   0.0    0.0
   0.0    0.0
   0.1   -0.1
   0.2   -0.5
   0.3   -1.2
   0.4   -2.3
   0.5   -4.0
   0.6   -6.0
   0.7   -8.0
   0.8  -11.0
   0.9  -14.5
   1.1  -22.0
   1.5  -22.0
   2.0  -28.5
   2.5  -28.5
   3.0  -30.0
   4.5  -30.0
   5.0  -32.0
   7.5  -32.0
   8.0  -36.0
  14.0  -36.0
  15.0  -39.5
  23.0  -39.5
  28.0  -48.0
  32.0  -48.5
  35.0  -53.0
  39.5  -53.0
  40.0  -55.0
  60.0  -55.0
  75.0  -66.0
  90.0  -75.0
 180.0  -75.0
HV      22
-180.0  -76.0
 -66.5  -76.0
 -60.0  -68.5
 -48.5  -68.5
 -42.0  -66.0
 -15.0  -66.0
  -6.0  -53.0
  -1.5  -53.0
  -0.8  -40.0
   0.0  -40.0
   0.0  -40.0
   0.8  -40.0
   2.0  -54.0
  15.0  -54.5
  17.0  -63.0
  30.0  -63.0
  35.0  -66.0
  50.0  -66.0
  55.5  -71.5
  70.0  -71.5
  74.0  -76.0
 180.0  -76.0
VV      51
-180.0  -75.0
 -85.0  -75.0
 -70.0  -61.5
 -29.5  -49.5
 -15.0  -47.5
 -14.0  -46.0
 -11.0  -46.0
  -8.0  -32.0
  -3.5  -32.0
  -2.5  -25.5
  -2.0  -25.5
  -1.5  -20.0
  -1.0  -20.0
  -0.9  -16.0
  -0.8  -12.0
  -0.7   -8.9
  -0.6   -6.7
  -0.5   -4.5
  -0.4   -2.8
  -0.3   -1.6
  -0.2   -0.6
  -0.1   -0.2
   0.0    0.0
   0.0    0.0
   0.1   -0.1
   0.2   -0.4
   0.3   -1.1
   0.4   -2.2
   0.5   -4.0
   0.6   -6.0
   0.7   -8.0
   0.8  -11.0
   0.9  -15.0
   1.0  -20.0
   1.5  -20.0
   2.0  -28.0
   4.0  -32.0
   7.0  -32.0
   8.0  -35.0
   9.0  -35.0
  10.0  -36.0
  12.0  -36.0
  15.0  -40.5
  28.0  -40.5
  30.5  -51.0
  37.5  -51.0
  45.0  -57.0
  52.0  -57.0
  75.0  -69.0
  79.0  -75.0
 180.0  -75.0
VH      21
-180.0  -76.0
 -75.0  -76.0
 -60.0  -74.0
 -56.0  -70.0
 -40.0  -68.5
 -37.0  -65.0
 -15.0  -65.0
 -10.0  -65.0
  -8.0  -59.0
  -6.0  -49.5
  -1.5  -49.5
  -0.8  -40.0
   0.0  -40.0
   0.0  -40.0
   0.8  -40.0
   4.0  -54.0
  13.0  -54.0
  15.0  -61.0
  46.0  -61.0
  79.0  -76.0
 180.0  -76.0