Andrew Corp
HXPD10-77GC                    
                              
NONE            
NONE            
 1-12-78         
2805             
7725-8275    MHZ   
45.20 dBi       
0.9 DEGREES     
HH      44
-179.7  -74.6
-160.3  -74.6
 -94.4  -74.6
 -69.9  -54.7
 -29.0  -51.5
 -20.4  -47.1
 -18.3  -43.2
 -15.0  -43.3
 -12.1  -43.4
  -8.0  -33.3
  -5.1  -33.3
  -3.3  -30.7
  -1.9  -25.3
  -1.6  -19.9
  -1.4  -14.9
  -1.1   -9.8
  -0.9   -7.4
  -0.9   -4.9
  -0.8   -3.2
  -0.5   -1.7
  -0.4   -0.7
   0.0    0.0
   0.4   -0.8
   0.7   -1.9
   0.7   -3.7
   0.8   -4.9
   0.8   -7.8
   0.9   -9.8
   1.2  -15.0
   1.5  -19.8
   1.8  -24.6
   3.9  -32.6
   8.8  -37.6
  11.0  -46.2
  15.0  -46.2
  15.8  -46.2
  20.9  -51.3
  26.0  -51.5
  29.0  -55.9
  51.0  -55.9
  70.4  -60.9
  89.3  -74.6
 173.6  -74.6
 179.7  -74.6
HV      31
-179.7  -74.6
-121.0  -74.6
 -94.4  -74.8
 -90.3  -71.2
 -34.2  -60.6
 -18.8  -60.6
 -15.0  -58.1
 -15.0  -58.1
  -5.0  -54.0
  -2.0  -47.1
  -1.1  -40.0
  -1.0  -38.3
  -1.0  -37.0
   0.0  -36.8
   0.5  -36.8
   0.9  -36.8
   1.2  -38.7
   1.3  -39.8
   1.5  -42.7
   1.8  -44.7
   1.9  -46.6
   5.0  -51.7
  14.1  -60.8
  15.0  -60.8
  24.5  -60.9
  49.5  -67.8
  79.6  -70.7
  90.3  -74.8
 133.3  -74.8
 174.1  -74.8
 179.2  -74.8
VV      54
-179.2  -74.6
-165.4  -74.6
 -94.4  -74.8
 -81.2  -69.7
 -76.0  -61.8
 -74.0  -56.7
 -61.2  -53.5
 -40.8  -53.5
 -31.1  -50.3
 -24.5  -50.3
 -17.3  -41.7
 -15.0  -41.7
 -12.5  -41.7
  -7.9  -34.8
  -5.0  -34.8
  -3.1  -27.0
  -1.9  -24.6
  -1.5  -18.7
  -1.3  -14.9
  -1.0  -10.1
  -0.9   -6.6
  -0.8   -4.4
  -0.6   -2.0
  -0.4   -0.7
   0.0    0.0
   0.4   -0.7
   0.6   -1.4
   0.7   -2.7
   0.9   -4.4
   0.9   -5.9
   0.9   -8.1
   1.1   -9.8
   1.3  -14.9
   1.5  -19.8
   1.9  -24.8
   2.4  -26.7
   3.0  -26.7
   6.0  -36.8
   7.7  -36.8
   9.0  -37.8
  12.0  -45.9
  15.0  -45.9
  15.3  -45.9
  16.8  -47.8
  22.9  -47.8
  25.0  -50.8
  30.6  -50.8
  40.8  -56.4
  50.5  -56.4
  69.4  -59.9
  77.1  -69.5
  89.3  -74.6
 170.0  -74.8
 178.2  -74.9
VH      34
-179.2  -74.6
 -93.9  -74.6
 -69.4  -66.3
 -56.1  -65.7
 -29.6  -61.6
 -19.9  -61.6
 -15.0  -58.8
 -15.0  -58.7
  -9.9  -54.7
  -5.7  -54.7
  -2.1  -46.9
  -1.7  -44.7
  -1.5  -42.0
  -1.2  -40.0
  -0.9  -37.8
  -0.9  -36.8
   0.0  -36.8
   0.5  -36.8
   1.0  -36.8
   1.2  -38.3
   1.4  -39.7
   1.7  -44.7
   1.9  -46.6
   3.0  -48.6
   7.9  -48.6
  10.1  -55.7
  15.0  -59.2
  15.8  -59.8
  18.8  -63.8
  71.4  -64.0
  77.6  -69.5
  89.3  -74.6
 174.1  -74.8
 179.7  -74.8
