Ericsson Microwave Systems
ML-38E 0.6m HP
0.6m / High Performance
NONE
NONE
12/03/98
UKY 210 09/SC11
37000-39500 MHz
44.0 dBi
1.0 deg
HH      17
-180.0  -69.5
-100.0  -69.5
 -80.0  -58.8
 -70.0  -53.5
 -25.0  -45.4
 -20.0  -44.5
 -10.0  -39.5
  -5.0  -27.5
   0.0    0.0
   5.0  -27.5
  10.0  -39.5
  20.0  -44.5
  25.0  -45.4
  70.0  -53.5
  80.0  -58.8
 100.0  -69.5
 180.0  -69.5
HV      17
-180.0  -72.5
-100.0  -72.5
 -80.0  -72.5
 -70.0  -62.5
 -25.0  -59.5
 -20.0  -57.0
 -10.0  -52.0
  -5.0  -49.5
   0.0  -27.0
   5.0  -49.5
  10.0  -52.0
  20.0  -57.0
  25.0  -59.5
  70.0  -62.5
  80.0  -72.5
 100.0  -72.5
 180.0  -72.5
VV      01
   0.0    0.0
VH      01
   0.0    0.0

VV      17
-180    -69.5
-100    -69.5
-80     -58.8
-70     -53.5
-25     -45.4
-20     -44.5
-10     -39.5
-5      -27.5
0       0
5       -27.5
10      -39.5
20      -44.5
25      -45.4
70      -53.5
80      -58.8
100     -69.5
180     -69.5
VH      17
-180    -72.5
-100    -72.5
-80     -72.5
-70     -62.5
-25     -59.5
-20     -57.0
-10     -52.0
-5      -49.5
0       -27.0
5       -49.5
10      -52.0
20      -57.0
25      -59.5
70      -62.5
80      -72.5
100     -72.5
180     -72.5
ELHH
ELHV
ELVV
ELVH