Andrew Corp
P10-71GE                      
                              
NONE            
NONE            
 7-12-78         
3708             
7125-8400    MHZ   
44.80 dBi       
0.9 DEGREES     
HH      25
-180.0  -52.0
-170.0  -52.0
-170.0  -64.0
-119.0  -64.0
 -94.5  -45.2
 -15.0  -45.0
 -11.4  -40.0
  -7.5  -40.0
  -4.5  -30.0
  -1.5  -25.0
  -1.0  -11.0
  -0.5   -1.0
   0.0    0.0
   0.5   -1.0
   1.0  -11.0
   1.5  -25.0
   4.5  -30.0
   7.5  -40.0
  11.4  -40.0
  15.0  -45.0
  94.5  -45.2
 119.0  -64.0
 170.0  -64.0
 170.0  -52.0
 180.0  -52.0
HV      19
-180.0  -64.0
-110.0  -64.0
 -65.0  -63.0
 -35.0  -63.0
 -15.0  -59.3
 -12.0  -55.0
  -7.5  -55.0
  -1.5  -44.1
  -1.0  -30.0
   0.0  -30.0
   1.0  -30.0
   1.5  -44.1
   7.5  -55.0
  12.0  -55.0
  15.0  -59.3
  35.0  -63.0
  65.0  -63.0
 110.0  -64.0
 180.0  -64.0
VV      33
-180.0  -52.0
-170.0  -52.0
-170.0  -64.0
-115.0  -64.0
 -92.0  -47.3
 -90.0  -47.2
 -79.0  -52.9
 -60.0  -52.9
 -35.0  -47.0
 -21.0  -36.9
 -13.1  -36.9
 -11.0  -33.0
  -4.0  -33.0
  -1.5  -25.0
  -1.0  -11.0
  -0.5   -1.0
   0.0    0.0
   0.5   -1.0
   1.0  -11.0
   1.5  -25.0
   4.0  -33.0
  11.0  -33.0
  13.1  -36.9
  21.0  -36.9
  35.0  -47.0
  60.0  -52.9
  79.0  -52.9
  90.0  -47.2
  92.0  -47.3
 115.0  -64.0
 170.0  -64.0
 170.0  -52.0
 180.0  -52.0
VH      21
-180.0  -64.0
-115.0  -64.0
-100.0  -62.3
 -60.0  -60.1
 -30.0  -60.0
 -15.0  -55.3
 -12.0  -46.2
  -5.0  -44.1
  -1.5  -44.1
  -1.0  -30.0
   0.0  -30.0
   1.0  -30.0
   1.5  -44.1
   5.0  -44.1
  12.0  -46.2
  15.0  -55.3
  30.0  -60.0
  60.0  -60.1
 100.0  -62.3
 115.0  -64.0
 180.0  -64.0
