MARK ANTENNAS DIV. RSInc.     
P-170C24(*)
S   2SS    101        B 187009
80008M
(NO REVERSE PATTERN)
07-14-93
(none)          
17700-19700 MHz 
38.9 dBi        
1.9 Deg         
HH      45
-180.0  -45.0
-122.0  -45.0
-109.0  -40.0
-103.0  -40.0
 -98.0  -42.0
 -42.0  -42.0
 -39.0  -39.0
 -22.0  -39.0
 -19.0  -34.9
 -15.0  -33.0
 -12.0  -33.4
 -10.9  -29.2
  -9.5  -29.2
  -7.0  -24.0
  -5.0  -24.0
  -4.0  -20.0
  -3.0  -15.1
  -2.5  -12.4
  -1.9   -9.4
  -1.4   -5.6
  -1.0   -3.2
  -0.9   -3.0
   0.0    0.0
   0.9   -3.0
   1.0   -3.2
   1.4   -5.6
   1.9   -9.4
   2.5  -12.4
   3.0  -15.1
   4.0  -20.0
   5.0  -24.0
   7.0  -24.0
   9.5  -29.2
  10.9  -29.2
  12.0  -33.4
  15.0  -33.0
  19.0  -34.9
  22.0  -39.0
  39.0  -39.0
  42.0  -42.0
  98.0  -42.0
 103.0  -40.0
 109.0  -40.0
 122.0  -45.0
 180.0  -45.0
HV      23
-180.0  -46.0
-127.0  -46.0
-114.0  -44.0
 -90.0  -44.0
 -61.0  -48.0
 -22.0  -48.0
 -19.0  -46.0
  -9.0  -46.0
  -6.0  -42.0
  -4.0  -42.0
  -2.0  -26.0
   0.0  -26.0
   2.0  -26.0
   4.0  -42.0
   6.0  -42.0
   9.0  -46.0
  19.0  -46.0
  22.0  -48.0
  61.0  -48.0
  90.0  -44.0
 114.0  -44.0
 127.0  -46.0
 180.0  -46.0
VV      01
   0.0    0.0
VH      01
   0.0    0.0
     
VV       45
-180    -45     
-122    -45     
-109    -40     
-103    -40     
-98     -42     
-42     -42     
-39     -39     
-22     -39     
-19     -34.9   
-15     -33     
-12     -33.4   
-10.9   -29.2   
-9.5    -29.2   
-7      -24     
-5      -24     
-4      -20     
-3      -15.1   
-2.5    -12.4   
-1.9    -9.4    
-1.4    -5.6    
-1      -3.2    
-.9     -3      
 0       0      
 .9     -3      
 1      -3.2    
 1.4    -5.6    
 1.9    -9.4    
 2.5    -12.4   
 3      -15.1   
 4      -20     
 5      -24     
 7      -24     
 9.5    -29.2   
 10.9   -29.2   
 12     -33.4   
 15     -33     
 19     -34.9   
 22     -39     
 39     -39     
 42     -42     
 98     -42     
 103    -40     
 109    -40     
 122    -45     
 180    -45     
VH       23
-180    -46     
-127    -46     
-114    -44     
-90     -44     
-61     -48     
-22     -48     
-19     -46     
-9      -46     
-6      -42     
-4      -42     
-2      -26     
 0      -26     
 2      -26     
 4      -42     
 6      -42     
 9      -46     
 19     -46     
 22     -48     
 61     -48     
 90     -44     
 114    -44     
 127    -46     
 180    -46     
ELHH      0
ELHV      0
ELVV      0
ELVH      0
