Andrew Corp
P8F-21C                       
                              
A22960          
NONE            
11-12-80         
1846             
2100-2200    MHZ   
32.50 dBi       
3.8 DEGREES     
HH      43
-180.0  -40.1
-176.5  -40.1
-170.0  -43.0
-130.0  -43.0
-100.0  -33.0
 -90.0  -33.0
 -90.0  -34.0
 -21.5  -34.0
 -17.0  -27.0
 -14.5  -27.0
 -12.5  -23.0
  -7.8  -22.0
  -7.6  -20.5
  -5.1  -20.5
  -5.0  -20.0
  -3.5   -9.7
  -2.5   -4.8
  -2.0   -2.9
  -1.5   -1.7
  -1.0   -0.8
  -0.5   -0.2
   0.0    0.0
   0.5   -0.2
   1.0   -0.8
   1.5   -1.7
   2.0   -2.9
   2.5   -4.8
   3.5   -9.7
   5.0  -20.0
   5.1  -20.5
   7.6  -20.5
   7.8  -22.0
  12.5  -23.0
  14.5  -27.0
  17.0  -27.0
  21.5  -34.0
  90.0  -34.0
  90.0  -33.0
 100.0  -33.0
 130.0  -43.0
 170.0  -43.0
 176.5  -40.1
 180.0  -40.1
HV       7
-180.0  -44.0
 -10.0  -44.0
  -4.5  -30.0
   0.0  -30.0
   4.5  -30.0
  10.0  -44.0
 180.0  -44.0
VV      43
-180.0  -40.1
-176.5  -40.1
-170.0  -43.0
-130.0  -43.0
-100.0  -33.0
 -90.0  -33.0
 -90.0  -34.0
 -21.5  -34.0
 -17.0  -27.0
 -14.5  -27.0
 -12.5  -23.0
  -7.8  -22.0
  -7.6  -20.5
  -5.1  -20.5
  -5.0  -20.0
  -3.5   -9.7
  -2.5   -4.8
  -2.0   -2.9
  -1.5   -1.7
  -1.0   -0.8
  -0.5   -0.2
   0.0    0.0
   0.5   -0.2
   1.0   -0.8
   1.5   -1.7
   2.0   -2.9
   2.5   -4.8
   3.5   -9.7
   5.0  -20.0
   5.1  -20.5
   7.6  -20.5
   7.8  -22.0
  12.5  -23.0
  14.5  -27.0
  17.0  -27.0
  21.5  -34.0
  90.0  -34.0
  90.0  -33.0
 100.0  -33.0
 130.0  -43.0
 170.0  -43.0
 176.5  -40.1
 180.0  -40.1
VH       7
-180.0  -44.0
 -10.0  -44.0
  -4.5  -30.0
   0.0  -30.0
   4.5  -30.0
  10.0  -44.0
 180.0  -44.0
