REVNUM:,NSMA WG16.99.050
REVDAT:,19980706
COMNT1:,
COMNT2:,
ANTMAN:,MiMOMax Wireless
MODNUM:,ANT-390-410-010-PD01
DESCR1:,MiMOMax Dual Pol. panel ant.
DTDATA:,20100709
LOWFRQ:,375.0
HGHFRQ:,425.0
GUNITS:, DBI/DBR
LWGAIN:,
MDGAIN:,11.0,
HGGAIN:,
AZWIDT:,62.00,
ELWIDT:,37.00,
CONTYP:,
ATVSWR:,
FRTOBA:,
ELTILT:,0.00,
RADCTR:,
POTOPO:,
MAXPOW:,
ANTLEN:,
ANTWID:,
ANTDEP:,
ANTWGT:,
FIELD1:,
FIELD2:,
FIELD3:,
FIELD4:,
FIELD5:,
PATTYP:,typical
NOFREQ:,1
PATFRE:,400.00
NUMCUT:,4
PATCUT:,H
POLARI:,H/H
NUPOIN:,360
FSTLST:,-180.0,179.0
-180 -18.39
-179 -18.39
-178 -18.42
-177 -18.47
-176 -18.54
-175 -18.63
-174 -18.74
-173 -18.87
-172 -19.03
-171 -19.21
-170 -19.42
-169 -19.64
-168 -19.9
-167 -20.18
-166 -20.49
-165 -20.82
-164 -21.19
-163 -21.58
-162 -22.01
-161 -22.48
-160 -22.98
-159 -23.52
-158 -24.11
-157 -24.73
-156 -25.4
-155 -26.12
-154 -26.87
-153 -27.66
-152 -28.47
-151 -29.27
-150 -30.03
-149 -30.67
-148 -31.14
-147 -31.36
-146 -31.31
-145 -31
-144 -30.51
-143 -29.9
-142 -29.24
-141 -28.56
-140 -27.9
-139 -27.27
-138 -26.68
-137 -26.13
-136 -25.63
-135 -25.17
-134 -24.75
-133 -24.36
-132 -24.01
-131 -23.7
-130 -23.42
-129 -23.16
-128 -22.94
-127 -22.74
-126 -22.57
-125 -22.42
-124 -22.3
-123 -22.2
-122 -22.12
-121 -22.06
-120 -22.02
-119 -22
-118 -22
-117 -22.03
-116 -22.07
-115 -22.13
-114 -22.21
-113 -22.31
-112 -22.43
-111 -22.57
-110 -22.74
-109 -22.92
-108 -23.13
-107 -23.36
-106 -23.62
-105 -23.91
-104 -24.22
-103 -24.57
-102 -24.95
-101 -25.36
-100 -25.81
-99 -26.3
-98 -26.84
-97 -27.42
-96 -28.04
-95 -28.71
-94 -29.41
-93 -30.11
-92 -30.79
-91 -31.36
-90 -31.75
-89 -31.86
-88 -31.63
-87 -31.08
-86 -30.29
-85 -29.36
-84 -28.35
-83 -27.34
-82 -26.34
-81 -25.37
-80 -24.45
-79 -23.57
-78 -22.73
-77 -21.94
-76 -21.18
-75 -20.45
-74 -19.76
-73 -19.09
-72 -18.45
-71 -17.84
-70 -17.24
-69 -16.67
-68 -16.12
-67 -15.58
-66 -15.07
-65 -14.56
-64 -14.07
-63 -13.6
-62 -13.14
-61 -12.69
-60 -12.25
-59 -11.82
-58 -11.4
-57 -10.99
-56 -10.6
-55 -10.21
-54 -9.83
-53 -9.46
-52 -9.1
-51 -8.74
-50 -8.4
-49 -8.06
-48 -7.73
-47 -7.41
-46 -7.1
-45 -6.79
-44 -6.49
-43 -6.2
-42 -5.91
-41 -5.63
-40 -5.36
-39 -5.1
-38 -4.84
-37 -4.59
-36 -4.34
-35 -4.1
-34 -3.87
-33 -3.65
-32 -3.43
-31 -3.22
-30 -3.02
-29 -2.82
-28 -2.63
-27 -2.45
-26 -2.27
-25 -2.1
-24 -1.93
-23 -1.78
-22 -1.63
-21 -1.48
-20 -1.35
-19 -1.21
-18 -1.09
-17 -0.97
-16 -0.86
-15 -0.76
-14 -0.66
-13 -0.57
-12 -0.49
-11 -0.41
-10 -0.34
-9 -0.28
-8 -0.22
-7 -0.17
-6 -0.12
-5 -9.00E-02
-4 -6.00E-02
-3 -3.00E-02
-2 -2.00E-02
-1 -1.00E-02
0 0
1 -1.00E-02
2 -2.00E-02
3 -4.00E-02
4 -6.00E-02
5 -9.00E-02
6 -0.13
7 -0.17
8 -0.22
9 -0.28
10 -0.34
11 -0.42
12 -0.49
13 -0.58
14 -0.67
15 -0.77
16 -0.87
17 -0.98
18 -1.1
19 -1.22
20 -1.36
21 -1.49
22 -1.64
23 -1.79
24 -1.95
25 -2.11
26 -2.28
27 -2.46
28 -2.65
29 -2.84
30 -3.04
31 -3.24
32 -3.45
33 -3.67
34 -3.89
35 -4.13
36 -4.36
37 -4.61
38 -4.86
39 -5.12
40 -5.39
41 -5.66
42 -5.94
43 -6.23
44 -6.52
45 -6.82
46 -7.13
47 -7.44
48 -7.77
49 -8.1
50 -8.44
51 -8.78
52 -9.14
53 -9.5
54 -9.88
55 -10.26
56 -10.65
57 -11.05
58 -11.45
59 -11.87
60 -12.3
61 -12.75
62 -13.2
63 -13.66
64 -14.14
65 -14.63
66 -15.14
67 -15.66
68 -16.2
69 -16.76
70 -17.34
71 -17.94
72 -18.56
73 -19.21
74 -19.88
75 -20.58
76 -21.32
77 -22.1
78 -22.91
79 -23.77
80 -24.67
81 -25.62
82 -26.61
83 -27.65
84 -28.71
85 -29.76
86 -30.74
87 -31.56
88 -32.1
89 -32.28
90 -32.09
91 -31.61
92 -30.96
93 -30.22
94 -29.47
95 -28.73
96 -28.04
97 -27.4
98 -26.8
99 -26.26
100 -25.76
101 -25.3
102 -24.88
103 -24.5
104 -24.15
105 -23.83
106 -23.54
107 -23.28
108 -23.04
109 -22.83
110 -22.64
111 -22.47
112 -22.33
113 -22.2
114 -22.1
115 -22.01
116 -21.95
117 -21.9
118 -21.88
119 -21.87
120 -21.88
121 -21.91
122 -21.97
123 -22.04
124 -22.14
125 -22.25
126 -22.39
127 -22.56
128 -22.75
129 -22.96
130 -23.2
131 -23.48
132 -23.78
133 -24.12
134 -24.49
135 -24.9
136 -25.35
137 -25.84
138 -26.37
139 -26.95
140 -27.57
141 -28.24
142 -28.93
143 -29.63
144 -30.3
145 -30.88
146 -31.31
147 -31.5
148 -31.42
149 -31.05
150 -30.47
151 -29.74
152 -28.93
153 -28.1
154 -27.29
155 -26.5
156 -25.76
157 -25.06
158 -24.41
159 -23.8
160 -23.24
161 -22.71
162 -22.23
163 -21.78
164 -21.36
165 -20.98
166 -20.63
167 -20.31
168 -20.02
169 -19.75
170 -19.51
171 -19.3
172 -19.11
173 -18.94
174 -18.8
175 -18.67
176 -18.57
177 -18.49
178 -18.44
179 -18.4
PATCUT:,H
POLARI:,V/V
NUPOIN:,360
FSTLST:,-180.0,179.0
-180 -14.65
-179 -14.66
-178 -14.68
-177 -14.71
-176 -14.75
-175 -14.81
-174 -14.87
-173 -14.96
-172 -15.05
-171 -15.16
-170 -15.28
-169 -15.41
-168 -15.55
-167 -15.71
-166 -15.89
-165 -16.07
-164 -16.28
-163 -16.49
-162 -16.72
-161 -16.97
-160 -17.23
-159 -17.5
-158 -17.8
-157 -18.11
-156 -18.43
-155 -18.78
-154 -19.14
-153 -19.52
-152 -19.92
-151 -20.35
-150 -20.79
-149 -21.26
-148 -21.74
-147 -22.26
-146 -22.79
-145 -23.35
-144 -23.93
-143 -24.54
-142 -25.17
-141 -25.81
-140 -26.47
-139 -27.12
-138 -27.77
-137 -28.39
-136 -28.95
-135 -29.43
-134 -29.8
-133 -30.04
-132 -30.12
-131 -30.06
-130 -29.87
-129 -29.57
-128 -29.19
-127 -28.76
-126 -28.31
-125 -27.84
-124 -27.38
-123 -26.92
-122 -26.48
-121 -26.05
-120 -25.64
-119 -25.25
-118 -24.87
-117 -24.51
-116 -24.17
-115 -23.84
-114 -23.52
-113 -23.22
-112 -22.92
-111 -22.63
-110 -22.36
-109 -22.08
-108 -21.82
-107 -21.56
-106 -21.3
-105 -21.05
-104 -20.79
-103 -20.54
-102 -20.3
-101 -20.05
-100 -19.8
-99 -19.55
-98 -19.3
-97 -19.05
-96 -18.79
-95 -18.54
-94 -18.28
-93 -18.02
-92 -17.76
-91 -17.5
-90 -17.24
-89 -16.97
-88 -16.7
-87 -16.43
-86 -16.16
-85 -15.89
-84 -15.61
-83 -15.34
-82 -15.06
-81 -14.78
-80 -14.5
-79 -14.22
-78 -13.94
-77 -13.66
-76 -13.38
-75 -13.1
-74 -12.82
-73 -12.54
-72 -12.26
-71 -11.98
-70 -11.7
-69 -11.42
-68 -11.15
-67 -10.87
-66 -10.6
-65 -10.32
-64 -10.05
-63 -9.78
-62 -9.51
-61 -9.24
-60 -8.98
-59 -8.72
-58 -8.46
-57 -8.2
-56 -7.94
-55 -7.69
-54 -7.44
-53 -7.19
-52 -6.95
-51 -6.71
-50 -6.47
-49 -6.23
-48 -6
-47 -5.77
-46 -5.54
-45 -5.32
-44 -5.1
-43 -4.88
-42 -4.67
-41 -4.47
-40 -4.26
-39 -4.06
-38 -3.87
-37 -3.67
-36 -3.49
-35 -3.3
-34 -3.12
-33 -2.95
-32 -2.78
-31 -2.61
-30 -2.45
-29 -2.29
-28 -2.14
-27 -2
-26 -1.85
-25 -1.72
-24 -1.58
-23 -1.46
-22 -1.33
-21 -1.22
-20 -1.11
-19 -1
-18 -0.9
-17 -0.8
-16 -0.71
-15 -0.62
-14 -0.54
-13 -0.47
-12 -0.4
-11 -0.34
-10 -0.28
-9 -0.22
-8 -0.18
-7 -0.14
-6 -1.00E-01
-5 -7.00E-02
-4 -4.00E-02
-3 -2.00E-02
-2 -1.00E-02
-1 0
0 0
1 0
2 -1.00E-02
3 -2.00E-02
4 -4.00E-02
5 -7.00E-02
6 -1.00E-01
7 -0.14
8 -0.18
9 -0.22
10 -0.28
11 -0.34
12 -0.4
13 -0.47
14 -0.54
15 -0.62
16 -0.71
17 -0.8
18 -0.9
19 -1
20 -1.11
21 -1.22
22 -1.33
23 -1.46
24 -1.58
25 -1.72
26 -1.85
27 -2
28 -2.14
29 -2.29
30 -2.45
31 -2.61
32 -2.78
33 -2.95
34 -3.12
35 -3.3
36 -3.49
37 -3.67
38 -3.87
39 -4.06
40 -4.26
41 -4.47
42 -4.67
43 -4.89
44 -5.1
45 -5.32
46 -5.54
47 -5.77
48 -6
49 -6.23
50 -6.47
51 -6.71
52 -6.95
53 -7.19
54 -7.44
55 -7.69
56 -7.94
57 -8.2
58 -8.46
59 -8.72
60 -8.98
61 -9.25
62 -9.51
63 -9.78
64 -10.05
65 -10.32
66 -10.6
67 -10.87
68 -11.15
69 -11.42
70 -11.7
71 -11.98
72 -12.26
73 -12.54
74 -12.82
75 -13.1
76 -13.38
77 -13.66
78 -13.94
79 -14.22
80 -14.5
81 -14.78
82 -15.06
83 -15.34
84 -15.61
85 -15.89
86 -16.16
87 -16.43
88 -16.7
89 -16.97
90 -17.24
91 -17.5
92 -17.76
93 -18.02
94 -18.28
95 -18.54
96 -18.79
97 -19.05
98 -19.3
99 -19.55
100 -19.8
101 -20.05
102 -20.3
103 -20.55
104 -20.8
105 -21.05
106 -21.3
107 -21.56
108 -21.82
109 -22.09
110 -22.36
111 -22.64
112 -22.92
113 -23.22
114 -23.52
115 -23.84
116 -24.17
117 -24.51
118 -24.87
119 -25.25
120 -25.64
121 -26.05
122 -26.48
123 -26.92
124 -27.38
125 -27.84
126 -28.31
127 -28.77
128 -29.19
129 -29.57
130 -29.87
131 -30.06
132 -30.13
133 -30.04
134 -29.81
135 -29.44
136 -28.95
137 -28.39
138 -27.77
139 -27.12
140 -26.47
141 -25.81
142 -25.17
143 -24.54
144 -23.93
145 -23.35
146 -22.79
147 -22.26
148 -21.74
149 -21.26
150 -20.79
151 -20.35
152 -19.92
153 -19.52
154 -19.14
155 -18.78
156 -18.43
157 -18.11
158 -17.8
159 -17.5
160 -17.23
161 -16.97
162 -16.72
163 -16.49
164 -16.28
165 -16.07
166 -15.89
167 -15.71
168 -15.55
169 -15.41
170 -15.28
171 -15.16
172 -15.05
173 -14.96
174 -14.87
175 -14.81
176 -14.75
177 -14.71
178 -14.68
179 -14.66
PATCUT:,V
POLARI:,H/H
NUPOIN:,360
FSTLST:,-180.0,179.0
-180 -18.39
-179 -18.39
-178 -18.42
-177 -18.47
-176 -18.53
-175 -18.61
-174 -18.7
-173 -18.82
-172 -18.95
-171 -19.09
-170 -19.25
-169 -19.43
-168 -19.62
-167 -19.82
-166 -20.04
-165 -20.26
-164 -20.5
-163 -20.74
-162 -20.99
-161 -21.25
-160 -21.51
-159 -21.77
-158 -22.03
-157 -22.29
-156 -22.55
-155 -22.8
-154 -23.04
-153 -23.28
-152 -23.5
-151 -23.72
-150 -23.93
-149 -24.13
-148 -24.31
-147 -24.49
-146 -24.67
-145 -24.83
-144 -25
-143 -25.15
-142 -25.31
-141 -25.47
-140 -25.62
-139 -25.78
-138 -25.94
-137 -26.1
-136 -26.26
-135 -26.43
-134 -26.59
-133 -26.76
-132 -26.92
-131 -27.09
-130 -27.24
-129 -27.4
-128 -27.54
-127 -27.66
-126 -27.78
-125 -27.87
-124 -27.95
-123 -28
-122 -28.02
-121 -28.02
-120 -27.99
-119 -27.94
-118 -27.86
-117 -27.76
-116 -27.64
-115 -27.5
-114 -27.35
-113 -27.18
-112 -27
-111 -26.82
-110 -26.63
-109 -26.43
-108 -26.23
-107 -26.04
-106 -25.85
-105 -25.66
-104 -25.47
-103 -25.29
-102 -25.11
-101 -24.94
-100 -24.78
-99 -24.62
-98 -24.47
-97 -24.32
-96 -24.19
-95 -24.06
-94 -23.94
-93 -23.83
-92 -23.72
-91 -23.63
-90 -23.54
-89 -23.46
-88 -23.39
-87 -23.33
-86 -23.29
-85 -23.25
-84 -23.22
-83 -23.21
-82 -23.21
-81 -23.22
-80 -23.25
-79 -23.3
-78 -23.36
-77 -23.44
-76 -23.55
-75 -23.68
-74 -23.83
-73 -24.01
-72 -24.23
-71 -24.48
-70 -24.76
-69 -25.09
-68 -25.47
-67 -25.9
-66 -26.38
-65 -26.91
-64 -27.5
-63 -28.11
-62 -28.73
-61 -29.29
-60 -29.68
-59 -29.77
-58 -29.46
-57 -28.76
-56 -27.75
-55 -26.56
-54 -25.31
-53 -24.05
-52 -22.83
-51 -21.65
-50 -20.54
-49 -19.48
-48 -18.48
-47 -17.53
-46 -16.63
-45 -15.76
-44 -14.94
-43 -14.16
-42 -13.41
-41 -12.7
-40 -12.01
-39 -11.35
-38 -10.72
-37 -10.11
-36 -9.53
-35 -8.97
-34 -8.43
-33 -7.91
-32 -7.42
-31 -6.94
-30 -6.48
-29 -6.04
-28 -5.61
-27 -5.21
-26 -4.82
-25 -4.45
-24 -4.09
-23 -3.75
-22 -3.43
-21 -3.12
-20 -2.82
-19 -2.54
-18 -2.28
-17 -2.03
-16 -1.8
-15 -1.58
-14 -1.38
-13 -1.19
-12 -1.01
-11 -0.85
-10 -0.7
-9 -0.57
-8 -0.45
-7 -0.35
-6 -0.26
-5 -0.18
-4 -0.12
-3 -7.00E-02
-2 -3.00E-02
-1 -1.00E-02
0 0
1 -1.00E-02
2 -3.00E-02
3 -7.00E-02
4 -0.12
5 -0.18
6 -0.26
7 -0.35
8 -0.45
9 -0.57
10 -0.7
11 -0.85
12 -1.01
13 -1.19
14 -1.38
15 -1.58
16 -1.8
17 -2.03
18 -2.28
19 -2.54
20 -2.82
21 -3.12
22 -3.43
23 -3.75
24 -4.09
25 -4.45
26 -4.82
27 -5.21
28 -5.61
29 -6.04
30 -6.48
31 -6.94
32 -7.42
33 -7.91
34 -8.43
35 -8.97
36 -9.53
37 -10.11
38 -10.72
39 -11.35
40 -12.01
41 -12.7
42 -13.41
43 -14.16
44 -14.94
45 -15.76
46 -16.63
47 -17.53
48 -18.48
49 -19.48
50 -20.54
51 -21.65
52 -22.83
53 -24.05
54 -25.31
55 -26.56
56 -27.75
57 -28.76
58 -29.46
59 -29.77
60 -29.68
61 -29.29
62 -28.73
63 -28.11
64 -27.5
65 -26.91
66 -26.38
67 -25.9
68 -25.47
69 -25.09
70 -24.76
71 -24.48
72 -24.23
73 -24.01
74 -23.83
75 -23.68
76 -23.55
77 -23.44
78 -23.36
79 -23.3
80 -23.25
81 -23.22
82 -23.21
83 -23.21
84 -23.22
85 -23.25
86 -23.29
87 -23.33
88 -23.39
89 -23.46
90 -23.54
91 -23.63
92 -23.72
93 -23.83
94 -23.94
95 -24.06
96 -24.19
97 -24.32
98 -24.47
99 -24.62
100 -24.78
101 -24.94
102 -25.11
103 -25.29
104 -25.47
105 -25.66
106 -25.85
107 -26.04
108 -26.23
109 -26.43
110 -26.63
111 -26.82
112 -27
113 -27.18
114 -27.35
115 -27.5
116 -27.64
117 -27.76
118 -27.86
119 -27.94
120 -27.99
121 -28.02
122 -28.02
123 -28
124 -27.95
125 -27.87
126 -27.78
127 -27.66
128 -27.54
129 -27.4
130 -27.24
131 -27.09
132 -26.92
133 -26.76
134 -26.59
135 -26.43
136 -26.26
137 -26.1
138 -25.94
139 -25.78
140 -25.62
141 -25.47
142 -25.31
143 -25.15
144 -25
145 -24.83
146 -24.67
147 -24.49
148 -24.31
149 -24.13
150 -23.93
151 -23.72
152 -23.5
153 -23.28
154 -23.04
155 -22.8
156 -22.55
157 -22.29
158 -22.03
159 -21.77
160 -21.51
161 -21.25
162 -20.99
163 -20.74
164 -20.5
165 -20.26
166 -20.04
167 -19.82
168 -19.62
169 -19.43
170 -19.25
171 -19.09
172 -18.95
173 -18.82
174 -18.7
175 -18.61
176 -18.53
177 -18.47
178 -18.42
179 -18.39
PATCUT:,V
POLARI:,V/V
NUPOIN:,360
FSTLST:,-180.0,179.0
-180 -14.65
-179 -14.67
-178 -14.72
-177 -14.82
-176 -14.95
-175 -15.12
-174 -15.33
-173 -15.57
-172 -15.87
-171 -16.2
-170 -16.58
-169 -17.02
-168 -17.5
-167 -18.04
-166 -18.64
-165 -19.31
-164 -20.05
-163 -20.88
-162 -21.79
-161 -22.81
-160 -23.94
-159 -25.18
-158 -26.53
-157 -27.94
-156 -29.27
-155 -30.26
-154 -30.61
-153 -30.2
-152 -29.28
-151 -28.17
-150 -27.05
-149 -26.01
-148 -25.09
-147 -24.28
-146 -23.57
-145 -22.96
-144 -22.43
-143 -21.98
-142 -21.59
-141 -21.27
-140 -21
-139 -20.78
-138 -20.6
-137 -20.47
-136 -20.38
-135 -20.32
-134 -20.3
-133 -20.32
-132 -20.36
-131 -20.43
-130 -20.54
-129 -20.67
-128 -20.82
-127 -21.01
-126 -21.21
-125 -21.45
-124 -21.7
-123 -21.98
-122 -22.29
-121 -22.62
-120 -22.97
-119 -23.34
-118 -23.74
-117 -24.17
-116 -24.61
-115 -25.08
-114 -25.58
-113 -26.1
-112 -26.63
-111 -27.19
-110 -27.76
-109 -28.33
-108 -28.9
-107 -29.45
-106 -29.95
-105 -30.38
-104 -30.7
-103 -30.88
-102 -30.91
-101 -30.77
-100 -30.47
-99 -30.05
-98 -29.52
-97 -28.94
-96 -28.31
-95 -27.66
-94 -27.01
-93 -26.37
-92 -25.74
-91 -25.12
-90 -24.53
-89 -23.96
-88 -23.41
-87 -22.87
-86 -22.36
-85 -21.87
-84 -21.4
-83 -20.95
-82 -20.52
-81 -20.1
-80 -19.71
-79 -19.33
-78 -18.97
-77 -18.62
-76 -18.3
-75 -17.99
-74 -17.7
-73 -17.42
-72 -17.17
-71 -16.93
-70 -16.71
-69 -16.51
-68 -16.33
-67 -16.17
-66 -16.03
-65 -15.91
-64 -15.82
-63 -15.75
-62 -15.71
-61 -15.69
-60 -15.71
-59 -15.76
-58 -15.84
-57 -15.96
-56 -16.12
-55 -16.32
-54 -16.58
-53 -16.89
-52 -17.27
-51 -17.72
-50 -18.26
-49 -18.89
-48 -19.63
-47 -20.5
-46 -21.51
-45 -22.66
-44 -23.88
-43 -24.99
-42 -25.56
-41 -25.16
-40 -23.88
-39 -22.17
-38 -20.4
-37 -18.73
-36 -17.21
-35 -15.82
-34 -14.56
-33 -13.41
-32 -12.35
-31 -11.37
-30 -10.47
-29 -9.64
-28 -8.86
-27 -8.13
-26 -7.45
-25 -6.81
-24 -6.22
-23 -5.66
-22 -5.13
-21 -4.64
-20 -4.18
-19 -3.75
-18 -3.34
-17 -2.96
-16 -2.61
-15 -2.28
-14 -1.98
-13 -1.7
-12 -1.44
-11 -1.21
-10 -1
-9 -0.8
-8 -0.63
-7 -0.48
-6 -0.35
-5 -0.24
-4 -0.16
-3 -9.00E-02
-2 -4.00E-02
-1 -1.00E-02
0 0
1 -1.00E-02
2 -4.00E-02
3 -9.00E-02
4 -0.16
5 -0.24
6 -0.35
7 -0.48
8 -0.63
9 -0.8
10 -1
11 -1.21
12 -1.44
13 -1.7
14 -1.98
15 -2.28
16 -2.61
17 -2.96
18 -3.34
19 -3.75
20 -4.18
21 -4.64
22 -5.13
23 -5.66
24 -6.22
25 -6.81
26 -7.45
27 -8.13
28 -8.86
29 -9.64
30 -10.47
31 -11.37
32 -12.35
33 -13.41
34 -14.56
35 -15.82
36 -17.21
37 -18.73
38 -20.4
39 -22.17
40 -23.88
41 -25.16
42 -25.56
43 -24.99
44 -23.88
45 -22.66
46 -21.51
47 -20.5
48 -19.63
49 -18.89
50 -18.26
51 -17.72
52 -17.27
53 -16.89
54 -16.58
55 -16.32
56 -16.12
57 -15.96
58 -15.84
59 -15.76
60 -15.71
61 -15.69
62 -15.71
63 -15.75
64 -15.82
65 -15.91
66 -16.03
67 -16.17
68 -16.33
69 -16.51
70 -16.71
71 -16.93
72 -17.17
73 -17.42
74 -17.7
75 -17.99
76 -18.3
77 -18.62
78 -18.97
79 -19.33
80 -19.71
81 -20.1
82 -20.52
83 -20.95
84 -21.4
85 -21.87
86 -22.36
87 -22.87
88 -23.41
89 -23.96
90 -24.53
91 -25.12
92 -25.74
93 -26.37
94 -27.01
95 -27.66
96 -28.31
97 -28.94
98 -29.52
99 -30.05
100 -30.47
101 -30.77
102 -30.91
103 -30.88
104 -30.7
105 -30.38
106 -29.95
107 -29.45
108 -28.9
109 -28.33
110 -27.76
111 -27.19
112 -26.63
113 -26.1
114 -25.58
115 -25.08
116 -24.61
117 -24.17
118 -23.74
119 -23.34
120 -22.97
121 -22.62
122 -22.29
123 -21.98
124 -21.7
125 -21.45
126 -21.21
127 -21.01
128 -20.82
129 -20.67
130 -20.54
131 -20.43
132 -20.36
133 -20.32
134 -20.3
135 -20.32
136 -20.38
137 -20.47
138 -20.6
139 -20.78
140 -21
141 -21.27
142 -21.59
143 -21.98
144 -22.43
145 -22.96
146 -23.57
147 -24.28
148 -25.09
149 -26.01
150 -27.05
151 -28.17
152 -29.28
153 -30.2
154 -30.61
155 -30.26
156 -29.27
157 -27.94
158 -26.53
159 -25.18
160 -23.94
161 -22.81
162 -21.79
163 -20.88
164 -20.05
165 -19.31
166 -18.64
167 -18.04
168 -17.5
169 -17.02
170 -16.58
171 -16.2
172 -15.87
173 -15.57
174 -15.33
175 -15.12
176 -14.95
177 -14.82
178 -14.72
179 -14.67
ENDFIL:,EOF
