Andrew Corp
PL10-19D                      
                              
A25401          
NONE            
 7-10-90         
1403             
1900-2300    MHZ   
33.90 dBi       
3.3 DEGREES     
HH      57
-180.0  -44.0
-163.9  -44.0
-103.3  -44.0
 -85.0  -35.5
 -33.2  -35.5
 -23.6  -34.0
 -15.0  -29.0
 -14.9  -29.0
 -14.8  -28.3
 -10.8  -23.3
  -5.9  -22.4
  -4.9  -21.0
  -3.1   -9.8
  -2.5   -7.0
  -2.3   -6.2
  -2.2   -5.5
  -2.0   -4.8
  -1.8   -4.2
  -1.7   -3.5
  -1.5   -2.9
  -1.3   -2.4
  -1.2   -1.8
  -1.0   -1.4
  -0.8   -1.0
  -0.7   -0.6
  -0.5   -0.4
  -0.3   -0.2
  -0.2    0.0
   0.0    0.0
   0.2    0.0
   0.3   -0.2
   0.5   -0.4
   0.7   -0.6
   0.8   -1.0
   1.0   -1.4
   1.2   -1.8
   1.3   -2.4
   1.5   -2.9
   1.7   -3.5
   1.8   -4.2
   2.0   -4.8
   2.2   -5.5
   2.3   -6.2
   2.5   -7.0
   3.1   -9.8
   4.9  -21.0
   5.9  -22.4
  10.8  -23.3
  14.8  -28.3
  14.9  -29.0
  15.0  -29.0
  23.6  -34.0
  33.2  -35.5
  85.0  -35.5
 103.3  -44.0
 163.9  -44.0
 180.0  -44.0
HV       7
-180.0  -47.0
  -9.0  -47.0
  -4.0  -30.0
   0.0  -30.0
   4.0  -30.0
   9.0  -47.0
 180.0  -47.0
VV      57
-180.0  -44.0
-163.9  -44.0
-103.3  -44.0
 -85.0  -35.5
 -33.2  -35.5
 -23.6  -34.0
 -15.0  -29.0
 -14.9  -29.0
 -14.8  -28.3
 -10.8  -23.3
  -5.9  -22.4
  -4.9  -21.0
  -3.1   -9.8
  -2.5   -7.0
  -2.3   -6.2
  -2.2   -5.5
  -2.0   -4.8
  -1.8   -4.2
  -1.7   -3.5
  -1.5   -2.9
  -1.3   -2.4
  -1.2   -1.8
  -1.0   -1.4
  -0.8   -1.0
  -0.7   -0.6
  -0.5   -0.4
  -0.3   -0.2
  -0.2    0.0
   0.0    0.0
   0.2    0.0
   0.3   -0.2
   0.5   -0.4
   0.7   -0.6
   0.8   -1.0
   1.0   -1.4
   1.2   -1.8
   1.3   -2.4
   1.5   -2.9
   1.7   -3.5
   1.8   -4.2
   2.0   -4.8
   2.2   -5.5
   2.3   -6.2
   2.5   -7.0
   3.1   -9.8
   4.9  -21.0
   5.9  -22.4
  10.8  -23.3
  14.8  -28.3
  14.9  -29.0
  15.0  -29.0
  23.6  -34.0
  33.2  -35.5
  85.0  -35.5
 103.3  -44.0
 163.9  -44.0
 180.0  -44.0
VH       7
-180.0  -47.0
  -9.0  -47.0
  -4.0  -30.0
   0.0  -30.0
   4.0  -30.0
   9.0  -47.0
 180.0  -47.0
