Andrew Corp
PL12-17F                      
                              
NONE            
NONE            
 7-18-90         
1376             
1700-2110    MHZ   
34.70 dBi       
3.0 DEGREES     
HH      65
-180.0  -45.0
-123.0  -45.0
-118.0  -41.0
-111.0  -41.0
 -98.0  -33.0
 -74.0  -33.0
 -54.0  -36.0
 -46.0  -36.0
 -45.0  -35.0
 -21.0  -32.0
 -15.0  -25.0
 -10.0  -22.5
  -7.0  -22.5
  -6.0  -22.0
  -5.0  -22.0
  -4.0  -18.0
  -3.5  -15.0
  -3.0  -10.0
  -2.8   -8.1
  -2.6   -6.5
  -2.4   -5.1
  -2.2   -3.9
  -2.0   -3.0
  -1.8   -2.1
  -1.6   -1.5
  -1.4   -1.0
  -1.2   -0.6
  -1.0   -0.4
  -0.8   -0.2
  -0.6   -0.1
  -0.4    0.0
  -0.2    0.0
   0.0    0.0
   0.2    0.0
   0.4    0.0
   0.6   -0.1
   0.8   -0.2
   1.0   -0.4
   1.2   -0.6
   1.4   -1.0
   1.6   -1.5
   1.8   -2.1
   2.0   -3.0
   2.2   -3.9
   2.4   -5.1
   2.6   -6.5
   2.8   -8.1
   3.0  -10.0
   3.5  -15.0
   4.0  -18.0
   5.0  -22.0
   6.0  -22.0
   7.0  -22.5
  10.0  -22.5
  15.0  -25.0
  21.0  -32.0
  45.0  -35.0
  46.0  -36.0
  54.0  -36.0
  74.0  -33.0
  98.0  -33.0
 111.0  -41.0
 118.0  -41.0
 123.0  -45.0
 180.0  -45.0
HV      19
-180.0  -48.0
-172.0  -48.0
-172.0  -53.0
-103.0  -53.0
 -98.0  -51.0
 -25.0  -53.0
 -15.0  -53.0
 -12.0  -53.0
  -3.0  -30.0
   0.0  -30.0
   3.0  -30.0
  12.0  -53.0
  15.0  -53.0
  25.0  -53.0
  98.0  -51.0
 103.0  -53.0
 172.0  -53.0
 172.0  -48.0
 180.0  -48.0
VV      65
-180.0  -45.0
-123.0  -45.0
-118.0  -41.0
-111.0  -41.0
 -98.0  -33.0
 -74.0  -33.0
 -54.0  -36.0
 -46.0  -36.0
 -45.0  -35.0
 -21.0  -32.0
 -15.0  -25.0
 -10.0  -22.5
  -7.0  -22.5
  -6.0  -22.0
  -5.0  -22.0
  -4.0  -18.0
  -3.5  -15.0
  -3.0  -10.0
  -2.8   -8.1
  -2.6   -6.5
  -2.4   -5.1
  -2.2   -3.9
  -2.0   -3.0
  -1.8   -2.1
  -1.6   -1.5
  -1.4   -1.0
  -1.2   -0.6
  -1.0   -0.4
  -0.8   -0.2
  -0.6   -0.1
  -0.4    0.0
  -0.2    0.0
   0.0    0.0
   0.2    0.0
   0.4    0.0
   0.6   -0.1
   0.8   -0.2
   1.0   -0.4
   1.2   -0.6
   1.4   -1.0
   1.6   -1.5
   1.8   -2.1
   2.0   -3.0
   2.2   -3.9
   2.4   -5.1
   2.6   -6.5
   2.8   -8.1
   3.0  -10.0
   3.5  -15.0
   4.0  -18.0
   5.0  -22.0
   6.0  -22.0
   7.0  -22.5
  10.0  -22.5
  15.0  -25.0
  21.0  -32.0
  45.0  -35.0
  46.0  -36.0
  54.0  -36.0
  74.0  -33.0
  98.0  -33.0
 111.0  -41.0
 118.0  -41.0
 123.0  -45.0
 180.0  -45.0
VH      19
-180.0  -48.0
-172.0  -48.0
-172.0  -53.0
-103.0  -53.0
 -98.0  -51.0
 -25.0  -53.0
 -15.0  -53.0
 -12.0  -53.0
  -3.0  -30.0
   0.0  -30.0
   3.0  -30.0
  12.0  -53.0
  15.0  -53.0
  25.0  -53.0
  98.0  -51.0
 103.0  -53.0
 172.0  -53.0
 172.0  -48.0
 180.0  -48.0
