Andrew Corp
PL12-19F                      
                              
A28101          
NONE            
 7-10-90         
1404             
1900-2300    MHZ   
35.50 dBi       
2.8 DEGREES     
HH      45
-180.0  -46.0
-175.0  -46.0
-175.0  -49.0
-134.0  -49.0
-134.0  -48.0
-120.0  -48.0
 -97.0  -35.5
 -65.0  -35.5
 -45.0  -37.9
 -38.0  -38.0
 -19.0  -33.5
 -15.0  -30.0
 -13.0  -26.0
 -10.0  -23.6
  -4.5  -22.5
  -3.5  -15.0
  -3.0  -12.0
  -2.0   -6.0
  -1.7   -4.0
  -1.5   -3.0
  -1.0   -1.0
  -0.5   -0.2
   0.0    0.0
   0.5   -0.2
   1.0   -1.0
   1.5   -3.0
   1.7   -4.0
   2.0   -6.0
   3.0  -12.0
   3.5  -15.0
   4.5  -22.5
  10.0  -23.6
  13.0  -26.0
  15.0  -30.0
  19.0  -33.5
  38.0  -38.0
  45.0  -37.9
  65.0  -35.5
  97.0  -35.5
 120.0  -48.0
 134.0  -48.0
 134.0  -49.0
 175.0  -49.0
 175.0  -46.0
 180.0  -46.0
HV       7
-180.0  -49.0
  -8.5  -49.0
  -3.5  -30.0
   0.0  -30.0
   3.5  -30.0
   8.5  -49.0
 180.0  -49.0
VV      45
-180.0  -46.0
-175.0  -46.0
-175.0  -49.0
-134.0  -49.0
-134.0  -48.0
-120.0  -48.0
 -97.0  -35.5
 -65.0  -35.5
 -45.0  -37.9
 -38.0  -38.0
 -19.0  -33.5
 -15.0  -30.0
 -13.0  -26.0
 -10.0  -23.6
  -4.5  -22.5
  -3.5  -15.0
  -3.0  -12.0
  -2.0   -6.0
  -1.7   -4.0
  -1.5   -3.0
  -1.0   -1.0
  -0.5   -0.2
   0.0    0.0
   0.5   -0.2
   1.0   -1.0
   1.5   -3.0
   1.7   -4.0
   2.0   -6.0
   3.0  -12.0
   3.5  -15.0
   4.5  -22.5
  10.0  -23.6
  13.0  -26.0
  15.0  -30.0
  19.0  -33.5
  38.0  -38.0
  45.0  -37.9
  65.0  -35.5
  97.0  -35.5
 120.0  -48.0
 134.0  -48.0
 134.0  -49.0
 175.0  -49.0
 175.0  -46.0
 180.0  -46.0
VH       7
-180.0  -49.0
  -8.5  -49.0
  -3.5  -30.0
   0.0  -30.0
   3.5  -30.0
   8.5  -49.0
 180.0  -49.0
