Andrew Corp
PL12-37F                      
                              
A52500          
NONE            
 5-28-74         
2407             
3700-4200    MHZ   
41.00 dBi       
1.5 DEGREES     
HH      25
-180.0  -50.0
-175.0  -50.0
-170.0  -56.9
-120.0  -56.9
-100.0  -42.0
 -40.0  -42.0
 -15.0  -39.0
  -7.0  -25.0
  -2.5  -25.0
  -1.5   -9.0
  -1.0   -1.9
  -0.5   -0.6
   0.0    0.0
   0.5   -0.6
   1.0   -1.9
   1.5   -9.0
   2.5  -25.0
   7.0  -25.0
  15.0  -39.0
  40.0  -42.0
 100.0  -42.0
 120.0  -56.9
 170.0  -56.9
 175.0  -50.0
 180.0  -50.0
HV      17
-180.0  -50.0
-175.0  -50.0
-170.0  -56.9
 -35.0  -56.9
 -20.0  -49.0
 -13.0  -49.0
  -3.5  -40.0
  -3.5  -30.0
   0.0  -30.0
   3.5  -30.0
   3.5  -40.0
  13.0  -49.0
  20.0  -49.0
  35.0  -56.9
 170.0  -56.9
 175.0  -50.0
 180.0  -50.0
VV      27
-180.0  -50.0
-175.0  -50.0
-170.0  -56.9
-120.0  -56.9
-100.0  -42.0
 -40.0  -42.0
 -30.0  -40.6
 -15.0  -31.0
  -8.5  -25.0
  -2.5  -25.0
  -1.5   -9.0
  -1.0   -1.9
  -0.5   -0.6
   0.0    0.0
   0.5   -0.6
   1.0   -1.9
   1.5   -9.0
   2.5  -25.0
   8.5  -25.0
  15.0  -31.0
  30.0  -40.6
  40.0  -42.0
 100.0  -42.0
 120.0  -56.9
 170.0  -56.9
 175.0  -50.0
 180.0  -50.0
VH      17
-180.0  -50.0
-175.0  -50.0
-170.0  -56.9
 -25.0  -56.9
 -15.0  -48.0
 -12.0  -40.0
  -3.5  -40.0
  -3.5  -30.0
   0.0  -30.0
   3.5  -30.0
   3.5  -40.0
  12.0  -40.0
  15.0  -48.0
  25.0  -56.9
 170.0  -56.9
 175.0  -50.0
 180.0  -50.0
