Andrew Corp
PL15-37D                      
                              
A56500          
NONE            
 5-28-74         
2408             
3700-4200    MHZ   
42.70 dBi       
1.2 DEGREES     
HH      23
-180.0  -52.0
-175.0  -52.0
-168.0  -60.0
-130.0  -60.0
-100.0  -43.0
 -19.0  -43.0
 -15.0  -40.0
  -3.9  -25.0
  -2.0  -25.0
  -1.0   -5.0
  -0.5   -1.0
   0.0    0.0
   0.5   -1.0
   1.0   -5.0
   2.0  -25.0
   3.9  -25.0
  15.0  -40.0
  19.0  -43.0
 100.0  -43.0
 130.0  -60.0
 168.0  -60.0
 175.0  -52.0
 180.0  -52.0
HV      19
-180.0  -52.0
-175.0  -52.0
-168.0  -60.0
 -40.0  -60.0
 -20.0  -51.9
 -15.0  -51.8
 -12.8  -51.7
  -2.9  -40.0
  -2.9  -30.0
   0.0  -30.0
   2.9  -30.0
   2.9  -40.0
  12.8  -51.7
  15.0  -51.8
  20.0  -51.9
  40.0  -60.0
 168.0  -60.0
 175.0  -52.0
 180.0  -52.0
VV      23
-180.0  -52.0
-175.0  -52.0
-168.0  -60.0
-130.0  -60.0
-100.0  -43.0
 -23.5  -43.0
 -15.0  -33.0
  -6.1  -25.0
  -2.0  -25.0
  -1.0   -5.0
  -0.5   -1.0
   0.0    0.0
   0.5   -1.0
   1.0   -5.0
   2.0  -25.0
   6.1  -25.0
  15.0  -33.0
  23.5  -43.0
 100.0  -43.0
 130.0  -60.0
 168.0  -60.0
 175.0  -52.0
 180.0  -52.0
VH      17
-180.0  -52.0
-175.0  -52.0
-168.0  -60.0
 -19.0  -60.0
 -15.0  -55.0
 -10.0  -40.0
  -2.9  -40.0
  -2.9  -30.0
   0.0  -30.0
   2.9  -30.0
   2.9  -40.0
  10.0  -40.0
  15.0  -55.0
  19.0  -60.0
 168.0  -60.0
 175.0  -52.0
 180.0  -52.0
