Andrew Corp
PL4-71GD                      
                              
NONE            
NONE            
 4-28-76         
3718             
7125-7750    MHZ   
36.50 dBi       
2.2 DEGREES     
HH      37
-180.0  -45.0
-170.0  -45.0
-170.0  -51.0
-146.5  -51.0
-106.0  -39.0
 -50.0  -34.0
 -20.0  -34.0
 -15.0  -31.2
 -13.5  -29.0
  -9.0  -29.0
  -6.5  -22.0
  -4.0  -22.0
  -2.8  -20.0
  -2.5  -14.4
  -2.0   -8.0
  -1.5   -3.6
  -1.0   -1.2
  -0.5   -0.2
   0.0    0.0
   0.5   -0.2
   1.0   -1.2
   1.5   -3.6
   2.0   -8.0
   2.5  -14.4
   2.8  -20.0
   4.0  -22.0
   6.5  -22.0
   9.0  -29.0
  13.5  -29.0
  15.0  -31.2
  20.0  -34.0
  50.0  -34.0
 106.0  -39.0
 146.5  -51.0
 170.0  -51.0
 170.0  -45.0
 180.0  -45.0
HV      17
-180.0  -54.0
-110.0  -54.0
 -91.0  -50.0
 -34.5  -50.0
 -30.0  -47.0
  -2.5  -47.0
  -2.4  -38.0
  -2.2  -30.0
   0.0  -30.0
   2.2  -30.0
   2.4  -38.0
   2.5  -47.0
  30.0  -47.0
  34.5  -50.0
  91.0  -50.0
 110.0  -54.0
 180.0  -54.0
VV      33
-180.0  -45.0
-170.0  -45.0
-170.0  -51.0
-131.5  -51.0
-100.0  -37.8
 -45.0  -37.8
 -35.0  -32.0
 -20.0  -30.0
 -13.0  -30.0
  -6.5  -21.0
  -2.8  -20.0
  -2.5  -14.4
  -2.0   -8.0
  -1.5   -3.6
  -1.0   -1.2
  -0.5   -0.2
   0.0    0.0
   0.5   -0.2
   1.0   -1.2
   1.5   -3.6
   2.0   -8.0
   2.5  -14.4
   2.8  -20.0
   6.5  -21.0
  13.0  -30.0
  20.0  -30.0
  35.0  -32.0
  45.0  -37.8
 100.0  -37.8
 131.5  -51.0
 170.0  -51.0
 170.0  -45.0
 180.0  -45.0
VH      17
-180.0  -54.0
-121.0  -54.0
-105.0  -48.9
  -7.5  -48.9
  -6.5  -45.9
  -4.0  -45.9
  -2.4  -38.0
  -2.2  -30.0
   0.0  -30.0
   2.2  -30.0
   2.4  -38.0
   4.0  -45.9
   6.5  -45.9
   7.5  -48.9
 105.0  -48.9
 121.0  -54.0
 180.0  -54.0
