Andrew Corp
PL6-21C                       
                              
A21810          
NONE            
 4-19-78         
2230             
2100-2200    MHZ   
30.00 dBi       
4.9 DEGREES     
HH      47
-180.0  -39.0
-170.0  -39.0
-170.0  -43.8
-153.0  -43.8
-112.0  -33.0
 -99.5  -33.0
 -99.5  -30.0
 -29.0  -30.0
 -29.0  -28.0
 -24.0  -28.0
 -20.0  -25.0
 -20.0  -22.0
 -15.0  -22.0
 -15.0  -21.0
 -10.5  -21.0
  -8.4  -15.0
  -5.0  -15.0
  -4.0  -10.8
  -3.0   -4.2
  -2.0   -2.0
  -1.5   -1.1
  -1.0   -0.5
  -0.5   -0.2
   0.0    0.0
   0.5   -0.2
   1.0   -0.5
   1.5   -1.1
   2.0   -2.0
   3.0   -4.2
   4.0  -10.8
   5.0  -15.0
   8.4  -15.0
  10.5  -21.0
  15.0  -21.0
  15.0  -22.0
  20.0  -22.0
  20.0  -25.0
  24.0  -28.0
  29.0  -28.0
  29.0  -30.0
  99.5  -30.0
  99.5  -33.0
 112.0  -33.0
 153.0  -43.8
 170.0  -43.8
 170.0  -39.0
 180.0  -39.0
HV      11
-180.0  -44.0
-148.0  -44.0
-100.0  -40.0
 -15.0  -40.0
 -10.0  -30.0
   0.0  -30.0
  10.0  -30.0
  15.0  -40.0
 100.0  -40.0
 148.0  -44.0
 180.0  -44.0
VV      41
-180.0  -39.0
-170.0  -39.0
-170.0  -43.9
-152.0  -43.9
 -84.0  -29.1
 -28.0  -29.1
 -28.0  -25.1
 -19.5  -25.1
 -19.5  -22.0
 -15.0  -22.0
 -15.0  -20.1
  -9.3  -20.1
  -7.7  -14.1
  -4.9  -14.1
  -4.0  -10.8
  -3.0   -4.2
  -2.0   -2.0
  -1.5   -1.1
  -1.0   -0.5
  -0.5   -0.2
   0.0    0.0
   0.5   -0.2
   1.0   -0.5
   1.5   -1.1
   2.0   -2.0
   3.0   -4.2
   4.0  -10.8
   4.9  -14.1
   7.7  -14.1
   9.3  -20.1
  15.0  -20.1
  15.0  -22.0
  19.5  -22.0
  19.5  -25.1
  28.0  -25.1
  28.0  -29.1
  84.0  -29.1
 152.0  -43.9
 170.0  -43.9
 170.0  -39.0
 180.0  -39.0
VH      13
-180.0  -43.9
-149.0  -43.9
-120.0  -39.0
 -80.0  -37.0
 -15.0  -37.0
 -10.0  -30.0
   0.0  -30.0
  10.0  -30.0
  15.0  -37.0
  80.0  -37.0
 120.0  -39.0
 149.0  -43.9
 180.0  -43.9
