Andrew Corp
PL8-17D                        
                              
NONE            
NONE            
 7- 9-90         
1374             
1700-2110    MHZ   
31.20 dBi       
4.5 DEGREES     
HH      39
-180.0  -39.0
-150.0  -41.5
-126.0  -41.5
 -95.0  -31.0
 -70.0  -31.0
 -58.0  -33.5
 -51.0  -33.5
 -15.0  -25.0
 -14.8  -25.1
 -10.0  -22.0
  -8.0  -21.5
  -6.6  -21.5
  -6.2  -20.7
  -6.0  -20.0
  -4.3  -10.0
  -3.9   -8.0
  -3.0   -4.9
  -1.9   -2.0
  -0.8   -0.5
   0.0   -0.2
   0.8   -0.5
   1.9   -2.0
   3.0   -4.9
   3.9   -8.0
   4.3  -10.0
   6.0  -20.0
   6.2  -20.7
   6.6  -21.5
   8.0  -21.5
  10.0  -22.0
  14.8  -25.1
  15.0  -25.0
  51.0  -33.5
  58.0  -33.5
  70.0  -31.0
  95.0  -31.0
 126.0  -41.5
 150.0  -41.5
 180.0  -39.0
HV       7
-180.0  -45.0
 -15.0  -45.0
  -4.5  -30.0
   0.0  -30.0
   4.5  -30.0
  15.0  -45.0
 180.0  -45.0
VV      39
-180.0  -39.0
-150.0  -41.5
-126.0  -41.5
 -95.0  -31.0
 -70.0  -31.0
 -58.0  -33.5
 -51.0  -33.5
 -15.0  -25.0
 -14.8  -25.1
 -10.0  -22.0
  -8.0  -21.5
  -6.6  -21.5
  -6.2  -20.7
  -6.0  -20.0
  -4.3  -10.0
  -3.9   -8.0
  -3.0   -4.9
  -1.9   -2.0
  -0.8   -0.5
   0.0   -0.2
   0.8   -0.5
   1.9   -2.0
   3.0   -4.9
   3.9   -8.0
   4.3  -10.0
   6.0  -20.0
   6.2  -20.7
   6.6  -21.5
   8.0  -21.5
  10.0  -22.0
  14.8  -25.1
  15.0  -25.0
  51.0  -33.5
  58.0  -33.5
  70.0  -31.0
  95.0  -31.0
 126.0  -41.5
 150.0  -41.5
 180.0  -39.0
VH       7
-180.0  -45.0
 -15.0  -45.0
  -4.5  -30.0
   0.0  -30.0
   4.5  -30.0
  15.0  -45.0
 180.0  -45.0
