Andrew Corp
PL8-59D                       
                              
A66100          
NONE            
 5- 1-75         
2610             
5925-6425    MHZ   
41.50 dBi       
1.4 DEGREES     
HH      27
-180.0  -48.0
-175.0  -48.0
-175.0  -53.0
-125.0  -53.0
-109.5  -42.0
-100.0  -42.0
 -91.0  -44.0
 -15.0  -44.0
  -9.0  -32.0
  -1.6  -23.0
  -1.5  -15.0
  -1.0   -5.3
  -0.5   -1.8
   0.0    0.0
   0.5   -1.8
   1.0   -5.3
   1.5  -15.0
   1.6  -23.0
   9.0  -32.0
  15.0  -44.0
  91.0  -44.0
 100.0  -42.0
 109.5  -42.0
 125.0  -53.0
 175.0  -53.0
 175.0  -48.0
 180.0  -48.0
HV      25
-180.0  -55.0
-175.0  -55.0
-175.0  -60.0
-125.0  -60.0
-115.0  -53.0
 -25.0  -53.0
 -25.0  -51.0
  -9.0  -51.0
  -9.0  -44.0
  -5.0  -44.0
  -3.0  -37.0
  -3.0  -30.0
   0.0  -30.0
   3.0  -30.0
   3.0  -37.0
   5.0  -44.0
   9.0  -44.0
   9.0  -51.0
  25.0  -51.0
  25.0  -53.0
 115.0  -53.0
 125.0  -60.0
 175.0  -60.0
 175.0  -55.0
 180.0  -55.0
VV      35
-180.0  -48.0
-175.0  -48.0
-175.0  -53.0
-125.0  -53.0
-109.5  -42.0
-100.0  -42.0
 -91.0  -44.0
 -38.0  -44.0
 -30.0  -42.0
 -25.0  -33.0
 -15.0  -33.0
  -3.0  -24.0
  -3.0  -20.0
  -1.5  -20.0
  -1.5  -15.0
  -1.0   -5.3
  -0.5   -1.8
   0.0    0.0
   0.5   -1.8
   1.0   -5.3
   1.5  -15.0
   1.5  -20.0
   3.0  -20.0
   3.0  -24.0
  15.0  -33.0
  25.0  -33.0
  30.0  -42.0
  38.0  -44.0
  91.0  -44.0
 100.0  -42.0
 109.5  -42.0
 125.0  -53.0
 175.0  -53.0
 175.0  -48.0
 180.0  -48.0
VH      25
-180.0  -55.0
-175.0  -55.0
-175.0  -60.0
-125.0  -60.0
-115.0  -53.0
 -25.0  -53.0
 -25.0  -51.0
 -15.0  -51.0
 -11.6  -44.0
  -5.0  -44.0
  -3.0  -37.0
  -3.0  -30.0
   0.0  -30.0
   3.0  -30.0
   3.0  -37.0
   5.0  -44.0
  11.6  -44.0
  15.0  -51.0
  25.0  -51.0
  25.0  -53.0
 115.0  -53.0
 125.0  -60.0
 175.0  -60.0
 175.0  -55.0
 180.0  -55.0
