Andrew Corp
PL8-65D                
                              
NONE            
NONE            
 5- 1-75         
2626L             
6425-7125    MHZ   
42.30 dBi       
1.3 DEGREES     
HH      33
-180.0  -49.0
-175.0  -49.0
-175.0  -54.0
-120.0  -54.0
-105.0  -44.0
 -95.0  -44.0
 -91.0  -45.0
 -50.0  -45.0
 -15.0  -42.0
  -9.0  -32.0
  -2.5  -25.0
  -2.5  -22.0
  -1.6  -22.0
  -1.5  -11.0
  -1.0   -4.3
  -0.5   -1.8
   0.0    0.0
   0.5   -1.8
   1.0   -4.3
   1.5  -11.0
   1.6  -22.0
   2.5  -22.0
   2.5  -25.0
   9.0  -32.0
  15.0  -42.0
  50.0  -45.0
  91.0  -45.0
  95.0  -44.0
 105.0  -44.0
 120.0  -54.0
 175.0  -54.0
 175.0  -49.0
 180.0  -49.0
HV      19
-180.0  -56.0
-175.0  -56.0
-175.0  -61.0
-120.0  -61.0
-110.0  -54.0
  -9.5  -54.0
  -6.0  -37.0
  -3.0  -37.0
  -3.0  -30.0
   0.0  -30.0
   3.0  -30.0
   3.0  -37.0
   6.0  -37.0
   9.5  -54.0
 110.0  -54.0
 120.0  -61.0
 175.0  -61.0
 175.0  -56.0
 180.0  -56.0
VV      33
-180.0  -49.0
-175.0  -49.0
-175.0  -54.0
-120.0  -54.0
-105.0  -44.0
-100.0  -44.0
 -96.0  -48.0
 -45.0  -48.0
 -25.0  -35.0
 -15.0  -35.0
  -2.5  -25.0
  -2.5  -22.0
  -1.6  -22.0
  -1.5  -11.0
  -1.0   -4.3
  -0.5   -1.8
   0.0    0.0
   0.5   -1.8
   1.0   -4.3
   1.5  -11.0
   1.6  -22.0
   2.5  -22.0
   2.5  -25.0
  15.0  -35.0
  25.0  -35.0
  45.0  -48.0
  96.0  -48.0
 100.0  -44.0
 105.0  -44.0
 120.0  -54.0
 175.0  -54.0
 175.0  -49.0
 180.0  -49.0
VH      21
-180.0  -56.0
-175.0  -56.0
-175.0  -61.0
-120.0  -61.0
-110.0  -54.0
 -19.0  -54.0
 -15.0  -47.0
 -12.0  -47.0
  -3.0  -31.7
  -3.0  -30.0
   0.0  -30.0
   3.0  -30.0
   3.0  -31.7
  12.0  -47.0
  15.0  -47.0
  19.0  -54.0
 110.0  -54.0
 120.0  -61.0
 175.0  -61.0
 175.0  -56.0
 180.0  -56.0
