Andrew Corp
PL8-71GE                      
                              
NONE            
NONE            
 7-12-78         
2700             
7125-7750    MHZ   
42.50 dBi       
1.1 DEGREES     
HH      33
-180.0  -50.0
-170.0  -50.0
-170.0  -60.0
-130.0  -60.0
-105.0  -45.0
 -65.0  -45.0
 -30.0  -45.0
 -15.0  -42.0
 -13.3  -42.0
 -12.4  -38.0
  -7.4  -37.0
  -6.0  -31.0
  -1.9  -24.0
  -1.5  -11.0
  -1.0   -6.0
  -0.5   -1.1
   0.0    0.0
   0.5   -1.1
   1.0   -6.0
   1.5  -11.0
   1.9  -24.0
   6.0  -31.0
   7.4  -37.0
  12.4  -38.0
  13.3  -42.0
  15.0  -42.0
  30.0  -45.0
  65.0  -45.0
 105.0  -45.0
 130.0  -60.0
 170.0  -60.0
 170.0  -50.0
 180.0  -50.0
HV      25
-180.0  -58.0
-170.0  -58.0
-170.0  -65.0
-120.0  -65.0
 -80.0  -58.0
 -23.0  -58.0
 -15.0  -55.9
 -12.5  -52.0
  -8.9  -52.0
  -7.0  -50.0
  -2.0  -48.0
  -1.5  -30.0
   0.0  -30.0
   1.5  -30.0
   2.0  -48.0
   7.0  -50.0
   8.9  -52.0
  12.5  -52.0
  15.0  -55.9
  23.0  -58.0
  80.0  -58.0
 120.0  -65.0
 170.0  -65.0
 170.0  -58.0
 180.0  -58.0
VV      33
-180.0  -50.0
-170.0  -50.0
-170.0  -60.0
-125.0  -60.0
-105.0  -41.9
 -90.0  -41.9
 -75.0  -52.0
 -55.0  -52.0
 -26.0  -36.9
 -15.0  -36.9
 -10.0  -33.9
  -5.0  -33.9
  -1.9  -24.0
  -1.5  -11.0
  -1.0   -6.0
  -0.5   -1.1
   0.0    0.0
   0.5   -1.1
   1.0   -6.0
   1.5  -11.0
   1.9  -24.0
   5.0  -33.9
  10.0  -33.9
  15.0  -36.9
  26.0  -36.9
  55.0  -52.0
  75.0  -52.0
  90.0  -41.9
 105.0  -41.9
 125.0  -60.0
 170.0  -60.0
 170.0  -50.0
 180.0  -50.0
VH      21
-180.0  -58.0
-170.0  -58.0
-170.0  -65.0
-120.0  -65.0
 -80.0  -58.0
 -15.0  -58.0
 -13.0  -55.0
  -7.3  -55.0
  -1.9  -45.0
  -1.5  -30.0
   0.0  -30.0
   1.5  -30.0
   1.9  -45.0
   7.3  -55.0
  13.0  -55.0
  15.0  -58.0
  80.0  -58.0
 120.0  -65.0
 170.0  -65.0
 170.0  -58.0
 180.0  -58.0
