NAME R2V4PX310R
MAKE ARGUS
FREQUENCY  2110
H_WIDTH 59.03
V_WIDTH  7.05
FRONT_TO_BACK   42  
GAIN 17.59 dBi
TILT ELECTRICAL    0
COMMENTS
HORIZONTAL   360
0.0 0.1
1.0 0.1
2.0 0.1
3.0 0.1
4.0 0.0
5.0 0.0
6.0 0.0
7.0 0.0
8.0 0.0
9.0 0.0
10.0 0.1
11.0 0.1
12.0 0.2
13.0 0.2
14.0 0.3
15.0 0.5
16.0 0.6
17.0 0.8
18.0 1.0
19.0 1.1
20.0 1.3
21.0 1.5
22.0 1.6
23.0 1.8
24.0 2.0
25.0 2.2
26.0 2.4
27.0 2.6
28.0 2.8
29.0 3.0
30.0 3.2
31.0 3.4
32.0 3.6
33.0 3.7
34.0 3.9
35.0 4.1
36.0 4.3
37.0 4.6
38.0 4.8
39.0 5.1
40.0 5.3
41.0 5.6
42.0 5.9
43.0 6.1
44.0 6.4
45.0 6.7
46.0 7.0
47.0 7.2
48.0 7.5
49.0 7.7
50.0 7.9
51.0 8.2
52.0 8.4
53.0 8.7
54.0 8.9
55.0 9.2
56.0 9.5
57.0 9.8
58.0 10.1
59.0 10.4
60.0 10.7
61.0 10.9
62.0 11.2
63.0 11.5
64.0 11.9
65.0 12.2
66.0 12.5
67.0 12.9
68.0 13.2
69.0 13.6
70.0 14.0
71.0 14.4
72.0 14.8
73.0 15.2
74.0 15.7
75.0 16.2
76.0 16.7
77.0 17.0
78.0 17.4
79.0 17.9
80.0 18.2
81.0 18.5
82.0 18.9
83.0 19.5
84.0 20.1
85.0 20.6
86.0 20.8
87.0 21.5
88.0 21.9
89.0 22.4
90.0 22.9
91.0 23.5
92.0 23.8
93.0 24.3
94.0 24.8
95.0 25.3
96.0 25.7
97.0 26.0
98.0 26.3
99.0 26.7
100.0 27.2
101.0 27.8
102.0 28.3
103.0 28.6
104.0 28.9
105.0 29.1
106.0 29.6
107.0 30.5
108.0 31.2
109.0 31.1
110.0 31.5
111.0 31.3
112.0 32.2
113.0 32.5
114.0 33.0
115.0 33.2
116.0 32.9
117.0 33.4
118.0 32.9
119.0 33.0
120.0 34.0
121.0 34.2
122.0 34.9
123.0 36.1
124.0 37.0
125.0 38.4
126.0 39.2
127.0 41.3
128.0 42.6
129.0 41.9
130.0 38.7
131.0 39.2
132.0 38.5
133.0 40.1
134.0 41.1
135.0 41.4
136.0 43.0
137.0 42.3
138.0 43.2
139.0 43.0
140.0 43.2
141.0 43.2
142.0 45.2
143.0 45.4
144.0 44.2
145.0 43.5
146.0 45.8
147.0 47.9
148.0 46.5
149.0 48.2
150.0 48.0
151.0 47.3
152.0 48.2
153.0 47.2
154.0 48.0
155.0 47.3
156.0 48.2
157.0 48.2
158.0 46.1
159.0 45.1
160.0 44.8
161.0 47.0
162.0 45.5
163.0 46.4
164.0 48.2
165.0 48.2
166.0 48.2
167.0 48.2
168.0 47.0
169.0 46.2
170.0 44.4
171.0 44.3
172.0 42.3
173.0 42.4
174.0 43.1
175.0 43.2
176.0 42.9
177.0 42.9
178.0 42.2
179.0 41.6
180.0 42.5
181.0 43.5
182.0 43.6
183.0 43.4
184.0 43.8
185.0 45.5
186.0 48.2
187.0 48.2
188.0 48.2
189.0 48.2
190.0 48.2
191.0 48.2
192.0 46.7
193.0 45.5
194.0 45.4
195.0 45.5
196.0 45.8
197.0 46.8
198.0 48.2
199.0 48.2
200.0 47.6
201.0 45.3
202.0 43.2
203.0 42.7
204.0 41.0
205.0 40.3
206.0 40.5
207.0 41.5
208.0 43.2
209.0 44.5
210.0 45.2
211.0 47.7
212.0 48.2
213.0 48.2
214.0 45.0
215.0 42.8
216.0 40.8
217.0 38.5
218.0 37.1
219.0 35.9
220.0 34.6
221.0 33.7
222.0 33.0
223.0 32.8
224.0 32.8
225.0 33.0
226.0 33.1
227.0 33.0
228.0 32.5
229.0 32.2
230.0 32.0
231.0 31.7
232.0 31.4
233.0 31.7
234.0 32.3
235.0 32.6
236.0 33.2
237.0 33.7
238.0 34.2
239.0 34.0
240.0 33.8
241.0 34.2
242.0 34.0
243.0 33.3
244.0 32.7
245.0 32.0
246.0 31.5
247.0 31.2
248.0 30.1
249.0 29.4
250.0 28.9
251.0 28.4
252.0 27.9
253.0 27.5
254.0 27.2
255.0 27.0
256.0 26.8
257.0 26.6
258.0 26.3
259.0 26.1
260.0 25.9
261.0 25.7
262.0 25.3
263.0 24.8
264.0 24.5
265.0 24.0
266.0 23.6
267.0 23.1
268.0 22.8
269.0 22.4
270.0 22.1
271.0 21.8
272.0 21.5
273.0 21.0
274.0 20.6
275.0 20.3
276.0 20.0
277.0 19.6
278.0 19.2
279.0 18.9
280.0 18.5
281.0 18.0
282.0 17.6
283.0 17.1
284.0 16.6
285.0 16.1
286.0 15.8
287.0 15.5
288.0 15.2
289.0 14.7
290.0 14.3
291.0 13.9
292.0 13.6
293.0 13.3
294.0 13.0
295.0 12.6
296.0 12.3
297.0 12.0
298.0 11.6
299.0 11.3
300.0 11.0
301.0 10.7
302.0 10.5
303.0 10.2
304.0 9.9
305.0 9.6
306.0 9.4
307.0 9.1
308.0 8.9
309.0 8.7
310.0 8.5
311.0 8.2
312.0 8.0
313.0 7.8
314.0 7.5
315.0 7.3
316.0 7.1
317.0 6.8
318.0 6.5
319.0 6.2
320.0 5.9
321.0 5.7
322.0 5.4
323.0 5.1
324.0 4.8
325.0 4.5
326.0 4.2
327.0 3.9
328.0 3.6
329.0 3.3
330.0 3.0
331.0 2.8
332.0 2.6
333.0 2.3
334.0 2.1
335.0 2.0
336.0 1.8
337.0 1.6
338.0 1.4
339.0 1.3
340.0 1.1
341.0 1.0
342.0 0.9
343.0 0.8
344.0 0.7
345.0 0.6
346.0 0.5
347.0 0.4
348.0 0.3
349.0 0.3
350.0 0.2
351.0 0.2
352.0 0.1
353.0 0.1
354.0 0.1
355.0 0.1
356.0 0.1
357.0 0.1
358.0 0.1
359.0 0.1
VERTICAL   360
0.0 0.0
1.0 0.2
2.0 0.9
3.0 2.1
4.0 3.9
5.0 6.4
6.0 9.9
7.0 14.3
8.0 18.7
9.0 19.0
10.0 17.9
11.0 17.8
12.0 18.8
13.0 20.7
14.0 22.4
15.0 22.4
16.0 21.6
17.0 21.5
18.0 22.6
19.0 25.0
20.0 29.0
21.0 39.3
22.0 34.0
23.0 27.9
24.0 25.5
25.0 25.0
26.0 25.9
27.0 27.9
28.0 30.8
29.0 31.8
30.0 29.6
31.0 27.6
32.0 26.7
33.0 27.1
34.0 28.7
35.0 31.5
36.0 34.2
37.0 32.5
38.0 29.3
39.0 26.7
40.0 25.1
41.0 24.1
42.0 23.7
43.0 23.7
44.0 24.1
45.0 24.9
46.0 26.2
47.0 28.0
48.0 30.7
49.0 34.1
50.0 36.8
51.0 35.6
52.0 33.2
53.0 31.8
54.0 31.2
55.0 31.2
56.0 31.8
57.0 33.0
58.0 35.6
59.0 39.6
60.0 43.3
61.0 42.4
62.0 39.7
63.0 37.3
64.0 35.3
65.0 33.9
66.0 33.2
67.0 32.7
68.0 32.5
69.0 32.5
70.0 32.4
71.0 32.3
72.0 32.1
73.0 32.0
74.0 32.5
75.0 33.1
76.0 33.4
77.0 33.4
78.0 33.7
79.0 34.3
80.0 34.8
81.0 35.0
82.0 35.2
83.0 35.5
84.0 36.2
85.0 36.8
86.0 37.4
87.0 38.4
88.0 39.8
89.0 40.8
90.0 41.4
91.0 41.5
92.0 42.5
93.0 43.8
94.0 46.0
95.0 48.2
96.0 48.2
97.0 48.2
98.0 48.2
99.0 48.2
100.0 48.2
101.0 48.2
102.0 46.0
103.0 43.3
104.0 41.5
105.0 40.7
106.0 40.9
107.0 41.9
108.0 43.4
109.0 43.0
110.0 41.0
111.0 39.5
112.0 38.8
113.0 38.7
114.0 39.0
115.0 39.3
116.0 38.8
117.0 38.0
118.0 37.7
119.0 38.2
120.0 39.3
121.0 40.4
122.0 42.0
123.0 44.8
124.0 48.2
125.0 48.2
126.0 48.2
127.0 48.2
128.0 48.2
129.0 48.2
130.0 48.2
131.0 46.8
132.0 44.8
133.0 44.8
134.0 45.9
135.0 47.8
136.0 48.2
137.0 47.2
138.0 43.3
139.0 41.1
140.0 40.3
141.0 40.6
142.0 42.3
143.0 45.4
144.0 46.8
145.0 45.9
146.0 45.1
147.0 45.7
148.0 46.4
149.0 47.5
150.0 48.2
151.0 48.2
152.0 48.2
153.0 48.2
154.0 48.2
155.0 48.2
156.0 46.6
157.0 46.0
158.0 46.6
159.0 47.2
160.0 47.7
161.0 48.2
162.0 48.2
163.0 48.2
164.0 47.8
165.0 46.2
166.0 45.1
167.0 44.5
168.0 45.0
169.0 48.2
170.0 48.2
171.0 48.2
172.0 44.3
173.0 41.9
174.0 40.2
175.0 40.4
176.0 41.7
177.0 42.9
178.0 43.3
179.0 43.8
180.0 44.4
181.0 45.0
182.0 46.0
183.0 48.0
184.0 48.2
185.0 48.2
186.0 48.2
187.0 48.2
188.0 48.2
189.0 46.4
190.0 45.2
191.0 45.5
192.0 47.6
193.0 48.2
194.0 48.2
195.0 48.2
196.0 48.2
197.0 47.2
198.0 47.9
199.0 48.2
200.0 46.3
201.0 45.1
202.0 47.2
203.0 48.2
204.0 48.2
205.0 48.2
206.0 48.2
207.0 48.2
208.0 48.2
209.0 48.2
210.0 48.2
211.0 47.5
212.0 45.8
213.0 48.2
214.0 48.2
215.0 48.2
216.0 48.2
217.0 48.2
218.0 44.0
219.0 40.8
220.0 39.7
221.0 40.0
222.0 42.3
223.0 44.3
224.0 47.2
225.0 48.2
226.0 47.6
227.0 44.2
228.0 41.5
229.0 39.9
230.0 40.1
231.0 40.7
232.0 42.5
233.0 46.8
234.0 47.7
235.0 48.2
236.0 45.6
237.0 44.8
238.0 45.7
239.0 47.8
240.0 48.2
241.0 48.2
242.0 48.2
243.0 47.4
244.0 45.2
245.0 45.0
246.0 45.5
247.0 43.2
248.0 42.6
249.0 42.3
250.0 44.0
251.0 46.9
252.0 48.2
253.0 48.2
254.0 48.2
255.0 44.9
256.0 43.3
257.0 43.1
258.0 41.9
259.0 41.0
260.0 40.7
261.0 40.6
262.0 41.7
263.0 43.3
264.0 43.1
265.0 41.8
266.0 41.4
267.0 42.4
268.0 41.5
269.0 40.2
270.0 40.2
271.0 39.7
272.0 38.8
273.0 37.9
274.0 37.2
275.0 37.3
276.0 37.0
277.0 36.5
278.0 36.2
279.0 36.0
280.0 35.7
281.0 35.3
282.0 34.8
283.0 34.2
284.0 33.2
285.0 32.5
286.0 32.2
287.0 31.9
288.0 31.9
289.0 31.9
290.0 31.3
291.0 30.5
292.0 29.8
293.0 29.4
294.0 29.7
295.0 30.3
296.0 30.9
297.0 31.4
298.0 32.0
299.0 32.9
300.0 34.2
301.0 35.6
302.0 36.3
303.0 36.4
304.0 37.4
305.0 37.9
306.0 35.2
307.0 31.8
308.0 29.7
309.0 28.8
310.0 28.9
311.0 29.8
312.0 31.4
313.0 32.5
314.0 31.1
315.0 28.8
316.0 26.6
317.0 25.0
318.0 23.9
319.0 23.4
320.0 23.4
321.0 24.0
322.0 24.9
323.0 25.8
324.0 26.9
325.0 28.0
326.0 28.6
327.0 28.9
328.0 29.7
329.0 31.9
330.0 36.7
331.0 40.1
332.0 36.1
333.0 33.7
334.0 32.8
335.0 32.0
336.0 32.5
337.0 39.2
338.0 41.5
339.0 31.3
340.0 25.9
341.0 23.4
342.0 22.1
343.0 21.9
344.0 23.2
345.0 26.4
346.0 34.5
347.0 31.0
348.0 25.7
349.0 24.0
350.0 25.3
351.0 29.0
352.0 21.6
353.0 14.4
354.0 9.8
355.0 6.5
356.0 4.0
357.0 2.2
358.0 1.0
359.0 0.2
