RFS 
SBX6-W60C with OMT 
6 ; Compactline Antenna double Polarization
NONE 
NONE 
2014-04-23
FRT 140421
5925 - 7125 MHZ 
39.0 dBi 
1.7 Deg 
HH        65 
 -180.00   -65.00 
  -95.00   -65.00 
  -61.00   -45.00 
  -50.00   -42.00 
  -25.00   -42.00 
  -15.00   -37.00 
  -13.50   -32.50 
  -11.50   -32.50 
  -10.50   -29.50 
   -7.50   -29.50 
   -7.00   -25.50 
   -5.00   -25.50 
   -4.70   -21.50 
   -3.90   -20.00 
   -3.00   -16.00 
   -2.00   -16.00 
   -1.90   -15.00 
   -1.80   -13.50 
   -1.70   -12.00 
   -1.60   -10.50 
   -1.50    -9.50 
   -1.40    -8.00 
   -1.30    -7.00 
   -1.20    -6.00 
   -1.10    -5.00 
   -1.00    -4.00 
   -0.90    -3.50 
   -0.80    -2.50 
   -0.70    -2.00 
   -0.60    -1.50 
   -0.50    -1.00 
   -0.40    -0.50 
    0.00     0.00 
    0.40    -0.50 
    0.50    -1.00 
    0.60    -1.50 
    0.70    -2.00 
    0.80    -2.50 
    0.90    -3.50 
    1.00    -4.00 
    1.10    -5.00 
    1.20    -6.00 
    1.30    -7.00 
    1.40    -8.00 
    1.50    -9.50 
    1.60   -10.50 
    1.70   -12.00 
    1.80   -13.50 
    1.90   -15.00 
    2.00   -16.00 
    3.00   -16.00 
    3.90   -20.00 
    4.70   -21.50 
    5.00   -25.50 
    7.00   -25.50 
    7.50   -29.50 
   10.50   -29.50 
   11.50   -32.50 
   13.50   -32.50 
   15.00   -37.00 
   25.00   -42.00 
   50.00   -42.00 
   61.00   -45.00 
   95.00   -65.00 
  180.00   -65.00 
HV        11 
 -180.00   -66.00 
  -75.00   -66.00 
  -19.50   -55.50 
   -8.50   -55.50 
   -1.70   -30.00 
    0.00   -30.00 
    1.70   -30.00 
    8.50   -55.50 
   19.50   -55.50 
   75.00   -66.00 
  180.00   -66.00 
VV        67 
 -180.00   -65.00 
 -100.00   -65.00 
  -87.00   -59.00 
  -77.50   -50.00 
  -71.00   -47.50 
  -56.50   -47.50 
  -49.00   -44.80 
  -43.50   -43.50 
  -41.50   -42.00 
  -30.00   -42.00 
  -16.50   -39.50 
  -14.50   -35.00 
   -6.50   -30.00 
   -5.00   -25.00 
   -4.80   -22.00 
   -3.00   -16.00 
   -2.00   -16.00 
   -1.90   -15.00 
   -1.80   -13.50 
   -1.70   -12.00 
   -1.60   -10.50 
   -1.50    -9.50 
   -1.40    -8.00 
   -1.30    -7.00 
   -1.20    -6.00 
   -1.10    -5.00 
   -1.00    -4.00 
   -0.90    -3.50 
   -0.80    -2.50 
   -0.70    -2.00 
   -0.60    -1.50 
   -0.50    -1.00 
   -0.40    -0.50 
    0.00     0.00 
    0.40    -0.50 
    0.50    -1.00 
    0.60    -1.50 
    0.70    -2.00 
    0.80    -2.50 
    0.90    -3.50 
    1.00    -4.00 
    1.10    -5.00 
    1.20    -6.00 
    1.30    -7.00 
    1.40    -8.00 
    1.50    -9.50 
    1.60   -10.50 
    1.70   -12.00 
    1.80   -13.50 
    1.90   -15.00 
    2.00   -16.00 
    3.00   -16.00 
    4.80   -22.00 
    5.00   -25.00 
    6.50   -30.00 
   14.50   -35.00 
   16.50   -39.50 
   30.00   -42.00 
   41.50   -42.00 
   43.50   -43.50 
   49.00   -44.80 
   56.50   -47.50 
   71.00   -47.50 
   77.50   -50.00 
   87.00   -59.00 
  100.00   -65.00 
  180.00   -65.00 
VH        15 
 -180.00   -66.00 
  -70.00   -66.00 
  -65.00   -62.00 
  -15.00   -55.00 
  -10.00   -55.00 
   -5.00   -49.50 
   -1.70   -30.00 
    0.00   -30.00 
    1.70   -30.00 
    5.00   -49.50 
   10.00   -55.00 
   15.00   -55.00 
   65.00   -62.00 
   70.00   -66.00 
  180.00   -66.00 
