REVNUM:,NSMA WG16.99.050
REVDAT:,19990520
ANTMAN:,RFS
MODNUM:,SC 3 - 100A
PATNUM:,FRT 121007
FEDORN:,NA
DESCR1:,2 ; Compactline Easy antenna single polarization
DESCR2:,
DESCR3:,
DESCR4:,
DESCR5:,
DTDATA:,20120501
LOWFRQ:,10000 
HGHFRQ:,11700
GUNITS:,DBI/DBR
LWGAIN:,37.6
MDGAIN:,38.3
HGGAIN:,39.1
AZWIDT:,2
ELWIDT:,2
ATVSWR:,1.38
FRTOBA:,64
ELTILT:,0.0
PATTYP:,ENVELOPE
NOFREQ:,NA
PATFRE:,NA
NUMCUT:,4
PATCUT:,AZ
POLARI:,H/H
NUPOIN:,99
 -180, -64.1
-96.5, -64.1
-68, -46
-56, -43
-21, -43
-17, -39
-15, -38.6
-14.5, -38.5
-13.27, -33.56
-8.18, -31.41
-7.28, -26.09
-5.38, -25.64
-4.39, -14.33
-2.32, -14.21
-2.3, -14
-2.27, -13.6
-2.24, -13.2
-2.2, -12.8
-2.17, -12.4
-2.13, -12
-2.1, -11.6
-2.06, -11.2
-2.02, -10.8
-1.99, -10.4
-1.95, -10
-1.91, -9.6
-1.87, -9.2
-1.83, -8.8
-1.78, -8.4
-1.74, -8
-1.7, -7.6
-1.65, -7.2
-1.61, -6.8
-1.56, -6.4
-1.51, -6
-1.46, -5.6
-1.4, -5.2
-1.35, -4.8
-1.29, -4.4
-1.23, -4
-1.17, -3.6
-1.1, -3.2
-1.03, -2.8
-0.95, -2.4
-0.87, -2
-0.78, -1.6
-0.67, -1.2
-0.55, -0.8
-0.39, -0.4
0, 0
0.39, -0.4
0.55, -0.8
0.67, -1.2
0.78, -1.6
0.87, -2
0.95, -2.4
1.03, -2.8
1.1, -3.2
1.17, -3.6
1.23, -4
1.29, -4.4
1.35, -4.8
1.4, -5.2
1.46, -5.6
1.51, -6
1.56, -6.4
1.61, -6.8
1.65, -7.2
1.7, -7.6
1.74, -8
1.78, -8.4
1.83, -8.8
1.87, -9.2
1.91, -9.6
1.95, -10
1.99, -10.4
2.02, -10.8
2.06, -11.2
2.1, -11.6
2.13, -12
2.17, -12.4
2.2, -12.8
2.24, -13.2
2.27, -13.6
2.3, -14
2.32, -14.21
4.39, -14.33
5.38, -25.64
7.28, -26.09
8.18, -31.41
13.27, -33.56
14.5, -38.5
15, -38.6
17, -39
21, -43
56, -43
68, -46
96.5, -64.1
180, -64.1
PATCUT:,AZ
POLARI:,H/V
NUPOIN:,17
-180, -64.5
-76.5, -64.5
-71, -61.5
-15, -55.48
-10.5, -55
-6, -44.5
-4, -43.5
-2, -30
0, -30
2, -30
4, -43.5
6, -44.5
10.5, -55
15, -55.48
71, -61.5
76.5, -64.5
180, -64.5
PATCUT:,AZ
POLARI:,V/V
NUPOIN:,100
  -180, -64.5
-86.5, -64.5
-59, -42.5
-16.83, -42.5
-15.5, -37.5
-15, -37.5
-13.5, -37.5
-8.58, -32.43
-7, -25.5
-4.93, -24.51
-3.49, -16.14
-2.68, -15.69
-2.59, -15
-2.56, -14.6
-2.52, -14.2
-2.49, -13.8
-2.45, -13.4
-2.41, -13
-2.38, -12.6
-2.34, -12.2
-2.3, -11.8
-2.26, -11.4
-2.22, -11
-2.18, -10.6
-2.14, -10.2
-2.1, -9.8
-2.05, -9.4
-2.01, -9
-1.96, -8.6
-1.92, -8.2
-1.87, -7.8
-1.82, -7.4
-1.77, -7
-1.72, -6.6
-1.67, -6.2
-1.61, -5.8
-1.56, -5.4
-1.5, -5
-1.44, -4.6
-1.37, -4.2
-1.3, -3.8
-1.23, -3.4
-1.16, -3
-1.08, -2.6
-0.99, -2.2
-0.9, -1.8
-0.79, -1.4
-0.67, -1
-0.52, -0.6
-0.3, -0.2
0.3, -0.2
0.52, -0.6
0.67, -1
0.79, -1.4
0.9, -1.8
0.99, -2.2
1.08, -2.6
1.16, -3
1.23, -3.4
1.3, -3.8
1.37, -4.2
1.44, -4.6
1.5, -5
1.56, -5.4
1.61, -5.8
1.67, -6.2
1.72, -6.6
1.77, -7
1.82, -7.4
1.87, -7.8
1.92, -8.2
1.96, -8.6
2.01, -9
2.05, -9.4
2.1, -9.8
2.14, -10.2
2.18, -10.6
2.22, -11
2.26, -11.4
2.3, -11.8
2.34, -12.2
2.38, -12.6
2.41, -13
2.45, -13.4
2.49, -13.8
2.52, -14.2
2.56, -14.6
2.59, -15
2.68, -15.69
3.49, -16.14
4.93, -24.51
7, -25.5
8.58, -32.43
13.5, -37.5
15, -37.5
15.5, -37.5
16.83, -42.5
59, -42.5
86.5, -64.5
180, -64.5
PATCUT:,AZ
POLARI:,V/H
NUPOIN:,21
 -180, -65.5
-87.5, -65.5
-82.5, -63
-59, -59.5
-32, -57
-15, -53.81
-8, -52.5
-7.5, -48
-5.5, -47.5
-2, -30
0, -30
2, -30
5.5, -47.5
7.5, -48
8, -52.5
15, -53.81
32, -57
59, -59.5
82.5, -63
87.5, -65.5
180, -65.5
ENDFIL:,EOF
F

