RFS 
SCX2-127B with OMT
2 ; Compactline Easy antenna dual polarization                               
NONE 
NONE 
2014-04-18
FRT 140408 
12700 - 13250 MHZ 
35.4 dBi 
2.7 Deg        
HH        80 
 -180.00   -62.00 
 -100.00   -62.00 
  -82.00   -57.50 
  -68.00   -57.00 
  -58.50   -52.50 
  -53.00   -48.50 
  -46.50   -47.50 
  -43.50   -43.50 
  -30.00   -43.00 
  -23.00   -41.00 
  -17.50   -32.50 
  -13.00   -32.00 
  -11.50   -27.50 
   -7.00   -27.50 
   -5.50   -17.00 
   -2.80   -16.00 
   -2.70   -15.40 
   -2.60   -14.20 
   -2.50   -13.00 
   -2.40   -12.10 
   -2.30   -11.20 
   -2.20   -10.30 
   -2.10    -9.40 
   -2.00    -8.50 
   -1.90    -7.60 
   -1.80    -6.70 
   -1.70    -6.10 
   -1.60    -5.50 
   -1.50    -4.60 
   -1.40    -4.00 
   -1.30    -3.40 
   -1.20    -3.10 
   -1.10    -2.50 
   -1.00    -2.20 
   -0.90    -1.60 
   -0.80    -1.30 
   -0.70    -1.00 
   -0.60    -0.70 
   -0.40    -0.40 
   -0.20    -0.10 
    0.30    -0.20 
    0.50    -0.50 
    0.60    -0.80 
    0.70    -1.10 
    0.80    -1.40 
    0.90    -1.70 
    1.00    -2.00 
    1.10    -2.60 
    1.20    -2.90 
    1.30    -3.50 
    1.40    -4.10 
    1.50    -4.70 
    1.60    -5.30 
    1.70    -6.20 
    1.80    -6.80 
    1.90    -7.70 
    2.00    -8.30 
    2.10    -9.20 
    2.20   -10.10 
    2.30   -11.00 
    2.40   -12.20 
    2.50   -13.10 
    2.60   -14.30 
    2.70   -15.20 
    2.80   -16.10 
    5.50   -17.00 
    7.00   -27.50 
   11.50   -27.50 
   13.00   -32.00 
   17.50   -32.50 
   23.00   -41.00 
   30.00   -43.00 
   43.50   -43.50 
   46.50   -47.50 
   53.00   -48.50 
   58.50   -52.50 
   68.00   -57.00 
   82.00   -57.50 
  100.00   -62.00 
  180.00   -62.00 
HV        25 
 -180.00   -67.00 
  -70.00   -67.00 
  -52.00   -63.00 
  -47.50   -59.00 
  -45.50   -59.00 
  -34.50   -58.50 
  -24.00   -58.00 
  -19.50   -54.00 
  -14.50   -54.00 
   -6.00   -47.00 
   -5.00   -42.00 
   -3.00   -30.00 
    0.00   -30.00 
    3.00   -30.00 
    5.00   -42.00 
    6.00   -47.00 
   14.50   -54.00 
   19.50   -54.00 
   24.00   -58.00 
   34.50   -58.50 
   45.50   -59.00 
   47.50   -59.00 
   52.00   -63.00 
   70.00   -67.00 
  180.00   -67.00 
VV        77 
 -180.00   -63.00 
 -100.00   -63.00 
  -78.00   -58.00 
  -64.00   -48.50 
  -45.50   -42.00 
  -18.50   -42.00 
  -18.00   -39.00 
  -15.50   -31.50 
  -11.50   -31.50 
   -9.00   -26.50 
   -7.00   -26.50 
   -6.50   -24.50 
   -4.80   -16.10 
   -2.80   -16.10 
   -2.70   -15.20 
   -2.60   -14.30 
   -2.50   -13.10 
   -2.40   -12.20 
   -2.30   -11.00 
   -2.20   -10.10 
   -2.10    -9.20 
   -2.00    -8.30 
   -1.90    -7.70 
   -1.80    -6.80 
   -1.70    -6.20 
   -1.60    -5.30 
   -1.50    -4.70 
   -1.40    -4.10 
   -1.30    -3.50 
   -1.20    -2.90 
   -1.10    -2.60 
   -1.00    -2.00 
   -0.90    -1.70 
   -0.80    -1.40 
   -0.70    -1.10 
   -0.60    -0.80 
   -0.50    -0.50 
   -0.30    -0.20 
    0.00     0.00 
    0.30    -0.20 
    0.50    -0.50 
    0.60    -0.80 
    0.70    -1.10 
    0.80    -1.40 
    0.90    -1.70 
    1.00    -2.00 
    1.10    -2.60 
    1.20    -2.90 
    1.30    -3.50 
    1.40    -4.10 
    1.50    -4.70 
    1.60    -5.30 
    1.70    -6.20 
    1.80    -6.80 
    1.90    -7.70 
    2.00    -8.30 
    2.10    -9.20 
    2.20   -10.10 
    2.30   -11.00 
    2.40   -12.20 
    2.50   -13.10 
    2.60   -14.30 
    2.70   -15.20 
    2.80   -16.10 
    4.80   -16.10 
    6.50   -24.50 
    7.00   -26.50 
    9.00   -26.50 
   11.50   -31.50 
   15.50   -31.50 
   18.00   -39.00 
   18.50   -42.00 
   45.50   -42.00 
   64.00   -48.50 
   78.00   -58.00 
  100.00   -63.00 
  180.00   -63.00 
VH        25 
 -180.00   -67.00 
  -60.50   -67.00 
  -45.50   -60.00 
  -36.50   -59.50 
  -30.50   -55.00 
  -20.00   -55.00 
  -17.50   -53.00 
  -13.50   -53.00 
   -9.00   -48.00 
   -6.00   -48.00 
   -5.00   -42.00 
   -3.00   -30.00 
    0.00   -30.00 
    3.00   -30.00 
    5.00   -42.00 
    6.00   -48.00 
    9.00   -48.00 
   13.50   -53.00 
   17.50   -53.00 
   20.00   -55.00 
   30.50   -55.00 
   36.50   -59.50 
   45.50   -60.00 
   60.50   -67.00 
  180.00   -67.00 
