GABRIEL ELECTRONICS, INC.     
SRD4-71BSE                    
HIGH PERFORMANCE ANTENNA      
64980G          
NONE            
11/15/95
4980            
7125-8500       
36.9            
2.2             
HH           45 
 -180.0   -56.0 
  -62.9   -56.0 
  -57.4   -48.9 
  -41.1   -48.9 
  -40.5   -47.6 
  -34.2   -47.6 
  -31.8   -42.2 
  -23.5   -42.1 
  -22.7   -36.8 
  -17.8   -36.8 
  -17.5   -35.2 
  -15.2   -35.2 
  -14.9   -33.7 
  -12.7   -33.7 
  -12.0   -29.6 
   -9.7   -29.6 
   -8.3   -21.2 
   -4.7   -21.2 
   -4.0   -17.3 
   -2.5   -17.3 
   -1.5    -5.0 
    -.7     -.8 
    0.0     0.0 
     .6     -.8 
    1.5    -5.0 
    2.5   -17.3 
    4.0   -17.3 
    4.7   -21.2 
    8.3   -21.2 
    9.7   -29.6 
   12.0   -29.6 
   12.7   -33.7 
   14.9   -33.7 
   15.2   -35.2 
   17.5   -35.2 
   17.8   -36.8 
   22.7   -36.8 
   23.5   -42.1 
   31.8   -42.2 
   34.2   -47.6 
   40.5   -47.6 
   41.1   -48.9 
   57.4   -48.9 
   62.9   -56.0 
  180.0   -56.0 
HV           23 
 -180.0   -59.2 
  -46.6   -59.2 
  -45.2   -56.2 
  -36.4   -56.1 
  -26.3   -47.0 
  -19.4   -47.0 
  -18.1   -45.0 
   -7.9   -45.0 
   -6.1   -38.8 
   -3.0   -38.8 
   -2.2   -28.0 
    0.0   -28.0 
    2.2   -28.0 
    3.0   -38.8 
    6.1   -38.8 
    7.9   -45.0 
   18.1   -45.0 
   19.4   -47.0 
   26.3   -47.0 
   36.4   -56.1 
   45.2   -56.2 
   46.6   -59.2 
  180.0   -59.2 
VV           43 
 -180.0   -56.0 
  -66.5   -56.0 
  -58.7   -47.6 
  -40.1   -47.5 
  -38.5   -45.5 
  -26.5   -45.4 
  -25.5   -42.9 
  -20.2   -42.9 
  -19.4   -38.9 
  -16.0   -38.9 
  -14.8   -34.4 
  -12.3   -34.4 
  -11.8   -31.5 
   -9.3   -31.5 
   -8.3   -24.3 
   -4.7   -24.3 
   -4.2   -20.4 
   -3.0   -20.4 
   -2.0    -7.9 
   -1.1    -2.0 
    -.5     -.5 
    0.0     0.0 
     .5     -.5 
    1.1    -2.0 
    2.0    -7.9 
    3.0   -20.4 
    4.2   -20.4 
    4.7   -24.3 
    8.3   -24.3 
    9.3   -31.5 
   11.8   -31.5 
   12.3   -34.4 
   14.8   -34.4 
   16.0   -38.9 
   19.4   -38.9 
   20.2   -42.9 
   25.5   -42.9 
   26.5   -45.4 
   38.5   -45.5 
   40.1   -47.5 
   58.7   -47.6 
   66.5   -56.0 
  180.0   -56.0 
VH           23 
 -180.0   -60.1 
  -63.9   -60.1 
  -51.9   -57.1 
  -22.2   -57.1 
  -19.9   -52.7 
  -12.2   -52.7 
  -10.4   -46.8 
   -6.5   -46.8 
   -4.8   -40.8 
   -3.1   -40.8 
   -2.4   -28.0 
    0.0   -28.0 
    2.4   -28.0 
    3.1   -40.8 
    4.8   -40.8 
    6.5   -46.8 
   10.4   -46.8 
   12.2   -52.7 
   19.9   -52.7 
   22.2   -57.1 
   51.9   -57.1 
   63.9   -60.1 
  180.0   -60.1 
ELHH         11 
   -5.0   -15.3 
   -4.3   -12.7 
   -2.3   -12.7 
   -1.4    -3.7 
    -.6     -.7 
    0.0     0.0 
     .6     -.7 
    1.4    -3.7 
    2.3   -12.7 
    4.3   -12.7 
    5.0   -15.3 
ELHV          7 
   -5.0   -39.9 
   -4.3   -39.9 
   -3.2   -28.0 
    0.0   -28.0 
    3.2   -28.0 
    4.3   -39.9 
    5.0   -39.9 
ELVV         15 
   -5.0   -16.6 
   -4.8   -16.6 
   -4.0   -11.2 
   -2.1   -11.2 
   -1.4    -4.9 
    -.9    -1.5 
    -.5     -.4 
    0.0     0.0 
     .5     -.4 
     .9    -1.5 
    1.4    -4.9 
    2.1   -11.2 
    4.0   -11.2 
    4.8   -16.6 
    5.0   -16.6 
ELVH          9 
   -5.0   -44.0 
   -4.4   -40.7 
   -2.3   -40.7 
   -1.6   -28.0 
    0.0   -28.0 
    1.6   -28.0 
    2.3   -40.7 
    4.4   -40.7 
    5.0   -44.0 
