Nokia T53015.18

HH

0,0
0.5,2
0.6,3
1,7
1.5,17
3,17
5,30
10,37
20,45
40,46.5
60,50
70,54
95,72
180,72


VV

0,0
0.5,2
0.6,3
1,9
1.5,20
3.5,20
5,30
20,43.5
30,43.5
50,45.5
60,47.5
95,72
180,72


HV

0,30
1.5,30
5,50
20,62
40,62
90,75
180,75


VH

0,30
1.5,30
5,50
20,60
90,75
180,75

