Nokia T53015.06

HH

0, 0
0.5, 0.2
1, 1.4
1.5, 3.4
2, 6
2.5, 10.2
3, 16
3.4, 20
4.8, 20
5, 20.3
5.8, 22
9, 28
12.5, 33
15, 33
17, 33
20, 38
40, 38
50, 44
65, 50
70, 50
75, 52
95, 65
180, 65


VV


0, 0
0.5, 0.2
1, 1.6
1.5, 4
2, 7.5
2.5, 12
2.9, 17
4.3, 17
5, 19.5
5, 20.3
5.5, 20.3
6.7, 26
10, 28.5
15, 31
25, 36
28, 36
35, 40
50, 40
56, 42
65, 48
68, 48
76, 53
90, 65
180, 65


HV

0, 30
3, 30
5, 42
8, 52
15, 54
20, 54
40, 54
85, 70
180, 70


VH

0, 30
3, 30
5, 42
6, 46
9, 46
11, 52
15, 52
30, 52
40, 56
45, 56
75, 64
90, 69
180, 69
