Andrew Corp
UHX10-59J                     
                              
A74114          
A74115          
 8- 9-85         
1666             
5925-6425    MHZ   
43.20 dBi       
1.1 DEGREES     
HH      67
-180.0  -80.0
-171.0  -80.0
-169.0  -82.0
-100.8  -82.0
 -91.8  -78.5
 -80.7  -72.5
 -77.3  -70.0
 -71.2  -63.0
 -67.1  -59.0
 -64.6  -58.0
 -45.6  -58.0
 -40.8  -55.0
 -37.8  -55.0
 -30.3  -50.0
 -28.0  -49.0
 -22.4  -46.0
 -18.6  -45.0
 -15.0  -45.0
 -12.3  -45.0
 -11.2  -43.0
 -10.6  -41.0
  -9.4  -40.0
  -8.3  -37.5
  -7.7  -36.0
  -6.7  -36.0
  -5.8  -35.0
  -4.1  -33.5
  -3.1  -27.5
  -2.4  -24.0
  -1.5  -15.3
  -1.0   -8.2
  -0.5   -1.8
  -0.1    0.0
   0.0    0.0
   0.5   -2.1
   1.0   -8.0
   1.5  -24.9
   2.1  -26.8
   3.5  -29.1
   4.0  -30.0
   4.2  -35.7
   5.3  -36.4
   6.0  -38.0
   7.5  -38.0
   8.9  -42.5
   9.7  -42.5
  11.0  -47.0
  11.4  -47.0
  12.8  -52.0
  15.0  -52.0
  18.8  -52.0
  20.5  -54.0
  26.3  -58.5
  30.6  -59.0
  37.5  -59.0
  42.1  -60.0
  46.6  -62.0
  51.2  -64.0
  62.4  -64.0
  66.7  -68.0
  70.0  -73.0
  81.2  -73.0
  92.8  -83.0
 101.5  -84.0
 169.0  -84.0
 171.0  -80.0
 180.0  -80.0
HV      43
-180.0  -82.0
-171.0  -82.0
-169.0  -86.0
 -59.1  -86.0
 -51.2  -83.0
 -47.0  -81.0
 -44.2  -79.0
 -37.3  -77.0
 -30.6  -70.0
 -26.4  -69.5
 -21.5  -69.5
 -17.8  -62.0
 -15.0  -62.0
  -8.6  -62.0
  -7.0  -59.0
  -4.2  -59.0
  -3.2  -56.0
  -2.6  -54.5
  -2.0  -49.5
  -1.6  -34.0
   0.0  -34.0
   1.7  -34.0
   2.5  -52.5
   2.5  -55.6
   3.5  -63.6
   5.0  -64.5
   5.9  -68.1
  14.0  -68.1
  14.5  -73.0
  15.0  -73.0
  15.5  -73.0
  21.2  -77.0
  27.1  -77.0
  31.9  -79.0
  43.7  -79.0
  46.8  -81.0
  50.3  -82.0
  70.0  -82.0
  76.6  -85.0
  80.2  -87.0
 169.0  -87.0
 171.0  -82.0
 180.0  -82.0
VV      66
-180.0  -80.0
-171.0  -80.0
-169.0  -82.0
-100.9  -82.0
 -92.0  -81.0
 -80.1  -74.5
 -76.3  -68.0
 -71.7  -64.5
 -65.9  -61.0
 -52.2  -61.0
 -46.3  -60.0
 -41.8  -59.0
 -39.6  -59.0
 -31.8  -58.0
 -25.1  -50.0
 -20.1  -48.0
 -17.9  -45.0
 -15.0  -45.0
 -13.0  -45.0
 -11.1  -44.5
  -9.6  -38.0
  -8.8  -36.0
  -7.6  -36.0
  -6.5  -35.0
  -5.7  -35.0
  -4.0  -32.5
  -3.7  -30.5
  -2.8  -27.6
  -2.2  -26.5
  -1.6  -18.0
  -1.1   -9.3
  -0.6   -2.5
  -0.1    0.0
   0.0    0.0
   0.5   -1.5
   1.1   -7.8
   1.6  -21.0
   2.0  -30.5
   3.7  -31.5
   4.0  -34.0
   5.2  -37.0
   6.8  -39.0
   7.7  -39.0
   8.0  -40.0
   8.4  -43.0
   9.0  -43.0
  10.6  -48.0
  11.3  -49.0
  12.4  -52.0
  15.0  -52.0
  19.1  -52.0
  20.6  -53.5
  27.2  -59.0
  32.4  -59.0
  35.9  -61.0
  46.2  -61.0
  52.5  -66.0
  62.5  -66.0
  66.5  -70.0
  73.4  -74.0
  79.1  -75.0
  80.7  -75.0
  96.3  -82.0
 169.0  -82.0
 171.0  -80.0
 180.0  -80.0
VH      38
-180.0  -83.0
 -54.5  -83.0
 -46.0  -79.0
 -32.5  -79.0
 -27.4  -71.0
 -20.3  -70.0
 -17.1  -65.5
 -15.0  -65.5
 -11.4  -65.5
 -10.6  -63.0
  -6.6  -63.0
  -5.7  -59.0
  -4.7  -59.0
  -3.2  -56.5
  -2.5  -51.0
  -2.0  -49.5
  -1.5  -34.0
   0.0  -34.0
   1.0  -34.0
   1.5  -34.0
   2.3  -54.0
   3.7  -57.0
   3.9  -65.0
   4.1  -66.0
  12.7  -67.0
  13.3  -73.0
  15.0  -73.0
  15.6  -73.0
  24.4  -78.0
  46.3  -78.0
  55.0  -81.0
  57.7  -81.0
  62.9  -82.0
  73.5  -82.0
  76.9  -85.0
 169.0  -85.0
 171.0  -83.0
 180.0  -83.0
