Andrew Corp
UHX10-77GD                    
                              
NONE            
NONE            
 7-22-74         
2835             
7725-8275    MHZ   
45.20 dBi       
0.9 DEGREES     
HH      42
-180.0  -70.0
 -81.7  -70.2
 -69.5  -55.1
 -42.5  -54.0
 -30.3  -46.8
 -15.0  -44.0
 -10.1  -41.3
  -7.5  -36.0
  -3.6  -31.8
  -2.0  -26.7
  -1.6  -26.5
  -1.4  -22.3
  -1.2  -17.4
  -1.1  -15.1
  -0.9  -10.1
  -0.8   -7.9
  -0.7   -6.1
  -0.7   -4.9
  -0.6   -3.2
  -0.6   -1.9
  -0.3   -1.0
   0.0    0.0
   0.3   -0.9
   0.4   -2.0
   0.5   -2.9
   0.7   -5.1
   0.7   -7.6
   0.8   -9.8
   0.9  -15.1
   1.2  -26.5
   3.1  -26.5
   3.2  -31.3
   8.7  -48.0
  11.6  -48.0
  13.7  -51.1
  15.0  -51.1
  22.6  -51.3
  31.3  -54.3
  41.5  -51.9
  68.0  -57.2
  81.7  -69.8
 180.0  -70.2
HV      33
-180.0  -70.2
-137.7  -70.0
 -80.7  -70.2
 -76.1  -70.0
 -30.3  -57.8
 -15.0  -55.7
 -10.9  -55.1
  -9.5  -49.9
  -5.7  -49.0
  -2.3  -49.0
  -2.1  -40.1
  -1.7  -35.3
  -1.6  -32.0
  -1.6  -30.1
  -1.0  -30.1
  -0.6  -30.1
   0.0  -30.1
   0.6  -30.1
   1.0  -30.1
   1.5  -30.1
   1.5  -32.3
   1.8  -35.0
   2.0  -39.9
   2.0  -45.0
   2.3  -50.2
   3.1  -55.5
  10.1  -59.0
  11.7  -64.1
  15.0  -64.1
  31.3  -64.1
  79.2  -70.2
 152.0  -70.2
 180.0  -70.4
VV      49
-180.0  -71.0
-118.9  -71.0
 -81.7  -71.0
 -64.9  -57.2
 -51.2  -61.1
 -38.4  -54.3
 -29.8  -54.3
 -24.7  -49.6
 -15.5  -49.6
 -15.0  -48.8
  -5.9  -36.0
  -2.1  -25.4
  -1.5  -25.2
  -1.3  -22.2
  -1.3  -20.1
  -1.2  -15.1
  -1.0  -12.2
  -0.9  -10.0
  -0.9   -7.8
  -0.7   -5.9
  -0.7   -4.7
  -0.6   -2.9
  -0.6   -1.9
  -0.3   -0.9
   0.0    0.0
   0.3   -1.0
   0.5   -1.9
   0.5   -2.9
   0.7   -4.9
   0.8   -6.8
   0.9  -10.0
   0.9  -12.9
   1.0  -15.1
   1.2  -20.0
   1.3  -25.4
   2.0  -25.4
   6.0  -39.2
   8.8  -42.1
  11.2  -49.2
  15.0  -49.4
  15.5  -49.4
  26.2  -48.0
  30.8  -54.6
  46.1  -54.6
  72.6  -63.1
  78.7  -70.0
  84.8  -71.0
 161.7  -71.2
 180.0  -71.2
VH      35
-180.0  -71.0
-112.3  -71.0
 -72.6  -71.0
 -63.4  -66.0
 -30.3  -62.9
 -30.3  -61.1
 -15.0  -60.9
 -14.9  -60.9
 -11.9  -52.6
 -10.1  -51.9
  -9.4  -53.3
  -4.9  -51.3
  -1.9  -45.7
  -1.7  -39.4
  -1.5  -34.5
  -1.5  -30.1
  -0.8  -30.1
   0.0  -30.1
   0.6  -30.1
   1.0  -30.1
   1.6  -30.1
   1.6  -33.7
   1.6  -35.0
   1.6  -38.7
   1.7  -41.8
   2.0  -44.8
   2.0  -45.7
   4.2  -52.1
   9.6  -54.5
  14.1  -64.8
  15.0  -65.0
  30.8  -68.2
  70.0  -69.2
  85.3  -71.0
 180.0  -71.2
