Andrew Corp
UHX12-37H                     
                              
A54660          
A54661          
 9- 4-82         
1437             
3700-4200    MHZ   
41.00 dBi       
1.5 DEGREES     
HH      62
-180.0  -73.0
-171.0  -73.0
-169.0  -77.0
-150.0  -77.0
-140.0  -74.0
-110.0  -74.0
 -90.0  -70.0
 -81.0  -62.6
 -77.8  -59.9
 -70.9  -54.4
 -66.6  -50.4
 -36.8  -50.4
 -33.0  -49.4
 -26.0  -47.0
 -19.0  -46.0
 -15.0  -39.4
 -14.3  -38.3
 -12.6  -38.3
 -11.5  -34.4
 -10.4  -34.4
  -9.1  -32.6
  -8.1  -32.4
  -7.1  -31.9
  -6.9  -31.9
  -5.4  -30.4
  -4.6  -28.4
  -3.0  -24.1
  -2.4  -22.5
  -1.6  -12.6
  -1.1   -5.7
  -0.6   -1.8
  -0.3   -0.5
   0.0    0.0
   0.3   -0.5
   0.6   -1.6
   1.0   -5.0
   1.6  -12.6
   2.5  -19.0
   3.3  -27.0
   5.0  -27.0
   6.3  -32.7
   7.7  -32.7
   9.0  -38.0
  10.2  -38.1
  11.4  -43.4
  12.8  -43.4
  13.7  -43.9
  15.0  -45.5
  18.0  -46.0
  26.0  -54.0
  32.3  -55.1
  37.2  -56.2
  40.0  -56.8
  60.0  -56.8
  82.0  -61.5
  92.0  -72.0
 100.0  -76.0
 136.0  -76.0
 145.0  -79.0
 169.0  -79.0
 171.0  -73.0
 180.0  -73.0
HV      46
-180.0  -75.0
-171.0  -75.0
-169.0  -81.0
-160.0  -84.0
-100.0  -84.0
 -90.0  -80.0
 -80.0  -74.0
 -66.0  -74.0
 -64.3  -70.3
 -44.2  -70.3
 -37.3  -67.3
 -31.8  -67.1
 -25.5  -67.1
 -22.0  -66.5
 -19.0  -61.0
 -15.0  -61.0
 -10.0  -61.0
  -8.3  -53.5
  -6.7  -44.0
  -2.7  -44.0
  -2.0  -33.0
   0.0  -33.0
   2.0  -33.0
   3.0  -46.0
   4.0  -53.0
   5.4  -55.7
   6.4  -58.7
   6.8  -60.5
   8.0  -60.5
   8.5  -64.2
  15.0  -64.2
  19.1  -64.2
  21.6  -66.3
  27.6  -69.7
  36.9  -69.7
  43.5  -71.3
  62.8  -71.3
  68.3  -73.7
  73.0  -73.7
  77.0  -77.7
  82.5  -77.7
  86.0  -80.0
  90.0  -84.0
 169.0  -84.0
 171.0  -75.0
 180.0  -73.0
VV      66
-171.0  -73.0
-169.0  -77.0
-150.0  -77.0
-140.0  -80.0
-110.0  -80.0
-100.0  -78.0
 -90.0  -73.5
 -82.0  -67.8
 -78.7  -66.5
 -73.5  -61.7
 -66.8  -58.1
 -64.1  -56.6
 -41.1  -56.6
 -38.0  -54.0
 -30.0  -50.0
 -26.0  -46.0
 -23.6  -46.0
 -15.8  -40.1
 -15.0  -40.1
 -11.9  -40.1
  -9.0  -34.3
  -8.4  -33.9
  -7.4  -33.7
  -6.0  -33.7
  -5.2  -32.3
  -4.5  -30.7
  -3.3  -28.8
  -2.1  -18.6
  -1.5  -10.7
  -1.0   -5.6
  -0.6   -1.5
  -0.3   -0.5
   0.0    0.0
   0.3   -0.5
   0.6   -1.6
   1.1   -5.3
   1.7  -12.6
   2.6  -23.2
   3.7  -29.6
   4.4  -29.6
   5.2  -30.7
   6.8  -34.1
   7.9  -34.4
   8.5  -38.5
   9.4  -39.2
  10.2  -40.3
  11.4  -44.2
  12.9  -44.2
  13.3  -45.7
  14.4  -46.5
  15.0  -46.5
  15.9  -46.5
  20.6  -48.5
  26.4  -50.8
  33.3  -53.4
  36.7  -57.0
  44.8  -59.0
  45.2  -60.0
  68.6  -60.0
  72.9  -61.7
  80.0  -61.7
  92.0  -80.0
 169.0  -80.0
 171.0  -73.0
 180.0  -73.0
 180.0  -75.0
VH      49
-180.0  -75.0
-171.0  -75.0
-169.0  -81.0
-100.0  -81.0
 -90.0  -80.0
 -73.0  -71.7
 -68.9  -70.9
 -60.2  -68.9
 -53.8  -68.9
 -50.0  -66.6
 -23.8  -66.6
 -15.4  -60.3
 -15.0  -59.9
 -13.5  -58.5
 -13.0  -58.5
 -11.3  -57.0
  -9.9  -57.0
  -8.2  -55.2
  -7.1  -55.2
  -6.3  -51.4
  -4.3  -51.4
  -3.3  -44.7
  -2.4  -40.0
  -2.0  -33.0
   0.0  -33.0
   2.0  -33.0
   2.7  -45.5
   3.7  -48.0
   4.0  -51.7
   5.7  -55.8
   6.8  -56.3
   7.4  -58.9
   8.5  -61.9
  12.8  -61.9
  13.2  -64.8
  15.0  -64.8
  15.2  -64.8
  20.9  -66.3
  46.5  -66.3
  52.5  -70.2
  66.7  -70.2
  70.4  -73.6
  76.0  -73.6
  81.4  -75.6
  90.0  -80.0
 100.0  -81.0
 169.0  -81.0
 171.0  -75.0
 180.0  -75.0
