REVNUM:,NSMA WG16.99.050
REVDAT:,19990520
ANTMAN:,ERICSSON
MODNUM:,UKY 210 51/SC15
PATNUM:,21051sc15a
FEDORN:,NA
DESCR1:,
DESCR2:,
DESCR3:,
DESCR4:,
DESCR5:,
DTDATA:,20060313
LOWFRQ:,12750
HGHFRQ:,13250
GUNITS:,DBI/DBR
LWGAIN:,45.1
MDGAIN:,45.3
HGGAIN:,45.6
AZWIDT:,0.91
ELWIDT:,0.91
ATVSWR:,1.29
FRTOBA:,72
ELTILT:,0
PATTYP:,ENVELOPE
NOFREQ:,NA
PATFRE:,NA
NUMCUT:,4
PATCUT:,AZ
POLARI:,H/H
NUPOIN:,23
-180,-72.3,
-95,-72.3,
-70,-55.3,
-60,-49.3,
-50,-46.3,
-30,-45.3,
-15,-44.3,
-5,-35.3,
-2,-15,
-1,-13,
-0.5,-3,
0,0,
0.5,-3,
1,-13,
2,-15,
5,-35.3,
15,-44.3,
30,-45.3,
50,-46.3,
60,-49.3,
70,-55.3,
95,-72.3,
180,-72.3,
PATCUT:,AZ
POLARI:,H/V
NUPOIN:,15
-180,-72.3,
-95,-72.3,
-60,-67.3,
-25,-65.3,
-10,-63.3,
-5,-50.3,
-1,-32,
0,-32,
1,-32,
5,-50.3,
10,-63.3,
25,-65.3,
60,-67.3,
95,-72.3,
180,-72.3,
PATCUT:,AZ
POLARI:,V/V
NUPOIN:,23
-180,-72.3,
-95,-72.3,
-70,-55.3,
-60,-49.3,
-50,-46.3,
-30,-45.3,
-15,-44.3,
-5,-35.3,
-2,-15,
-1,-13,
-0.5,-3,
0,0,
0.5,-3,
1,-13,
2,-15,
5,-35.3,
15,-44.3,
30,-45.3,
50,-46.3,
60,-49.3,
70,-55.3,
95,-72.3,
180,-72.3,
PATCUT:,AZ
POLARI:,V/H
NUPOIN:,15
-180,-72.3,
-95,-72.3,
-60,-67.3,
-25,-65.3,
-10,-63.3,
-5,-50.3,
-1,-32,
0,-32,
1,-32,
5,-50.3,
10,-63.3,
25,-65.3,
60,-67.3,
95,-72.3,
180,-72.3,
ENDFIL:,EOF
