REVNUM:,NSMA WG16.99.050
REVDAT:,19990520
ANTMAN:,ERICSSON
MODNUM:,UKY 220 01/DC12
PATNUM:,22001dc12g
FEDORN:,NA
DESCR1:,ANT0 2.4 7/8 HPX
DESCR2:,R3x
DESCR3:,
DESCR4:,
DESCR5:,
DTDATA:,20090917
LOWFRQ:,7100
HGHFRQ:,8500
GUNITS:,DBI/DBR
LWGAIN:,42.9
MDGAIN:,43.8
HGGAIN:,44.1
AZWIDT:,1.2
ELWIDT:,1.2
ATVSWR:,1.29
FRTOBA:,70
ELTILT:,0
ANTWID:,2.4
PATTYP:,ENVELOPE
NOFREQ:,NA
PATFRE:,NA
NUMCUT:,4
PATCUT:,AZ
POLARI:,H/H
NUPOIN:,53
-180.00,-70.00,
-98.00,-70.00,
-97.50,-69.00,
-90.00,-65.00,
-86.50,-63.00,
-75.00,-55.50,
-67.50,-50.00,
-57.50,-48.00,
-45.00,-45.50,
-40.00,-44.00,
-30.00,-43.00,
-21.00,-39.00,
-15.00,-39.00,
-10.00,-36.00,
-6.00,-30.00,
-5.00,-30.00,
-4.50,-26.00,
-3.00,-20.00,
-2.80,-18.00,
-2.30,-14.00,
-2.00,-11.50,
-1.20,-11.50,
-0.90,-5.90,
-0.75,-4.00,
-0.60,-2.00,
-0.30,0.00,
0.00,0.00,
0.30,0.00,
0.60,-2.00,
0.75,-4.00,
0.90,-5.90,
1.20,-11.50,
2.00,-11.50,
2.30,-14.00,
2.80,-18.00,
3.00,-20.00,
4.50,-26.00,
5.00,-30.00,
6.00,-30.00,
10.00,-36.00,
15.00,-39.00,
21.00,-39.00,
30.00,-43.00,
40.00,-44.00,
45.00,-45.50,
57.50,-48.00,
67.50,-50.00,
75.00,-55.50,
86.50,-63.00,
90.00,-65.00,
97.50,-69.00,
98.00,-70.00,
180.00,-70.00,
PATCUT:,AZ
POLARI:,H/V
NUPOIN:,21
-180.00,-70.00,
-95.00,-70.00,
-90.00,-68.00,
-45.00,-55.00,
-30.00,-51.50,
-23.00,-50.00,
-13.00,-50.00,
-8.00,-47.00,
-5.00,-40.00,
-2.00,-30.00,
0.00,-30.00,
2.00,-30.00,
5.00,-40.00,
8.00,-47.00,
13.00,-50.00,
23.00,-50.00,
30.00,-51.50,
45.00,-55.00,
90.00,-68.00,
95.00,-70.00,
180.00,-70.00,
PATCUT:,AZ
POLARI:,V/V
NUPOIN:,53
-180.00,-70.00,
-98.00,-70.00,
-97.50,-69.00,
-90.00,-65.00,
-86.50,-63.00,
-75.00,-55.50,
-72.00,-52.00,
-67.50,-50.00,
-57.50,-46.50,
-45.00,-45.50,
-40.00,-44.00,
-30.00,-43.00,
-6.00,-30.00,
-5.00,-30.00,
-4.50,-26.00,
-4.00,-22.00,
-3.50,-20.00,
-3.00,-20.00,
-2.80,-18.00,
-2.30,-14.00,
-2.00,-11.50,
-1.10,-10.00,
-0.90,-5.90,
-0.75,-4.00,
-0.60,-2.00,
-0.30,0.00,
0.00,0.00,
0.30,0.00,
0.60,-2.00,
0.75,-4.00,
0.90,-5.90,
1.10,-10.00,
2.00,-11.50,
2.30,-14.00,
2.80,-18.00,
3.00,-20.00,
3.50,-20.00,
4.00,-22.00,
4.50,-26.00,
5.00,-30.00,
6.00,-30.00,
30.00,-43.00,
40.00,-44.00,
45.00,-45.50,
57.50,-46.50,
67.50,-50.00,
72.00,-52.00,
75.00,-55.50,
86.50,-63.00,
90.00,-65.00,
97.50,-69.00,
98.00,-70.00,
180.00,-70.00,
PATCUT:,AZ
POLARI:,V/H
NUPOIN:,27
-180.00,-70.00,
-95.00,-70.00,
-90.00,-68.00,
-75.00,-62.00,
-68.00,-59.00,
-60.00,-57.00,
-45.00,-55.00,
-30.00,-51.50,
-23.00,-50.00,
-13.00,-50.00,
-8.00,-47.00,
-5.00,-40.00,
-2.00,-30.00,
0.00,-30.00,
2.00,-30.00,
5.00,-40.00,
8.00,-47.00,
13.00,-50.00,
23.00,-50.00,
30.00,-51.50,
45.00,-55.00,
60.00,-57.00,
68.00,-59.00,
75.00,-62.00,
90.00,-68.00,
95.00,-70.00,
180.00,-70.00,
ENDFIL:,EOF
