REVNUM:,NSMA WG16.99.050
REVDAT:,19990520
ANTMAN:,ERICSSON
MODNUM:,UKY 220 40/SC15
PATNUM:,22040sc15a
FEDORN:,NA
DESCR1:,ANT2 0.6 7/8 HP
DESCR2:,R1x
DESCR3:,
DESCR4:,
DESCR5:,
DTDATA:,20091120
LOWFRQ:,7100
HGHFRQ:,8500
GUNITS:,DBI/DBR
LWGAIN:,29.6
MDGAIN:,31.1
HGGAIN:,32.2
AZWIDT:,4.7
ELWIDT:,4.7
ATVSWR:,1.5
FRTOBA:,57
ELTILT:,0
ANTWID:,0.6
PATTYP:,ENVELOPE
NOFREQ:,NA
PATFRE:,NA
NUMCUT:,4
PATCUT:,AZ
POLARI:,H/H
NUPOIN:,57
-180.00,-57.00,
-90.00,-57.00,
-82.00,-52.00,
-75.00,-52.00,
-68.00,-48.00,
-60.00,-42.00,
-57.50,-42.00,
-52.50,-40.00,
-45.00,-37.00,
-35.00,-32.00,
-30.00,-30.00,
-25.50,-29.00,
-22.50,-27.00,
-16.50,-22.00,
-13.00,-22.00,
-10.00,-18.00,
-5.80,-18.00,
-5.50,-16.00,
-5.00,-12.30,
-4.50,-9.80,
-4.00,-7.30,
-3.50,-5.60,
-3.00,-4.10,
-2.50,-2.70,
-2.00,-1.60,
-1.50,-1.00,
-1.00,-0.40,
-0.50,0.00,
0.00,0.00,
0.50,0.00,
1.00,-0.40,
1.50,-1.00,
2.00,-1.60,
2.50,-2.70,
3.00,-4.10,
3.50,-5.60,
4.00,-7.30,
4.50,-9.80,
5.00,-12.30,
5.50,-16.00,
5.80,-18.00,
10.00,-18.00,
13.00,-22.00,
16.50,-22.00,
22.50,-27.00,
25.50,-29.00,
30.00,-30.00,
35.00,-32.00,
45.00,-37.00,
52.50,-40.00,
57.50,-42.00,
60.00,-42.00,
68.00,-48.00,
75.00,-52.00,
82.00,-52.00,
90.00,-57.00,
180.00,-57.00,
PATCUT:,AZ
POLARI:,H/V
NUPOIN:,23
-180.00,-59.00,
-50.00,-59.00,
-42.50,-54.00,
-37.50,-54.00,
-30.00,-52.00,
-17.50,-52.00,
-15.00,-48.00,
-10.00,-44.00,
-5.50,-44.00,
-4.50,-40.00,
-3.00,-32.00,
0.00,-32.00,
3.00,-32.00,
4.50,-40.00,
5.50,-44.00,
10.00,-44.00,
15.00,-48.00,
17.50,-52.00,
30.00,-52.00,
37.50,-54.00,
42.50,-54.00,
50.00,-59.00,
180.00,-59.00,
PATCUT:,AZ
POLARI:,V/V
NUPOIN:,57
-180.00,-57.00,
-100.00,-57.00,
-82.50,-54.00,
-75.00,-50.00,
-67.75,-48.00,
-60.00,-44.00,
-52.50,-40.00,
-47.50,-36.00,
-42.50,-32.00,
-37.50,-30.00,
-22.50,-30.00,
-19.50,-28.00,
-15.00,-21.00,
-12.00,-20.00,
-10.50,-18.00,
-8.50,-16.00,
-6.10,-16.00,
-5.50,-13.90,
-5.00,-11.31,
-4.50,-9.26,
-4.00,-7.20,
-3.50,-5.41,
-3.00,-3.90,
-2.50,-2.76,
-2.00,-1.62,
-1.50,-0.87,
-1.00,-0.32,
-0.50,-0.11,
0.00,0.00,
0.50,-0.11,
1.00,-0.32,
1.50,-0.87,
2.00,-1.62,
2.50,-2.76,
3.00,-3.90,
3.50,-5.41,
4.00,-7.20,
4.50,-9.26,
5.00,-11.31,
5.50,-13.90,
6.10,-16.00,
8.50,-16.00,
10.50,-18.00,
12.00,-20.00,
15.00,-21.00,
19.50,-28.00,
22.50,-30.00,
37.50,-30.00,
42.50,-32.00,
47.50,-36.00,
52.50,-40.00,
60.00,-44.00,
67.75,-48.00,
75.00,-50.00,
82.50,-54.00,
100.00,-57.00,
180.00,-57.00,
PATCUT:,AZ
POLARI:,V/H
NUPOIN:,23
-180.00,-60.00,
-45.00,-60.00,
-37.50,-56.00,
-32.50,-54.00,
-27.50,-48.00,
-15.00,-48.00,
-10.00,-44.00,
-6.50,-42.00,
-5.00,-40.00,
-4.00,-38.00,
-3.00,-32.00,
0.00,-32.00,
3.00,-32.00,
4.00,-38.00,
5.00,-40.00,
6.50,-42.00,
10.00,-44.00,
15.00,-48.00,
27.50,-48.00,
32.50,-54.00,
37.50,-56.00,
45.00,-60.00,
180.00,-60.00,
ENDFIL:,EOF
