REVNUM:,NSMA WG16.99.050
REVDAT:,19990520
ANTMAN:,ERICSSON
MODNUM:,UKY 220 12/DC12
PATNUM:,22012dc12b
FEDORN:,NA
DESCR1:,
DESCR2:,
DESCR3:,
DESCR4:,
DESCR5:,
DTDATA:,20060307
LOWFRQ:,5925
HGHFRQ:,7110
GUNITS:,DBI/DBR
LWGAIN:,38.5
MDGAIN:,39.3
HGGAIN:,40.0
AZWIDT:,1.7
ELWIDT:,1.7
ATVSWR:,1.5
FRTOBA:,65
ELTILT:,0
PATTYP:,ENVELOPE
NOFREQ:,NA
PATFRE:,NA
NUMCUT:,4
PATCUT:,AZ
POLARI:,H/H
NUPOIN:,27
-180,-65.8,
-100,-65.8,
-60,-43.3,
-30,-43.3,
-30,-36.8,
-20,-36.8,
-15,-34.3,
-5,-25.8,
-4,-16,
-3,-14,
-1.5,-14,
-1,-4,
-0.5,-0.8,
0,0,
0.5,-0.8,
1,-4,
1.5,-14,
3,-14,
4,-16,
5,-25.8,
15,-34.3,
20,-36.8,
30,-36.8,
30,-43.3,
60,-43.3,
100,-65.8,
180,-65.8,
PATCUT:,AZ
POLARI:,H/V
NUPOIN:,15
-180,-66.3,
-95,-66.3,
-60,-57.3,
-10,-44.3,
-5,-37.3,
-3,-34,
-1,-30,
0,-30,
1,-30,
3,-34,
5,-37.3,
10,-44.3,
60,-57.3,
95,-66.3,
180,-66.3,
PATCUT:,AZ
POLARI:,V/V
NUPOIN:,27
-180,-65.8,
-100,-65.8,
-60,-43.3,
-30,-43.3,
-30,-36.8,
-20,-36.8,
-15,-34.3,
-5,-25.8,
-4,-16,
-3,-14,
-1.5,-14,
-1,-4,
-0.5,-0.8,
0,0,
0.5,-0.8,
1,-4,
1.5,-14,
3,-14,
4,-16,
5,-25.8,
15,-34.3,
20,-36.8,
30,-36.8,
30,-43.3,
60,-43.3,
100,-65.8,
180,-65.8,
PATCUT:,AZ
POLARI:,V/H
NUPOIN:,15
-180,-66.3,
-95,-66.3,
-60,-57.3,
-10,-44.3,
-5,-37.3,
-3,-34,
-1,-30,
0,-30,
1,-30,
3,-34,
5,-37.3,
10,-44.3,
60,-57.3,
95,-66.3,
180,-66.3,
ENDFIL:,EOF
