REVNUM:,NSMA WG16.99.050
REVDAT:,19990520
ANTMAN:,ERICSSON
MODNUM:,UKY 220 42/SC15
PATNUM:,22042sc15a
FEDORN:,NA
DESCR1:,ANT2 0.6 13 HP
DESCR2:,R1x
DESCR3:,
DESCR4:,
DESCR5:,
DTDATA:,20091120
LOWFRQ:,12750
HGHFRQ:,13250
GUNITS:,DBI/DBR
LWGAIN:,35.8
MDGAIN:,36.0
HGGAIN:,36.2
AZWIDT:,2.7
ELWIDT:,2.7
ATVSWR:,1.5
FRTOBA:,61
ELTILT:,0
ANTWID:,0.6
PATTYP:,ENVELOPE
NOFREQ:,NA
PATFRE:,NA
NUMCUT:,4
PATCUT:,AZ
POLARI:,H/H
NUPOIN:,33
-180.00,-61.00,
-100.00,-61.00,
-60.00,-42.00,
-30.00,-34.00,
-12.00,-34.00,
-6.00,-20.00,
-3.40,-20.00,
-3.00,-14.00,
-2.50,-8.90,
-2.25,-6.90,
-2.00,-5.30,
-1.50,-2.80,
-1.25,-2.03,
-1.00,-1.00,
-0.75,-0.60,
-0.50,-0.10,
0.00,0.00,
0.50,-0.10,
0.75,-0.60,
1.00,-1.00,
1.25,-2.03,
1.50,-2.80,
2.00,-5.30,
2.25,-6.90,
2.50,-8.90,
3.00,-14.00,
3.40,-20.00,
6.00,-20.00,
12.00,-34.00,
30.00,-34.00,
60.00,-42.00,
100.00,-61.00,
180.00,-61.00,
PATCUT:,AZ
POLARI:,H/V
NUPOIN:,17
-180.00,-63.00,
-80.00,-63.00,
-35.00,-53.00,
-19.00,-53.00,
-15.00,-50.00,
-11.00,-50.00,
-6.00,-42.00,
-2.50,-30.00,
0.00,-30.00,
2.50,-30.00,
6.00,-42.00,
11.00,-50.00,
15.00,-50.00,
19.00,-53.00,
35.00,-53.00,
80.00,-63.00,
180.00,-63.00,
PATCUT:,AZ
POLARI:,V/V
NUPOIN:,33
-180.00,-61.00,
-90.00,-61.00,
-68.00,-46.00,
-55.00,-38.00,
-32.00,-32.00,
-17.00,-32.00,
-15.00,-30.00,
-5.00,-18.00,
-3.40,-18.00,
-3.00,-13.80,
-2.50,-8.80,
-2.00,-5.20,
-1.50,-2.90,
-1.00,-1.10,
-0.75,-0.60,
-0.50,-0.20,
0.00,0.00,
0.50,-0.20,
0.75,-0.60,
1.00,-1.10,
1.50,-2.90,
2.00,-5.20,
2.50,-8.80,
3.00,-13.80,
3.40,-18.00,
5.00,-18.00,
15.00,-30.00,
17.00,-32.00,
32.00,-32.00,
55.00,-38.00,
68.00,-46.00,
90.00,-61.00,
180.00,-61.00,
PATCUT:,AZ
POLARI:,V/H
NUPOIN:,17
-180.00,-63.00,
-80.00,-63.00,
-35.00,-53.00,
-19.00,-53.00,
-15.00,-50.00,
-11.00,-50.00,
-6.00,-42.00,
-2.50,-30.00,
0.00,-30.00,
2.50,-30.00,
6.00,-42.00,
11.00,-50.00,
15.00,-50.00,
19.00,-53.00,
35.00,-53.00,
80.00,-63.00,
180.00,-63.00,
ENDFIL:,EOF
