REVNUM:,NSMA WG16.99.050
REVDAT:,19990520
ANTMAN:,ERICSSON
MODNUM:,UKY 220 49/SC15
PATNUM:,22049sc15a
FEDORN:,NA
DESCR1:,ANT2 0.6 38 HP
DESCR2:,R1x
DESCR3:,
DESCR4:,
DESCR5:,
DTDATA:,20091120
LOWFRQ:,37000
HGHFRQ:,40000
GUNITS:,DBI/DBR
LWGAIN:,44.6
MDGAIN:,45.2
HGGAIN:,45.8
AZWIDT:,0.9
ELWIDT:,0.9
ATVSWR:,1.5
FRTOBA:,64
ELTILT:,0
ANTWID:,0.6
PATTYP:,ENVELOPE
NOFREQ:,NA
PATFRE:,NA
NUMCUT:,4
PATCUT:,AZ
POLARI:,H/H
NUPOIN:,33
-180.00,-64.00,
-90.00,-64.00,
-67.50,-49.50,
-50.00,-46.80,
-18.00,-46.00,
-15.00,-44.00,
-6.00,-28.00,
-4.50,-28.00,
-3.50,-20.00,
-2.50,-20.00,
-1.80,-13.00,
-0.90,-13.00,
-0.80,-10.00,
-0.60,-4.50,
-0.40,-1.60,
-0.20,-0.30,
0.00,0.00,
0.20,-0.30,
0.40,-1.60,
0.60,-4.50,
0.80,-10.00,
0.90,-13.00,
1.80,-13.00,
2.50,-20.00,
3.50,-20.00,
4.50,-28.00,
6.00,-28.00,
15.00,-44.00,
18.00,-46.00,
50.00,-46.80,
67.50,-49.50,
90.00,-64.00,
180.00,-64.00,
PATCUT:,AZ
POLARI:,H/V
NUPOIN:,17
-180.00,-64.00,
-75.00,-64.00,
-30.00,-60.00,
-20.00,-60.00,
-15.00,-56.00,
-12.00,-56.00,
-5.00,-48.00,
-2.00,-30.00,
0.00,-30.00,
2.00,-30.00,
5.00,-48.00,
12.00,-56.00,
15.00,-56.00,
20.00,-60.00,
30.00,-60.00,
75.00,-64.00,
180.00,-64.00,
PATCUT:,AZ
POLARI:,V/V
NUPOIN:,33
-180.00,-64.00,
-80.00,-64.00,
-65.00,-56.00,
-40.00,-53.00,
-15.00,-44.00,
-10.00,-40.00,
-7.00,-33.00,
-5.00,-30.00,
-4.00,-30.00,
-2.00,-14.00,
-1.10,-14.00,
-1.00,-11.00,
-0.80,-6.00,
-0.60,-3.00,
-0.40,-1.10,
-0.20,-0.30,
0.00,0.00,
0.20,-0.30,
0.40,-1.10,
0.60,-3.00,
0.80,-6.00,
1.00,-11.00,
1.10,-14.00,
2.00,-14.00,
4.00,-30.00,
5.00,-30.00,
7.00,-33.00,
10.00,-40.00,
15.00,-44.00,
40.00,-53.00,
65.00,-56.00,
80.00,-64.00,
180.00,-64.00,
PATCUT:,AZ
POLARI:,V/H
NUPOIN:,17
-180.00,-64.00,
-75.00,-64.00,
-30.00,-60.00,
-20.00,-60.00,
-15.00,-56.00,
-12.00,-56.00,
-5.00,-48.00,
-2.00,-30.00,
0.00,-30.00,
2.00,-30.00,
5.00,-48.00,
12.00,-56.00,
15.00,-56.00,
20.00,-60.00,
30.00,-60.00,
75.00,-64.00,
180.00,-64.00,
ENDFIL:,EOF
