RFS 
UXA 4 - 107 A (P) 
4 ; Parabolic antenna dual polarization 
NONE 
NONE 
19961210 
HTT 961207 
10700 - 11700 MHZ 
40.4 dBi 
1.5 Deg 
HH 66
-180.0  -70.00 
 -90.0  -70.00 
 -80.0  -58.00 
 -60.0  -48.00 
 -40.0  -45.00 
 -15.0  -30.00 
 -13.0  -30.00 
 -11.5  -26.00 
  -9.0  -26.00 
  -5.0  -21.00 
  -3.5  -17.00 
  -2.2  -16.60 
  -2.1  -15.20 
  -2.0  -13.70 
  -1.9  -12.40 
  -1.8  -11.10 
  -1.7   -9.90 
  -1.6   -8.80 
  -1.5   -7.70 
  -1.4   -6.70 
  -1.3   -5.80 
  -1.2   -4.90 
  -1.1   -4.20 
  -1.0   -3.40 
  -0.9   -2.80 
  -0.8   -2.20 
  -0.7   -1.70 
  -0.6   -1.20 
  -0.5   -0.90 
  -0.4   -0.50 
  -0.3   -0.30 
  -0.2   -0.10 
  -0.1    0.00 
   0.0    0.00 
   0.1    0.00 
   0.2   -0.10 
   0.3   -0.30 
   0.4   -0.50 
   0.5   -0.90 
   0.6   -1.20 
   0.7   -1.70 
   0.8   -2.20 
   0.9   -2.80 
   1.0   -3.40 
   1.1   -4.20 
   1.2   -4.90 
   1.3   -5.80 
   1.4   -6.70 
   1.5   -7.70 
   1.6   -8.80 
   1.7   -9.90 
   1.8  -11.10 
   1.9  -12.40 
   2.0  -13.70 
   2.1  -15.20 
   2.2  -16.60 
   3.5  -17.00 
   9.0  -30.00 
  15.0  -35.00 
  20.0  -38.00 
  30.0  -38.00 
  40.0  -45.00 
  60.0  -50.00 
  80.0  -58.00 
  90.0  -70.00 
 180.0  -70.00 
HV 22
-180.0  -70.00 
 -90.0  -70.00 
 -70.0  -60.00 
 -50.0  -54.00 
 -30.0  -54.00 
 -15.0  -50.00 
 -10.0  -46.00 
  -3.0  -46.00 
  -1.5  -40.00 
   0.0  -40.00 
   1.5  -40.00 
   3.0  -47.00 
   6.0  -47.00 
   7.5  -50.00 
  10.0  -50.00 
  11.5  -52.00 
  20.0  -52.00 
  35.0  -56.00 
  50.0  -56.00 
  70.0  -60.00 
  90.0  -70.00 
 180.0  -70.00 
VV 66
-180.0  -70.00 
 -90.0  -70.00 
 -80.0  -58.00 
 -60.0  -48.00 
 -40.0  -45.00 
 -15.0  -30.00 
 -13.0  -30.00 
 -11.5  -26.00 
  -9.0  -26.00 
  -5.0  -21.00 
  -3.5  -17.00 
  -2.2  -16.60 
  -2.1  -15.20 
  -2.0  -13.70 
  -1.9  -12.40 
  -1.8  -11.10 
  -1.7   -9.90 
  -1.6   -8.80 
  -1.5   -7.70 
  -1.4   -6.70 
  -1.3   -5.80 
  -1.2   -4.90 
  -1.1   -4.20 
  -1.0   -3.40 
  -0.9   -2.80 
  -0.8   -2.20 
  -0.7   -1.70 
  -0.6   -1.20 
  -0.5   -0.90 
  -0.4   -0.50 
  -0.3   -0.30 
  -0.2   -0.10 
  -0.1    0.00 
   0.0    0.00 
   0.1    0.00 
   0.2   -0.10 
   0.3   -0.30 
   0.4   -0.50 
   0.5   -0.90 
   0.6   -1.20 
   0.7   -1.70 
   0.8   -2.20 
   0.9   -2.80 
   1.0   -3.40 
   1.1   -4.20 
   1.2   -4.90 
   1.3   -5.80 
   1.4   -6.70 
   1.5   -7.70 
   1.6   -8.80 
   1.7   -9.90 
   1.8  -11.10 
   1.9  -12.40 
   2.0  -13.70 
   2.1  -15.20 
   2.2  -16.60 
   3.5  -17.00 
   9.0  -30.00 
  15.0  -35.00 
  20.0  -38.00 
  30.0  -38.00 
  40.0  -45.00 
  60.0  -50.00 
  80.0  -58.00 
  90.0  -70.00 
 180.0  -70.00 
VH 22
-180.0  -70.00 
 -90.0  -70.00 
 -70.0  -60.00 
 -50.0  -54.00 
 -30.0  -54.00 
 -15.0  -50.00 
 -10.0  -46.00 
  -3.0  -46.00 
  -1.5  -40.00 
   0.0  -40.00 
   1.5  -40.00 
   3.0  -47.00 
   6.0  -47.00 
   7.5  -50.00 
  10.0  -50.00 
  11.5  -52.00 
  20.0  -52.00 
  35.0  -56.00 
  50.0  -56.00 
  70.0  -60.00 
  90.0  -70.00 
 180.0  -70.00 
