ANDREW CORPORATION            
VHP4-220A                     
                              
83957A          
NONE            
 5-17-94         
3957             
21200-23600  MHZ   
46.10 dBi       
.8  DEGREES     
HH      67
-180.0  -75.0
 -85.0  -75.0
 -80.0  -72.3
 -75.0  -67.7
 -70.0  -62.4
 -65.0  -58.0
 -60.0  -54.9
 -55.0  -51.8
 -50.0  -49.8
 -45.0  -47.8
 -40.0  -47.4
 -35.0  -46.9
 -30.0  -44.3
 -25.0  -42.0
 -15.0  -41.6
 -10.7  -41.6
 -10.0  -37.9
  -9.0  -37.2
  -8.0  -36.6
  -7.0  -35.2
  -6.0  -33.3
  -5.0  -31.1
  -4.0  -26.7
  -3.0  -22.6
  -1.5  -22.6
  -1.2  -20.6
  -1.0  -18.0
  -0.8  -10.5
  -0.6   -5.4
  -0.4   -1.8
  -0.3   -0.8
  -0.2   -0.3
  -0.1   -0.1
   0.0    0.0
   0.1   -0.1
   0.2   -0.3
   0.3   -0.8
   0.4   -1.8
   0.6   -5.4
   0.8  -10.5
   1.0  -18.0
   1.2  -20.6
   1.5  -22.6
   3.0  -22.6
   4.0  -26.7
   5.0  -31.1
   6.0  -33.3
   7.0  -35.2
   8.0  -36.6
   9.0  -37.2
  10.0  -37.9
  10.7  -41.6
  15.0  -41.6
  25.0  -42.0
  30.0  -44.3
  35.0  -46.9
  40.0  -47.4
  45.0  -47.8
  50.0  -49.8
  55.0  -51.8
  60.0  -54.9
  65.0  -58.0
  70.0  -62.4
  75.0  -67.7
  80.0  -72.3
  85.0  -75.0
 180.0  -75.0
HV      31
-180.0  -81.0
 -75.0  -81.0
 -70.0  -77.1
 -60.0  -66.7
 -48.3  -66.7
 -40.0  -62.2
 -23.7  -62.2
 -20.0  -60.8
 -15.0  -59.3
 -14.0  -59.0
 -10.0  -51.1
  -5.0  -51.1
  -4.5  -47.4
  -2.0  -47.4
  -1.0  -32.0
   0.0  -32.0
   1.0  -32.0
   2.0  -47.4
   4.5  -47.4
   5.0  -51.1
  10.0  -51.1
  14.0  -59.0
  15.0  -59.3
  20.0  -60.8
  23.7  -62.2
  40.0  -62.2
  48.3  -66.7
  60.0  -66.7
  70.0  -77.1
  75.0  -81.0
 180.0  -81.0
VV      65
-180.0  -77.0
 -80.0  -77.0
 -75.0  -72.3
 -70.0  -67.6
 -65.0  -61.1
 -60.0  -58.3
 -55.0  -55.5
 -50.0  -51.5
 -45.0  -49.9
 -40.0  -48.2
 -35.0  -46.5
 -30.0  -46.1
 -25.0  -45.7
 -20.0  -44.7
 -15.0  -42.5
 -14.0  -42.4
 -13.0  -42.4
 -10.0  -37.0
  -9.0  -35.7
  -5.0  -35.7
  -3.0  -27.1
  -2.0  -27.1
  -1.5  -20.4
  -1.4  -19.6
  -1.2  -18.9
  -1.0  -18.0
  -0.8  -12.8
  -0.6   -5.2
  -0.4   -2.4
  -0.3   -0.7
  -0.2   -0.4
  -0.1   -0.2
   0.0    0.0
   0.1   -0.2
   0.2   -0.4
   0.3   -0.7
   0.4   -2.4
   0.6   -5.2
   0.8  -12.8
   1.0  -18.0
   1.2  -18.9
   1.4  -19.6
   1.5  -20.4
   2.0  -27.1
   3.0  -27.1
   5.0  -35.7
   9.0  -35.7
  10.0  -37.0
  13.0  -42.4
  14.0  -42.4
  15.0  -42.5
  20.0  -44.7
  25.0  -45.7
  30.0  -46.1
  35.0  -46.5
  40.0  -48.2
  45.0  -49.9
  50.0  -51.5
  55.0  -55.5
  60.0  -58.3
  65.0  -61.1
  70.0  -67.6
  75.0  -72.3
  80.0  -77.0
 180.0  -77.0
VH      27
-180.0  -81.0
 -75.0  -81.0
 -65.0  -67.6
 -30.0  -66.5
 -25.0  -66.2
 -20.0  -65.1
 -15.0  -65.1
 -11.8  -65.1
 -11.0  -62.3
 -10.0  -58.5
  -9.0  -52.9
  -3.4  -52.9
  -1.0  -32.0
   0.0  -32.0
   1.0  -32.0
   3.4  -52.9
   9.0  -52.9
  10.0  -58.5
  11.0  -62.3
  11.8  -65.1
  15.0  -65.1
  20.0  -65.1
  25.0  -66.2
  30.0  -66.5
  65.0  -67.6
  75.0  -81.0
 180.0  -81.0
