ANDREW CORPORATION            
VHP4-107                      
                              
73885A          
NONE            
10- 6-94         
3885             
10700-11700  MHZ   
40.50 dBi       
1.8 DEGREES     
HH      53
-180.0  -60.0
 -85.0  -60.0
 -80.0  -55.2
 -57.0  -44.0
 -40.0  -41.0
 -35.0  -38.5
 -15.0  -38.5
 -11.0  -38.5
  -5.0  -25.0
  -3.8  -25.0
  -3.0  -20.0
  -2.1  -20.0
  -1.8  -15.1
  -1.5   -9.1
  -1.2   -6.2
  -1.1   -5.1
  -1.0   -4.1
  -0.9   -3.3
  -0.8   -2.5
  -0.7   -2.0
  -0.6   -1.3
  -0.5   -0.9
  -0.4   -0.6
  -0.3   -0.3
  -0.2   -0.2
  -0.1   -0.1
   0.0    0.0
   0.1   -0.1
   0.2   -0.2
   0.3   -0.3
   0.4   -0.6
   0.5   -0.9
   0.6   -1.3
   0.7   -2.0
   0.8   -2.5
   0.9   -3.3
   1.0   -4.1
   1.1   -5.1
   1.2   -6.2
   1.5   -9.1
   1.8  -15.1
   2.1  -20.0
   3.0  -20.0
   3.8  -25.0
   5.0  -25.0
  11.0  -38.5
  15.0  -38.5
  35.0  -38.5
  40.0  -41.0
  57.0  -44.0
  80.0  -55.2
  85.0  -60.0
 180.0  -60.0
HV      15
-180.0  -66.0
 -80.0  -66.0
 -55.0  -54.9
 -20.0  -43.3
 -15.0  -43.3
  -2.0  -43.3
  -1.0  -32.0
   0.0  -32.0
   1.0  -32.0
   2.0  -43.3
  15.0  -43.3
  20.0  -43.3
  55.0  -54.9
  80.0  -66.0
 180.0  -66.0
VV      53
-180.0  -60.0
 -75.0  -60.0
 -42.0  -41.8
 -30.0  -41.8
 -15.0  -34.0
 -12.0  -26.5
  -6.5  -26.5
  -6.0  -24.4
  -3.7  -24.4
  -3.0  -21.2
  -2.1  -21.2
  -2.0  -18.9
  -1.8  -15.0
  -1.5   -9.1
  -1.2   -6.2
  -1.1   -5.1
  -1.0   -4.1
  -0.9   -3.3
  -0.8   -2.5
  -0.7   -2.0
  -0.6   -1.3
  -0.5   -0.9
  -0.4   -0.6
  -0.3   -0.3
  -0.2   -0.2
  -0.1   -0.1
   0.0    0.0
   0.1   -0.1
   0.2   -0.2
   0.3   -0.3
   0.4   -0.6
   0.5   -0.9
   0.6   -1.3
   0.7   -2.0
   0.8   -2.5
   0.9   -3.3
   1.0   -4.1
   1.1   -5.1
   1.2   -6.2
   1.5   -9.1
   1.8  -15.0
   2.0  -18.9
   2.1  -21.2
   3.0  -21.2
   3.7  -24.4
   6.0  -24.4
   6.5  -26.5
  12.0  -26.5
  15.0  -34.0
  30.0  -41.8
  42.0  -41.8
  75.0  -60.0
 180.0  -60.0
VH      23
-180.0  -66.0
-105.0  -66.0
 -80.0  -60.2
 -68.2  -60.2
 -50.0  -51.7
 -25.0  -51.7
 -15.0  -44.9
  -5.8  -44.9
  -3.5  -35.0
  -2.0  -35.0
  -1.0  -32.0
   0.0  -32.0
   1.0  -32.0
   2.0  -35.0
   3.5  -35.0
   5.8  -44.9
  15.0  -44.9
  25.0  -51.7
  50.0  -51.7
  68.2  -60.2
  80.0  -60.2
 105.0  -66.0
 180.0  -66.0
