ANDREW CORPORATION            
VHPX2.5-220                    
                              
83863A          
NONE            
11-28-95         
3863              
21200-23600  MHZ   
42.40 dBi       
1.1 DEGREES     
HH      61
-180.0  -68.0
-100.0  -68.0
 -55.0  -45.0
 -45.0  -42.0
 -30.0  -42.0
 -30.0  -41.0
 -25.0  -41.0
 -20.0  -39.0
 -15.0  -36.0
 -12.0  -34.0
 -10.0  -33.0
  -8.0  -30.5
  -4.5  -27.0
  -3.5  -24.0
  -2.5  -24.0
  -2.0  -16.8
  -1.4  -16.8
  -1.3  -15.0
  -1.2  -12.9
  -1.1  -10.8
  -1.0   -8.7
  -0.9   -6.7
  -0.8   -4.7
  -0.7   -3.3
  -0.6   -2.5
  -0.5   -1.6
  -0.4   -0.9
  -0.3   -0.5
  -0.2   -0.2
  -0.1    0.0
   0.0    0.0
   0.1    0.0
   0.2   -0.2
   0.3   -0.5
   0.4   -0.9
   0.5   -1.6
   0.6   -2.5
   0.7   -3.3
   0.8   -4.7
   0.9   -6.7
   1.0   -8.7
   1.1  -10.8
   1.2  -12.9
   1.3  -15.0
   1.4  -16.8
   2.0  -16.8
   2.5  -24.0
   3.5  -24.0
   4.5  -27.0
   8.0  -30.5
  10.0  -33.0
  12.0  -34.0
  15.0  -36.0
  20.0  -39.0
  25.0  -41.0
  30.0  -41.0
  30.0  -42.0
  45.0  -42.0
  55.0  -45.0
 100.0  -68.0
 180.0  -68.0
HV      23
-180.0  -73.0
 -90.0  -73.0
 -60.0  -62.0
 -40.0  -62.0
 -35.0  -58.0
 -20.0  -58.0
 -15.0  -53.0
 -11.0  -49.0
  -5.0  -49.0
  -3.0  -46.0
  -2.0  -32.0
   0.0  -32.0
   2.0  -32.0
   3.0  -46.0
   5.0  -49.0
  11.0  -49.0
  15.0  -53.0
  20.0  -58.0
  35.0  -58.0
  40.0  -62.0
  60.0  -62.0
  90.0  -73.0
 180.0  -73.0
VV      65
-180.0  -69.0
 -90.0  -69.0
 -70.0  -60.0
 -60.0  -54.0
 -45.0  -48.0
 -30.0  -42.0
 -30.0  -40.0
 -22.0  -40.0
 -20.0  -38.0
 -15.0  -38.0
 -11.0  -38.0
  -9.0  -31.0
  -6.0  -31.0
  -5.0  -30.0
  -4.0  -26.0
  -3.0  -26.0
  -2.0  -23.0
  -1.5  -23.0
  -1.4  -18.0
  -1.3  -14.5
  -1.2  -11.9
  -1.1   -9.4
  -1.0   -7.3
  -0.9   -5.7
  -0.8   -4.3
  -0.7   -3.1
  -0.6   -2.2
  -0.5   -1.4
  -0.4   -0.8
  -0.3   -0.4
  -0.2   -0.2
  -0.1    0.0
   0.0    0.0
   0.1    0.0
   0.2   -0.2
   0.3   -0.4
   0.4   -0.8
   0.5   -1.4
   0.6   -2.2
   0.7   -3.1
   0.8   -4.3
   0.9   -5.7
   1.0   -7.3
   1.1   -9.4
   1.2  -11.9
   1.3  -14.5
   1.4  -18.0
   1.5  -23.0
   2.0  -23.0
   3.0  -26.0
   4.0  -26.0
   5.0  -30.0
   6.0  -31.0
   9.0  -31.0
  11.0  -38.0
  15.0  -38.0
  20.0  -38.0
  22.0  -40.0
  30.0  -40.0
  30.0  -42.0
  45.0  -48.0
  60.0  -54.0
  70.0  -60.0
  90.0  -69.0
 180.0  -69.0
VH      19
-180.0  -73.0
 -90.0  -73.0
 -58.0  -60.0
 -30.0  -60.0
 -25.0  -55.0
 -15.0  -55.0
 -10.1  -50.0
  -4.0  -50.0
  -2.0  -32.0
   0.0  -32.0
   2.0  -32.0
   4.0  -50.0
  10.1  -50.0
  15.0  -55.0
  25.0  -55.0
  30.0  -60.0
  58.0  -60.0
  90.0  -73.0
 180.0  -73.0