HATC
A11S12HAC

NONE
NONE
17-12-08
NONE
10700-11700 MHz
40.4 dBi
1.5 DEGREES
HH         65
-180	-67
-98	-67
-90	-61
-76.7	-53
-75	-51.4
-69.7	-48.4
-65	-45.1
-59.7	-45.1
-55	-43
-43	-43
-30	-43
-29.5	-42
-20	-40.5
-19.5	-40
-11.3	-34.4
-11	-33.8
-9.7	-33.8
-9	-28.9
-8	-28.2
-6.6	-28.2
-6	-25
-5	-25
-4.9	-23.6
-3.5	-23.6
-3	-18
-2	-18
-1.8	-14.7
-1.5	-8.8
-1.2	-5.3
-0.9	-2.9
-0.6	-1.4
-0.3	-0.5
0	0
0.3	-0.5
0.6	-1.4
0.9	-2.9
1.2	-5.3
1.5	-8.8
1.8	-14.7
2	-18
3	-18
3.5	-23.6
4.9	-23.6
5	-25
6	-25
6.6	-28.2
8	-28.2
9	-28.9
9.7	-33.8
11	-33.8
11.3	-34.4
19.5	-40
20	-40.5
29.5	-42
30	-43
43	-43
55	-43
59.7	-45.1
65	-45.1
69.7	-48.4
75	-51.4
76.7	-53
90	-61
98	-67
180	-67
HV          39
-180	-71
-75	-71
-60	-64.5
-46.6	-63
-45	-63
-40	-62.4
-35	-61.3
-30	-60.3
-25	-59.1
-10	-54.1
-9	-52
-7.8	-52
-7	-50.9
-6	-48.3
-4.1	-48.3
-4	-44.9
-1.8	-44.9
-1.5	-43.3
-1	-30
0	-30
1	-30
1.5	-43.3
1.8	-44.9
4	-44.9
4.1	-48.3
6	-48.3
7	-50.9
7.8	-52
9	-52
10	-54.1
25	-59.1
30	-60.3
35	-61.3
40	-62.4
45	-63
46.6	-63
60	-64.5
75	-71
180	-71
VV          65
-180	-67
-94	-67
-75	-59.1
-68.5	-55.1
-65	-50.1
-60	-46.1
-55	-44.1
-50	-42.5
-45	-42.5
-40.3	-42
-30	-42
-29.7	-39.5
-20	-39
-19.7	-38.5
-15	-38.5
-14.7	-36.7
-13	-35.6
-9.7	-29.6
-9	-26.1
-8	-25.9
-6.2	-25.9
-6	-25.4
-3.2	-25.4
-2.7	-21
-2.2	-21
-2.1	-19.2
-1.8	-16.5
-1.5	-8.7
-1.2	-5.3
-0.9	-2.9
-0.6	-1.4
-0.3	-0.5
0	0
0.3	-0.5
0.6	-1.4
0.9	-2.9
1.2	-5.3
1.5	-8.7
1.8	-16.5
2.1	-19.2
2.2	-21
2.7	-21
3.2	-25.4
6	-25.4
6.2	-25.9
8	-25.9
9	-26.1
9.7	-29.6
13	-35.6
14.7	-36.7
15	-38.5
19.7	-38.5
20	-39
29.7	-39.5
30	-42
40.3	-42
45	-42.5
50	-42.5
55	-46.1
60	-50.1
65	-54.1
68.5	-55.1
75	-59.1
94	-67
180	-67
VH          33
-180	-70
-90	-70
-65	-62
-41.4	-62
-40	-59.5
-32.4	-59.5
-30	-58.5
-24.3	-58.5
-20	-55.6
-15	-53.5
-10	-53.5
-4	-46.2
-3	-45.2
-1.9	-45.2
-1.5	-39.5
-1	-30.1
0	-30
1	-30.1
1.5	-39.5
1.9	-45.2
3	-45.2
4	-46.2
10	-53.5
15	-53.5
20	-55.6
24.3	-58.5
30	-58.5
32.4	-59.5
40	-59.5
41.4	-62
65	-62
90	-70
180	-70


